<?xml version="1.0" encoding="UTF-8" standalone="no"?>
<svg xmlns:xlink="http://www.w3.org/1999/xlink" height="24.3px" width="47.65px" xmlns="http://www.w3.org/2000/svg">
  <g transform="matrix(1.0, 0.0, 0.0, 1.0, 22.1, 23.0)">
    <path d="M-12.0 -14.9 L-12.4 -15.55 -12.15 -15.2 -12.05 -15.05 -12.0 -14.9" fill="#cc99cc" fill-rule="evenodd" stroke="none"/>
    <path d="M15.05 -17.55 Q15.25 -17.8 15.6 -17.8 L24.45 -19.05 25.15 -18.85 25.55 -18.25 25.4 -17.5 20.65 -10.1 21.9 -5.65 21.9 -5.15 21.3 -2.45 21.1 -2.05 20.8 -1.8 17.1 0.3 16.35 0.4 15.75 -0.05 11.0 -8.5 Q10.6 -6.65 9.65 -4.5 L9.6 -4.45 Q8.9 -2.95 7.85 -1.8 L7.75 -1.7 5.75 -0.05 5.6 0.05 3.15 0.95 3.2 0.9 1.55 1.3 1.35 1.3 -2.0 1.1 -2.2 1.1 -5.0 -0.15 -7.2 -1.95 -7.15 -1.95 -7.2 -2.0 -7.25 -2.05 -8.1 -3.0 -8.15 -3.15 -9.3 -4.8 -9.35 -4.8 -10.3 -6.85 -15.45 -1.9 Q-15.65 -1.7 -15.95 -1.65 L-16.55 -1.75 -21.5 -4.05 -21.95 -4.45 -22.1 -5.05 -20.6 -22.1 -20.25 -22.7 -19.6 -23.0 -18.95 -22.75 -12.55 -17.45 -12.5 -17.35 -9.35 -14.0 -7.95 -15.9 -5.95 -17.8 -5.8 -17.9 -2.45 -19.65 -2.25 -19.75 1.45 -20.25 1.6 -20.25 3.8 -19.8 3.9 -19.8 Q5.45 -19.3 6.7 -18.6 L6.8 -18.55 8.35 -17.45 8.5 -17.3 9.9 -15.7 9.95 -15.65 10.35 -14.95 10.4 -14.9 10.85 -13.8 15.05 -17.55" fill="#000000" fill-rule="evenodd" stroke="none"/>
    <path d="M-4.5 -1.05 L-6.5 -2.7 -6.55 -2.75 -4.85 -1.6 -4.45 -1.2 -4.5 -1.05 M-4.15 -2.75 L-4.15 -2.55 -4.2 -2.75 -4.15 -2.75" fill="#cc99cc" fill-rule="evenodd" stroke="none"/>
    <path d="M1.35 -19.3 L3.55 -18.9 2.6 -16.55 Q0.55 -11.0 0.25 -4.8 L-2.3 -4.65 -2.2 -6.35 Q-1.7 -13.55 1.35 -19.3 M6.15 -17.8 L7.7 -16.7 7.75 -15.3 6.15 -8.15 6.0 -7.85 3.95 -6.15 3.65 -6.0 3.8 -8.6 Q4.1 -13.55 6.15 -17.8 M-5.4 -17.05 L-2.0 -18.85 -3.15 -16.05 Q-5.2 -10.8 -5.35 -4.85 L-5.5 -4.9 -7.45 -5.75 -7.5 -5.75 -7.3 -8.2 Q-7.05 -12.95 -5.4 -17.05" fill="#ffffff" fill-rule="evenodd" stroke="none"/>
    <path d="M-2.3 -4.65 L0.25 -4.8 0.6 -4.9 1.35 0.25 -2.0 0.05 -2.3 -4.65 M7.1 -2.55 L5.05 -0.9 4.65 -1.7 Q3.7 -3.7 3.95 -6.15 L6.0 -7.85 7.1 -2.55 M-6.55 -2.75 L-7.35 -3.7 -7.45 -5.75 -5.5 -4.9 -4.85 -1.6 -6.55 -2.75" fill="#cccccc" fill-rule="evenodd" stroke="none"/>
    <path d="M1.35 -19.3 Q-1.7 -13.55 -2.2 -6.35 L-2.3 -4.65 -4.15 -4.75 -4.75 -4.8 -5.35 -4.85 Q-5.2 -10.8 -3.15 -16.05 L-2.0 -18.85 1.35 -19.3 M0.25 -4.8 Q0.55 -11.0 2.6 -16.55 L3.55 -18.9 6.15 -17.8 Q4.1 -13.55 3.8 -8.6 L3.65 -6.0 Q2.15 -5.25 0.6 -4.9 L0.25 -4.8 M-8.5 -5.35 Q-11.5 -10.45 -7.25 -15.3 L-5.4 -17.05 Q-7.05 -12.95 -7.3 -8.2 L-7.5 -5.75 Q-8.05 -5.8 -8.5 -5.35 M7.75 -15.3 L7.75 -14.95 Q8.0 -10.65 6.15 -8.15 L7.75 -15.3" fill="#33ccff" fill-rule="evenodd" stroke="none"/>
    <path d="M7.7 -16.7 L9.1 -15.1 9.45 -14.55 9.45 -14.5 Q11.3 -10.85 8.65 -4.95 L7.1 -2.55 6.0 -7.85 6.15 -8.15 Q8.0 -10.65 7.75 -14.95 L7.75 -15.3 7.7 -16.7 M5.05 -0.9 Q4.05 -0.35 2.9 -0.1 L1.35 0.25 0.6 -4.9 Q2.15 -5.25 3.65 -6.0 L3.95 -6.15 Q3.7 -3.7 4.65 -1.7 L5.05 -0.9 M-2.0 0.05 Q-3.35 -0.3 -4.5 -1.05 L-4.45 -1.2 -4.85 -1.6 -5.5 -4.9 -5.35 -4.85 -4.75 -4.8 -4.15 -4.75 -2.3 -4.65 -2.0 0.05 M-7.35 -3.7 L-7.4 -3.8 -8.5 -5.35 Q-8.05 -5.8 -7.5 -5.75 L-7.45 -5.75 -7.35 -3.7 M-4.15 -2.75 L-4.2 -2.75 -4.15 -2.55 -4.15 -2.75" fill="#6666ff" fill-rule="evenodd" stroke="none"/>
    <path d="M16.55 -0.6 L14.55 -6.25 18.35 -6.3 14.55 -7.9 18.5 -11.6 18.1 -12.0 14.2 -11.35 14.15 -11.95 24.5 -18.1 19.5 -10.3 20.85 -5.45 20.25 -2.7 16.55 -0.6 M-16.2 -2.7 L-16.95 -7.5 -10.95 -10.3 -16.8 -13.05 -10.2 -13.25 -8.2 -10.9 -9.65 -8.95 -16.2 -2.7" fill="#ffff00" fill-rule="evenodd" stroke="none"/>
    <path d="M16.55 -0.6 L10.45 -11.55 10.0 -11.8 15.65 -16.85 24.5 -18.1 14.15 -11.95 14.2 -11.35 18.1 -12.0 18.5 -11.6 14.55 -7.9 18.35 -6.3 14.55 -6.25 16.55 -0.6 M-16.2 -2.7 L-21.15 -5.0 -19.65 -22.05 -13.25 -16.75 -10.0 -13.25 -10.2 -13.25 -16.8 -13.05 -10.95 -10.3 -16.95 -7.5 -16.2 -2.7" fill="#cccc00" fill-rule="evenodd" stroke="none"/>
  </g>
</svg>
