<?xml version="1.0" encoding="UTF-8" standalone="no"?>
<svg xmlns:xlink="http://www.w3.org/1999/xlink" height="22.4px" width="31.1px" xmlns="http://www.w3.org/2000/svg">
  <g transform="matrix(1.0, 0.0, 0.0, 1.0, 15.55, 11.2)">
    <path d="M5.85 -10.2 L5.85 -4.4 2.9 -10.2 5.85 -10.2" fill="url(#gradient0)" fill-rule="evenodd" stroke="none"/>
    <path d="M2.9 -10.2 L5.85 -4.4 5.85 -10.2 11.65 -4.4 5.85 -4.4 0.0 -4.4 2.9 -10.2 M0.0 10.2 L-8.75 1.45 -5.8 -4.4 -5.8 -10.2 -11.65 -4.4 -14.55 -4.4 -8.75 -10.2 -5.8 -10.2 -2.9 -10.2 -5.8 -4.4 -2.9 1.45 0.0 10.2" fill="#ffffff" fill-rule="evenodd" stroke="none"/>
    <path d="M11.65 -4.4 L5.85 -10.2 8.75 -10.2 14.55 -4.4 11.65 -4.4" fill="url(#gradient1)" fill-rule="evenodd" stroke="none"/>
    <path d="M0.0 -4.4 L5.85 -4.4 2.9 1.45 0.0 -4.4" fill="url(#gradient2)" fill-rule="evenodd" stroke="none"/>
    <path d="M-5.8 -4.4 L0.0 -4.4 -2.9 1.45 -5.8 -4.4" fill="#3e2569" fill-rule="evenodd" stroke="none"/>
    <path d="M5.85 -4.4 L11.65 -4.4 8.75 1.45 5.85 -4.4" fill="url(#gradient3)" fill-rule="evenodd" stroke="none"/>
    <path d="M2.9 1.45 L0.0 10.2 -2.9 1.45 0.0 -4.4 2.9 1.45" fill="url(#gradient4)" fill-rule="evenodd" stroke="none"/>
    <path d="M-2.9 -10.2 L0.0 -4.4 -5.8 -4.4 -2.9 -10.2" fill="url(#gradient5)" fill-rule="evenodd" stroke="none"/>
    <path d="M-8.75 1.45 L-14.55 -4.4 -11.65 -4.4 -8.75 1.45" fill="url(#gradient6)" fill-rule="evenodd" stroke="none"/>
    <path d="M-11.65 -4.4 L-5.8 -10.2 -5.8 -4.4 -11.65 -4.4" fill="url(#gradient7)" fill-rule="evenodd" stroke="none"/>
    <path d="M-11.65 -4.4 L-5.8 -4.4 -8.75 1.45 -11.65 -4.4" fill="url(#gradient8)" fill-rule="evenodd" stroke="none"/>
    <path d="M5.85 -10.2 L2.9 -10.2 0.0 -4.4 -2.9 -10.2 -5.8 -10.2 -8.75 -10.2 -14.55 -4.4 -8.75 1.45 0.0 10.2 2.9 1.45 5.85 -4.4 8.75 1.45 11.65 -4.4 14.55 -4.4 8.75 -10.2 5.85 -10.2 M9.45 -10.9 L15.25 -5.1 15.55 -4.4 15.25 -3.7 0.7 10.9 0.0 11.2 -0.7 10.9 -15.25 -3.7 -15.55 -4.4 -15.25 -5.1 -9.45 -10.9 -8.75 -11.2 8.75 -11.2 9.45 -10.9" fill="#3a266a" fill-rule="evenodd" stroke="none"/>
  </g>
  <defs>
    <linearGradient gradientTransform="matrix(-0.0018, 1.0E-4, -2.0E-4, -0.0035, 4.35, -7.3)" gradientUnits="userSpaceOnUse" id="gradient0" spreadMethod="pad" x1="-819.2" x2="819.2">
      <stop offset="0.0" stop-color="#ffffff"/>
      <stop offset="1.0" stop-color="#7d89d7"/>
    </linearGradient>
    <linearGradient gradientTransform="matrix(-0.0053, 4.0E-4, -3.0E-4, -0.0035, 10.2, -7.3)" gradientUnits="userSpaceOnUse" id="gradient1" spreadMethod="pad" x1="-819.2" x2="819.2">
      <stop offset="0.0" stop-color="#ffffff"/>
      <stop offset="1.0" stop-color="#7d89d7"/>
    </linearGradient>
    <linearGradient gradientTransform="matrix(0.0036, 0.0, 0.0, 0.0036, 2.9, -1.5)" gradientUnits="userSpaceOnUse" id="gradient2" spreadMethod="pad" x1="-819.2" x2="819.2">
      <stop offset="0.0" stop-color="#ffffff"/>
      <stop offset="1.0" stop-color="#2d93a8"/>
    </linearGradient>
    <linearGradient gradientTransform="matrix(-0.0035, 6.0E-4, -6.0E-4, -0.0035, 8.75, -1.5)" gradientUnits="userSpaceOnUse" id="gradient3" spreadMethod="pad" x1="-819.2" x2="819.2">
      <stop offset="0.0" stop-color="#ffffff"/>
      <stop offset="1.0" stop-color="#7d89d7"/>
    </linearGradient>
    <linearGradient gradientTransform="matrix(-0.0035, 5.0E-4, -0.0012, -0.0088, 0.0, 2.9)" gradientUnits="userSpaceOnUse" id="gradient4" spreadMethod="pad" x1="-819.2" x2="819.2">
      <stop offset="0.0" stop-color="#ffffff"/>
      <stop offset="1.0" stop-color="#7d89d7"/>
    </linearGradient>
    <linearGradient gradientTransform="matrix(-0.0036, -1.0E-4, 1.0E-4, -0.0036, -2.9, -7.3)" gradientUnits="userSpaceOnUse" id="gradient5" spreadMethod="pad" x1="-819.2" x2="819.2">
      <stop offset="0.0" stop-color="#ffffff"/>
      <stop offset="1.0" stop-color="#7d89d7"/>
    </linearGradient>
    <linearGradient gradientTransform="matrix(0.0036, 0.0, 0.0, 0.0036, -11.65, -1.5)" gradientUnits="userSpaceOnUse" id="gradient6" spreadMethod="pad" x1="-819.2" x2="819.2">
      <stop offset="0.0" stop-color="#ffffff"/>
      <stop offset="1.0" stop-color="#2d93a8"/>
    </linearGradient>
    <linearGradient gradientTransform="matrix(0.0036, 0.0, 0.0, 0.0036, -8.75, -7.3)" gradientUnits="userSpaceOnUse" id="gradient7" spreadMethod="pad" x1="-819.2" x2="819.2">
      <stop offset="0.0" stop-color="#ffffff"/>
      <stop offset="1.0" stop-color="#2d93a8"/>
    </linearGradient>
    <linearGradient gradientTransform="matrix(-0.0036, 0.0, 0.0, -0.0036, -8.75, -1.5)" gradientUnits="userSpaceOnUse" id="gradient8" spreadMethod="pad" x1="-819.2" x2="819.2">
      <stop offset="0.0" stop-color="#ffffff"/>
      <stop offset="1.0" stop-color="#7d89d7"/>
    </linearGradient>
  </defs>
</svg>
