<?xml version="1.0" encoding="UTF-8" standalone="no"?>
<svg
   xmlns:dc="http://purl.org/dc/elements/1.1/"
   xmlns:cc="http://creativecommons.org/ns#"
   xmlns:rdf="http://www.w3.org/1999/02/22-rdf-syntax-ns#"
   xmlns:svg="http://www.w3.org/2000/svg"
   xmlns="http://www.w3.org/2000/svg"
   xmlns:sodipodi="http://sodipodi.sourceforge.net/DTD/sodipodi-0.dtd"
   xmlns:inkscape="http://www.inkscape.org/namespaces/inkscape"
   height="40.85px"
   width="19.95px"
   version="1.1"
   id="svg6"
   sodipodi:docname="3180.svg"
   inkscape:version="0.92.1 r15371">
  <metadata
     id="metadata12">
    <rdf:RDF>
      <cc:Work
         rdf:about="">
        <dc:format>image/svg+xml</dc:format>
        <dc:type
           rdf:resource="http://purl.org/dc/dcmitype/StillImage" />
        <dc:title></dc:title>
      </cc:Work>
    </rdf:RDF>
  </metadata>
  <defs
     id="defs10">
    <radialGradient
       cx="0"
       cy="0"
       gradientTransform="matrix(0.0441,0,0,0.0441,-0.95,19.55)"
       gradientUnits="userSpaceOnUse"
       id="gradient0"
       r="819.20001"
       spreadMethod="pad">
      <stop
         offset="0.4588235294117647"
         stop-color="#ffd224"
         id="stop36" />
      <stop
         offset="0.7686274509803922"
         stop-color="#f8f801"
         id="stop38" />
      <stop
         offset="0.9529411764705882"
         stop-color="#fdfed6"
         id="stop40" />
      <stop
         offset="1.0"
         stop-color="#f9f90b"
         id="stop42" />
    </radialGradient>
  </defs>
  <sodipodi:namedview
     pagecolor="#ffffff"
     bordercolor="#666666"
     borderopacity="1"
     objecttolerance="10"
     gridtolerance="10"
     guidetolerance="10"
     inkscape:pageopacity="0"
     inkscape:pageshadow="2"
     inkscape:window-width="1920"
     inkscape:window-height="1016"
     id="namedview8"
     showgrid="false"
     inkscape:object-nodes="false"
     inkscape:zoom="16.340485"
     inkscape:cx="19.171172"
     inkscape:cy="20.279756"
     inkscape:window-x="0"
     inkscape:window-y="27"
     inkscape:window-maximized="1"
     inkscape:current-layer="svg6" />
  <g
     transform="matrix(1.0, 0.0, 0.0, 1.0, 9.95, 40.85)"
     id="g4">
    <path
       d="M7.9 -35.45 L8.05 -34.45 8.75 -33.25 Q9.6 -31.5 8.55 -30.15 L8.8 -29.95 8.85 -29.85 9.65 -28.55 9.65 -28.45 10.0 -27.3 9.9 -26.65 9.65 -26.2 9.5 -25.35 9.3 -24.9 Q8.6 -24.0 7.5 -23.75 L7.4 -23.7 6.9 -23.6 3.1 -0.95 2.8 -0.4 Q2.55 -0.2 2.25 -0.15 L2.2 -0.15 1.75 0.0 1.1 -0.15 Q0.8 -0.35 0.7 -0.65 L-6.65 -21.75 -7.7 -22.0 -7.85 -22.05 Q-9.25 -22.65 -9.65 -23.95 -9.95 -24.9 -9.6 -25.65 L-9.9 -26.45 -9.9 -27.05 -9.6 -27.55 -9.1 -28.0 Q-9.5 -28.7 -9.55 -29.55 L-9.55 -29.6 Q-9.65 -31.1 -9.15 -32.5 L-9.25 -33.35 Q-9.2 -35.85 -7.5 -37.25 -7.4 -38.45 -6.35 -39.25 L-6.35 -39.3 Q-4.65 -40.6 -2.8 -40.0 -0.9 -41.2 1.15 -40.7 L1.2 -40.7 Q2.85 -40.35 3.85 -39.0 L5.45 -38.45 Q6.25 -38.2 6.85 -37.45 7.55 -36.55 7.9 -35.45"
       fill="#000000"
       fill-rule="evenodd"
       stroke="none"
       id="path2" />
  </g>
  <g
     transform="matrix(0.37636849,0,0,0.37636849,9.7653713,20.464979)"
     id="g34">
    <path
       d="M 17.8,-10.2 4.15,54.3 -0.8,-52.45 q 9.35,2.4 10.8,4 10.25,1.25 10.7,11.3 l 0.75,0.7 q 4.5,4.65 0.05,9.3 l -0.8,0.8 q 6.7,9.3 3,12.75 -3.75,3.45 -5.9,3.4"
       id="path14"
       inkscape:connector-curvature="0"
       style="fill:#ff3399;fill-rule:evenodd;stroke:none" />
    <path
       d="m 13.9,-26.4 q 4.85,-1.05 4.65,-5.8 l -0.1,-1.05 q -2.2,-1.35 -4.75,-0.65 3,-10.05 -7.7,-11.85 -6.55,-7.8 -14.15,-1.05 -3.05,-2 -5.8,-0.05 l -0.6,0.55 -0.55,2.85 -0.1,1.2 q -2.3,-0.25 -4.25,1.25 -2.2,2.7 -1.15,6.05 l 0.55,1.35 q -4.95,9.4 4.1,12.25 l 1.15,0.15 -2.4,2 -0.9,1.25 q -2.4,0.6 -3.1,3.2 l -0.2,1.15 q 1.95,6.95 9.35,3.45 l 1.2,-0.8 q 4.35,2.1 7.9,-0.95 1,-0.75 1.85,-1.65 l 1,-0.1 q 3.95,3.5 8.3,0.7 l 1,-0.75 q 1.8,1.7 4.2,1 2.05,-0.4 2.7,-2.5 1.2,0 2.3,-0.75 l 0.6,-0.4 0.3,-0.65 -0.25,-1.2 0.55,-0.75 q 0.5,-2.7 -1.25,-4.7 -0.6,-0.75 -1.45,-0.95 -3.2,2.5 -7.2,3.3 L 8.75,-21.9 8.6,-23.7 q 2.55,1.65 5.35,0.55 l 0.8,-1.55 -0.85,-1.7 m -20.6,6.75 q 4.05,-5.05 9.75,-1.9 l 0.75,0.55 -4.65,-0.4 -5.85,1.75 m -9.6,13.55 q -8.15,0 -7.4,-8.15 -0.55,-0.85 -0.55,-1.7 0.05,-3.35 3.45,-3.95 -5.35,-5.75 -1.3,-12.65 -2.7,-7.35 4,-12.05 1.8,-7.55 9.55,-5.4 9.1,-5.7 15.9,2.1 10.3,1 10.6,11.2 6.15,5.3 -0.2,10.6 6.3,3.15 4.65,9.75 v 0.8 Q 21.5,-9.9 16.15,-12 l -0.95,1.1 q -2,2.1 -4.95,1.25 l -1.2,-0.4 q -4.25,3.7 -8.85,0.35 -0.95,2 -3.2,2.6 l -1.2,0.2 h -0.2 -1.7 l -4.65,-1 -1.15,1 -4.4,0.8"
       id="path16"
       inkscape:connector-curvature="0"
       style="fill:#ff66cc;fill-rule:evenodd;stroke:none" />
    <path
       d="m 2.25,-46.25 -2.35,3.2 -0.9,2.1 3.9,0.9 0.2,-0.7 0.45,-0.25 1.15,-2.65 -2.45,-2.6 M 13.9,-26.4 q 2.85,-3.4 -0.3,-6.45 l -0.8,-0.65 q -5,2.45 -4.85,8 3.25,1.4 5.95,-0.9 l 0.85,1.7 -0.8,1.55 q -2.8,1.1 -5.35,-0.55 l 0.15,1.8 0.95,0.6 q 4,-0.8 7.2,-3.3 0.85,0.2 1.45,0.95 1.75,2 1.25,4.7 l -0.55,0.75 0.25,1.2 -0.3,0.65 -0.6,0.4 q -1.1,0.75 -2.3,0.75 -0.65,2.1 -2.7,2.5 -2.4,0.7 -4.2,-1 l -1,0.75 q -4.35,2.8 -8.3,-0.7 l -1,0.1 q -0.85,0.9 -1.85,1.65 -3.55,3.05 -7.9,0.95 l -1.2,0.8 q -7.4,3.5 -9.35,-3.45 l 0.2,-0.65 q 2.9,1.1 5.2,-0.95 l 0.95,0.4 3.5,-1.8 q 6.05,2.8 11.05,-1.4 l 1.1,-1.1 -1.45,-2.3 4.65,0.4 -0.75,-0.55 q -5.7,-3.15 -9.75,1.9 l -10.5,0.45 2.4,-2 -1.15,-0.15 Q -25,-24.2 -20.05,-33.6 l -0.55,-1.35 q -1.05,-3.35 1.15,-6.05 -0.65,2.9 1.55,4.85 l 0.5,0.4 -1.7,6.7 2.65,1.5 2.35,-1.85 q 5.2,0.95 8.7,-2.85 4.75,-5.05 2.2,-11.6 l -3.35,-2.1 -2.45,1.15 -3.15,-2.3 -2.4,0.8 0.6,-0.55 q 2.75,-1.95 5.8,0.05 7.6,-6.75 14.15,1.05 10.7,1.8 7.7,11.85 2.55,-0.7 4.75,0.65 l 0.1,1.05 q 0.2,4.75 -4.65,5.8"
       id="path18"
       inkscape:connector-curvature="0"
       style="fill:#ff99cc;fill-rule:evenodd;stroke:none" />
    <path
       d="m -16.3,-6.1 4.4,-0.8 -2.05,3.6 -1.8,-1.15 -0.55,-1.65 m 10.2,-0.8 h 1.7 0.2 l 0.75,0.15 0.7,-0.05 q 1.3,-0.2 2.2,-1 l -2.6,2.75 -1.5,-0.75 -1.45,-1.1 M -2.05,-1 0.85,0.4 3.35,-0.75 1.25,1.5 -0.4,0.75 -2,-0.15 -2.25,-0.95 v -0.1 l 0.2,0.05 m -1.9,6.6 -2.3,3.4 -2.9,-2.8 1.35,0.6 q 0.85,0.25 1.75,0 1.3,-0.25 1.95,-1.35 l 0.15,0.15 m -3.5,-3.9 -2.8,-1.7 4.05,0.1 0.25,0.35 -1.5,1.25 m 11.25,8.45 -0.4,0.4 -4.05,-2.6 0.3,-0.7 0.9,0.4 Q 2.3,8.4 3.7,8.25 6.5,8 7.5,5.3 l 0.35,-0.85 0.3,0.7 -4.35,5 m -7.9,6.6 4.1,-0.35 -0.3,0.7 -0.4,0.5 -1.7,1.55 -1.7,-2.4"
       id="path20"
       inkscape:connector-curvature="0"
       style="fill:#cc9900;fill-rule:evenodd;stroke:none" />
    <path
       d="m -9.8,11.85 -0.45,-1.3 0.8,0.85 -0.35,0.45"
       id="path22"
       inkscape:connector-curvature="0"
       style="fill:url(#gradient0);fill-rule:evenodd;stroke:none" />
    <path
       d="m 2.25,-46.25 2.45,2.6 -1.15,2.65 -0.45,0.25 -0.2,0.7 -3.9,-0.9 0.9,-2.1 2.35,-3.2 M 13.9,-26.4 q -2.7,2.3 -5.95,0.9 -0.15,-5.55 4.85,-8 l 0.8,0.65 q 3.15,3.05 0.3,6.45"
       id="path24"
       inkscape:connector-curvature="0"
       style="fill:#ffd5ea;fill-rule:evenodd;stroke:none" />
    <path
       d="m -14.55,-46.3 2.4,-0.8 3.15,2.3 2.45,-1.15 3.35,2.1 q 2.55,6.55 -2.2,11.6 -3.5,3.8 -8.7,2.85 l -2.35,1.85 -2.65,-1.5 1.7,-6.7 -0.5,-0.4 q -2.2,-1.95 -1.55,-4.85 1.95,-1.5 4.25,-1.25 l 0.1,-1.2 0.55,-2.85"
       id="path26"
       inkscape:connector-curvature="0"
       style="fill:#ffcae4;fill-rule:evenodd;stroke:none" />
    <path
       d="m -17.2,-19.2 10.5,-0.45 5.85,-1.75 1.45,2.3 -1.1,1.1 q -5,4.2 -11.05,1.4 l -3.5,1.8 -0.95,-0.4 q -2.3,2.05 -5.2,0.95 l -0.2,0.65 0.2,-1.15 q 0.7,-2.6 3.1,-3.2 l 0.9,-1.25"
       id="path28"
       inkscape:connector-curvature="0"
       style="fill:#ffa8d3;fill-rule:evenodd;stroke:none" />
    <path
       d="M 5.1,50.55 5.2,50 4.6,53.7 -9.8,11.85 l 0.35,-0.45 -0.8,-0.85 -0.35,-0.35 -4.35,-12.4 1.25,-0.4 1.25,0.7 q 4.9,2.55 10.2,0.95 L -2,-0.15 -0.4,0.75 1.25,1.5 3.35,-0.75 0.85,0.4 -2.05,-1 2.3,-3 4,-2.8 3.7,8.25 Q 2.3,8.4 0.55,7.65 l -0.9,-0.4 -0.3,0.7 4.05,2.6 0.4,-0.4 Q 2.95,18.2 2.5,26.2 2.05,34.55 3.3,42.8 3.85,46.65 5.1,50.55 M -7.45,1.7 -5.95,0.45 -6.2,0.1 -10.25,0 l 2.8,1.7 m 3.5,3.9 -0.15,-0.15 q -0.65,1.1 -1.95,1.35 -0.9,0.25 -1.75,0 l -1.35,-0.6 2.9,2.8 2.3,-3.4 m -0.15,11.15 1.7,2.4 1.7,-1.55 0.4,-0.5 0.3,-0.7 -4.1,0.35"
       id="path30"
       inkscape:connector-curvature="0"
       style="fill:#ffe784;fill-rule:evenodd;stroke:none" />
    <path
       d="m -11.9,-6.9 1.15,-1 4.65,1 1.45,1.1 1.5,0.75 2.6,-2.75 q -0.9,0.8 -2.2,1 L -3.45,-6.75 -4.2,-6.9 -3,-7.1 q 2.25,-0.6 3.2,-2.6 4.6,3.35 8.85,-0.35 l 1.2,0.4 q 2.95,0.85 4.95,-1.25 -1.1,8 -2.65,15.7 L 12.2,6.6 5.1,50.55 Q 3.85,46.65 3.3,42.8 2.05,34.55 2.5,26.2 2.95,18.2 3.8,10.15 L 8.15,5.15 7.85,4.45 7.5,5.3 Q 6.5,8 3.7,8.25 L 4,-2.8 2.3,-3 l -4.35,2 -0.2,-0.05 v 0.1 q -5.3,1.6 -10.2,-0.95 l -1.25,-0.7 -1.25,0.4 -0.8,-2.25 1.8,1.15 2.05,-3.6"
       id="path32"
       inkscape:connector-curvature="0"
       style="fill:#dfb300;fill-rule:evenodd;stroke:none" />
  </g>
</svg>
