<?xml version="1.0" encoding="UTF-8" standalone="no"?>
<svg xmlns:xlink="http://www.w3.org/1999/xlink" height="31.15px" width="29.2px" xmlns="http://www.w3.org/2000/svg">
  <g transform="matrix(1.0, 0.0, 0.0, 1.0, 12.45, 30.5)">
    <path d="M15.75 -30.05 L16.3 -29.5 16.7 -28.85 16.75 -28.15 16.6 -27.4 16.2 -26.7 Q15.9 -26.4 15.55 -26.25 L11.3 -25.0 10.8 -24.95 9.9 -24.95 9.75 -24.45 Q11.4 -23.4 12.1 -20.75 12.5 -19.15 12.25 -17.85 L13.2 -17.7 Q13.75 -17.6 14.05 -17.3 L14.4 -16.7 14.4 -16.4 14.1 -15.75 5.05 -8.0 5.25 -5.85 5.25 -5.8 5.45 -4.6 5.7 -3.85 8.75 -2.7 9.3 -2.35 9.55 -1.9 9.7 -0.95 9.55 -0.5 9.15 -0.15 8.4 0.35 7.15 0.65 -5.6 0.55 -6.7 0.3 -7.25 -0.35 -7.55 -1.6 -7.45 -2.1 -7.0 -2.55 -3.0 -4.7 -3.1 -7.9 -4.05 -8.5 -3.95 -8.4 -5.6 -9.35 Q-10.1 -12.2 -12.35 -16.15 L-12.4 -16.75 -11.95 -17.25 -11.15 -17.55 -9.25 -17.8 -9.5 -18.85 Q-9.75 -21.1 -6.7 -24.15 L-6.45 -24.35 Q-6.1 -26.45 -3.5 -29.0 L-2.95 -29.35 -1.45 -29.9 -0.65 -29.95 Q4.1 -29.1 6.3 -27.7 L6.55 -28.35 7.0 -29.0 Q7.3 -29.25 7.7 -29.3 L14.45 -30.45 15.15 -30.4 15.75 -30.05" fill="#000000" fill-rule="evenodd" stroke="none"/>
    <path d="M-1.1 -28.1 Q3.55 -24.9 -2.95 -23.75 L-3.25 -23.65 Q-4.45 -25.0 -3.1 -26.85 L-2.6 -27.6 -1.1 -28.1" fill="#ffffff" fill-rule="evenodd" stroke="none"/>
    <path d="M-2.6 -27.6 L-3.1 -26.85 Q-4.45 -25.0 -3.25 -23.65 L-2.95 -23.75 Q3.55 -24.9 -1.1 -28.1 9.15 -26.3 6.4 -21.85 3.6 -17.5 -2.1 -19.9 -7.85 -22.35 -2.6 -27.6" fill="#ff9966" fill-rule="evenodd" stroke="none"/>
    <path d="M7.75 -23.2 Q9.8 -21.7 9.25 -19.6 L8.75 -19.1 Q6.4 -20.5 7.45 -22.7 L7.75 -23.2 M4.55 -21.9 Q5.1 -16.85 -0.35 -19.35 L0.7 -21.55 Q2.25 -22.6 4.15 -22.15 L4.55 -21.9" fill="#ffffff" fill-rule="evenodd" stroke="none"/>
    <path d="M4.55 -21.9 L4.15 -22.15 Q2.25 -22.6 0.7 -21.55 L-0.35 -19.35 Q5.1 -16.85 4.55 -21.9 M7.75 -23.2 L7.45 -22.7 Q6.4 -20.5 8.75 -19.1 L9.25 -19.6 Q9.8 -21.7 7.75 -23.2 M10.65 -20.2 Q11.3 -17.75 10.15 -16.35 9.0 -15.0 6.2 -14.45 0.45 -13.5 -0.6 -15.35 L-1.15 -16.35 -2.15 -18.05 -1.95 -19.7 Q0.05 -22.6 4.75 -23.75 9.4 -24.9 10.65 -20.2" fill="#fc7272" fill-rule="evenodd" stroke="none"/>
    <path d="M-5.8 -23.15 L-6.3 -22.45 Q-7.65 -20.55 -6.45 -19.2 L-6.15 -19.3 Q0.3 -20.45 -4.3 -23.7 5.95 -21.85 3.2 -17.45 0.4 -13.05 -5.3 -15.45 -11.05 -17.9 -5.8 -23.15" fill="#ffff99" fill-rule="evenodd" stroke="none"/>
    <path d="M-5.8 -23.15 L-4.3 -23.7 Q0.3 -20.45 -6.15 -19.3 L-6.45 -19.2 Q-7.65 -20.55 -6.3 -22.45 L-5.8 -23.15" fill="#ffffff" fill-rule="evenodd" stroke="none"/>
    <path d="M7.8 -27.5 L8.75 -26.15 7.1 -21.7 6.35 -23.45 7.8 -27.5 M10.7 -26.1 L9.85 -27.85 12.65 -28.3 13.2 -26.75 10.7 -26.1 M5.15 -20.4 L6.1 -18.9 Q5.45 -16.45 4.4 -14.3 L3.85 -13.2 Q3.9 -15.8 4.7 -18.35 L5.15 -20.4" fill="#ffffff" fill-rule="evenodd" stroke="none"/>
    <path d="M8.75 -26.15 L7.8 -27.5 9.85 -27.85 10.7 -26.1 8.75 -26.15 M6.35 -23.45 L7.1 -21.7 6.1 -18.9 5.15 -20.4 6.35 -23.45 M12.65 -28.3 L14.55 -28.65 15.1 -28.1 14.95 -27.35 13.2 -26.75 12.65 -28.3" fill="#0099ff" fill-rule="evenodd" stroke="none"/>
    <path d="M-7.3 -16.65 L-4.95 -16.9 12.55 -16.35 12.55 -16.05 3.15 -8.0 3.35 -5.45 3.6 -4.1 4.0 -2.85 4.7 -2.6 4.15 -2.15 Q5.5 -0.1 6.65 -1.85 L7.7 -1.5 7.8 -0.55 7.0 -0.05 4.95 -0.05 4.1 -1.15 Q0.85 -5.8 3.35 -10.6 L4.0 -10.25 Q8.1 -12.25 9.9 -15.25 L9.0 -15.8 8.5 -15.85 5.55 -12.9 Q6.8 -14.45 4.85 -15.85 L4.2 -16.35 2.95 -15.95 -3.05 -16.9 -4.85 -16.25 -7.3 -16.65 M0.05 -0.1 L-5.75 -0.15 -6.05 -1.4 -1.4 -3.9 -1.55 -8.05 -3.0 -8.9 -4.55 -9.75 Q-8.75 -12.45 -10.85 -16.2 L-8.5 -16.5 Q-8.3 -14.5 -6.5 -12.85 -4.6 -11.2 -1.3 -10.65 L-0.55 -6.5 Q-0.7 -5.2 -0.45 -3.95 L-0.9 -2.7 -1.55 -2.95 Q-2.9 -2.0 -3.65 -0.9 L-2.95 -0.7 -2.25 -0.75 -0.9 -1.15 0.05 -0.1 M3.5 -10.85 L3.55 -11.3 4.7 -12.05 3.5 -10.85" fill="#66ffff" fill-rule="evenodd" stroke="none"/>
    <path d="M4.7 -2.6 L6.65 -1.85 Q5.5 -0.1 4.15 -2.15 L4.7 -2.6 M-8.5 -16.5 L-7.3 -16.65 -4.85 -16.25 -3.05 -16.9 2.95 -15.95 4.05 -15.75 2.9 -12.25 -1.3 -10.65 Q-4.6 -11.2 -6.5 -12.85 -8.3 -14.5 -8.5 -16.5 M5.55 -12.9 L8.5 -15.85 9.0 -15.8 9.9 -15.25 Q8.1 -12.25 4.0 -10.25 L3.35 -10.6 3.5 -10.85 4.7 -12.05 5.55 -12.9 M-0.55 -6.5 L0.5 -8.2 1.15 -3.25 -0.45 -3.95 Q-0.7 -5.2 -0.55 -6.5 M-0.9 -2.7 L0.1 -2.1 -0.9 -1.15 -2.25 -0.75 -2.95 -0.7 -3.65 -0.9 Q-2.9 -2.0 -1.55 -2.95 L-0.9 -2.7" fill="#ffffff" fill-rule="evenodd" stroke="none"/>
    <path d="M4.95 -0.05 L0.05 -0.1 -0.9 -1.15 0.1 -2.1 -0.9 -2.7 -0.45 -3.95 1.15 -3.25 0.5 -8.2 -0.55 -6.5 -1.3 -10.65 2.9 -12.25 4.05 -15.75 2.95 -15.95 4.2 -16.35 4.85 -15.85 Q6.8 -14.45 5.55 -12.9 L4.7 -12.05 3.55 -11.3 3.5 -10.85 3.35 -10.6 Q0.85 -5.8 4.1 -1.15 L4.95 -0.05" fill="#00cccc" fill-rule="evenodd" stroke="none"/>
  </g>
</svg>
