<?xml version="1.0" encoding="UTF-8" standalone="no"?>
<svg xmlns:xlink="http://www.w3.org/1999/xlink" height="24.9px" width="39.1px" xmlns="http://www.w3.org/2000/svg">
  <g transform="matrix(1.0, 0.0, 0.0, 1.0, 13.55, 24.5)">
    <path d="M23.25 -19.9 L20.85 -20.0 21.9 -21.9 19.6 -22.75 18.8 -22.35 18.7 -22.35 17.15 -21.55 16.45 -23.2 10.95 -17.5 Q7.25 -19.7 3.65 -18.95 0.35 -18.4 -1.75 -15.55 -4.25 -12.3 -2.8 -8.4 -2.4 -7.2 -1.5 -5.95 2.45 -3.15 7.3 -4.95 11.0 -6.5 12.8 -10.35 L21.7 -7.9 21.7 -8.7 23.75 -9.5 22.5 -10.95 23.1 -11.95 22.9 -12.5 24.35 -12.65 24.5 -15.35 22.65 -16.85 24.55 -18.95 24.6 -19.75 24.6 -19.85 24.35 -19.9 23.25 -19.9 M-11.8 -5.95 L-13.55 -11.35 -12.75 -12.2 -12.55 -12.8 -13.4 -13.45 -12.3 -17.4 -11.85 -17.7 -11.4 -17.65 -2.5 -15.3 -1.6 -16.5 -0.8 -17.3 Q2.45 -19.95 6.35 -19.9 L9.2 -19.55 Q10.05 -19.3 10.9 -18.35 L16.7 -24.5 17.5 -22.35 19.9 -23.35 22.4 -22.45 22.8 -22.0 22.35 -20.7 25.0 -20.5 25.55 -19.95 25.4 -18.35 24.0 -16.85 25.4 -15.3 25.15 -11.95 24.0 -11.45 23.7 -10.95 24.8 -9.5 24.5 -8.75 23.25 -7.65 23.3 -6.7 13.35 -9.45 Q10.1 -3.5 3.95 -3.2 2.2 -3.2 0.6 -3.9 -0.4 -4.25 -0.95 -4.7 L-9.8 0.4 -10.9 0.3 -11.05 -0.2 -10.4 -1.95 -11.8 -5.9 -11.8 -5.95 M-12.85 -11.2 L-11.55 -6.05 -11.45 -5.9 -10.75 -3.2 -9.2 -2.7 -10.15 -0.6 -1.85 -5.25 -4.0 -10.85 -3.3 -14.15 -11.65 -17.05 -12.6 -13.95 -11.4 -13.5 -11.8 -12.3 -11.95 -11.8 -12.85 -11.2" fill="#000000" fill-rule="evenodd" stroke="none"/>
    <path d="M18.8 -22.35 L19.6 -22.75 21.9 -21.9 20.85 -20.0 23.25 -19.9 23.65 -19.3 Q23.95 -19.05 24.55 -18.95 L22.65 -16.85 24.5 -15.35 24.35 -12.65 22.9 -12.5 23.1 -11.95 22.5 -10.95 23.75 -9.5 21.7 -8.7 Q20.75 -8.9 20.9 -10.05 L20.95 -10.85 21.5 -11.05 21.5 -13.3 23.85 -13.95 24.2 -14.65 21.75 -16.35 22.7 -17.1 22.7 -17.85 22.3 -18.2 22.25 -18.8 21.7 -19.0 21.25 -18.8 21.0 -19.15 19.75 -19.4 20.6 -20.9 16.2 -19.95 16.05 -17.95 19.2 -16.15 17.8 -16.1 19.55 -15.95 19.95 -15.7 20.7 -15.85 19.3 -14.5 19.65 -14.7 19.3 -14.05 20.25 -13.2 20.2 -12.45 16.45 -11.75 19.45 -10.9 19.5 -10.45 19.9 -9.9 19.45 -9.1 12.2 -11.95 11.9 -12.7 12.0 -13.4 11.3 -14.6 12.1 -16.75 11.7 -16.8 11.05 -16.45 10.45 -12.55 12.1 -9.45 9.95 -7.65 7.5 -5.85 Q5.5 -4.6 3.4 -4.6 0.75 -4.75 -1.5 -5.95 -2.4 -7.2 -2.8 -8.4 -4.25 -12.3 -1.75 -15.55 0.35 -18.4 3.65 -18.95 7.25 -19.7 10.95 -17.5 L16.45 -23.2 17.15 -21.55 18.7 -22.35 19.15 -21.35 Q20.5 -20.9 21.1 -21.85 L21.15 -21.95 18.8 -22.35 M24.35 -19.9 L24.6 -19.85 24.6 -19.75 24.35 -19.9 M-11.8 -5.9 L-11.95 -5.85 -11.8 -5.95 -11.8 -5.9 M15.1 -21.4 L14.6 -20.95 13.4 -18.6 13.95 -18.3 15.9 -19.9 Q16.75 -20.95 16.5 -22.2 L15.1 -21.4 M13.85 -15.35 L16.8 -16.7 16.2 -17.3 13.55 -15.7 13.85 -15.35 M5.65 -18.5 Q0.85 -18.85 -0.95 -15.4 -3.05 -11.95 -1.75 -11.05 -0.55 -10.4 3.9 -11.55 8.05 -12.75 9.2 -15.5 10.25 -18.25 5.65 -18.5 M-9.6 -14.1 L-5.4 -13.05 -5.25 -13.95 -9.8 -15.1 -9.6 -14.1 M-11.8 -12.3 L-11.35 -12.25 -11.05 -12.65 -7.2 -12.95 -11.0 -14.25 -10.7 -15.95 -4.0 -14.0 -5.3 -9.35 -11.55 -7.9 -12.15 -10.85 -12.85 -11.2 -11.95 -11.8 -11.8 -12.3 M-11.55 -6.05 L-4.5 -8.25 -4.3 -7.1 -11.45 -5.9 -11.55 -6.05 M-5.8 -12.2 L-6.45 -12.85 -10.5 -11.5 -6.85 -11.2 -5.8 -12.2 M-3.8 -6.1 L-3.35 -5.4 -7.8 -4.2 -3.8 -6.1" fill="#ff9933" fill-rule="evenodd" stroke="none"/>
    <path d="M23.25 -19.9 L24.35 -19.9 24.6 -19.75 24.55 -18.95 Q23.95 -19.05 23.65 -19.3 L23.25 -19.9 M18.7 -22.35 L18.8 -22.35 21.15 -21.95 21.1 -21.85 Q20.5 -20.9 19.15 -21.35 L18.7 -22.35 M14.6 -20.95 L15.5 -20.3 16.0 -20.65 16.05 -21.15 Q15.7 -21.75 15.1 -21.4 L16.5 -22.2 Q16.75 -20.95 15.9 -19.9 L13.95 -18.3 13.4 -18.6 14.6 -20.95 M13.85 -15.35 L13.55 -15.7 16.2 -17.3 16.8 -16.7 13.85 -15.35 M19.55 -15.95 L17.8 -16.1 19.2 -16.15 19.55 -15.95 M1.05 -14.9 L3.85 -14.7 Q5.75 -15.25 6.95 -16.7 L7.0 -16.85 Q6.8 -17.7 5.95 -17.65 3.05 -17.8 0.8 -16.2 L0.7 -15.8 Q0.4 -15.15 1.05 -14.9 M-9.6 -14.1 L-9.8 -15.1 -5.25 -13.95 -5.4 -13.05 -9.6 -14.1 M5.65 -18.5 Q10.25 -18.25 9.2 -15.5 8.05 -12.75 3.9 -11.55 -0.55 -10.4 -1.75 -11.05 -3.05 -11.95 -0.95 -15.4 0.85 -18.85 5.65 -18.5 M-5.8 -12.2 L-6.85 -11.2 -10.5 -11.5 -6.45 -12.85 -5.8 -12.2" fill="#fec48b" fill-rule="evenodd" stroke="none"/>
    <path d="M15.1 -21.4 Q15.7 -21.75 16.05 -21.15 L16.0 -20.65 15.5 -20.3 14.6 -20.95 15.1 -21.4 M1.05 -14.9 Q0.4 -15.15 0.7 -15.8 L0.8 -16.2 Q3.05 -17.8 5.95 -17.65 6.8 -17.7 7.0 -16.85 L6.95 -16.7 Q5.75 -15.25 3.85 -14.7 L1.05 -14.9" fill="#ffffff" fill-rule="evenodd" stroke="none"/>
    <path d="M21.7 -8.7 L21.7 -7.9 12.8 -10.35 Q11.0 -6.5 7.3 -4.95 2.45 -3.15 -1.5 -5.95 0.75 -4.75 3.4 -4.6 5.5 -4.6 7.5 -5.85 L9.95 -7.65 12.1 -9.45 10.45 -12.55 11.05 -16.45 11.7 -16.8 12.1 -16.75 11.3 -14.6 12.0 -13.4 11.9 -12.7 12.2 -11.95 19.45 -9.1 19.9 -9.9 19.5 -10.45 19.45 -10.9 16.45 -11.75 20.2 -12.45 20.25 -13.2 19.3 -14.05 19.65 -14.7 19.3 -14.5 20.7 -15.85 19.95 -15.7 19.55 -15.95 19.2 -16.15 16.05 -17.95 16.2 -19.95 20.6 -20.9 19.75 -19.4 21.0 -19.15 21.25 -18.8 21.7 -19.0 22.25 -18.8 22.3 -18.2 22.7 -17.85 22.7 -17.1 21.75 -16.35 24.2 -14.65 23.85 -13.95 21.5 -13.3 21.5 -11.05 20.95 -10.85 20.9 -10.05 Q20.75 -8.9 21.7 -8.7 M-12.85 -11.2 L-12.15 -10.85 -11.55 -7.9 -5.3 -9.35 -4.0 -14.0 -10.7 -15.95 -11.0 -14.25 -7.2 -12.95 -11.05 -12.65 -11.35 -12.25 -11.8 -12.3 -11.4 -13.5 -12.6 -13.95 -11.65 -17.05 -3.3 -14.15 -4.0 -10.85 -1.85 -5.25 -10.15 -0.6 -9.2 -2.7 -10.75 -3.2 -11.45 -5.9 -4.3 -7.1 -4.5 -8.25 -11.55 -6.05 -12.85 -11.2 M-3.8 -6.1 L-7.8 -4.2 -3.35 -5.4 -3.8 -6.1" fill="#cd6701" fill-rule="evenodd" stroke="none"/>
  </g>
</svg>
