<?xml version="1.0" encoding="UTF-8" standalone="no"?>
<svg xmlns:xlink="http://www.w3.org/1999/xlink" height="35.45px" width="27.35px" xmlns="http://www.w3.org/2000/svg">
  <g transform="matrix(1.0, 0.0, 0.0, 1.0, 13.55, 34.75)">
    <path d="M6.1 -10.15 L5.0 -11.55 3.25 -11.55 2.45 -13.3 1.2 -13.3 -1.1 -13.3 -2.75 -13.3 -3.7 -11.5 Q-6.25 -10.65 -8.15 -8.55 L-8.8 -7.55 -10.1 -5.65 Q-11.1 -4.5 -12.35 -3.6 L-12.5 -2.9 -12.5 -2.2 Q-12.45 -1.3 -11.9 -0.55 L-6.05 0.3 -4.5 0.35 6.5 0.35 Q9.1 0.55 11.4 -0.6 12.55 -1.25 12.9 -2.4 L12.65 -4.45 8.55 -6.0 7.25 -8.5 6.2 -10.05 6.1 -10.15 M2.95 -14.15 L3.9 -12.55 Q7.1 -11.8 9.45 -6.7 L13.35 -5.15 Q14.3 -3.2 13.35 -1.2 12.9 -0.25 11.8 0.3 L10.8 0.7 -11.45 0.7 Q-14.7 -1.0 -12.9 -4.0 L-11.9 -5.3 Q-10.0 -7.15 -8.4 -9.45 -7.8 -10.3 -6.95 -10.85 L-4.4 -12.3 -3.3 -14.15 2.45 -14.3 2.95 -14.15" fill="#000000" fill-rule="evenodd" stroke="none"/>
    <path d="M1.2 -13.3 L2.45 -13.3 3.25 -11.55 5.0 -11.55 6.1 -10.15 5.3 -10.8 2.1 -10.5 0.7 -10.5 -1.7 -10.25 -2.45 -11.2 Q-7.1 -9.6 -7.55 -6.8 -4.5 -5.95 -1.4 -5.65 L3.15 -5.4 7.15 -6.45 7.6 -6.65 Q7.6 -7.65 7.25 -8.5 L8.55 -6.0 12.65 -4.45 12.9 -2.4 Q11.05 -1.15 9.1 -0.6 L7.7 -0.4 4.35 -0.1 0.95 -0.05 -2.45 -0.05 -5.95 -0.35 -9.95 -1.25 Q-11.0 -1.4 -11.5 -2.4 L-10.75 -3.3 Q-10.05 -1.7 -4.1 -1.2 L11.7 -2.35 12.45 -2.75 12.6 -3.6 8.5 -5.1 -9.15 -4.95 -10.1 -4.15 -9.3 -5.2 -4.6 -5.2 -8.3 -5.85 Q-9.0 -6.65 -8.8 -7.55 L-8.15 -8.55 Q-6.25 -10.65 -3.7 -11.5 L-2.75 -13.3 -1.1 -13.3 -1.1 -13.15 -2.35 -12.3 Q-2.3 -11.55 -1.55 -11.2 0.2 -10.45 1.65 -11.5 L1.7 -11.6 2.95 -12.0 1.2 -13.3 M0.8 -12.0 L0.05 -11.9 -0.15 -12.4 0.8 -12.0 M6.5 -5.85 L5.3 -5.45 7.8 -5.55 6.5 -5.85" fill="#d37401" fill-rule="evenodd" stroke="none"/>
    <path d="M1.2 -13.3 L2.95 -12.0 1.7 -11.6 0.8 -12.0 -0.15 -12.4 0.05 -11.9 -1.25 -12.25 -1.1 -13.15 -1.1 -13.3 1.2 -13.3 M-10.1 -4.15 L-9.15 -4.95 8.5 -5.1 12.6 -3.6 12.45 -2.75 11.7 -2.35 -4.1 -1.2 Q-10.05 -1.7 -10.75 -3.3 L-10.85 -3.55 -10.1 -4.15 M7.25 -8.5 Q7.6 -7.65 7.6 -6.65 L7.15 -6.45 3.15 -5.4 -1.4 -5.65 Q-4.5 -5.95 -7.55 -6.8 -7.1 -9.6 -2.45 -11.2 L-1.7 -10.25 0.7 -10.5 2.1 -10.5 5.3 -10.8 6.1 -10.15 6.2 -10.05 7.25 -8.5 M5.2 -7.15 L5.2 -8.1 3.35 -9.8 3.35 -9.05 2.4 -9.55 1.95 -9.0 2.55 -8.25 1.7 -8.25 1.95 -8.95 0.8 -9.55 -0.55 -9.15 0.8 -8.85 2.3 -6.8 2.3 -7.65 3.55 -6.8 3.55 -7.75 5.2 -7.15 M5.4 -9.0 L5.4 -9.6 5.4 -10.25 4.5 -10.25 4.5 -9.0 5.4 -9.0 M5.65 -3.1 L6.1 -3.35 6.25 -3.9 6.1 -4.5 5.65 -4.7 5.25 -4.5 5.05 -3.9 5.25 -3.35 5.65 -3.1 M7.65 -3.65 Q7.0 -3.95 6.3 -4.3 L7.5 -3.05 7.65 -3.65" fill="#ff9900" fill-rule="evenodd" stroke="none"/>
    <path d="M5.4 -9.0 L4.5 -9.0 4.5 -10.25 5.4 -10.25 5.4 -9.6 5.4 -9.0 M5.2 -7.15 L3.55 -7.75 3.55 -6.8 2.3 -7.65 2.3 -6.8 0.8 -8.85 -0.55 -9.15 0.8 -9.55 1.95 -8.95 1.7 -8.25 2.55 -8.25 1.95 -9.0 2.4 -9.55 3.35 -9.05 3.35 -9.8 5.2 -8.1 5.2 -7.15 M4.85 -9.7 Q5.15 -9.0 5.4 -9.6 5.2 -10.3 4.95 -9.95 L4.85 -9.7 M5.7 -3.7 Q5.8 -3.5 5.9 -4.0 5.4 -4.55 5.7 -3.7 M2.75 -8.55 L3.85 -7.95 3.65 -8.65 Q3.1 -9.15 2.75 -8.55 M5.65 -3.1 L5.25 -3.35 5.05 -3.9 5.25 -4.5 5.65 -4.7 6.1 -4.5 6.25 -3.9 6.1 -3.35 5.65 -3.1 M7.65 -3.65 L7.5 -3.05 6.3 -4.3 Q7.0 -3.95 7.65 -3.65" fill="#fec785" fill-rule="evenodd" stroke="none"/>
    <path d="M4.85 -9.7 L4.95 -9.95 Q5.2 -10.3 5.4 -9.6 5.15 -9.0 4.85 -9.7 M2.75 -8.55 Q3.1 -9.15 3.65 -8.65 L3.85 -7.95 2.75 -8.55 M5.7 -3.7 Q5.4 -4.55 5.9 -4.0 5.8 -3.5 5.7 -3.7" fill="#ffffff" fill-rule="evenodd" stroke="none"/>
    <path d="M1.7 -11.6 L1.65 -11.5 Q0.2 -10.45 -1.55 -11.2 -2.3 -11.55 -2.35 -12.3 L-1.1 -13.15 -1.25 -12.25 0.05 -11.9 0.8 -12.0 1.7 -11.6 M-8.8 -7.55 Q-9.0 -6.65 -8.3 -5.85 L-4.6 -5.2 -9.3 -5.2 -10.1 -4.15 -10.85 -3.55 -10.75 -3.3 -11.5 -2.4 Q-11.0 -1.4 -9.95 -1.25 L-5.95 -0.35 -2.45 -0.05 0.95 -0.05 4.35 -0.1 7.7 -0.4 9.1 -0.6 Q11.05 -1.15 12.9 -2.4 12.55 -1.25 11.4 -0.6 9.1 0.55 6.5 0.35 L-4.5 0.35 -6.05 0.3 -11.9 -0.55 Q-12.45 -1.3 -12.5 -2.2 L-12.5 -2.9 -12.35 -3.6 Q-11.1 -4.5 -10.1 -5.65 L-8.8 -7.55 M6.5 -5.85 L7.8 -5.55 5.3 -5.45 6.5 -5.85" fill="#a35101" fill-rule="evenodd" stroke="none"/>
    <path d="M-0.6 -11.65 L-2.45 -11.65 -2.45 -25.7 -2.45 -25.8 0.45 -34.75 2.5 -25.6 2.5 -25.55 2.5 -11.65 0.5 -11.65 1.25 -11.95 1.25 -25.95 0.2 -32.4 -1.25 -26.1 -1.25 -11.95 -0.6 -11.65" fill="#000000" fill-rule="evenodd" stroke="none"/>
    <path d="M0.5 -11.65 L-0.6 -11.65 -1.25 -11.95 -1.25 -26.1 0.2 -32.4 1.25 -25.95 1.25 -11.95 0.5 -11.65" fill="#f8e374" fill-rule="evenodd" stroke="none"/>
  </g>
</svg>
