<?xml version="1.0" encoding="UTF-8" standalone="no"?>
<svg xmlns:xlink="http://www.w3.org/1999/xlink" height="29.95px" width="18.9px" xmlns="http://www.w3.org/2000/svg">
  <g transform="matrix(1.0, 0.0, 0.0, 1.0, 7.45, 29.95)">
    <path d="M2.7 0.0 L-3.0 0.0 -4.0 -16.7 4.6 -16.7 2.7 0.0 M-4.65 0.0 L-4.75 0.0 -4.85 -1.25 -4.65 0.0" fill="#ba0101" fill-rule="evenodd" stroke="none"/>
    <path d="M4.3 0.0 L2.7 0.0 4.6 -16.7 6.15 -16.7 4.3 0.0 M-3.75 0.0 L-4.65 0.0 -4.85 -1.25 -5.75 -16.7 -4.7 -16.7 -3.75 0.0" fill="#db0202" fill-rule="evenodd" stroke="none"/>
    <path d="M-3.0 0.0 L-3.75 0.0 -4.7 -16.7 -4.0 -16.7 -3.0 0.0" fill="#fe7878" fill-rule="evenodd" stroke="none"/>
    <path d="M2.35 -21.5 L2.3 -21.4 1.95 -19.6 -0.5 -19.6 -0.45 -19.8 0.7 -24.4 1.6 -27.4 2.25 -26.95 2.2 -26.8 2.65 -25.15 1.95 -21.85 2.35 -21.5 M1.95 -28.0 L2.45 -28.7 2.25 -28.45 2.95 -26.95 1.95 -28.0 M2.85 -28.85 L3.35 -29.0 3.6 -28.9 3.4 -28.95 3.35 -27.4 3.3 -27.4 2.85 -28.85 M4.0 -28.75 L4.35 -28.65 4.1 -28.15 4.0 -28.75 M4.55 -28.6 L7.8 -27.8 9.85 -27.3 Q10.6 -26.8 10.45 -26.05 L10.05 -25.3 10.35 -25.7 10.2 -25.75 Q10.1 -25.2 9.55 -25.2 L6.8 -25.85 5.1 -26.3 4.45 -26.9 4.9 -28.5 4.55 -28.6 M-5.75 -16.7 L-6.4 -16.7 -6.4 -19.1 6.9 -19.1 6.9 -16.7 6.15 -16.7 4.6 -16.7 -4.0 -16.7 -4.7 -16.7 -5.75 -16.7 M-5.75 -18.15 L-5.75 -17.15 6.35 -17.15 6.35 -18.15 -5.75 -18.15 M2.6 -28.35 L2.6 -28.6 2.65 -28.3 2.6 -28.35 M9.25 -25.55 L9.4 -25.4 Q10.05 -25.4 10.05 -26.35 10.15 -26.85 9.75 -26.9 L9.65 -26.9 Q8.95 -26.9 8.95 -25.9 L9.25 -25.55" fill="#ffffff" fill-rule="evenodd" stroke="none"/>
    <path d="M-5.75 -18.15 L6.35 -18.15 6.35 -17.15 -5.75 -17.15 -5.75 -18.15" fill="#febcbc" fill-rule="evenodd" stroke="none"/>
    <path d="M1.6 -27.4 L0.7 -24.4 -0.45 -19.8 -0.5 -19.6 1.95 -19.6 2.3 -21.4 2.35 -21.5 Q2.75 -23.45 3.6 -25.7 L3.8 -26.35 9.35 -24.95 10.05 -25.3 10.45 -26.05 Q10.6 -26.8 9.85 -27.3 L7.8 -27.8 4.55 -28.6 4.35 -28.65 4.0 -28.75 4.0 -28.8 3.6 -28.9 3.35 -29.0 2.85 -28.85 2.55 -28.8 2.5 -28.75 2.45 -28.7 1.95 -28.0 1.75 -27.7 1.6 -27.4 M-4.75 0.0 L-5.8 0.0 -6.75 -15.8 -7.15 -16.05 -7.45 -16.75 -7.45 -19.15 -7.15 -19.85 Q-6.85 -20.15 -6.45 -20.15 L-1.45 -20.15 -0.35 -24.6 Q0.25 -27.2 0.85 -28.15 1.5 -29.35 1.95 -29.55 L2.25 -29.7 3.05 -29.9 3.65 -29.9 7.95 -28.7 8.0 -28.7 10.05 -28.2 10.35 -28.05 Q11.7 -27.2 11.4 -25.8 L11.4 -25.75 Q11.05 -24.35 9.6 -23.9 L9.05 -23.9 4.4 -25.1 Q3.6 -22.95 3.25 -21.15 L3.05 -20.15 6.85 -20.15 7.55 -19.85 7.85 -19.15 7.85 -16.75 7.55 -16.05 7.0 -15.75 5.25 0.0 4.3 0.0 6.15 -16.7 6.9 -16.7 6.9 -19.1 -6.4 -19.1 -6.4 -16.7 -5.75 -16.7 -4.85 -1.25 -4.75 0.0" fill="#000000" fill-rule="evenodd" stroke="none"/>
    <path d="M1.6 -27.4 L1.75 -27.7 1.95 -28.0 2.95 -26.95 2.25 -28.45 2.45 -28.7 2.5 -28.75 2.55 -28.8 2.85 -28.85 3.3 -27.4 3.35 -27.4 3.4 -28.95 3.6 -28.9 4.0 -28.8 4.0 -28.75 4.1 -28.15 4.35 -28.65 4.55 -28.6 4.9 -28.5 4.45 -26.9 5.1 -26.3 6.8 -25.85 9.55 -25.2 Q10.1 -25.2 10.2 -25.75 L10.35 -25.7 10.05 -25.3 9.35 -24.95 3.8 -26.35 3.6 -25.7 Q2.75 -23.45 2.35 -21.5 L1.95 -21.85 2.65 -25.15 2.2 -26.8 2.25 -26.95 1.6 -27.4 M2.6 -28.35 L2.65 -28.3 2.6 -28.6 2.6 -28.35 M9.75 -26.9 Q10.15 -26.85 10.05 -26.35 10.05 -25.4 9.4 -25.4 L9.25 -25.55 9.75 -26.6 9.75 -26.9" fill="#d5d5ff" fill-rule="evenodd" stroke="none"/>
    <path d="M9.25 -25.55 L8.95 -25.9 Q8.95 -26.9 9.65 -26.9 L9.75 -26.9 9.75 -26.6 9.25 -25.55" fill="#25267c" fill-rule="evenodd" stroke="none"/>
    <path d="M-0.9 -12.75 Q-2.7 -11.5 -3.2 -9.6 L-3.2 -9.05 -3.15 -8.95 Q-2.6 -10.7 -1.5 -10.7 -0.9 -10.7 -0.9 -10.2 L-1.2 -9.4 -1.2 -9.35 0.25 -9.75 Q0.7 -9.75 0.7 -9.25 L0.55 -8.7 0.6 -8.45 0.85 -9.15 0.5 -10.8 Q0.9 -11.65 1.7 -11.65 2.25 -11.65 2.3 -10.9 L2.25 -10.2 Q2.25 -8.95 2.95 -8.95 3.7 -8.95 4.15 -9.35 4.55 -9.8 4.85 -9.8 L5.4 -9.75 5.45 -9.75 5.35 -8.85 5.3 -8.85 4.65 -8.9 Q3.6 -8.3 3.0 -8.3 1.9 -8.3 1.75 -9.2 L1.65 -11.0 1.15 -10.65 1.5 -9.15 Q1.5 -7.65 0.65 -7.65 -0.15 -7.65 -0.15 -8.95 L-0.5 -8.95 -1.4 -8.4 Q-1.9 -8.4 -2.0 -9.05 L-1.9 -9.4 Q-2.35 -8.25 -3.0 -8.25 -3.95 -8.25 -3.95 -9.35 L-3.85 -10.0 -3.85 -10.25 -5.25 -9.0 -5.25 -9.65 -3.95 -11.15 Q-2.3 -13.15 -1.25 -13.15 L-0.9 -12.75" fill="#ffffff" fill-rule="evenodd" stroke="none"/>
  </g>
</svg>
