<?xml version="1.0" encoding="UTF-8" standalone="no"?>
<svg xmlns:xlink="http://www.w3.org/1999/xlink" height="22.65px" width="27.55px" xmlns="http://www.w3.org/2000/svg">
  <g transform="matrix(1.0, 0.0, 0.0, 1.0, 14.15, 22.6)">
    <path d="M2.25 -20.65 L2.25 -20.4 2.25 -20.25 2.3 -20.25 Q2.45 -20.8 3.2 -20.8 4.15 -20.8 4.2 -19.8 L4.15 -19.4 4.3 -19.35 5.55 -18.5 5.55 -18.55 Q5.55 -19.25 6.45 -19.25 7.1 -19.25 7.15 -18.5 L7.15 -18.45 Q7.9 -18.4 8.05 -17.4 L7.6 -16.5 8.15 -15.7 Q8.3 -15.95 8.75 -15.95 9.7 -15.95 9.7 -15.2 9.7 -14.5 8.9 -14.45 L9.35 -13.6 9.45 -13.6 10.1 -12.95 9.8 -12.65 10.25 -11.6 10.7 -11.75 Q11.35 -11.75 11.4 -11.0 11.4 -10.4 10.8 -10.35 L10.9 -10.05 Q10.25 -9.95 10.25 -9.2 L10.35 -8.55 11.0 -8.35 10.9 -7.85 11.0 -7.25 10.9 -6.8 10.5 -7.4 10.5 -7.5 10.25 -8.25 Q9.6 -8.1 9.55 -7.3 L9.3 -7.1 9.6 -6.9 9.5 -6.95 9.25 -7.1 Q7.65 -6.65 7.65 -5.75 L7.8 -5.4 7.75 -5.15 7.8 -4.6 7.85 -4.5 7.15 -4.15 Q6.9 -4.55 6.25 -4.55 L5.55 -4.3 6.5 -5.3 6.05 -5.75 Q4.75 -4.9 4.75 -4.5 L4.8 -4.05 5.25 -4.1 5.0 -3.85 4.6 -3.35 4.6 -3.5 4.25 -4.0 3.45 -2.95 2.8 -3.15 Q1.95 -3.15 1.55 -2.75 L1.6 -3.1 Q1.6 -3.55 1.0 -3.75 L0.4 -3.25 Q-0.85 -3.25 -1.1 -2.55 L-4.25 -3.4 Q-5.0 -3.4 -5.0 -2.75 -5.0 -1.95 -4.15 -1.65 L-4.25 -1.25 -4.3 -0.85 -5.5 -0.9 Q-5.5 -1.75 -6.7 -1.85 -6.2 -2.0 -6.0 -2.6 L-8.0 -3.5 -8.7 -3.25 Q-9.2 -3.75 -9.9 -3.75 L-9.95 -3.75 -9.75 -3.5 -9.6 -3.0 -9.8 -2.45 -9.8 -2.55 -10.0 -3.2 Q-10.3 -3.8 -10.8 -3.8 -11.3 -3.8 -11.45 -3.5 L-11.8 -4.05 -11.3 -4.2 -11.2 -4.7 -11.8 -5.3 -12.25 -5.25 -12.45 -6.05 Q-13.2 -6.15 -13.05 -6.95 -13.05 -7.85 -12.4 -8.05 L-12.15 -9.1 -12.35 -9.75 Q-12.35 -10.6 -11.6 -10.7 L-11.3 -11.25 Q-11.65 -11.45 -11.55 -11.95 -11.55 -12.9 -10.7 -12.9 L-10.4 -12.85 -9.9 -13.85 -10.2 -14.55 Q-10.2 -15.45 -9.3 -15.45 L-8.95 -15.4 -8.05 -16.7 -7.75 -17.05 Q-7.6 -16.55 -6.95 -16.55 -6.05 -16.55 -6.05 -17.45 L-6.95 -18.6 Q-7.4 -18.6 -7.6 -18.25 -7.5 -18.95 -6.75 -19.0 L-6.0 -19.3 -5.45 -19.2 Q-5.35 -18.8 -4.8 -18.8 -4.1 -18.8 -4.1 -19.45 -4.1 -20.1 -4.6 -20.15 L-3.75 -20.4 -3.45 -20.1 -3.2 -20.2 -3.25 -20.45 Q-3.25 -21.4 -2.25 -21.4 -1.4 -21.4 -1.25 -20.65 L0.45 -20.65 Q0.5 -21.25 1.15 -21.35 L1.1 -21.05 Q1.1 -20.4 1.7 -20.4 2.2 -20.4 2.2 -20.55 L2.25 -20.65 M1.65 -0.05 L0.05 -0.05 -0.45 -0.3 Q-0.05 -0.55 0.0 -0.95 L0.5 -0.9 1.35 -0.95 1.35 -0.85 Q1.35 -0.45 1.6 -0.2 L0.7 -0.05 1.65 -0.05 M-9.95 -1.75 L-10.05 -1.85 -9.9 -1.75 -9.95 -1.75 M-7.25 -12.55 L-7.2 -12.55 -6.85 -12.1 Q-7.3 -11.75 -7.3 -10.75 -7.3 -9.55 -6.15 -9.55 L-5.2 -9.75 -5.25 -9.45 -5.1 -8.75 -4.25 -8.5 Q-3.3 -8.5 -3.3 -9.45 -3.3 -10.4 -4.25 -10.4 L-4.7 -10.3 -4.65 -10.55 -4.25 -10.5 Q-3.1 -10.5 -3.1 -11.75 L-3.1 -11.8 -3.15 -12.15 -3.0 -12.3 -2.95 -12.3 -2.9 -12.3 -2.75 -12.3 -2.3 -12.35 -1.75 -12.25 -0.95 -12.45 -1.5 -12.25 -1.25 -12.25 Q-0.5 -12.25 0.25 -12.95 1.0 -13.65 1.0 -14.25 0.95 -15.25 0.05 -15.35 L-0.25 -15.4 -0.9 -15.35 -0.65 -15.15 -1.4 -15.8 -1.85 -15.75 -1.9 -15.7 -2.05 -15.4 -2.1 -15.4 -2.1 -15.6 -2.2 -16.0 -1.65 -16.25 -1.0 -16.5 Q-0.6 -16.85 -0.55 -17.55 -0.65 -18.8 -1.85 -18.8 L-1.9 -18.8 -2.25 -18.75 -2.95 -18.25 Q-3.4 -18.05 -3.5 -17.5 L-3.65 -17.5 -3.95 -17.45 -4.15 -17.4 -4.25 -17.35 -4.75 -17.75 -5.3 -17.3 -5.4 -17.3 -5.75 -17.25 -6.1 -16.95 -6.25 -16.4 Q-6.25 -15.8 -5.75 -15.65 L-6.0 -14.85 -6.05 -14.65 -6.2 -14.5 -6.65 -14.4 -7.05 -14.5 Q-6.15 -15.05 -6.15 -15.3 L-6.25 -15.65 Q-6.5 -16.0 -7.05 -16.0 -7.9 -16.0 -7.9 -15.05 L-7.45 -14.45 -8.1 -13.8 Q-8.8 -13.7 -8.8 -12.65 L-8.75 -12.15 -8.0 -11.85 -7.25 -12.15 -7.25 -12.55 M0.8 -17.5 Q0.25 -17.35 0.25 -16.65 0.05 -15.6 1.3 -15.6 2.3 -15.6 2.3 -16.6 L2.3 -16.7 Q2.75 -16.9 2.75 -17.5 2.65 -18.65 1.75 -18.65 0.8 -18.65 0.8 -17.5 M4.0 -16.5 Q3.25 -16.5 3.25 -15.75 L3.25 -15.35 4.0 -14.9 Q4.65 -14.9 4.75 -15.25 L4.8 -15.75 Q4.8 -16.5 4.0 -16.5 M2.4 -20.25 L2.45 -20.05 2.8 -19.8 3.1 -19.9 3.25 -20.3 2.8 -20.65 2.4 -20.25 M0.6 -19.15 Q0.6 -19.75 0.0 -19.85 -0.75 -19.5 -0.75 -19.15 L0.0 -18.5 Q0.25 -18.55 0.5 -18.75 L0.6 -19.15 M6.25 -15.55 L5.75 -16.0 Q5.3 -15.75 5.3 -15.35 L5.75 -15.1 6.25 -15.55 M3.1 -12.4 Q3.9 -12.65 3.9 -13.25 3.75 -14.0 3.1 -14.0 2.3 -14.0 2.3 -13.25 L3.1 -12.4 M7.0 -7.1 Q7.0 -7.9 6.5 -8.25 5.9 -7.9 5.7 -7.2 L5.6 -6.5 5.75 -6.05 Q7.0 -6.65 7.0 -7.1 M9.6 -9.7 Q9.0 -12.25 8.0 -12.25 L7.5 -12.15 7.5 -11.65 Q7.55 -10.95 7.75 -10.3 8.1 -9.25 8.65 -9.05 8.35 -8.65 8.35 -8.1 8.35 -7.6 8.9 -7.5 10.0 -7.6 10.0 -9.05 10.0 -9.6 9.5 -9.75 L9.6 -9.7 M0.55 -11.6 L1.3 -11.8 1.4 -12.3 Q1.4 -13.1 0.85 -13.1 0.0 -12.9 0.0 -12.25 0.0 -11.85 0.55 -11.6 M2.0 -10.0 L2.0 -9.65 Q2.0 -9.4 2.35 -9.25 L2.75 -9.6 Q2.75 -10.0 2.35 -10.05 L2.0 -10.0 M-0.15 -10.85 L0.25 -11.05 0.3 -11.4 -0.25 -12.05 Q-0.8 -11.8 -0.8 -11.45 L-0.75 -11.2 -1.0 -11.25 Q-1.85 -11.25 -1.85 -10.4 L-1.75 -9.75 -1.0 -9.5 Q-0.35 -9.5 -0.15 -9.75 L-0.05 -10.4 -0.15 -10.85 M7.05 -1.65 L6.3 -1.4 5.8 -1.85 Q6.6 -2.0 7.0 -2.45 L7.05 -1.65 M9.95 -4.75 L9.0 -3.4 9.0 -4.1 9.95 -4.75 M4.5 -2.35 Q4.7 -2.0 5.05 -1.85 L3.75 -1.1 3.55 -1.45 3.75 -2.2 3.75 -2.25 4.4 -2.85 4.5 -2.35 M1.55 -1.15 L1.8 -1.05 1.55 -1.15 M1.25 -2.35 L1.25 -2.55 1.4 -2.6 1.25 -2.35 M4.25 -5.3 Q4.85 -5.75 4.85 -6.05 4.85 -6.55 4.25 -6.65 L2.0 -5.4 2.65 -4.75 Q3.55 -4.75 4.25 -5.3 M3.6 -4.05 Q3.6 -4.5 2.8 -4.55 2.15 -4.3 1.6 -3.6 1.85 -3.25 2.25 -3.15 3.6 -3.6 3.6 -4.05 M-1.7 -20.75 L-2.0 -20.5 Q-2.0 -20.25 -1.7 -20.1 L-1.35 -20.4 -1.7 -20.75 M-10.35 -9.65 L-10.25 -9.25 Q-8.75 -9.75 -8.75 -10.55 -8.75 -11.15 -8.9 -11.4 -10.35 -10.75 -10.35 -9.65 M-11.5 -12.0 L-11.4 -11.45 -10.7 -11.2 -10.0 -11.45 -9.9 -12.0 -10.0 -12.4 Q-10.2 -12.8 -10.7 -12.8 -11.5 -12.8 -11.5 -12.0 M-8.0 -7.9 Q-8.5 -7.75 -8.5 -7.45 -8.5 -7.05 -8.0 -6.9 L-7.6 -7.0 -7.5 -7.5 Q-7.65 -7.8 -8.0 -7.9 M-3.65 -7.0 Q-4.5 -7.0 -4.5 -6.25 L-4.4 -5.75 Q-3.8 -5.4 -3.65 -5.4 -3.15 -5.4 -3.05 -5.7 L-2.85 -6.25 Q-2.9 -7.0 -3.65 -7.0 M-8.25 -2.25 L-7.3 -1.85 -8.1 -1.8 -8.05 -2.15 -8.25 -2.25 M-1.1 -1.95 L-1.45 -2.0 -1.15 -2.3 -1.15 -2.15 -1.1 -1.95 M-2.25 -4.15 L-2.25 -4.25 Q-2.25 -4.75 -2.75 -4.8 L-4.0 -4.0 -3.05 -3.7 -3.0 -3.55 Q-2.6 -3.25 -2.25 -3.25 -1.65 -3.25 -1.55 -3.55 L-1.6 -3.9 -2.25 -4.15" fill="#ff2f2f" fill-rule="evenodd" stroke="none"/>
    <path d="M-12.25 -5.25 L-11.8 -5.3 -11.2 -4.7 -11.3 -4.2 -11.8 -4.05 Q-12.45 -4.05 -12.4 -4.7 L-12.25 -5.25 M-11.45 -3.5 Q-11.3 -3.8 -10.8 -3.8 -10.3 -3.8 -10.0 -3.2 L-9.8 -2.55 -9.8 -2.45 -9.6 -3.0 -9.75 -3.5 -9.95 -3.75 -9.9 -3.75 Q-9.2 -3.75 -8.7 -3.25 L-8.0 -3.5 -6.0 -2.6 Q-6.2 -2.0 -6.7 -1.85 -5.5 -1.75 -5.5 -0.9 L-4.3 -0.85 -4.25 -1.25 -4.15 -1.65 Q-5.0 -1.95 -5.0 -2.75 -5.0 -3.4 -4.25 -3.4 L-1.1 -2.55 Q-0.85 -3.25 0.4 -3.25 L1.0 -3.75 Q1.6 -3.55 1.6 -3.1 L1.55 -2.75 Q1.95 -3.15 2.8 -3.15 L3.45 -2.95 4.25 -4.0 4.6 -3.5 4.6 -3.35 5.0 -3.85 5.25 -4.1 4.8 -4.05 4.75 -4.5 Q4.75 -4.9 6.05 -5.75 L6.5 -5.3 5.55 -4.3 6.25 -4.55 Q6.9 -4.55 7.15 -4.15 L7.85 -4.5 7.8 -4.6 7.75 -5.15 7.8 -5.4 7.65 -5.75 Q7.65 -6.65 9.25 -7.1 L9.5 -6.95 9.6 -6.9 9.3 -7.1 9.55 -7.3 Q9.6 -8.1 10.25 -8.25 L10.5 -7.5 10.5 -7.4 10.9 -6.8 11.0 -7.25 10.9 -7.85 11.0 -8.35 10.35 -8.55 10.25 -9.2 Q10.25 -9.95 10.9 -10.05 L11.05 -10.05 Q11.9 -10.05 11.9 -9.15 L11.85 -8.75 Q12.75 -8.75 12.75 -7.8 12.75 -6.9 11.8 -6.85 L11.5 -4.7 11.85 -4.3 11.8 -4.0 11.25 -3.7 11.1 -3.1 11.2 -2.55 Q11.2 -1.7 10.3 -1.7 L9.55 -1.9 9.55 -2.0 Q8.8 -1.4 7.9 -0.95 L5.4 -0.15 4.75 -0.1 1.65 -0.05 0.7 -0.05 1.6 -0.2 Q1.35 -0.45 1.35 -0.85 L1.35 -0.95 0.5 -0.9 0.0 -0.95 Q-0.05 -0.55 -0.45 -0.3 L0.05 -0.05 -8.2 -0.55 -8.25 -0.6 -8.3 -0.6 -8.35 -0.65 -8.4 -0.65 -8.5 -0.7 -8.55 -0.7 -8.65 -0.75 -8.75 -0.8 -8.8 -0.85 Q-9.15 -0.35 -9.75 -0.35 -10.55 -0.35 -10.45 -1.0 -10.45 -1.65 -9.95 -1.75 L-9.9 -1.75 -10.05 -1.85 -10.7 -1.7 Q-11.75 -1.7 -11.6 -2.95 L-11.45 -3.5 M9.6 -9.7 L9.5 -9.75 Q10.0 -9.6 10.0 -9.05 10.0 -7.6 8.9 -7.5 8.35 -7.6 8.35 -8.1 8.35 -8.65 8.65 -9.05 8.1 -9.25 7.75 -10.3 7.55 -10.95 7.5 -11.65 L7.5 -12.15 8.0 -12.25 Q9.0 -12.25 9.6 -9.7 M7.0 -7.1 Q7.0 -6.65 5.75 -6.05 L5.6 -6.5 5.7 -7.2 Q5.9 -7.9 6.5 -8.25 7.0 -7.9 7.0 -7.1 M3.6 -4.05 Q3.6 -3.6 2.25 -3.15 1.85 -3.25 1.6 -3.6 2.15 -4.3 2.8 -4.55 3.6 -4.5 3.6 -4.05 M4.25 -5.3 Q3.55 -4.75 2.65 -4.75 L2.0 -5.4 4.25 -6.65 Q4.85 -6.55 4.85 -6.05 4.85 -5.75 4.25 -5.3 M1.25 -2.35 L1.4 -2.6 1.25 -2.55 1.25 -2.35 M1.55 -1.15 L1.8 -1.05 1.55 -1.15 M4.5 -2.35 L4.4 -2.85 3.75 -2.25 3.75 -2.2 3.55 -1.45 3.75 -1.1 5.05 -1.85 Q4.7 -2.0 4.5 -2.35 M9.95 -4.75 L9.0 -4.1 9.0 -3.4 9.95 -4.75 M7.05 -1.65 L7.0 -2.45 Q6.6 -2.0 5.8 -1.85 L6.3 -1.4 7.05 -1.65 M-8.25 -2.25 L-8.05 -2.15 -8.1 -1.8 -7.3 -1.85 -8.25 -2.25 M-2.25 -4.15 L-1.6 -3.9 -1.55 -3.55 Q-1.65 -3.25 -2.25 -3.25 -2.6 -3.25 -3.0 -3.55 L-3.05 -3.7 -4.0 -4.0 -2.75 -4.8 Q-2.25 -4.75 -2.25 -4.25 L-2.25 -4.15 M-1.1 -1.95 L-1.15 -2.15 -1.15 -2.3 -1.45 -2.0 -1.1 -1.95" fill="#ba0101" fill-rule="evenodd" stroke="none"/>
    <path d="M2.25 -20.65 L2.2 -20.55 Q2.2 -20.4 1.7 -20.4 1.1 -20.4 1.1 -21.05 L1.15 -21.35 Q1.25 -21.8 1.7 -21.6 L2.3 -21.0 2.25 -20.65 M-4.6 -20.15 Q-4.1 -20.1 -4.1 -19.45 -4.1 -18.8 -4.8 -18.8 -5.35 -18.8 -5.45 -19.2 L-5.5 -19.45 Q-5.5 -20.2 -4.8 -20.2 L-4.6 -20.15 M-7.6 -18.25 Q-7.4 -18.6 -6.95 -18.6 L-6.05 -17.45 Q-6.05 -16.55 -6.95 -16.55 -7.6 -16.55 -7.75 -17.05 L-7.8 -17.4 -7.6 -18.25 M0.6 -19.15 L0.5 -18.75 Q0.25 -18.55 0.0 -18.5 L-0.75 -19.15 Q-0.75 -19.5 0.0 -19.85 0.6 -19.75 0.6 -19.15 M2.4 -20.25 L2.8 -20.65 3.25 -20.3 3.1 -19.9 2.8 -19.8 2.45 -20.05 2.4 -20.25 M4.0 -16.5 Q4.8 -16.5 4.8 -15.75 L4.75 -15.25 Q4.65 -14.9 4.0 -14.9 L3.25 -15.35 3.25 -15.75 Q3.25 -16.5 4.0 -16.5 M0.8 -17.5 Q0.8 -18.65 1.75 -18.65 2.65 -18.65 2.75 -17.5 2.75 -16.9 2.3 -16.7 L2.3 -16.6 Q2.3 -15.6 1.3 -15.6 0.05 -15.6 0.25 -16.65 0.25 -17.35 0.8 -17.5 M-2.05 -15.4 L-1.9 -15.7 -1.85 -15.75 -1.4 -15.8 -0.65 -15.15 -0.9 -15.35 -0.25 -15.4 0.05 -15.35 Q0.95 -15.25 1.0 -14.25 1.0 -13.65 0.25 -12.95 -0.5 -12.25 -1.25 -12.25 L-1.5 -12.25 -0.95 -12.45 -1.75 -12.25 -2.3 -12.35 -2.75 -12.3 -2.9 -12.3 -2.95 -12.3 -3.0 -12.3 -3.15 -12.15 -3.1 -11.8 -3.1 -11.75 Q-3.1 -10.5 -4.25 -10.5 L-4.65 -10.55 -4.7 -10.3 -4.25 -10.4 Q-3.3 -10.4 -3.3 -9.45 -3.3 -8.5 -4.25 -8.5 L-5.1 -8.75 -5.25 -9.45 -5.2 -9.75 -6.15 -9.55 Q-7.3 -9.55 -7.3 -10.75 -7.3 -11.75 -6.85 -12.1 L-7.2 -12.55 -7.25 -12.55 -7.25 -13.35 Q-7.4 -13.8 -8.0 -13.8 L-8.1 -13.8 -7.45 -14.45 -7.9 -15.05 Q-7.9 -16.0 -7.05 -16.0 -6.5 -16.0 -6.25 -15.65 L-6.15 -15.3 Q-6.15 -15.05 -7.05 -14.5 L-6.65 -14.4 -6.2 -14.5 Q-6.6 -14.15 -6.6 -13.35 -6.55 -11.75 -5.15 -11.75 -3.75 -11.75 -3.75 -13.3 -3.9 -14.9 -5.15 -14.9 L-6.05 -14.65 -6.0 -14.85 -5.75 -15.65 -5.4 -15.6 Q-4.55 -15.6 -4.55 -16.4 -4.55 -17.25 -5.3 -17.3 L-4.75 -17.75 -4.25 -17.35 -4.15 -17.4 -3.95 -17.45 -3.65 -17.5 -3.5 -17.5 -3.55 -17.05 Q-3.8 -16.0 -2.5 -16.0 L-2.2 -16.0 -2.1 -15.6 -2.1 -15.4 Q-2.8 -15.35 -2.8 -14.65 L-2.75 -14.1 Q-2.65 -13.85 -2.0 -13.85 -1.4 -13.85 -1.35 -14.1 L-1.25 -14.65 Q-1.25 -15.4 -2.0 -15.4 L-2.05 -15.4 M-2.95 -18.25 L-2.25 -18.75 -1.9 -18.8 -1.85 -18.8 Q-0.65 -18.8 -0.55 -17.55 -0.6 -16.85 -1.0 -16.5 L-1.65 -16.25 Q-1.25 -16.6 -1.25 -17.4 -1.25 -18.4 -2.3 -18.4 L-2.95 -18.25 M3.1 -12.4 L2.3 -13.25 Q2.3 -14.0 3.1 -14.0 3.75 -14.0 3.9 -13.25 3.9 -12.65 3.1 -12.4 M6.25 -15.55 L5.75 -15.1 5.3 -15.35 Q5.3 -15.75 5.75 -16.0 L6.25 -15.55 M2.0 -10.0 L2.35 -10.05 Q2.75 -10.0 2.75 -9.6 L2.35 -9.25 Q2.0 -9.4 2.0 -9.65 L2.0 -10.0 M0.55 -11.6 Q0.0 -11.85 0.0 -12.25 0.0 -12.9 0.85 -13.1 1.4 -13.1 1.4 -12.3 L1.3 -11.8 0.55 -11.6 M-0.15 -10.85 L-0.05 -10.4 -0.15 -9.75 Q-0.35 -9.5 -1.0 -9.5 L-1.75 -9.75 -1.85 -10.4 Q-1.85 -11.25 -1.0 -11.25 L-0.75 -11.2 -0.25 -10.8 -0.15 -10.85 M-1.7 -20.75 L-1.35 -20.4 -1.7 -20.1 Q-2.0 -20.25 -2.0 -20.5 L-1.7 -20.75 M-11.5 -12.0 Q-11.5 -12.8 -10.7 -12.8 -10.2 -12.8 -10.0 -12.4 L-9.9 -12.0 -10.0 -11.45 -10.7 -11.2 -11.4 -11.45 -11.5 -12.0 M-10.35 -9.65 Q-10.35 -10.75 -8.9 -11.4 -8.75 -11.15 -8.75 -10.55 -8.75 -9.75 -10.25 -9.25 L-10.35 -9.65 M-4.75 -9.25 L-4.55 -8.85 -4.25 -8.75 -3.8 -9.25 -4.25 -9.65 Q-4.75 -9.85 -4.75 -9.25 M-3.65 -7.0 Q-2.9 -7.0 -2.85 -6.25 L-3.05 -5.7 Q-3.15 -5.4 -3.65 -5.4 -3.8 -5.4 -4.4 -5.75 L-4.5 -6.25 Q-4.5 -7.0 -3.65 -7.0 M-8.0 -7.9 Q-7.65 -7.8 -7.5 -7.5 L-7.6 -7.0 -8.0 -6.9 Q-8.5 -7.05 -8.5 -7.45 -8.5 -7.75 -8.0 -7.9" fill="#febcbc" fill-rule="evenodd" stroke="none"/>
    <path d="M-7.25 -12.55 L-7.25 -12.15 -8.0 -11.85 -8.75 -12.15 -8.8 -12.65 Q-8.8 -13.7 -8.1 -13.8 L-8.0 -13.8 Q-7.4 -13.8 -7.25 -13.35 L-7.25 -12.55 M-6.2 -14.5 L-6.05 -14.65 -5.15 -14.9 Q-3.9 -14.9 -3.75 -13.3 -3.75 -11.75 -5.15 -11.75 -6.55 -11.75 -6.6 -13.35 -6.6 -14.15 -6.2 -14.5 M-5.75 -15.65 Q-6.25 -15.8 -6.25 -16.4 L-6.1 -16.95 -5.75 -17.25 -5.4 -17.3 -5.3 -17.3 Q-4.55 -17.25 -4.55 -16.4 -4.55 -15.6 -5.4 -15.6 L-5.75 -15.65 M-3.5 -17.5 Q-3.4 -18.05 -2.95 -18.25 L-2.3 -18.4 Q-1.25 -18.4 -1.25 -17.4 -1.25 -16.6 -1.65 -16.25 L-2.2 -16.0 -2.5 -16.0 Q-3.8 -16.0 -3.55 -17.05 L-3.5 -17.5 M-2.1 -15.4 L-2.05 -15.4 -2.0 -15.4 Q-1.25 -15.4 -1.25 -14.65 L-1.35 -14.1 Q-1.4 -13.85 -2.0 -13.85 -2.65 -13.85 -2.75 -14.1 L-2.8 -14.65 Q-2.8 -15.35 -2.1 -15.4 M-0.75 -11.2 L-0.8 -11.45 Q-0.8 -11.8 -0.25 -12.05 L0.3 -11.4 0.25 -11.05 -0.15 -10.85 -0.25 -10.8 -0.75 -11.2 M-4.75 -9.25 Q-4.75 -9.85 -4.25 -9.65 L-3.8 -9.25 -4.25 -8.75 -4.55 -8.85 -4.75 -9.25" fill="#ffffff" fill-rule="evenodd" stroke="none"/>
    <path d="M10.85 -12.7 L11.4 -12.55 11.4 -12.6 11.8 -12.15 12.15 -11.45 12.25 -11.0 12.2 -10.55 12.3 -10.45 12.55 -9.95 12.6 -9.5 12.75 -9.45 13.25 -9.05 13.2 -9.1 13.4 -8.5 13.4 -7.1 13.2 -6.5 12.7 -6.15 12.6 -6.1 12.4 -4.8 12.6 -4.4 12.55 -4.4 12.65 -3.85 12.65 -3.8 12.4 -3.35 12.05 -2.95 11.9 -1.9 11.85 -1.8 11.85 -1.75 11.45 -1.35 11.5 -1.35 10.8 -1.2 9.75 -1.25 Q7.8 -0.25 5.4 0.0 L5.35 0.0 5.3 0.0 -8.65 -0.4 -8.75 -0.35 -9.25 -0.2 -10.05 -0.15 -10.1 -0.15 -10.75 -0.25 -10.9 -0.3 -11.35 -0.6 -11.5 -0.8 -11.55 -1.1 -11.5 -1.25 -11.65 -1.25 -12.25 -1.5 -12.3 -1.5 -12.55 -1.9 -12.6 -3.25 -13.0 -3.45 -13.35 -3.8 -13.5 -4.3 -13.55 -5.55 -13.8 -5.8 -14.05 -6.15 -14.1 -6.2 -14.15 -6.7 -14.0 -7.8 -13.65 -8.4 -13.4 -8.6 -13.3 -9.05 -13.45 -9.95 -13.4 -10.45 -13.35 -10.45 -13.1 -10.85 -12.6 -11.25 -12.45 -11.5 -12.45 -12.65 -12.25 -13.25 -11.65 -13.6 -11.25 -13.7 -11.05 -14.1 -11.1 -15.15 -10.9 -15.8 Q-10.7 -16.1 -10.3 -16.15 L-10.3 -16.2 -9.65 -16.3 -8.8 -17.55 -8.4 -19.0 -7.95 -19.6 -7.6 -19.85 -7.55 -19.85 -7.5 -19.95 -6.4 -20.3 -6.3 -20.45 -5.5 -20.95 -5.5 -21.0 -4.4 -21.2 -4.2 -21.2 -4.05 -21.55 -3.7 -21.95 -3.2 -22.15 -1.7 -22.2 -1.2 -22.05 -0.8 -21.7 -0.8 -21.65 -0.25 -21.65 0.1 -22.0 1.1 -22.5 1.7 -22.6 2.25 -22.35 2.85 -21.8 2.85 -21.75 3.0 -21.6 3.9 -21.55 4.45 -21.35 4.45 -21.3 4.75 -20.85 5.0 -20.1 5.55 -19.85 6.35 -20.15 7.05 -20.1 7.55 -19.6 7.8 -19.1 8.45 -18.6 8.8 -18.1 8.8 -17.5 8.6 -16.9 8.85 -16.7 9.75 -16.45 10.25 -16.15 10.5 -15.7 10.45 -15.15 10.1 -14.3 10.4 -14.05 10.6 -13.65 10.85 -12.7 M10.9 -10.05 L10.8 -10.35 Q11.4 -10.4 11.4 -11.0 11.35 -11.75 10.7 -11.75 L10.25 -11.6 9.8 -12.65 10.1 -12.95 9.45 -13.6 9.35 -13.6 8.9 -14.45 Q9.7 -14.5 9.7 -15.2 9.7 -15.95 8.75 -15.95 8.3 -15.95 8.15 -15.7 L7.6 -16.5 8.05 -17.4 Q7.9 -18.4 7.15 -18.45 L7.15 -18.5 Q7.1 -19.25 6.45 -19.25 5.55 -19.25 5.55 -18.55 L5.55 -18.5 4.3 -19.35 4.15 -19.4 4.2 -19.8 Q4.15 -20.8 3.2 -20.8 2.45 -20.8 2.3 -20.25 L2.25 -20.25 2.25 -20.4 2.25 -20.65 2.3 -21.0 1.7 -21.6 Q1.25 -21.8 1.15 -21.35 0.5 -21.25 0.45 -20.65 L-1.25 -20.65 Q-1.4 -21.4 -2.25 -21.4 -3.25 -21.4 -3.25 -20.45 L-3.2 -20.2 -3.45 -20.1 -3.75 -20.4 -4.6 -20.15 -4.8 -20.2 Q-5.5 -20.2 -5.5 -19.45 L-5.45 -19.2 -6.0 -19.3 -6.75 -19.0 Q-7.5 -18.95 -7.6 -18.25 L-7.8 -17.4 -7.75 -17.05 -8.05 -16.7 -8.95 -15.4 -9.3 -15.45 Q-10.2 -15.45 -10.2 -14.55 L-9.9 -13.85 -10.4 -12.85 -10.7 -12.9 Q-11.55 -12.9 -11.55 -11.95 -11.65 -11.45 -11.3 -11.25 L-11.6 -10.7 Q-12.35 -10.6 -12.35 -9.75 L-12.15 -9.1 -12.4 -8.05 Q-13.05 -7.85 -13.05 -6.95 -13.2 -6.15 -12.45 -6.05 L-12.25 -5.25 -12.4 -4.7 Q-12.45 -4.05 -11.8 -4.05 L-11.45 -3.5 -11.6 -2.95 Q-11.75 -1.7 -10.7 -1.7 L-10.05 -1.85 -9.95 -1.75 Q-10.45 -1.65 -10.45 -1.0 -10.55 -0.35 -9.75 -0.35 -9.15 -0.35 -8.8 -0.85 L-8.75 -0.8 -8.65 -0.75 -8.55 -0.7 -8.5 -0.7 -8.4 -0.65 -8.35 -0.65 -8.3 -0.6 -8.25 -0.6 -8.2 -0.55 0.05 -0.05 1.65 -0.05 4.75 -0.1 5.4 -0.15 7.9 -0.95 Q8.8 -1.4 9.55 -2.0 L9.55 -1.9 10.3 -1.7 Q11.2 -1.7 11.2 -2.55 L11.1 -3.1 11.25 -3.7 11.8 -4.0 11.85 -4.3 11.5 -4.7 11.8 -6.85 Q12.75 -6.9 12.75 -7.8 12.75 -8.75 11.85 -8.75 L11.9 -9.15 Q11.9 -10.05 11.05 -10.05 L10.9 -10.05" fill="#000000" fill-rule="evenodd" stroke="none"/>
  </g>
</svg>
