<?xml version="1.0" encoding="UTF-8" standalone="no"?>
<svg xmlns:xlink="http://www.w3.org/1999/xlink" height="30.5px" width="28.1px" xmlns="http://www.w3.org/2000/svg">
  <g transform="matrix(1.0, 0.0, 0.0, 1.0, 14.0, 27.35)">
    <path d="M4.55 -26.85 Q11.05 -24.35 11.1 -16.75 11.05 -12.35 11.75 -8.95 L12.15 -7.25 Q13.05 -4.0 13.75 -3.35 L14.0 -2.95 14.1 -2.5 14.1 -1.95 13.75 -1.3 Q13.45 -1.0 13.05 -1.0 L12.95 -1.0 Q11.25 -1.05 10.2 -0.25 8.85 0.85 3.75 2.65 L3.65 2.65 1.3 3.05 Q-0.85 3.25 -2.65 3.05 -5.5 2.7 -7.6 1.25 -10.65 -0.8 -11.9 -0.55 L-12.4 -0.55 Q-13.55 -0.8 -13.8 -1.5 -14.2 -2.15 -13.75 -3.05 L-12.4 -6.4 -12.4 -6.45 Q-11.75 -7.85 -11.05 -10.95 -10.35 -14.1 -10.35 -18.6 -10.45 -23.85 -6.85 -25.95 -4.85 -27.25 -2.45 -27.3 L-2.4 -27.3 4.35 -26.9 4.55 -26.85 M-3.15 -16.55 L-3.4 -16.15 -3.4 -16.2 Q-3.75 -15.4 -3.7 -14.3 -3.75 -13.25 -3.4 -12.45 L-3.4 -12.5 -3.2 -12.1 -3.15 -12.1 -3.0 -12.45 -3.0 -12.5 Q-2.65 -13.25 -2.6 -14.3 -2.65 -15.4 -3.0 -16.15 L-3.0 -16.2 -3.15 -16.55 M3.6 -16.45 L3.4 -16.05 3.4 -16.1 Q3.05 -15.35 3.05 -14.25 3.05 -13.15 3.4 -12.35 L3.4 -12.4 3.6 -12.0 3.75 -12.35 3.8 -12.4 Q4.15 -13.2 4.15 -14.25 4.15 -15.3 3.8 -16.05 L3.8 -16.1 3.65 -16.45 3.6 -16.45 M5.2 -7.4 Q0.1 -5.25 -4.4 -7.1 -2.2 -4.5 0.1 -4.4 2.55 -4.5 5.2 -7.4 M7.5 -8.55 L7.55 -8.6 7.5 -8.55" fill="#000000" fill-rule="evenodd" stroke="none"/>
    <path d="M2.0 -21.2 L1.65 -21.65 Q1.2 -21.65 1.2 -21.2 1.2 -20.75 1.6 -20.75 2.0 -20.75 2.0 -21.2 M4.4 -19.0 L4.0 -19.3 3.65 -19.15 Q3.2 -19.0 3.2 -18.6 3.2 -18.15 3.7 -18.15 4.45 -18.15 4.45 -18.7 L4.4 -19.0 M3.35 -20.5 Q3.35 -21.1 2.85 -21.1 2.25 -21.1 2.25 -20.5 L2.65 -20.1 2.4 -20.15 Q1.65 -20.15 1.65 -19.4 1.65 -18.9 2.25 -18.9 2.9 -18.9 2.9 -19.6 L2.8 -19.9 Q3.35 -19.9 3.35 -20.5 M3.7 -24.1 Q3.25 -24.1 3.25 -23.6 L3.75 -23.15 Q4.25 -23.15 4.25 -23.6 4.25 -24.1 3.7 -24.1 M1.85 -23.0 Q1.85 -22.55 2.4 -22.55 2.75 -22.55 2.75 -22.85 2.6 -23.45 2.3 -23.45 1.85 -23.45 1.85 -23.0 M1.1 -23.75 Q1.1 -24.2 0.6 -24.2 L0.2 -23.75 0.4 -23.35 0.3 -23.35 Q-0.15 -23.35 -0.15 -22.75 L0.1 -22.35 0.0 -22.0 Q0.0 -21.65 0.4 -21.65 0.85 -21.65 0.85 -22.0 L0.6 -22.45 0.7 -22.9 0.5 -23.3 0.6 -23.3 Q1.1 -23.3 1.1 -23.75 M1.4 -24.75 Q1.4 -24.4 1.8 -24.4 2.2 -24.4 2.2 -24.75 L1.85 -25.2 Q1.4 -25.2 1.4 -24.75 M6.2 -22.85 L5.75 -23.3 Q5.3 -23.3 5.3 -22.85 5.3 -22.45 5.7 -22.4 L5.7 -22.35 5.5 -22.35 5.5 -22.0 5.65 -21.7 5.6 -21.55 Q5.6 -21.3 5.75 -21.15 L6.0 -21.3 Q5.65 -21.25 5.65 -20.85 L5.75 -20.5 5.7 -20.25 5.7 -20.1 5.55 -20.35 4.95 -20.9 4.75 -20.85 5.0 -20.95 5.3 -21.6 5.3 -21.7 Q5.25 -22.5 4.65 -22.5 L4.6 -22.5 4.5 -22.5 4.05 -22.45 3.55 -22.2 3.35 -21.7 3.8 -21.3 Q3.4 -21.15 3.4 -20.65 3.4 -20.15 3.9 -20.15 4.35 -20.15 4.35 -20.8 L4.5 -20.8 4.4 -20.5 4.65 -19.9 Q4.3 -19.8 4.3 -19.4 4.3 -18.95 4.7 -18.95 L5.05 -19.0 5.25 -18.65 Q4.75 -18.6 4.75 -18.15 L5.1 -17.65 5.6 -16.7 5.7 -16.25 5.4 -15.65 Q5.4 -15.25 5.85 -15.25 L6.05 -15.25 6.05 -15.15 6.5 -14.3 Q7.0 -14.3 7.0 -14.75 L6.45 -15.55 6.6 -16.2 Q6.7 -16.0 7.0 -16.0 7.45 -16.0 7.45 -16.5 7.45 -17.0 7.05 -17.0 6.55 -17.0 6.55 -16.5 L6.4 -17.1 6.45 -17.1 6.8 -17.05 Q7.5 -17.05 7.5 -17.6 L7.35 -17.95 7.45 -18.15 7.65 -18.1 Q8.35 -18.1 8.35 -18.75 8.35 -19.45 7.8 -19.45 L7.6 -19.4 7.15 -19.7 6.95 -19.4 6.65 -19.55 6.75 -19.7 6.95 -19.8 Q7.4 -19.8 7.5 -20.25 L7.65 -20.1 Q8.1 -20.1 8.1 -20.55 8.1 -21.0 7.7 -21.0 L7.5 -20.95 7.15 -21.15 Q7.7 -21.15 7.7 -21.7 7.75 -22.3 7.15 -22.3 L6.7 -21.85 6.6 -22.0 6.6 -22.05 Q6.6 -22.55 6.15 -22.6 L6.2 -22.85 M5.65 -23.75 Q5.55 -24.35 5.15 -24.35 4.6 -24.35 4.6 -23.8 4.6 -23.25 5.15 -23.25 5.65 -23.25 5.65 -23.75 M0.2 -17.85 L-0.05 -18.45 0.15 -18.9 Q0.15 -19.45 -0.7 -19.45 L-0.65 -19.75 -0.65 -19.8 -0.6 -19.8 Q-0.05 -19.8 -0.05 -20.1 L-0.95 -21.85 -0.75 -22.45 -1.15 -23.05 -0.85 -23.05 Q-0.45 -23.05 -0.45 -23.5 L-0.45 -23.6 Q0.0 -23.75 0.0 -24.25 0.0 -24.65 -0.35 -24.65 -1.1 -24.65 -1.25 -24.2 -1.6 -24.1 -1.6 -23.65 L-1.5 -23.35 -1.85 -23.6 -1.2 -24.45 -1.4 -24.95 Q-1.1 -25.05 -1.1 -25.25 -1.1 -25.55 -1.95 -25.55 L-2.95 -25.4 -3.25 -25.4 Q-5.55 -25.4 -6.8 -23.65 L-7.5 -22.4 Q-7.35 -22.05 -7.65 -21.8 L-8.1 -21.15 -7.85 -20.65 -8.0 -19.9 -7.8 -19.5 -8.3 -18.9 Q-8.3 -18.45 -7.85 -18.45 -7.0 -18.45 -7.0 -19.15 L-7.2 -19.55 -6.9 -19.8 -6.65 -19.8 -6.65 -19.75 -6.95 -19.1 Q-6.95 -18.65 -6.45 -18.65 L-5.0 -19.35 Q-4.75 -18.65 -4.25 -18.65 L-4.0 -18.9 Q-3.9 -18.75 -3.6 -18.75 -3.25 -18.75 -3.25 -19.1 L-3.45 -19.5 -3.25 -19.75 Q-3.0 -19.5 -2.75 -19.5 -2.45 -19.5 -2.1 -19.85 L-1.8 -19.7 -1.75 -19.7 Q-1.75 -19.1 -1.2 -19.1 -0.95 -19.1 -0.8 -19.25 -0.9 -19.15 -1.05 -19.1 L-0.7 -18.7 -0.8 -18.0 -0.5 -16.9 -0.85 -17.0 -1.15 -16.6 Q-1.15 -16.25 -0.8 -16.25 -0.45 -16.25 -0.4 -16.5 L-0.25 -16.5 -0.3 -16.35 -0.25 -16.25 Q-0.25 -16.05 -0.05 -16.0 L0.05 -15.65 Q0.05 -15.25 0.2 -15.05 -0.25 -14.85 -0.7 -13.1 -0.7 -12.7 -0.3 -12.7 L0.15 -13.0 -0.4 -12.1 -0.15 -11.7 0.05 -11.7 0.05 -11.65 0.1 -11.35 -0.15 -11.25 -0.25 -11.25 -1.0 -11.0 Q-2.5 -11.0 -2.5 -9.95 -2.4 -9.4 -1.95 -9.4 L-0.9 -9.7 -0.75 -9.65 -0.95 -9.4 -1.05 -9.4 -1.15 -9.4 -1.25 -9.4 Q-2.3 -9.35 -2.3 -8.75 -2.3 -8.35 -1.8 -8.35 L-1.55 -8.45 -1.3 -8.35 Q-0.9 -8.35 -0.7 -8.55 0.05 -8.55 0.25 -8.95 L0.35 -8.9 0.5 -8.8 0.45 -8.6 Q0.45 -8.3 0.85 -8.3 L1.35 -8.65 1.35 -8.7 1.75 -8.85 2.15 -8.6 Q2.6 -8.6 2.6 -9.1 L2.6 -9.15 Q2.6 -8.85 3.0 -8.85 3.5 -8.85 3.6 -9.3 L3.8 -9.3 Q4.6 -9.3 4.6 -9.9 L4.25 -10.2 Q3.5 -10.2 3.4 -9.8 L2.85 -9.65 2.85 -9.85 Q2.15 -10.65 1.6 -10.8 L2.0 -10.65 2.15 -11.0 Q2.15 -11.5 1.7 -11.5 1.15 -11.5 1.15 -10.95 L1.15 -10.85 0.75 -10.8 0.75 -10.9 Q1.2 -10.9 1.2 -11.5 L1.25 -11.5 Q1.75 -11.5 1.75 -11.9 L0.85 -13.05 0.85 -13.1 0.45 -14.45 0.55 -14.75 0.5 -14.95 Q0.75 -15.0 0.75 -15.6 L0.6 -16.35 0.6 -16.4 1.0 -16.9 0.85 -17.15 0.9 -17.1 0.95 -17.3 1.0 -17.2 1.05 -16.9 1.3 -16.9 1.5 -17.5 Q1.3 -18.2 0.75 -18.2 0.45 -18.2 0.2 -17.85 M1.9 -16.1 Q1.9 -16.55 1.5 -16.55 1.05 -16.55 1.05 -16.15 1.05 -15.7 1.5 -15.7 1.9 -15.7 1.9 -16.1 M4.7 -16.5 Q4.25 -17.45 3.6 -17.45 2.95 -17.45 2.5 -16.5 2.05 -15.6 2.05 -14.25 2.05 -12.9 2.5 -11.95 2.95 -11.05 3.6 -11.0 4.25 -11.05 4.7 -11.95 5.15 -12.9 5.15 -14.25 5.15 -15.6 4.7 -16.5 M8.5 -18.1 Q8.05 -18.1 8.0 -17.65 7.65 -17.6 7.65 -17.2 L7.75 -16.85 7.6 -16.55 Q7.6 -16.0 8.1 -16.0 8.8 -16.0 8.8 -16.9 L9.1 -17.45 Q9.0 -18.1 8.5 -18.1 M10.1 -16.75 Q10.05 -12.25 10.75 -8.75 L11.2 -6.95 Q12.2 -3.25 13.1 -2.55 L13.1 -2.0 12.95 -2.0 Q10.85 -2.05 9.6 -1.0 8.3 0.0 3.45 1.7 L1.2 2.05 Q-0.8 2.25 -2.5 2.05 -5.1 1.7 -7.05 0.45 -10.6 -2.0 -12.2 -1.5 -13.3 -1.8 -12.8 -2.7 L-11.5 -6.0 Q-10.85 -7.5 -10.05 -10.7 -9.35 -14.0 -9.35 -18.6 -9.4 -23.25 -6.3 -25.1 -4.5 -26.25 -2.35 -26.3 L4.2 -25.9 Q10.05 -23.65 10.1 -16.75 M6.0 -12.2 Q5.45 -12.2 5.45 -11.65 L5.45 -11.45 5.2 -11.15 Q5.2 -10.75 5.65 -10.75 6.05 -10.75 6.15 -10.95 6.8 -10.95 6.8 -11.5 6.5 -12.2 6.0 -12.2 M7.25 -12.8 Q7.25 -13.2 6.9 -13.2 6.4 -13.2 6.4 -12.75 6.4 -12.35 6.8 -12.35 7.25 -12.35 7.25 -12.8 M8.45 -13.75 Q8.45 -14.3 8.05 -14.3 7.55 -14.3 7.55 -13.8 7.55 -13.25 8.0 -13.25 8.45 -13.25 8.45 -13.75 M7.75 -15.05 Q7.75 -14.45 8.4 -14.45 9.25 -14.45 9.25 -15.45 9.15 -16.05 8.75 -16.05 7.75 -16.05 7.75 -15.05 M6.5 -7.35 L6.95 -6.85 7.0 -6.8 6.9 -6.85 6.8 -6.45 7.2 -6.05 Q7.1 -6.45 6.55 -6.5 L6.15 -6.55 Q5.55 -6.55 5.5 -6.0 L5.35 -5.9 4.75 -5.0 4.85 -4.65 4.65 -4.4 4.6 -4.4 Q3.65 -4.4 3.65 -3.8 L3.7 -3.5 Q2.85 -3.45 2.85 -3.0 L3.5 -2.55 4.5 -2.1 4.9 -2.1 4.8 -1.8 4.85 -1.6 4.8 -1.6 4.35 -1.8 Q3.85 -1.8 3.85 -1.35 3.85 -0.75 4.6 -0.75 5.55 -0.75 5.55 -1.4 L5.45 -1.6 6.85 -2.3 6.85 -2.25 7.25 -1.85 Q7.65 -1.85 7.65 -2.3 7.65 -2.7 7.25 -2.7 L7.2 -2.7 7.05 -2.85 7.05 -3.05 7.05 -3.15 7.15 -3.25 7.5 -3.0 Q7.8 -3.0 7.85 -3.25 L8.55 -3.05 Q9.55 -3.05 9.55 -3.75 9.55 -4.4 9.0 -4.6 L9.1 -5.0 9.1 -5.1 9.35 -5.5 Q9.35 -5.05 9.85 -5.05 L10.1 -5.05 Q9.95 -4.95 9.95 -4.65 9.95 -4.2 10.4 -4.2 11.0 -4.2 11.0 -4.8 L10.55 -5.25 10.4 -5.2 10.35 -5.2 10.5 -5.65 10.45 -6.05 10.3 -6.2 10.15 -6.25 10.35 -6.85 Q10.35 -7.3 10.05 -7.35 L9.95 -7.55 9.95 -7.65 10.0 -7.65 Q10.45 -7.65 10.75 -8.75 L10.65 -9.4 10.4 -9.45 Q9.8 -9.45 9.6 -8.9 L9.6 -9.15 Q9.6 -9.6 9.25 -9.65 L9.25 -9.8 Q9.25 -10.3 8.75 -10.3 L8.3 -10.2 8.1 -9.8 8.5 -9.2 8.05 -9.35 7.65 -9.3 7.7 -9.2 7.6 -9.35 7.35 -9.5 7.05 -9.45 Q-0.15 -5.25 -6.15 -9.15 L-6.4 -9.25 -6.7 -9.1 -6.85 -8.9 -6.75 -8.6 Q-3.45 -3.4 0.1 -3.4 3.2 -3.45 6.5 -7.35 M8.55 -11.95 Q8.1 -11.95 8.1 -11.4 L8.5 -10.85 Q8.95 -10.85 8.95 -11.5 8.95 -11.95 8.55 -11.95 M9.5 -10.45 Q9.9 -10.45 9.9 -10.85 9.9 -11.35 9.45 -11.35 9.05 -11.35 9.05 -10.9 9.05 -10.45 9.5 -10.45 M2.55 -10.3 L2.95 -9.8 Q3.3 -9.8 3.3 -10.25 L2.9 -10.65 Q2.55 -10.65 2.55 -10.3 M9.65 -2.5 Q9.65 -2.9 9.3 -2.9 9.05 -2.9 8.55 -2.4 L8.55 -2.15 8.75 -2.05 9.15 -2.0 Q9.65 -2.0 9.65 -2.5 M3.25 -0.8 L3.2 -0.9 2.85 -0.95 Q2.2 -0.95 2.1 -0.65 1.55 -0.65 1.55 -0.15 1.55 0.35 2.05 0.35 2.55 0.35 2.55 -0.15 L2.55 -0.25 2.35 -0.25 2.8 -0.3 2.8 -0.25 Q2.8 0.2 3.5 0.2 3.9 0.2 3.9 -0.15 3.55 -0.55 3.2 -0.55 L3.25 -0.8 M2.55 -1.7 L2.95 -1.35 Q3.8 -1.35 3.8 -1.8 3.8 -2.15 3.15 -2.15 2.55 -2.15 2.55 -1.7 M6.75 -1.65 Q6.35 -1.65 6.35 -1.25 6.35 -0.65 7.0 -0.65 7.45 -0.65 7.45 -1.1 7.45 -1.65 6.75 -1.65 M-0.75 -25.1 Q-0.75 -24.7 -0.3 -24.7 0.4 -24.7 0.4 -25.15 L-0.05 -25.6 Q-0.75 -25.6 -0.75 -25.1 M1.5 0.75 Q1.5 0.35 1.15 0.35 0.7 0.35 0.7 0.75 0.65 1.15 1.1 1.15 1.5 1.15 1.5 0.75 M0.6 0.5 Q0.6 -0.05 0.2 -0.05 -0.3 -0.05 -0.3 0.5 -0.3 1.0 0.15 1.0 0.6 1.0 0.6 0.5 M2.25 -2.7 L1.85 -3.2 Q1.55 -3.2 1.55 -2.8 1.4 -2.35 1.9 -2.35 2.25 -2.35 2.25 -2.7 M1.25 -1.55 Q1.25 -1.95 0.85 -1.95 0.3 -1.95 0.3 -1.5 0.4 -1.1 0.8 -1.1 1.25 -1.1 1.25 -1.55 M-7.15 -16.55 Q-6.75 -16.55 -6.75 -16.9 L-7.35 -17.5 Q-7.85 -17.5 -7.75 -17.2 -7.75 -16.55 -7.15 -16.55 M-5.55 -18.3 L-6.1 -18.15 -6.55 -18.6 Q-7.1 -18.6 -7.1 -18.15 -7.15 -17.6 -6.5 -17.6 L-6.4 -17.6 -6.4 -17.45 Q-6.3 -17.0 -5.9 -17.0 -5.05 -17.0 -5.05 -17.75 L-5.55 -18.3 M-7.85 -15.9 L-8.05 -16.15 -8.4 -15.9 -8.1 -15.65 Q-7.85 -15.65 -7.85 -15.9 M-3.15 -17.55 Q-3.85 -17.55 -4.3 -16.6 -4.75 -15.65 -4.7 -14.3 -4.75 -13.0 -4.3 -12.05 -3.85 -11.1 -3.15 -11.1 -2.5 -11.1 -2.1 -12.05 -1.65 -13.0 -1.6 -14.3 -1.65 -15.65 -2.1 -16.6 -2.5 -17.55 -3.15 -17.55 M-0.25 -15.1 Q-0.2 -15.6 -0.7 -15.6 L-1.15 -15.15 Q-1.15 -14.7 -0.7 -14.7 -0.25 -14.7 -0.25 -15.1 M-1.4 -18.3 Q-1.4 -18.65 -1.75 -18.65 L-2.1 -18.3 Q-2.1 -17.95 -1.75 -17.95 -1.4 -17.95 -1.4 -18.3 M-3.1 -9.95 L-3.15 -9.95 Q-3.7 -9.95 -3.7 -9.4 -3.7 -8.75 -3.15 -8.75 L-2.8 -8.95 -2.75 -9.1 -2.7 -9.35 -2.7 -9.45 Q-2.65 -9.95 -3.1 -9.95 M-4.65 -11.25 L-4.95 -11.65 Q-5.45 -11.65 -5.45 -11.1 -5.45 -10.8 -5.1 -10.8 L-4.8 -10.85 -4.8 -10.8 Q-4.8 -10.55 -4.6 -10.45 L-4.9 -10.4 Q-4.6 -9.5 -4.05 -9.5 L-3.75 -9.6 -3.65 -9.95 -4.15 -10.35 -4.25 -10.4 Q-4.05 -10.5 -4.05 -10.75 L-4.45 -11.15 -4.65 -11.1 -4.65 -11.25 M-5.65 -14.8 L-5.9 -15.15 Q-6.8 -15.15 -6.9 -14.4 L-7.6 -15.2 Q-8.25 -15.2 -8.25 -14.5 -8.15 -13.9 -7.65 -13.9 L-6.95 -13.85 -6.75 -13.9 -6.45 -13.8 Q-5.65 -13.8 -5.65 -14.8 M-7.2 -15.6 L-6.7 -15.2 -6.35 -15.55 -6.8 -16.05 Q-7.2 -16.05 -7.2 -15.6 M-6.85 -13.15 L-7.05 -13.45 -7.45 -13.15 -7.85 -13.2 Q-8.7 -13.2 -8.7 -12.2 L-8.45 -11.95 -8.5 -11.8 -8.15 -11.5 -7.8 -11.75 Q-7.7 -11.6 -7.4 -11.6 -6.85 -11.6 -6.65 -12.05 L-6.2 -11.95 Q-5.55 -11.95 -5.55 -12.6 L-5.75 -12.85 -5.75 -13.15 -6.25 -13.7 Q-6.8 -13.7 -6.85 -13.15 M-5.35 -10.3 Q-5.35 -10.7 -5.7 -10.7 -6.1 -10.7 -6.1 -10.25 -6.1 -9.9 -5.7 -9.9 L-5.5 -9.9 -5.6 -9.5 Q-5.6 -9.1 -5.2 -9.1 -4.9 -9.1 -4.9 -9.55 L-5.25 -10.1 -5.4 -10.05 -5.35 -10.3 M-8.05 -10.35 Q-8.05 -10.0 -7.6 -10.0 L-7.95 -9.85 -8.2 -10.15 Q-8.8 -10.15 -8.8 -9.65 -8.8 -9.2 -8.35 -9.2 L-8.0 -9.25 Q-7.9 -9.1 -7.7 -9.1 -7.3 -9.1 -7.3 -9.55 L-7.6 -10.0 -7.35 -10.05 -7.35 -9.85 Q-7.35 -9.4 -6.9 -9.4 -6.25 -9.4 -6.25 -10.0 L-6.75 -10.75 Q-7.1 -10.75 -7.2 -10.45 L-7.55 -10.8 Q-8.05 -10.8 -8.05 -10.35 M-3.85 -4.3 L-4.35 -4.35 -4.75 -4.75 Q-5.2 -4.75 -5.2 -4.2 -5.3 -3.7 -4.8 -3.7 -4.4 -3.7 -4.3 -4.0 L-4.2 -4.0 -3.85 -4.0 -3.8 -4.1 -3.85 -4.3 M-8.05 -7.25 Q-8.65 -7.25 -8.65 -6.55 -8.7 -5.95 -8.05 -5.95 L-8.25 -5.15 -8.25 -5.0 Q-8.55 -4.95 -8.55 -4.5 L-8.4 -4.0 -8.5 -3.9 -8.5 -4.0 -9.0 -4.7 -9.0 -4.85 Q-8.8 -4.95 -8.8 -5.3 L-8.95 -5.45 -9.2 -5.85 -9.2 -6.05 -9.6 -6.45 Q-10.0 -6.45 -10.0 -6.05 L-9.85 -5.7 -10.15 -4.65 Q-10.15 -4.25 -9.8 -4.15 L-9.8 -4.05 -10.1 -4.15 Q-10.75 -4.15 -10.75 -3.65 -10.75 -3.2 -10.25 -3.2 L-10.05 -3.2 -10.1 -2.9 Q-10.1 -2.35 -9.4 -2.35 -8.9 -2.35 -8.7 -2.65 L-8.45 -2.4 -8.9 -1.5 Q-8.95 -0.95 -8.3 -0.95 -7.35 -0.95 -7.15 -1.95 L-6.65 -1.75 Q-6.55 -1.15 -5.95 -1.15 L-5.9 -1.15 -6.0 -0.85 Q-6.0 -0.4 -5.4 -0.4 -5.1 -0.4 -5.05 -0.7 L-4.55 -0.3 -4.05 -0.45 Q-3.7 -0.1 -3.45 -0.1 L-3.15 -0.35 Q-3.0 0.2 -2.45 0.2 -1.95 0.2 -1.9 -0.35 -1.9 -1.3 -2.65 -1.3 L-3.0 -1.2 Q-3.25 -1.6 -3.95 -1.6 L-4.45 -1.4 -4.55 -1.4 Q-5.1 -1.4 -5.1 -0.9 L-5.1 -0.85 -5.5 -1.25 Q-5.2 -1.45 -5.2 -2.05 L-5.2 -2.2 -5.2 -2.35 Q-4.85 -1.75 -4.3 -1.75 -3.75 -1.75 -3.75 -2.4 -3.75 -3.0 -4.85 -3.0 L-5.3 -2.55 -5.3 -2.5 -5.75 -3.0 Q-5.45 -3.1 -5.45 -3.45 L-6.3 -4.4 -6.45 -4.4 -6.4 -4.8 Q-6.4 -5.6 -6.95 -5.65 L-6.6 -6.3 -7.25 -7.35 -7.75 -6.8 -8.05 -7.25 M-8.4 -7.35 Q-7.7 -7.35 -7.7 -8.0 L-8.3 -8.6 Q-9.1 -8.6 -9.1 -8.0 -9.1 -7.35 -8.4 -7.35 M-0.1 -2.2 Q-0.1 -2.7 -0.7 -2.7 -1.25 -2.7 -1.25 -2.25 -1.25 -1.8 -0.8 -1.8 L-0.1 -2.2 M-1.75 0.9 L-2.15 0.5 Q-2.6 0.5 -2.6 0.9 -2.6 1.35 -2.2 1.35 -1.75 1.35 -1.75 0.9 M-3.45 0.55 Q-3.45 -0.1 -4.05 -0.1 L-4.75 0.1 Q-4.5 0.15 -4.45 0.6 -4.45 1.0 -3.9 1.0 -3.45 1.0 -3.45 0.55 M-2.45 -1.55 L-2.0 -2.2 Q-2.0 -2.9 -2.55 -2.95 L-2.55 -3.05 -2.9 -3.35 -3.25 -3.0 -3.1 -2.7 -3.15 -2.45 Q-2.95 -1.55 -2.45 -1.55 M-1.0 -1.0 Q-0.95 -0.6 -0.7 -0.6 -0.4 -0.6 -0.4 -1.0 -0.4 -1.3 -0.7 -1.3 L-1.0 -1.0 M-0.45 0.15 L-0.65 -0.1 Q-1.05 -0.1 -1.05 0.25 L-0.8 0.55 Q-0.45 0.55 -0.45 0.15 M-11.25 -2.8 Q-11.9 -2.8 -11.9 -2.3 -11.9 -1.75 -11.45 -1.75 L-10.9 -2.3 -11.25 -2.8" fill="#ffcc00" fill-rule="evenodd" stroke="none"/>
    <path d="M0.2 -17.85 Q0.45 -18.2 0.75 -18.2 1.3 -18.2 1.5 -17.5 L1.3 -16.9 1.05 -16.9 1.0 -17.2 0.95 -17.3 0.9 -17.1 0.85 -17.15 1.0 -16.9 0.6 -16.4 0.6 -16.35 0.75 -15.6 Q0.75 -15.0 0.5 -14.95 L0.55 -14.75 0.45 -14.45 0.85 -13.1 0.85 -13.05 1.75 -11.9 Q1.75 -11.5 1.25 -11.5 L1.2 -11.5 Q1.2 -10.9 0.75 -10.9 L0.75 -10.8 1.15 -10.85 1.15 -10.95 Q1.15 -11.5 1.7 -11.5 2.15 -11.5 2.15 -11.0 L2.0 -10.65 1.6 -10.8 Q2.15 -10.65 2.85 -9.85 L2.85 -9.65 3.4 -9.8 Q3.5 -10.2 4.25 -10.2 L4.6 -9.9 Q4.6 -9.3 3.8 -9.3 L3.6 -9.3 Q3.5 -8.85 3.0 -8.85 2.6 -8.85 2.6 -9.15 L2.6 -9.1 Q2.6 -8.6 2.15 -8.6 L1.75 -8.85 1.35 -8.7 1.35 -8.65 0.85 -8.3 Q0.45 -8.3 0.45 -8.6 L0.5 -8.8 0.35 -8.9 0.25 -8.95 Q0.05 -8.55 -0.7 -8.55 -0.9 -8.35 -1.3 -8.35 L-1.55 -8.45 -1.8 -8.35 Q-2.3 -8.35 -2.3 -8.75 -2.3 -9.35 -1.25 -9.4 L-1.15 -9.4 -1.05 -9.4 -0.95 -9.4 -0.75 -9.65 -0.9 -9.7 -1.95 -9.4 Q-2.4 -9.4 -2.5 -9.95 -2.5 -11.0 -1.0 -11.0 L-0.25 -11.25 -0.15 -11.25 0.1 -11.35 0.05 -11.65 0.05 -11.7 -0.15 -11.7 -0.4 -12.1 0.15 -13.0 -0.3 -12.7 Q-0.7 -12.7 -0.7 -13.1 -0.25 -14.85 0.2 -15.05 0.05 -15.25 0.05 -15.65 L-0.05 -16.0 Q-0.25 -16.05 -0.25 -16.25 L-0.3 -16.35 -0.25 -16.5 -0.4 -16.5 Q-0.45 -16.25 -0.8 -16.25 -1.15 -16.25 -1.15 -16.6 L-0.85 -17.0 -0.5 -16.9 -0.8 -18.0 -0.7 -18.7 -1.05 -19.1 Q-0.9 -19.15 -0.8 -19.25 -0.95 -19.1 -1.2 -19.1 -1.75 -19.1 -1.75 -19.7 L-1.8 -19.7 -2.1 -19.85 Q-2.45 -19.5 -2.75 -19.5 -3.0 -19.5 -3.25 -19.75 L-3.45 -19.5 -3.25 -19.1 Q-3.25 -18.75 -3.6 -18.75 -3.9 -18.75 -4.0 -18.9 L-4.25 -18.65 Q-4.75 -18.65 -5.0 -19.35 L-6.45 -18.65 Q-6.95 -18.65 -6.95 -19.1 L-6.65 -19.75 -6.65 -19.8 -6.9 -19.8 -7.2 -19.55 -7.0 -19.15 Q-7.0 -18.45 -7.85 -18.45 -8.3 -18.45 -8.3 -18.9 L-7.8 -19.5 -8.0 -19.9 -7.85 -20.65 -8.1 -21.15 -7.65 -21.8 Q-7.35 -22.05 -7.5 -22.4 L-6.8 -23.65 Q-5.55 -25.4 -3.25 -25.4 L-2.95 -25.4 -1.95 -25.55 Q-1.1 -25.55 -1.1 -25.25 -1.1 -25.05 -1.4 -24.95 L-1.2 -24.45 -1.85 -23.6 -1.5 -23.35 -1.6 -23.65 Q-1.6 -24.1 -1.25 -24.2 -1.1 -24.65 -0.35 -24.65 0.0 -24.65 0.0 -24.25 0.0 -23.75 -0.45 -23.6 L-0.45 -23.5 Q-0.45 -23.05 -0.85 -23.05 L-1.15 -23.05 -0.75 -22.45 -0.95 -21.85 -0.05 -20.1 Q-0.05 -19.8 -0.6 -19.8 L-0.65 -19.8 -0.65 -19.75 -0.7 -19.45 Q0.15 -19.45 0.15 -18.9 L-0.05 -18.45 0.2 -17.85 M8.55 -11.95 Q8.95 -11.95 8.95 -11.5 8.95 -10.85 8.5 -10.85 L8.1 -11.4 Q8.1 -11.95 8.55 -11.95 M7.7 -9.2 L7.65 -9.3 8.05 -9.35 8.5 -9.2 8.1 -9.8 8.3 -10.2 8.75 -10.3 Q9.25 -10.3 9.25 -9.8 L9.25 -9.65 Q9.6 -9.6 9.6 -9.15 L9.6 -8.9 Q9.8 -9.45 10.4 -9.45 L10.65 -9.4 10.75 -8.75 Q10.45 -7.65 10.0 -7.65 L9.95 -7.65 9.95 -7.55 10.05 -7.35 Q10.35 -7.3 10.35 -6.85 L10.15 -6.25 10.3 -6.2 10.45 -6.05 10.5 -5.65 10.35 -5.2 10.4 -5.2 10.55 -5.25 11.0 -4.8 Q11.0 -4.2 10.4 -4.2 9.95 -4.2 9.95 -4.65 9.95 -4.95 10.1 -5.05 L9.85 -5.05 Q9.35 -5.05 9.35 -5.5 L9.1 -5.1 9.1 -5.0 9.0 -4.6 Q9.55 -4.4 9.55 -3.75 9.55 -3.05 8.55 -3.05 L7.85 -3.25 Q7.8 -3.0 7.5 -3.0 L7.15 -3.25 7.05 -3.15 7.05 -3.05 7.05 -2.85 7.2 -2.7 7.25 -2.7 Q7.65 -2.7 7.65 -2.3 7.65 -1.85 7.25 -1.85 L6.85 -2.25 6.85 -2.3 5.45 -1.6 5.55 -1.4 Q5.55 -0.75 4.6 -0.75 3.85 -0.75 3.85 -1.35 3.85 -1.8 4.35 -1.8 L4.8 -1.6 4.85 -1.6 4.8 -1.8 4.9 -2.1 4.5 -2.1 3.5 -2.55 2.85 -3.0 Q2.85 -3.45 3.7 -3.5 L3.65 -3.8 Q3.65 -4.4 4.6 -4.4 L4.65 -4.4 4.85 -4.65 4.75 -5.0 5.35 -5.9 5.5 -6.0 Q5.55 -6.55 6.15 -6.55 L6.55 -6.5 Q7.1 -6.45 7.2 -6.05 L6.8 -6.45 6.9 -6.85 7.0 -6.8 6.95 -6.85 6.5 -7.35 7.1 -8.1 7.65 -8.85 7.7 -9.1 7.7 -9.2 M9.5 -10.45 Q9.05 -10.45 9.05 -10.9 9.05 -11.35 9.45 -11.35 9.9 -11.35 9.9 -10.85 9.9 -10.45 9.5 -10.45 M1.25 -10.0 L1.3 -10.0 1.25 -10.05 1.25 -10.0 M2.6 -9.2 L2.65 -9.4 2.5 -9.3 2.55 -9.35 2.6 -9.2 M4.9 -3.7 L5.0 -3.7 4.75 -3.45 5.35 -3.35 5.55 -3.05 5.15 -3.75 4.9 -3.7 M8.65 -9.2 L8.55 -9.2 8.6 -9.15 8.65 -9.2 M7.8 -6.9 L8.3 -7.1 8.0 -7.2 7.8 -6.9 M9.45 -6.55 L9.05 -6.1 9.3 -6.25 9.45 -5.95 Q9.55 -6.15 9.8 -6.2 L9.5 -6.6 9.45 -6.6 9.45 -6.55 M6.8 -5.3 L6.75 -5.45 6.65 -5.3 7.0 -5.15 6.8 -5.3 M5.65 -4.5 L5.4 -4.45 5.35 -4.45 5.35 -4.25 5.35 -4.05 5.65 -4.5 M7.4 -4.6 L7.6 -4.15 Q7.6 -3.75 7.15 -3.7 L7.2 -3.6 7.55 -3.7 7.65 -3.65 7.8 -3.35 Q7.65 -3.55 7.65 -3.85 7.65 -4.5 8.0 -4.65 L7.5 -4.6 7.4 -4.6 M9.65 -2.5 Q9.65 -2.0 9.15 -2.0 L8.75 -2.05 8.55 -2.15 8.55 -2.4 Q9.05 -2.9 9.3 -2.9 9.65 -2.9 9.65 -2.5 M5.95 -2.75 L5.9 -2.8 5.9 -2.7 5.95 -2.75 M6.75 -1.65 Q7.45 -1.65 7.45 -1.1 7.45 -0.65 7.0 -0.65 6.35 -0.65 6.35 -1.25 6.35 -1.65 6.75 -1.65 M2.55 -1.7 Q2.55 -2.15 3.15 -2.15 3.8 -2.15 3.8 -1.8 3.8 -1.35 2.95 -1.35 L2.55 -1.7 M3.25 -0.8 L3.2 -0.55 Q3.55 -0.55 3.9 -0.15 3.9 0.2 3.5 0.2 2.8 0.2 2.8 -0.25 L2.8 -0.3 2.35 -0.25 2.55 -0.25 2.55 -0.15 Q2.55 0.35 2.05 0.35 1.55 0.35 1.55 -0.15 1.55 -0.65 2.1 -0.65 2.2 -0.95 2.85 -0.95 L3.2 -0.9 3.25 -0.8 M-6.35 -19.1 L-6.3 -19.1 -6.35 -19.15 -6.35 -19.1 M-7.85 -15.9 Q-7.85 -15.65 -8.1 -15.65 L-8.4 -15.9 -8.05 -16.15 -7.85 -15.9 M-5.55 -18.3 L-5.05 -17.75 Q-5.05 -17.0 -5.9 -17.0 -6.3 -17.0 -6.4 -17.45 L-6.4 -17.6 -6.5 -17.6 Q-7.15 -17.6 -7.1 -18.15 -7.1 -18.6 -6.55 -18.6 L-6.1 -18.15 -5.55 -18.3 M-7.15 -16.55 Q-7.75 -16.55 -7.75 -17.2 -7.85 -17.5 -7.35 -17.5 L-6.75 -16.9 Q-6.75 -16.55 -7.15 -16.55 M-4.65 -11.25 L-4.65 -11.1 -4.45 -11.15 -4.05 -10.75 Q-4.05 -10.5 -4.25 -10.4 L-4.15 -10.35 -3.65 -9.95 -3.75 -9.6 -4.05 -9.5 Q-4.6 -9.5 -4.9 -10.4 L-4.6 -10.45 Q-4.8 -10.55 -4.8 -10.8 L-4.8 -10.85 -5.1 -10.8 Q-5.45 -10.8 -5.45 -11.1 -5.45 -11.65 -4.95 -11.65 L-4.65 -11.25 M-3.1 -9.95 Q-2.65 -9.95 -2.7 -9.45 L-2.7 -9.35 -2.75 -9.1 -2.8 -8.95 -3.15 -8.75 Q-3.7 -8.75 -3.7 -9.4 -3.7 -9.95 -3.15 -9.95 L-3.1 -9.95 M-7.2 -15.6 Q-7.2 -16.05 -6.8 -16.05 L-6.35 -15.55 -6.7 -15.2 -7.2 -15.6 M-8.05 -10.35 Q-8.05 -10.8 -7.55 -10.8 L-7.2 -10.45 Q-7.1 -10.75 -6.75 -10.75 L-6.25 -10.0 Q-6.25 -9.4 -6.9 -9.4 -7.35 -9.4 -7.35 -9.85 L-7.35 -10.05 -7.6 -10.0 -7.3 -9.55 Q-7.3 -9.1 -7.7 -9.1 -7.9 -9.1 -8.0 -9.25 L-8.35 -9.2 Q-8.8 -9.2 -8.8 -9.65 -8.8 -10.15 -8.2 -10.15 L-7.95 -9.85 -7.6 -10.0 Q-8.05 -10.0 -8.05 -10.35 M-5.35 -10.3 L-5.4 -10.05 -5.25 -10.1 -4.9 -9.55 Q-4.9 -9.1 -5.2 -9.1 -5.6 -9.1 -5.6 -9.5 L-5.5 -9.9 -5.7 -9.9 Q-6.1 -9.9 -6.1 -10.25 -6.1 -10.7 -5.7 -10.7 -5.35 -10.7 -5.35 -10.3 M-0.1 -2.2 L-0.8 -1.8 Q-1.25 -1.8 -1.25 -2.25 -1.25 -2.7 -0.7 -2.7 -0.1 -2.7 -0.1 -2.2 M-0.45 0.15 Q-0.45 0.55 -0.8 0.55 L-1.05 0.25 Q-1.05 -0.1 -0.65 -0.1 L-0.45 0.15" fill="#eca602" fill-rule="evenodd" stroke="none"/>
    <path d="M5.65 -23.75 Q5.65 -23.25 5.15 -23.25 4.6 -23.25 4.6 -23.8 4.6 -24.35 5.15 -24.35 5.55 -24.35 5.65 -23.75 M6.2 -22.85 L6.15 -22.6 Q6.6 -22.55 6.6 -22.05 L6.6 -22.0 6.7 -21.85 7.15 -22.3 Q7.75 -22.3 7.7 -21.7 7.7 -21.15 7.15 -21.15 L7.5 -20.95 7.7 -21.0 Q8.1 -21.0 8.1 -20.55 8.1 -20.1 7.65 -20.1 L7.5 -20.25 Q7.4 -19.8 6.95 -19.8 L6.75 -19.7 6.65 -19.55 6.95 -19.4 7.15 -19.7 7.6 -19.4 7.8 -19.45 Q8.35 -19.45 8.35 -18.75 8.35 -18.1 7.65 -18.1 L7.45 -18.15 7.35 -17.95 7.5 -17.6 Q7.5 -17.05 6.8 -17.05 L6.45 -17.1 6.4 -17.1 6.55 -16.5 Q6.55 -17.0 7.05 -17.0 7.45 -17.0 7.45 -16.5 7.45 -16.0 7.0 -16.0 6.7 -16.0 6.6 -16.2 L6.45 -15.55 7.0 -14.75 Q7.0 -14.3 6.5 -14.3 L6.05 -15.15 6.05 -15.25 5.85 -15.25 Q5.4 -15.25 5.4 -15.65 L5.7 -16.25 5.6 -16.7 5.1 -17.65 4.75 -18.15 Q4.75 -18.6 5.25 -18.65 L5.05 -19.0 4.7 -18.95 Q4.3 -18.95 4.3 -19.4 4.3 -19.8 4.65 -19.9 L4.4 -20.5 4.5 -20.8 4.35 -20.8 Q4.35 -20.15 3.9 -20.15 3.4 -20.15 3.4 -20.65 3.4 -21.15 3.8 -21.3 L3.35 -21.7 3.55 -22.2 4.05 -22.45 4.5 -22.5 4.6 -22.5 4.65 -22.5 Q5.25 -22.5 5.3 -21.7 L5.3 -21.6 5.0 -20.95 4.75 -20.85 4.95 -20.9 5.55 -20.35 5.7 -20.1 5.7 -20.25 5.75 -20.5 5.65 -20.85 Q5.65 -21.25 6.0 -21.3 L5.75 -21.15 Q5.6 -21.3 5.6 -21.55 L5.65 -21.7 5.5 -22.0 5.5 -22.35 5.7 -22.35 5.7 -22.4 Q5.3 -22.45 5.3 -22.85 5.3 -23.3 5.75 -23.3 L6.2 -22.85 M1.4 -24.75 Q1.4 -25.2 1.85 -25.2 L2.2 -24.75 Q2.2 -24.4 1.8 -24.4 1.4 -24.4 1.4 -24.75 M1.1 -23.75 Q1.1 -23.3 0.6 -23.3 L0.5 -23.3 0.7 -22.9 0.6 -22.45 0.85 -22.0 Q0.85 -21.65 0.4 -21.65 0.0 -21.65 0.0 -22.0 L0.1 -22.35 -0.15 -22.75 Q-0.15 -23.35 0.3 -23.35 L0.4 -23.35 0.2 -23.75 0.6 -24.2 Q1.1 -24.2 1.1 -23.75 M1.85 -23.0 Q1.85 -23.45 2.3 -23.45 2.6 -23.45 2.75 -22.85 2.75 -22.55 2.4 -22.55 1.85 -22.55 1.85 -23.0 M3.7 -24.1 Q4.25 -24.1 4.25 -23.6 4.25 -23.15 3.75 -23.15 L3.25 -23.6 Q3.25 -24.1 3.7 -24.1 M3.35 -20.5 Q3.35 -19.9 2.8 -19.9 L2.9 -19.6 Q2.9 -18.9 2.25 -18.9 1.65 -18.9 1.65 -19.4 1.65 -20.15 2.4 -20.15 L2.65 -20.1 2.25 -20.5 Q2.25 -21.1 2.85 -21.1 3.35 -21.1 3.35 -20.5 M4.4 -19.0 L4.45 -18.7 Q4.45 -18.15 3.7 -18.15 3.2 -18.15 3.2 -18.6 3.2 -19.0 3.65 -19.15 L4.0 -19.3 4.4 -19.0 M2.0 -21.2 Q2.0 -20.75 1.6 -20.75 1.2 -20.75 1.2 -21.2 1.2 -21.65 1.65 -21.65 L2.0 -21.2 M1.9 -16.1 Q1.9 -15.7 1.5 -15.7 1.05 -15.7 1.05 -16.15 1.05 -16.55 1.5 -16.55 1.9 -16.55 1.9 -16.1 M8.5 -18.1 Q9.0 -18.1 9.1 -17.45 L8.8 -16.9 Q8.8 -16.0 8.1 -16.0 7.6 -16.0 7.6 -16.55 L7.75 -16.85 7.65 -17.2 Q7.65 -17.6 8.0 -17.65 8.05 -18.1 8.5 -18.1 M7.75 -15.05 Q7.75 -16.05 8.75 -16.05 9.15 -16.05 9.25 -15.45 9.25 -14.45 8.4 -14.45 7.75 -14.45 7.75 -15.05 M8.45 -13.75 Q8.45 -13.25 8.0 -13.25 7.55 -13.25 7.55 -13.8 7.55 -14.3 8.05 -14.3 8.45 -14.3 8.45 -13.75 M7.25 -12.8 Q7.25 -12.35 6.8 -12.35 6.4 -12.35 6.4 -12.75 6.4 -13.2 6.9 -13.2 7.25 -13.2 7.25 -12.8 M6.0 -12.2 Q6.5 -12.2 6.8 -11.5 6.8 -10.95 6.15 -10.95 6.05 -10.75 5.65 -10.75 5.2 -10.75 5.2 -11.15 L5.45 -11.45 5.45 -11.65 Q5.45 -12.2 6.0 -12.2 M1.25 -10.0 L1.25 -10.05 1.3 -10.0 1.25 -10.0 M2.55 -10.3 Q2.55 -10.65 2.9 -10.65 L3.3 -10.25 Q3.3 -9.8 2.95 -9.8 L2.55 -10.3 M2.6 -9.2 L2.55 -9.35 2.5 -9.3 2.65 -9.4 2.6 -9.2 M4.9 -3.7 L5.15 -3.75 5.55 -3.05 5.35 -3.35 4.75 -3.45 5.0 -3.7 4.9 -3.7 M7.4 -4.6 L7.5 -4.6 8.0 -4.65 Q7.65 -4.5 7.65 -3.85 7.65 -3.55 7.8 -3.35 L7.65 -3.65 7.55 -3.7 7.2 -3.6 7.15 -3.7 Q7.6 -3.75 7.6 -4.15 L7.4 -4.6 M5.65 -4.5 L5.35 -4.05 5.35 -4.25 5.35 -4.45 5.4 -4.45 5.65 -4.5 M6.8 -5.3 L7.0 -5.15 6.65 -5.3 6.75 -5.45 6.8 -5.3 M9.45 -6.55 L9.45 -6.6 9.5 -6.6 9.8 -6.2 Q9.55 -6.15 9.45 -5.95 L9.3 -6.25 9.05 -6.1 9.45 -6.55 M7.8 -6.9 L8.0 -7.2 8.3 -7.1 7.8 -6.9 M8.65 -9.2 L8.6 -9.15 8.55 -9.2 8.65 -9.2 M5.95 -2.75 L5.9 -2.7 5.9 -2.8 5.95 -2.75 M1.25 -1.55 Q1.25 -1.1 0.8 -1.1 0.4 -1.1 0.3 -1.5 0.3 -1.95 0.85 -1.95 1.25 -1.95 1.25 -1.55 M2.25 -2.7 Q2.25 -2.35 1.9 -2.35 1.4 -2.35 1.55 -2.8 1.55 -3.2 1.85 -3.2 L2.25 -2.7 M0.6 0.5 Q0.6 1.0 0.15 1.0 -0.3 1.0 -0.3 0.5 -0.3 -0.05 0.2 -0.05 0.6 -0.05 0.6 0.5 M1.5 0.75 Q1.5 1.15 1.1 1.15 0.65 1.15 0.7 0.75 0.7 0.35 1.15 0.35 1.5 0.35 1.5 0.75 M-0.75 -25.1 Q-0.75 -25.6 -0.05 -25.6 L0.4 -25.15 Q0.4 -24.7 -0.3 -24.7 -0.75 -24.7 -0.75 -25.1 M-6.35 -19.1 L-6.35 -19.15 -6.3 -19.1 -6.35 -19.1 M-1.4 -18.3 Q-1.4 -17.95 -1.75 -17.95 -2.1 -17.95 -2.1 -18.3 L-1.75 -18.65 Q-1.4 -18.65 -1.4 -18.3 M-0.25 -15.1 Q-0.25 -14.7 -0.7 -14.7 -1.15 -14.7 -1.15 -15.15 L-0.7 -15.6 Q-0.2 -15.6 -0.25 -15.1 M-5.65 -14.8 Q-5.65 -13.8 -6.45 -13.8 L-6.75 -13.9 -6.95 -13.85 -7.65 -13.9 Q-8.15 -13.9 -8.25 -14.5 -8.25 -15.2 -7.6 -15.2 L-6.9 -14.4 Q-6.8 -15.15 -5.9 -15.15 L-5.65 -14.8 M-6.85 -13.15 Q-6.8 -13.7 -6.25 -13.7 L-5.75 -13.15 -5.75 -12.85 -5.55 -12.6 Q-5.55 -11.95 -6.2 -11.95 L-6.65 -12.05 Q-6.85 -11.6 -7.4 -11.6 -7.7 -11.6 -7.8 -11.75 L-8.15 -11.5 -8.5 -11.8 -8.45 -11.95 -8.7 -12.2 Q-8.7 -13.2 -7.85 -13.2 L-7.45 -13.15 -7.05 -13.45 -6.85 -13.15 M-8.4 -7.35 Q-9.1 -7.35 -9.1 -8.0 -9.1 -8.6 -8.3 -8.6 L-7.7 -8.0 Q-7.7 -7.35 -8.4 -7.35 M-8.05 -7.25 L-7.75 -6.8 -7.25 -7.35 -6.6 -6.3 -6.95 -5.65 Q-6.4 -5.6 -6.4 -4.8 L-6.45 -4.4 -6.3 -4.4 -5.45 -3.45 Q-5.45 -3.1 -5.75 -3.0 L-5.3 -2.5 -5.3 -2.55 -4.85 -3.0 Q-3.75 -3.0 -3.75 -2.4 -3.75 -1.75 -4.3 -1.75 -4.85 -1.75 -5.2 -2.35 L-5.2 -2.2 -5.2 -2.05 Q-5.2 -1.45 -5.5 -1.25 L-5.1 -0.85 -5.1 -0.9 Q-5.1 -1.4 -4.55 -1.4 L-4.45 -1.4 -3.95 -1.6 Q-3.25 -1.6 -3.0 -1.2 L-2.65 -1.3 Q-1.9 -1.3 -1.9 -0.35 -1.95 0.2 -2.45 0.2 -3.0 0.2 -3.15 -0.35 L-3.45 -0.1 Q-3.7 -0.1 -4.05 -0.45 L-4.55 -0.3 -5.05 -0.7 Q-5.1 -0.4 -5.4 -0.4 -6.0 -0.4 -6.0 -0.85 L-5.9 -1.15 -5.95 -1.15 Q-6.55 -1.15 -6.65 -1.75 L-7.15 -1.95 Q-7.35 -0.95 -8.3 -0.95 -8.95 -0.95 -8.9 -1.5 L-8.45 -2.4 -8.7 -2.65 Q-8.9 -2.35 -9.4 -2.35 -10.1 -2.35 -10.1 -2.9 L-10.05 -3.2 -10.25 -3.2 Q-10.75 -3.2 -10.75 -3.65 -10.75 -4.15 -10.1 -4.15 L-9.8 -4.05 -9.8 -4.15 Q-10.15 -4.25 -10.15 -4.65 L-9.85 -5.7 -10.0 -6.05 Q-10.0 -6.45 -9.6 -6.45 L-9.2 -6.05 -9.2 -5.85 -8.95 -5.45 -8.8 -5.3 Q-8.8 -4.95 -9.0 -4.85 L-9.0 -4.7 -8.5 -4.0 -8.5 -3.9 -8.4 -4.0 -8.55 -4.5 Q-8.55 -4.95 -8.25 -5.0 L-8.25 -5.15 -8.05 -5.95 Q-8.7 -5.95 -8.65 -6.55 -8.65 -7.25 -8.05 -7.25 M-3.85 -4.3 L-3.8 -4.1 -3.85 -4.0 -4.2 -4.0 -4.3 -4.0 Q-4.4 -3.7 -4.8 -3.7 -5.3 -3.7 -5.2 -4.2 -5.2 -4.75 -4.75 -4.75 L-4.35 -4.35 -3.85 -4.3 M-1.0 -1.0 L-0.7 -1.3 Q-0.4 -1.3 -0.4 -1.0 -0.4 -0.6 -0.7 -0.6 -0.95 -0.6 -1.0 -1.0 M-2.45 -1.55 Q-2.95 -1.55 -3.15 -2.45 L-3.1 -2.7 -3.25 -3.0 -2.9 -3.35 -2.55 -3.05 -2.55 -2.95 Q-2.0 -2.9 -2.0 -2.2 L-2.45 -1.55 M-3.45 0.55 Q-3.45 1.0 -3.9 1.0 -4.45 1.0 -4.45 0.6 -4.5 0.15 -4.75 0.1 L-4.05 -0.1 Q-3.45 -0.1 -3.45 0.55 M-1.75 0.9 Q-1.75 1.35 -2.2 1.35 -2.6 1.35 -2.6 0.9 -2.6 0.5 -2.15 0.5 L-1.75 0.9 M-11.25 -2.8 L-10.9 -2.3 -11.45 -1.75 Q-11.9 -1.75 -11.9 -2.3 -11.9 -2.8 -11.25 -2.8" fill="#fee892" fill-rule="evenodd" stroke="none"/>
  </g>
</svg>
