<?xml version="1.0" encoding="UTF-8" standalone="no"?>
<svg xmlns:xlink="http://www.w3.org/1999/xlink" height="27.3px" width="28.9px" xmlns="http://www.w3.org/2000/svg">
  <g transform="matrix(1.0, 0.0, 0.0, 1.0, 14.75, 26.7)">
    <path d="M12.85 -18.45 Q14.15 -15.45 14.15 -11.8 L13.9 -8.85 13.9 -8.8 13.65 -8.35 13.5 -8.25 13.6 -8.15 13.65 -7.6 13.1 -6.2 13.1 -6.1 12.5 -5.0 12.45 -4.95 12.4 -4.85 Q11.4 -3.55 9.8 -2.4 L9.65 -2.35 Q5.5 0.55 -0.3 0.6 -6.2 0.6 -10.4 -2.4 -12.0 -3.55 -13.0 -4.85 L-13.05 -4.95 -13.1 -5.0 -13.7 -6.15 -13.7 -6.2 -14.05 -7.15 -14.05 -7.75 -14.15 -7.85 -14.35 -8.25 -14.5 -8.85 -14.75 -11.8 Q-14.75 -15.05 -13.65 -17.8 L-13.7 -17.75 -13.45 -18.45 -11.45 -21.8 -11.15 -22.05 -10.6 -22.35 -10.6 -22.4 -10.3 -22.95 Q-6.55 -26.3 -1.45 -26.65 L-0.3 -26.7 Q5.45 -26.7 9.6 -23.05 L9.85 -22.6 9.85 -22.3 10.7 -21.8 11.0 -21.6 12.85 -18.45" fill="#000000" fill-rule="evenodd" stroke="none"/>
    <path d="M0.65 -25.45 L1.45 -25.0 1.95 -24.35 Q1.95 -24.15 1.35 -24.15 0.2 -24.15 0.2 -24.4 L0.35 -24.95 0.25 -25.4 0.45 -25.6 0.65 -25.45 M2.55 -25.1 L2.8 -25.3 Q5.15 -24.6 5.15 -24.15 L5.1 -24.0 4.95 -24.0 5.15 -23.75 5.1 -23.65 4.95 -23.6 3.65 -24.1 Q2.55 -24.65 2.55 -25.1 M7.95 -23.15 L7.75 -22.95 Q7.1 -22.95 6.45 -23.55 L5.75 -24.35 5.85 -24.45 Q7.95 -23.5 7.95 -23.15 M1.15 -0.4 L1.15 -1.15 1.85 -2.95 2.15 -5.15 5.25 -5.5 4.1 -4.0 1.15 -0.4 M7.25 -5.95 L8.95 -6.65 7.25 -4.1 6.0 -2.9 Q4.1 -1.35 2.55 -0.45 L5.75 -4.1 6.95 -5.9 7.25 -5.95 M7.25 -1.95 L5.1 -1.05 Q6.0 -1.45 7.25 -2.45 L7.8 -2.9 Q9.8 -4.65 10.35 -7.35 L11.95 -8.1 Q11.3 -5.25 9.6 -3.6 L7.25 -1.95 M-0.7 -25.6 L-0.55 -25.4 -0.65 -24.95 -0.5 -24.4 Q-0.5 -24.15 -1.65 -24.15 -2.25 -24.15 -2.25 -24.35 L-1.75 -25.0 -0.95 -25.45 -0.7 -25.6 M-2.85 -25.1 Q-2.9 -24.65 -3.95 -24.1 L-5.25 -23.6 -5.4 -23.65 -5.45 -23.75 -5.25 -24.0 -5.4 -24.0 -5.45 -24.15 Q-5.45 -24.6 -3.1 -25.3 L-2.85 -25.1 M-6.75 -23.55 Q-7.4 -22.95 -8.05 -22.95 L-8.25 -23.15 Q-8.25 -23.5 -6.15 -24.45 L-6.05 -24.35 -6.75 -23.55 M-10.65 -7.35 Q-10.1 -4.65 -8.05 -2.9 -6.45 -1.5 -5.4 -1.05 -8.3 -2.05 -9.9 -3.6 -10.85 -4.5 -11.45 -5.75 L-12.25 -8.1 -10.65 -7.35 M-7.25 -5.9 L-6.05 -4.1 -2.85 -0.45 -6.3 -2.9 Q-8.2 -4.45 -9.25 -6.65 -8.0 -5.95 -7.25 -5.9 M-1.45 -0.4 Q-2.55 -1.4 -4.4 -4.0 L-5.55 -5.5 -2.45 -5.15 -2.15 -2.95 -1.45 -1.15 -1.45 -0.4" fill="#0f7939" fill-rule="evenodd" stroke="none"/>
    <path d="M2.55 -25.1 Q2.55 -24.65 3.65 -24.1 L4.95 -23.6 5.1 -23.65 5.15 -23.75 4.95 -24.0 5.1 -24.0 5.15 -24.15 Q5.15 -24.6 2.8 -25.3 L2.55 -25.1 M0.65 -25.45 L0.45 -25.6 0.25 -25.4 0.35 -24.95 0.2 -24.4 Q0.2 -24.15 1.35 -24.15 1.95 -24.15 1.95 -24.35 L1.45 -25.0 0.65 -25.45 M9.2 -2.75 L7.25 -1.45 Q3.95 0.35 -0.35 0.35 -5.9 0.35 -9.9 -2.75 L-11.45 -4.15 -12.3 -5.2 -12.35 -5.25 -12.9 -6.45 -13.25 -7.45 -12.8 -8.35 Q-12.8 -8.55 -13.35 -8.55 L-13.55 -8.55 Q-13.9 -10.2 -13.9 -12.0 -13.9 -15.1 -12.9 -17.7 L-12.65 -18.3 Q-11.95 -20.0 -10.75 -21.45 L-9.1 -22.35 -9.75 -22.5 Q-6.2 -25.65 -1.45 -25.95 L-0.35 -26.0 Q5.05 -26.0 8.95 -22.6 L8.5 -22.25 10.25 -21.25 12.0 -18.3 Q13.25 -15.45 13.25 -12.0 L13.0 -9.15 12.85 -9.05 12.35 -8.65 12.3 -8.55 12.5 -8.35 12.75 -7.9 12.25 -6.45 11.65 -5.25 11.6 -5.2 Q10.7 -3.9 9.2 -2.7 L9.2 -2.75 M11.35 -18.1 L11.3 -18.2 Q10.65 -19.65 9.4 -20.65 L8.0 -21.55 Q4.7 -23.15 1.05 -23.25 L-5.85 -22.75 Q-8.85 -22.15 -10.0 -20.8 L-10.15 -20.65 -10.35 -20.35 -12.1 -17.35 -12.15 -17.25 -12.3 -16.9 Q-12.95 -15.0 -12.9 -12.35 L-12.9 -12.25 -12.9 -12.15 -12.9 -12.0 -12.85 -11.05 -12.65 -10.05 -12.65 -9.95 -12.45 -9.35 -12.15 -9.1 Q-10.55 -8.2 -8.7 -7.85 L-4.95 -7.2 -2.7 -7.15 1.25 -7.15 4.2 -7.15 6.25 -7.35 8.2 -7.65 Q9.1 -7.85 10.0 -8.3 L10.05 -8.35 10.35 -8.65 10.4 -8.6 11.6 -9.2 11.7 -9.35 12.0 -10.9 Q12.2 -13.15 11.75 -16.55 L11.35 -18.1 M7.95 -23.15 Q7.95 -23.5 5.85 -24.45 L5.75 -24.35 6.45 -23.55 Q7.1 -22.95 7.75 -22.95 L7.95 -23.15 M1.15 -0.4 L4.1 -4.0 5.25 -5.5 2.15 -5.15 1.85 -2.95 1.15 -1.15 1.15 -0.4 M7.25 -5.95 L6.95 -5.9 5.75 -4.1 2.55 -0.45 Q4.1 -1.35 6.0 -2.9 L7.25 -4.1 8.95 -6.65 7.25 -5.95 M7.25 -1.95 L9.6 -3.6 Q11.3 -5.25 11.95 -8.1 L10.35 -7.35 Q9.8 -4.65 7.8 -2.9 L7.25 -2.45 Q6.0 -1.45 5.1 -1.05 L7.25 -1.95 M-2.85 -25.1 L-3.1 -25.3 Q-5.45 -24.6 -5.45 -24.15 L-5.4 -24.0 -5.25 -24.0 -5.45 -23.75 -5.4 -23.65 -5.25 -23.6 -3.95 -24.1 Q-2.9 -24.65 -2.85 -25.1 M-0.7 -25.6 L-0.95 -25.45 -1.75 -25.0 -2.25 -24.35 Q-2.25 -24.15 -1.65 -24.15 -0.5 -24.15 -0.5 -24.4 L-0.65 -24.95 -0.55 -25.4 -0.7 -25.6 M-6.75 -23.55 L-6.05 -24.35 -6.15 -24.45 Q-8.25 -23.5 -8.25 -23.15 L-8.05 -22.95 Q-7.4 -22.95 -6.75 -23.55 M-10.65 -7.35 L-12.25 -8.1 -11.45 -5.75 Q-10.85 -4.5 -9.9 -3.6 -8.3 -2.05 -5.4 -1.05 -6.45 -1.5 -8.05 -2.9 -10.1 -4.65 -10.65 -7.35 M-7.25 -5.9 Q-8.0 -5.95 -9.25 -6.65 -8.2 -4.45 -6.3 -2.9 L-2.85 -0.45 -6.05 -4.1 -7.25 -5.9 M-1.45 -0.4 L-1.45 -1.15 -2.15 -2.95 -2.45 -5.15 -5.55 -5.5 -4.4 -4.0 Q-2.55 -1.4 -1.45 -0.4" fill="#15ae52" fill-rule="evenodd" stroke="none"/>
    <path d="M8.85 -20.1 Q10.05 -19.25 10.6 -18.0 L10.65 -17.95 10.65 -17.9 11.05 -16.55 Q11.5 -13.65 11.3 -11.7 L11.0 -10.4 10.7 -9.9 4.85 -8.9 4.7 -9.3 Q4.65 -10.35 6.05 -10.6 L6.35 -10.65 Q8.4 -10.95 9.2 -13.05 L10.2 -16.2 Q9.25 -17.1 7.95 -17.15 L7.5 -17.9 7.45 -17.9 5.95 -18.2 Q5.45 -18.25 5.45 -18.55 L5.25 -18.55 4.2 -18.15 4.05 -18.15 4.05 -17.95 Q4.05 -17.2 3.05 -17.2 L2.95 -17.2 2.85 -17.0 2.4 -16.85 1.9 -18.0 Q1.9 -18.8 2.35 -18.8 L3.2 -18.5 Q3.35 -19.3 3.45 -19.3 L4.5 -19.15 5.0 -19.2 5.85 -19.9 Q6.45 -19.9 6.45 -19.15 L6.55 -19.1 7.45 -19.55 8.1 -19.35 8.85 -20.1 M-4.55 -8.9 L-8.35 -9.05 Q-9.95 -9.4 -11.35 -10.2 L-11.45 -10.3 -11.85 -11.1 -11.85 -11.2 -12.0 -12.05 -12.05 -12.85 -12.05 -12.95 -12.05 -13.05 -12.05 -13.15 -11.55 -14.55 -10.75 -16.6 -11.2 -16.2 Q-11.6 -16.2 -11.6 -16.6 L-11.55 -16.85 -11.5 -17.05 -11.35 -17.35 -11.3 -17.4 Q-10.65 -18.9 -9.7 -20.0 L-9.5 -20.25 -9.45 -20.25 -9.4 -20.4 -9.35 -20.4 Q-8.75 -20.4 -8.55 -20.1 L-8.3 -19.9 -7.0 -20.1 Q-6.95 -19.6 -5.5 -19.6 -4.1 -19.6 -4.1 -19.2 L-4.2 -18.95 -3.85 -18.9 -2.75 -19.4 Q-2.1 -19.45 -1.9 -18.5 -1.9 -17.35 -2.85 -17.35 L-3.4 -17.35 -3.75 -17.8 Q-4.35 -17.8 -4.95 -18.35 L-5.4 -18.15 Q-5.95 -18.15 -6.0 -18.5 -6.75 -18.5 -7.9 -17.75 L-8.05 -17.75 -8.3 -17.3 -9.15 -17.55 -9.0 -17.4 -9.15 -17.35 -9.15 -17.3 Q-9.75 -15.8 -9.7 -14.2 -9.7 -11.35 -7.0 -11.0 L-4.95 -10.6 -4.35 -10.1 -4.45 -9.3 -4.55 -8.9 M-9.6 -18.15 L-9.6 -18.05 -9.5 -17.95 -9.55 -18.2 -9.6 -18.15" fill="#24458e" fill-rule="evenodd" stroke="none"/>
    <path d="M11.35 -18.1 L11.75 -16.55 Q12.2 -13.15 12.0 -10.9 L11.7 -9.35 11.6 -9.2 10.4 -8.6 10.35 -8.65 10.05 -8.35 10.0 -8.3 Q9.1 -7.85 8.2 -7.65 L6.25 -7.35 4.2 -7.15 1.25 -7.15 -2.7 -7.15 -4.95 -7.2 -8.7 -7.85 Q-10.55 -8.2 -12.15 -9.1 L-12.45 -9.35 -12.65 -9.95 -12.65 -10.05 -12.85 -11.05 -12.9 -12.0 -12.9 -12.15 -12.9 -12.25 -12.9 -12.35 Q-12.95 -15.0 -12.3 -16.9 L-12.15 -17.25 -12.1 -17.35 -10.35 -20.35 -10.15 -20.65 -10.0 -20.8 Q-8.85 -22.15 -5.85 -22.75 L1.05 -23.25 Q4.7 -23.15 8.0 -21.55 L9.4 -20.65 Q10.65 -19.65 11.3 -18.2 L11.35 -18.1 M4.85 -8.9 L10.7 -9.9 11.0 -10.4 11.3 -11.7 Q11.5 -13.65 11.05 -16.55 L10.65 -17.9 10.65 -17.95 10.6 -18.0 Q10.05 -19.25 8.85 -20.1 L7.55 -20.85 Q4.45 -22.3 1.0 -22.4 L-5.45 -22.0 Q-8.3 -21.5 -9.35 -20.4 L-9.4 -20.4 -9.45 -20.25 -9.5 -20.25 -9.7 -20.0 Q-10.65 -18.9 -11.3 -17.4 L-11.35 -17.35 -11.5 -17.05 -11.55 -16.85 Q-12.1 -15.4 -12.05 -13.15 L-12.05 -13.05 -12.05 -12.95 -12.05 -12.85 -12.0 -12.05 -11.85 -11.2 -11.85 -11.1 -11.45 -10.3 -11.35 -10.2 Q-9.95 -9.4 -8.35 -9.05 L-4.55 -8.9 -4.25 -8.85 -3.3 -8.8 3.1 -8.85 4.15 -8.85 4.85 -8.9" fill="#d2f545" fill-rule="evenodd" stroke="none"/>
    <path d="M8.85 -20.1 L8.1 -19.35 7.45 -19.55 6.55 -19.1 6.45 -19.15 Q6.45 -19.9 5.85 -19.9 L5.0 -19.2 4.5 -19.15 3.45 -19.3 Q3.35 -19.3 3.2 -18.5 L2.35 -18.8 Q1.9 -18.8 1.9 -18.0 L2.4 -16.85 2.85 -17.0 2.75 -16.1 Q2.7 -15.0 3.5 -14.2 4.3 -13.4 5.45 -13.4 6.55 -13.4 7.35 -14.2 8.15 -15.0 8.15 -16.1 L7.95 -17.15 Q9.25 -17.1 10.2 -16.2 L9.2 -13.05 Q8.4 -10.95 6.35 -10.65 L6.05 -10.6 Q4.65 -10.35 4.7 -9.3 L4.85 -8.9 4.15 -8.85 Q3.55 -10.1 2.3 -10.6 L-0.05 -10.9 -2.7 -10.6 Q-3.45 -10.4 -3.6 -10.05 L-4.25 -8.85 -4.55 -8.9 -4.45 -9.3 -4.35 -10.1 -4.95 -10.6 -7.0 -11.0 Q-9.7 -11.35 -9.7 -14.2 -9.75 -15.8 -9.15 -17.3 L-9.15 -17.35 -9.0 -17.4 -9.15 -17.55 -8.3 -17.3 -8.55 -16.1 Q-8.6 -15.0 -7.75 -14.2 -6.95 -13.4 -5.85 -13.4 -4.75 -13.4 -3.95 -14.2 -3.15 -15.0 -3.1 -16.1 L-3.4 -17.35 -2.85 -17.35 Q-1.9 -17.35 -1.9 -18.5 -2.1 -19.45 -2.75 -19.4 L-3.85 -18.9 -4.2 -18.95 -4.1 -19.2 Q-4.1 -19.6 -5.5 -19.6 -6.95 -19.6 -7.0 -20.1 L-8.3 -19.9 -8.55 -20.1 Q-8.75 -20.4 -9.35 -20.4 -8.3 -21.5 -5.45 -22.0 L1.0 -22.4 Q4.45 -22.3 7.55 -20.85 L8.85 -20.1 M3.1 -8.85 L-3.3 -8.8 -3.0 -9.35 -2.6 -9.6 -2.6 -9.5 -2.35 -9.45 -1.0 -9.65 1.85 -9.35 2.45 -9.75 3.1 -8.85 M-12.05 -13.15 Q-12.1 -15.4 -11.55 -16.85 L-11.6 -16.6 Q-11.6 -16.2 -11.2 -16.2 L-10.75 -16.6 -11.55 -14.55 -12.05 -13.15 M5.45 -20.6 L5.1 -21.05 Q2.5 -21.05 2.4 -20.35 L2.15 -20.45 1.6 -20.1 1.3 -20.4 Q1.05 -20.4 1.05 -19.95 1.05 -19.45 1.7 -19.45 L3.55 -20.0 Q5.45 -20.3 5.45 -20.6 M3.05 -13.4 L2.7 -13.7 Q1.8 -12.95 -0.8 -12.9 L-3.5 -13.3 -3.8 -13.0 Q-1.15 -11.45 -0.6 -11.45 0.35 -11.45 3.05 -13.4 M1.0 -17.55 Q0.85 -17.4 0.85 -16.6 L1.15 -14.5 1.4 -14.35 2.0 -14.15 2.15 -14.3 1.2 -15.85 Q0.9 -16.35 1.0 -17.55 M-3.65 -21.2 L-5.05 -20.85 Q-5.25 -20.85 -5.65 -21.15 L-5.85 -21.0 -5.45 -20.5 -4.45 -20.3 -3.85 -20.45 Q-3.65 -19.9 -2.8 -19.9 -1.9 -19.9 -1.9 -20.35 -1.95 -20.75 -2.45 -20.75 -3.75 -20.75 -3.65 -21.2 M-1.8 -14.7 L-1.2 -15.65 -1.05 -17.8 Q-1.3 -16.5 -2.1 -14.7 L-2.55 -14.85 Q-3.05 -14.85 -3.05 -14.45 L-2.75 -14.2 -2.45 -14.35 -2.0 -14.45 -1.9 -14.45 -1.9 -14.3 Q-1.95 -13.8 -1.5 -13.8 -1.25 -13.8 -0.85 -14.2 L-0.5 -14.7 Q-0.5 -15.1 -0.8 -15.05 -1.6 -15.1 -1.8 -14.7" fill="#f09a86" fill-rule="evenodd" stroke="none"/>
    <path d="M2.85 -17.0 L2.95 -17.2 3.05 -17.2 Q4.05 -17.2 4.05 -17.95 L4.05 -18.15 4.2 -18.15 5.25 -18.55 5.45 -18.55 Q5.45 -18.25 5.95 -18.2 L7.45 -17.9 7.5 -17.9 7.95 -17.15 8.15 -16.1 Q8.15 -15.0 7.35 -14.2 6.55 -13.4 5.45 -13.4 4.3 -13.4 3.5 -14.2 2.7 -15.0 2.75 -16.1 L2.85 -17.0 M3.7 -16.7 L3.6 -16.1 Q3.6 -15.35 4.15 -14.8 L4.4 -14.6 4.4 -14.75 Q4.7 -14.35 5.8 -14.35 6.85 -14.35 7.0 -15.15 L7.3 -16.1 7.15 -16.8 6.75 -17.4 Q6.2 -17.95 5.45 -17.95 4.65 -17.95 4.15 -17.4 L3.7 -16.7 M-3.4 -17.35 L-3.1 -16.1 Q-3.15 -15.0 -3.95 -14.2 -4.75 -13.4 -5.85 -13.4 -6.95 -13.4 -7.75 -14.2 -8.6 -15.0 -8.55 -16.1 L-8.3 -17.3 -8.05 -17.75 -7.9 -17.75 Q-6.75 -18.5 -6.0 -18.5 -5.95 -18.15 -5.4 -18.15 L-4.95 -18.35 Q-4.35 -17.8 -3.75 -17.8 L-3.4 -17.35 M-7.15 -17.4 L-7.5 -16.9 -7.65 -16.1 Q-7.7 -15.4 -7.2 -14.85 -7.1 -14.35 -6.25 -14.35 -4.15 -14.35 -4.15 -15.4 L-4.0 -16.1 -4.2 -16.95 -4.55 -17.4 Q-5.1 -17.95 -5.85 -17.95 -6.6 -17.95 -7.15 -17.4" fill="#becbfc" fill-rule="evenodd" stroke="none"/>
    <path d="M3.7 -16.7 L4.15 -17.4 Q4.65 -17.95 5.45 -17.95 6.2 -17.95 6.75 -17.4 L7.15 -16.8 7.3 -16.1 7.0 -15.15 Q6.85 -14.35 5.8 -14.35 4.7 -14.35 4.4 -14.75 L4.4 -14.6 4.15 -14.8 Q3.6 -15.35 3.6 -16.1 L3.7 -16.7 M-7.15 -17.4 Q-6.6 -17.95 -5.85 -17.95 -5.1 -17.95 -4.55 -17.4 L-4.2 -16.95 -4.0 -16.1 -4.15 -15.4 Q-4.15 -14.35 -6.25 -14.35 -7.1 -14.35 -7.2 -14.85 -7.7 -15.4 -7.65 -16.1 L-7.5 -16.9 -7.15 -17.4 M-6.8 -17.05 L-7.0 -16.8 -7.05 -16.65 -7.15 -16.1 -6.8 -15.2 -6.7 -14.95 -6.25 -14.85 Q-4.75 -14.85 -4.65 -15.4 L-4.6 -15.6 -4.5 -16.1 -4.65 -16.75 -4.9 -17.05 Q-5.3 -17.45 -5.85 -17.45 -6.4 -17.45 -6.8 -17.05 M-1.25 -14.85 L-0.9 -14.6 Q-0.9 -14.35 -1.3 -14.3 L-1.6 -14.6 -1.25 -14.85" fill="#ffffff" fill-rule="evenodd" stroke="none"/>
    <path d="M4.15 -8.85 L3.1 -8.85 2.45 -9.75 Q2.35 -10.2 0.2 -10.2 -1.6 -10.25 -2.65 -9.65 L-2.6 -9.6 -3.0 -9.35 -3.3 -8.8 -4.25 -8.85 -3.6 -10.05 Q-3.45 -10.4 -2.7 -10.6 L-0.05 -10.9 2.3 -10.6 Q3.55 -10.1 4.15 -8.85 M1.0 -17.55 Q0.9 -16.35 1.2 -15.85 L2.15 -14.3 2.0 -14.15 1.4 -14.35 1.15 -14.5 0.85 -16.6 Q0.85 -17.4 1.0 -17.55 M3.05 -13.4 Q0.35 -11.45 -0.6 -11.45 -1.15 -11.45 -3.8 -13.0 L-3.5 -13.3 -0.8 -12.9 Q1.8 -12.95 2.7 -13.7 L3.05 -13.4 M-1.9 -14.45 L-2.0 -14.45 -2.45 -14.35 -2.75 -14.2 -3.05 -14.45 Q-3.05 -14.85 -2.55 -14.85 L-2.1 -14.7 Q-1.3 -16.5 -1.05 -17.8 L-1.2 -15.65 -1.8 -14.7 -1.9 -14.5 -1.9 -14.45 M-0.95 -12.2 L-0.9 -12.15 -0.9 -12.2 -0.95 -12.2" fill="#9f2f13" fill-rule="evenodd" stroke="none"/>
    <path d="M5.45 -20.6 Q5.45 -20.3 3.55 -20.0 L1.7 -19.45 Q1.05 -19.45 1.05 -19.95 1.05 -20.4 1.3 -20.4 L1.6 -20.1 2.15 -20.45 2.4 -20.35 Q2.5 -21.05 5.1 -21.05 L5.45 -20.6 M2.45 -9.75 L1.85 -9.35 -1.0 -9.65 -2.35 -9.45 -2.6 -9.5 -2.6 -9.6 -2.65 -9.65 Q-1.6 -10.25 0.2 -10.2 2.35 -10.2 2.45 -9.75 M-3.65 -21.2 Q-3.75 -20.75 -2.45 -20.75 -1.95 -20.75 -1.9 -20.35 -1.9 -19.9 -2.8 -19.9 -3.65 -19.9 -3.85 -20.45 L-4.45 -20.3 -5.45 -20.5 -5.85 -21.0 -5.65 -21.15 Q-5.25 -20.85 -5.05 -20.85 L-3.65 -21.2" fill="#fcecc7" fill-rule="evenodd" stroke="none"/>
    <path d="M9.2 -2.7 L9.2 -2.75 9.2 -2.7" fill="#16ad61" fill-rule="evenodd" stroke="none"/>
    <path d="M-1.8 -14.7 Q-1.6 -15.1 -0.8 -15.05 -0.5 -15.1 -0.5 -14.7 L-0.85 -14.2 Q-1.25 -13.8 -1.5 -13.8 -1.95 -13.8 -1.9 -14.3 L-1.9 -14.45 -1.9 -14.5 -1.8 -14.7 M-1.25 -14.85 L-1.6 -14.6 -1.3 -14.3 Q-0.9 -14.35 -0.9 -14.6 L-1.25 -14.85" fill="#f9d2ca" fill-rule="evenodd" stroke="none"/>
    <path d="M-9.6 -18.15 L-9.55 -18.2 -9.5 -17.95 -9.6 -18.05 -9.6 -18.15 M-0.95 -12.2 L-0.9 -12.2 -0.9 -12.15 -0.95 -12.2" fill="#ef6d88" fill-rule="evenodd" stroke="none"/>
    <path d="M-6.8 -17.05 Q-6.4 -17.45 -5.85 -17.45 -5.3 -17.45 -4.9 -17.05 L-4.65 -16.75 -4.5 -16.1 -4.6 -15.6 -4.65 -15.4 Q-4.75 -14.85 -6.25 -14.85 L-6.7 -14.95 -6.8 -15.2 -7.15 -16.1 -7.05 -16.65 -7.0 -16.8 -6.8 -17.05" fill="#000000" fill-rule="evenodd" stroke="none"/>
  </g>
</svg>
