<?xml version="1.0" encoding="UTF-8" standalone="no"?>
<svg xmlns:xlink="http://www.w3.org/1999/xlink" height="14.75px" width="36.85px" xmlns="http://www.w3.org/2000/svg">
  <g transform="matrix(1.0, 0.0, 0.0, 1.0, 17.2, 12.8)">
    <path d="M8.65 0.45 L1.2 1.9 0.95 1.9 Q-5.0 1.9 -10.2 -0.35 -11.1 -0.7 -13.4 -2.6 -14.2 -3.3 -15.25 -3.4 -16.5 -3.5 -16.95 -3.9 -17.3 -4.25 -17.2 -4.85 L-17.15 -5.35 -17.1 -6.4 Q-17.25 -7.95 -13.55 -8.6 -12.8 -8.8 -12.0 -9.3 -10.8 -10.2 -10.45 -10.1 L-10.35 -10.1 -9.65 -10.45 Q-4.35 -13.35 2.15 -12.65 5.3 -12.35 11.5 -9.3 17.6 -6.25 18.5 -3.9 L18.6 -3.5 19.15 -3.25 Q19.75 -2.75 19.6 -2.05 19.75 -0.75 17.2 -0.55 L8.6 0.45 8.65 0.45" fill="#000000" fill-rule="evenodd" stroke="none"/>
    <path d="M8.1 -7.4 L8.65 -7.1 8.25 -6.75 Q7.65 -6.05 7.65 -5.5 7.65 -4.6 8.6 -4.6 10.45 -4.6 11.1 -5.7 L11.15 -5.7 14.95 -3.0 Q11.45 -2.9 6.8 -1.6 1.7 -0.2 0.05 -0.2 -4.35 -0.2 -9.1 -3.05 L-12.25 -4.8 Q-10.75 -7.0 -8.05 -8.15 L-8.25 -7.45 Q-8.35 -6.6 -7.55 -6.5 -7.85 -5.45 -6.75 -5.45 -6.4 -5.45 -1.75 -9.5 L-0.25 -9.55 -0.2 -9.55 -1.05 -7.75 Q-1.05 -6.65 -0.1 -6.65 L0.55 -7.45 0.55 -7.15 Q0.3 -5.95 1.15 -5.95 L5.1 -8.65 6.5 -8.1 6.2 -7.8 5.6 -6.7 Q5.6 -5.3 6.45 -5.3 L8.1 -7.4" fill="#e4770a" fill-rule="evenodd" stroke="none"/>
    <path d="M-8.05 -8.15 Q-10.75 -7.0 -12.25 -4.8 L-9.1 -3.05 Q-4.35 -0.2 0.05 -0.2 1.7 -0.2 6.8 -1.6 11.45 -2.9 14.95 -3.0 L11.15 -5.7 11.1 -5.7 Q10.45 -4.6 8.6 -4.6 7.65 -4.6 7.65 -5.5 7.65 -6.05 8.25 -6.75 L8.65 -7.1 8.1 -7.4 8.4 -7.85 Q8.45 -8.65 7.6 -8.65 7.05 -8.65 6.5 -8.1 L5.1 -8.65 1.15 -5.95 Q0.3 -5.95 0.55 -7.15 L0.55 -7.45 2.55 -9.95 Q2.4 -10.85 1.65 -10.85 0.65 -10.85 -0.2 -9.55 L-0.25 -9.55 -1.75 -9.5 Q-6.4 -5.45 -6.75 -5.45 -7.85 -5.45 -7.55 -6.5 L-7.4 -6.5 -4.95 -9.55 Q-4.95 -10.1 -5.6 -10.1 -7.45 -10.1 -8.05 -8.15 M16.95 -1.0 L8.25 0.2 0.8 1.95 Q-4.9 1.95 -9.9 -0.65 -10.7 -1.05 -12.85 -3.2 -13.9 -4.25 -15.3 -4.4 -16.35 -4.5 -16.35 -4.95 L-16.2 -5.5 Q-16.4 -5.8 -16.25 -6.4 -16.25 -7.25 -13.5 -7.75 -12.55 -7.95 -11.6 -8.6 -10.8 -9.2 -10.6 -9.2 L-10.45 -9.05 -9.35 -9.7 Q-4.3 -12.4 1.9 -11.75 4.95 -11.45 10.9 -8.5 17.45 -5.25 17.45 -3.1 L17.45 -2.85 Q18.65 -2.6 18.45 -1.9 18.45 -1.15 16.95 -1.0" fill="#f2c102" fill-rule="evenodd" stroke="none"/>
    <path d="M8.1 -7.4 L6.45 -5.3 Q5.6 -5.3 5.6 -6.7 L6.2 -7.8 6.5 -8.1 Q7.05 -8.65 7.6 -8.65 8.45 -8.65 8.4 -7.85 L8.1 -7.4 M0.55 -7.45 L-0.1 -6.65 Q-1.05 -6.65 -1.05 -7.75 L-0.2 -9.55 Q0.65 -10.85 1.65 -10.85 2.4 -10.85 2.55 -9.95 L0.55 -7.45 M-7.55 -6.5 Q-8.35 -6.6 -8.25 -7.45 L-8.05 -8.15 Q-7.45 -10.1 -5.6 -10.1 -4.95 -10.1 -4.95 -9.55 L-7.4 -6.5 -7.55 -6.5" fill="#fff4cc" fill-rule="evenodd" stroke="none"/>
  </g>
</svg>
