<?xml version="1.0" encoding="UTF-8" standalone="no"?>
<svg xmlns:xlink="http://www.w3.org/1999/xlink" height="12.7px" width="49.1px" xmlns="http://www.w3.org/2000/svg">
  <g transform="matrix(1.0, 0.0, 0.0, 1.0, 26.9, 12.1)">
    <path d="M9.15 -10.05 Q11.3 -10.25 13.2 -9.4 L16.95 -7.35 20.2 -5.2 21.8 -4.05 22.1 -3.7 22.2 -3.2 22.2 -2.0 21.95 -1.65 21.4 -1.4 19.75 -1.3 16.35 -0.9 16.4 -0.9 10.8 0.05 8.75 0.45 8.7 0.45 Q5.8 0.55 3.2 -0.45 L-0.3 -0.1 -0.35 -0.1 -6.25 -0.45 -9.55 -0.4 -12.15 -0.4 -16.1 -0.5 Q-18.5 -0.6 -20.55 -1.3 L-20.65 -1.3 -21.9 -2.0 -22.45 -2.0 -22.9 -2.7 -23.1 -2.95 -23.25 -3.55 -23.1 -4.1 -23.05 -4.15 -23.0 -5.25 Q-23.6 -4.8 -24.8 -4.8 -26.75 -4.65 -26.9 -7.55 L-26.9 -7.6 Q-26.95 -11.05 -23.65 -12.0 L-23.6 -12.0 -23.4 -12.05 -23.2 -12.1 Q-18.95 -12.1 -18.95 -7.3 L-19.05 -5.45 -18.95 -5.0 -18.9 -4.9 -16.6 -6.6 Q-13.7 -8.95 -12.35 -9.25 L-12.3 -9.25 -12.35 -9.25 -8.95 -10.15 -8.75 -10.15 -5.5 -10.05 -5.4 -10.05 Q-4.3 -9.85 -4.0 -9.45 L-3.85 -9.25 -1.3 -9.75 -1.0 -9.8 4.4 -9.6 4.7 -9.5 5.7 -9.05 Q6.95 -9.7 9.15 -10.05" fill="#000000" fill-rule="evenodd" stroke="none"/>
    <path d="M9.5 -6.8 Q10.85 -6.8 10.65 -6.55 11.15 -6.55 11.15 -7.1 10.75 -8.35 9.75 -7.95 5.6 -7.9 5.6 -6.7 5.6 -6.2 6.1 -6.2 6.15 -6.55 7.2 -6.7 5.85 -6.0 4.7 -3.9 L4.65 -3.85 4.7 -3.85 4.9 -3.8 4.6 -2.9 3.7 -2.6 3.15 -3.25 2.55 -3.15 Q2.15 -3.3 1.85 -3.55 L0.05 -5.05 -0.85 -5.6 -2.0 -5.65 -3.9 -4.2 -4.3 -4.3 -4.9 -5.75 -5.15 -6.0 -6.55 -6.55 -8.4 -6.1 -11.6 -4.2 -13.0 -4.75 -13.15 -5.25 -12.95 -6.25 -14.05 -5.5 -17.3 -2.9 -17.35 -2.85 -17.3 -2.85 -12.95 -1.95 -9.15 -1.5 -5.5 -1.55 -3.5 -1.6 -2.8 -1.1 Q-1.1 -0.4 0.15 -1.65 L5.65 -1.4 6.0 -1.05 6.65 -0.6 Q8.75 -0.75 10.5 -1.75 L17.85 -3.8 14.9 -5.4 11.9 -6.65 11.7 -5.9 11.05 -5.7 10.5 -6.0 Q9.6 -6.1 9.6 -6.75 L9.5 -6.8 M0.65 -7.2 Q0.55 -7.85 0.1 -7.85 -3.8 -7.85 -3.8 -6.45 -3.8 -5.95 -3.35 -5.95 L-1.7 -6.6 -0.4 -6.45 Q0.65 -6.45 0.65 -7.2 M3.25 -4.4 L5.1 -6.9 3.05 -6.9 3.6 -5.55 3.45 -5.15 3.1 -4.8 3.25 -4.4 M5.6 -8.0 Q6.8 -8.75 9.1 -9.1 11.05 -9.3 12.75 -8.55 14.55 -7.75 16.4 -6.55 L19.6 -4.4 21.15 -3.25 21.15 -1.9 19.55 -1.75 16.05 -1.2 10.35 0.1 8.5 0.6 Q5.65 0.75 3.1 -0.65 1.45 0.0 -0.4 -0.1 L-6.4 -0.6 -9.75 -0.55 -12.3 -0.5 -16.2 -0.65 Q-18.45 -0.75 -20.4 -1.65 L-21.6 -2.55 -22.3 -3.25 -22.5 -3.6 -22.35 -3.55 -22.35 -3.65 -22.1 -6.55 Q-22.1 -9.05 -23.2 -9.05 -24.7 -9.05 -24.7 -8.45 L-24.6 -7.75 -24.2 -7.85 Q-23.45 -7.85 -23.45 -6.95 -23.45 -5.85 -24.95 -5.85 -26.05 -5.85 -26.15 -7.65 -26.15 -10.35 -23.6 -11.1 L-23.35 -11.15 Q-20.0 -11.15 -20.0 -7.35 L-20.05 -5.35 -19.95 -4.8 Q-20.25 -4.3 -19.65 -4.0 -19.0 -3.65 -16.2 -5.85 -13.45 -8.05 -12.25 -8.35 L-8.95 -9.2 -5.65 -9.1 Q-4.25 -8.85 -4.75 -8.2 L-1.2 -8.85 4.25 -8.65 5.6 -8.0 M-4.15 -7.1 L-4.0 -6.85 -3.85 -7.1 -4.15 -7.1 M-7.05 -8.0 L-7.8 -8.15 Q-10.55 -8.15 -11.5 -6.2 -9.6 -7.55 -8.55 -7.55 -8.5 -8.15 -7.05 -7.1 -6.7 -7.1 -6.7 -7.55 L-7.05 -8.0" fill="#309c01" fill-rule="evenodd" stroke="none"/>
    <path d="M7.2 -6.7 Q6.15 -6.55 6.1 -6.2 5.6 -6.2 5.6 -6.7 5.6 -7.9 9.75 -7.95 10.75 -8.35 11.15 -7.1 11.15 -6.55 10.65 -6.55 10.85 -6.8 9.5 -6.8 L9.35 -6.8 7.2 -6.7 M0.65 -7.2 Q0.65 -6.45 -0.4 -6.45 L-1.7 -6.6 -3.35 -5.95 Q-3.8 -5.95 -3.8 -6.45 -3.8 -7.85 0.1 -7.85 0.55 -7.85 0.65 -7.2 M-7.05 -8.0 L-6.7 -7.55 Q-6.7 -7.1 -7.05 -7.1 -8.5 -8.15 -8.55 -7.55 -9.6 -7.55 -11.5 -6.2 -10.55 -8.15 -7.8 -8.15 L-7.05 -8.0" fill="#41d202" fill-rule="evenodd" stroke="none"/>
    <path d="M9.5 -6.8 L9.6 -6.75 Q9.6 -6.1 10.5 -6.0 L11.05 -5.7 11.7 -5.9 11.9 -6.65 14.9 -5.4 17.85 -3.8 10.5 -1.75 11.7 -3.25 11.55 -4.1 11.1 -4.25 Q9.5 -2.5 7.25 -2.55 L5.8 -2.6 5.45 -2.25 5.65 -1.4 0.15 -1.65 0.75 -2.05 1.1 -3.0 0.5 -3.35 Q-1.25 -1.7 -3.55 -2.7 L-3.7 -2.3 -3.5 -1.6 -5.5 -1.55 -9.15 -1.5 -12.95 -1.95 -17.3 -2.85 -17.3 -2.9 -14.05 -5.5 -12.95 -6.25 -13.15 -5.25 -13.0 -4.75 -11.6 -4.2 -8.4 -6.1 -6.55 -6.55 -5.15 -6.0 -4.9 -5.75 -4.3 -4.3 -3.9 -4.2 -2.0 -5.65 -0.85 -5.6 0.05 -5.05 1.85 -3.55 Q2.15 -3.3 2.55 -3.15 L3.15 -3.25 3.7 -2.6 4.6 -2.9 4.9 -3.8 4.7 -3.85 4.65 -3.85 4.7 -3.9 Q5.85 -6.0 7.2 -6.7 L9.35 -6.8 9.5 -6.8 M3.25 -4.4 L3.1 -4.8 3.45 -5.15 3.6 -5.55 3.05 -6.9 5.1 -6.9 3.25 -4.4 M-10.3 -3.6 L-10.25 -3.3 -9.7 -2.4 Q-8.95 -1.65 -7.95 -1.8 L-5.95 -4.05 Q-7.1 -3.0 -8.55 -2.9 L-9.05 -3.15 -9.85 -4.1 -10.3 -3.6 M-4.15 -7.1 L-3.85 -7.1 -4.0 -6.85 -4.15 -7.1" fill="#247601" fill-rule="evenodd" stroke="none"/>
    <path d="M10.5 -1.75 Q8.75 -0.75 6.65 -0.6 L6.0 -1.05 5.65 -1.4 5.45 -2.25 5.8 -2.6 7.25 -2.55 Q9.5 -2.5 11.1 -4.25 L11.55 -4.1 11.7 -3.25 10.5 -1.75 M0.15 -1.65 Q-1.1 -0.4 -2.8 -1.1 L-3.5 -1.6 -3.7 -2.3 -3.55 -2.7 Q-1.25 -1.7 0.5 -3.35 L1.1 -3.0 0.75 -2.05 0.15 -1.65 M-10.3 -3.6 L-9.85 -4.1 -9.05 -3.15 -8.55 -2.9 Q-7.1 -3.0 -5.95 -4.05 L-7.95 -1.8 Q-8.95 -1.65 -9.7 -2.4 L-10.25 -3.3 -10.3 -3.6" fill="#123c00" fill-rule="evenodd" stroke="none"/>
  </g>
</svg>
