<?xml version="1.0" encoding="UTF-8" standalone="no"?>
<svg xmlns:xlink="http://www.w3.org/1999/xlink" height="24.65px" width="22.8px" xmlns="http://www.w3.org/2000/svg">
  <g transform="matrix(1.0, 0.0, 0.0, 1.0, 10.65, 25.45)">
    <path d="M8.8 -21.3 Q8.75 -20.05 8.85 -18.85 L11.05 -19.75 11.0 -18.5 10.15 -17.45 Q11.25 -17.3 12.05 -16.35 10.75 -15.25 8.4 -16.55 L7.05 -15.7 7.85 -16.15 10.15 -14.8 10.35 -14.5 Q8.7 -14.0 7.3 -14.8 L6.25 -15.25 4.85 -14.35 Q5.05 -12.7 4.0 -11.25 L2.9 -11.8 3.05 -14.6 0.5 -16.55 Q2.25 -17.05 4.25 -16.1 L5.1 -16.65 Q5.1 -18.8 5.8 -20.4 6.55 -20.25 6.55 -18.95 L6.6 -17.65 7.5 -18.15 7.8 -20.8 8.8 -21.3 M-1.5 -14.25 L-1.65 -11.4 0.95 -9.4 Q-0.85 -9.0 -2.85 -9.9 L-3.7 -9.3 Q-3.7 -7.25 -4.4 -5.6 -5.15 -5.75 -5.15 -7.0 L-5.2 -8.35 -6.1 -7.8 -6.35 -5.25 -7.4 -4.75 -7.45 -7.15 Q-8.55 -6.65 -9.6 -6.3 L-9.6 -7.55 -8.75 -8.5 Q-9.85 -8.75 -10.65 -9.6 L-7.0 -9.5 Q-6.3 -9.85 -5.65 -10.35 -6.05 -10.05 -6.4 -9.9 L-8.75 -11.2 -8.95 -11.45 -5.9 -11.25 -4.85 -10.8 -3.5 -11.65 Q-3.6 -13.3 -2.65 -14.8 L-1.5 -14.25" fill="#ffffff" fill-rule="evenodd" stroke="none"/>
    <path d="M12.15 -10.15 L10.05 -8.9 11.9 -7.45 10.8 -6.85 9.5 -7.1 Q9.9 -6.05 9.5 -4.9 7.85 -5.45 7.8 -8.15 L6.45 -8.9 7.2 -8.45 7.2 -5.8 7.05 -5.5 Q5.8 -6.7 5.8 -8.25 L5.65 -9.4 Q4.95 -9.75 4.25 -10.2 2.85 -9.25 1.1 -9.4 1.0 -10.05 1.05 -10.6 L3.55 -11.9 4.0 -15.1 Q5.25 -13.8 5.4 -11.55 L6.35 -11.1 Q8.2 -12.1 9.95 -12.35 10.15 -11.6 9.05 -11.0 L7.95 -10.3 8.8 -9.75 11.25 -10.75 12.15 -10.15 M1.0 -15.65 L-1.55 -14.4 -2.0 -11.2 Q-3.25 -12.5 -3.45 -14.7 L-4.35 -15.2 Q-6.15 -14.15 -7.95 -13.95 -8.2 -14.7 -7.05 -15.25 L-5.95 -16.0 -6.8 -16.55 Q-8.05 -16.0 -9.25 -15.55 L-10.15 -16.1 -8.05 -17.4 -9.9 -18.85 -8.85 -19.45 -7.5 -19.15 Q-7.9 -20.25 -7.45 -21.4 -5.85 -20.85 -5.85 -18.15 L-4.45 -17.35 -5.2 -17.85 -5.15 -20.5 -5.0 -20.8 Q-3.8 -19.6 -3.8 -18.0 L-3.7 -16.9 -2.2 -16.1 Q-0.85 -17.05 0.9 -16.9 L1.0 -15.65" fill="#ffffff" fill-rule="evenodd" stroke="none"/>
    <path d="M4.7 -22.1 Q4.25 -20.4 2.85 -19.65 L1.9 -19.05 1.9 -17.4 Q3.4 -16.65 4.1 -15.0 L3.0 -14.3 0.7 -16.0 -2.35 -14.85 Q-1.75 -16.55 0.1 -17.85 L0.05 -18.85 Q-1.7 -19.95 -2.65 -21.45 L-1.1 -21.3 0.05 -20.65 0.1 -21.7 -1.95 -23.3 -1.8 -24.4 0.25 -23.2 0.7 -25.45 1.7 -24.8 2.1 -23.5 Q2.9 -24.35 4.1 -24.5 4.35 -22.8 2.0 -21.5 L2.0 -19.95 2.0 -20.85 4.35 -22.05 4.7 -22.1 M0.9 -10.3 L3.95 -11.4 Q3.35 -9.65 1.5 -8.45 L1.5 -7.4 Q3.25 -6.3 4.3 -4.8 3.75 -4.3 2.7 -5.0 L1.55 -5.6 1.45 -4.6 3.5 -2.9 3.4 -1.8 1.3 -3.1 0.95 -0.8 -0.15 -1.45 -0.55 -2.75 Q-1.3 -1.9 -2.5 -1.75 -2.75 -3.4 -0.4 -4.75 -0.3 -5.5 -0.35 -6.3 L-0.4 -5.45 -2.8 -4.15 -3.15 -4.15 Q-2.7 -5.85 -1.25 -6.55 L-0.35 -7.2 -0.35 -8.85 Q-1.75 -9.65 -2.5 -11.3 L-1.4 -11.9 0.9 -10.3" fill="#ffffff" fill-rule="evenodd" stroke="none"/>
  </g>
</svg>
