<?xml version="1.0" encoding="UTF-8" standalone="no"?>
<svg xmlns:xlink="http://www.w3.org/1999/xlink" height="22.6px" width="48.9px" xmlns="http://www.w3.org/2000/svg">
  <g transform="matrix(1.0, 0.0, 0.0, 1.0, 23.8, 19.9)">
    <path d="M11.1 -17.65 L11.15 -17.7 11.45 -17.8 11.8 -17.9 13.5 -18.15 13.8 -18.15 13.75 -17.95 13.6 -17.2 Q13.6 -16.9 13.75 -16.7 L13.55 -16.75 13.2 -16.7 13.05 -17.05 13.05 -17.15 Q13.05 -17.75 12.2 -17.75 L12.0 -17.75 11.9 -17.7 11.7 -17.65 11.3 -17.7 11.1 -17.65 M14.95 -18.1 Q19.05 -17.95 19.1 -16.75 L19.45 -16.8 Q20.8 -16.8 20.8 -16.1 L20.65 -15.6 21.05 -14.85 Q19.7 -16.45 19.15 -16.45 18.7 -16.45 18.55 -16.1 18.45 -16.3 18.2 -16.3 L18.1 -16.15 17.6 -16.25 17.8 -16.8 Q17.7 -17.5 17.2 -17.5 L17.1 -17.5 16.65 -17.6 Q16.0 -17.6 15.95 -17.0 15.8 -17.4 15.3 -17.4 L15.2 -17.4 15.2 -17.55 14.95 -18.1 M21.2 -14.7 L21.65 -14.8 Q22.1 -14.8 22.4 -14.15 L21.95 -13.75 21.75 -13.6 21.2 -13.7 20.55 -13.1 20.55 -13.05 20.2 -13.55 20.25 -13.85 20.2 -14.1 20.9 -13.9 Q21.35 -13.9 21.45 -14.4 L21.2 -14.7 M22.3 -12.95 L22.6 -13.0 22.65 -13.0 22.7 -13.0 Q23.1 -13.0 23.1 -12.6 23.1 -11.55 22.25 -11.55 L21.85 -11.65 Q22.3 -12.0 22.3 -12.95 M21.8 -11.65 L21.85 -11.15 21.85 -11.05 21.2 -10.35 20.65 -10.7 Q19.9 -10.7 19.9 -10.0 L20.5 -9.4 20.15 -9.4 20.25 -9.15 20.4 -9.1 20.85 -9.3 21.25 -9.7 Q21.65 -9.6 21.75 -9.0 L21.75 -8.85 21.7 -8.25 Q21.45 -7.3 20.55 -7.3 19.6 -7.3 19.85 -7.85 L19.8 -7.8 19.65 -7.5 19.75 -7.1 Q19.75 -6.3 19.2 -6.1 L19.4 -6.15 19.55 -5.75 Q19.2 -4.45 17.7 -4.45 L17.5 -4.45 Q17.25 -3.8 16.05 -3.8 14.9 -3.8 14.9 -4.5 14.9 -4.9 15.45 -5.1 16.25 -5.5 16.8 -5.5 L16.9 -5.5 Q17.05 -5.75 17.4 -5.8 L16.9 -6.3 Q16.9 -6.65 17.05 -6.75 L16.7 -6.7 16.65 -6.75 16.45 -6.7 16.5 -6.5 Q16.5 -5.9 15.95 -5.6 L15.05 -5.45 15.25 -6.05 Q15.15 -6.7 14.65 -6.7 13.7 -6.7 13.7 -5.9 L14.35 -5.25 Q14.15 -4.65 13.15 -4.65 11.6 -4.65 11.6 -5.85 L11.65 -5.9 10.75 -5.3 Q9.6 -5.3 9.45 -7.15 L9.15 -7.95 9.15 -8.15 9.1 -8.5 Q9.6 -8.5 9.6 -8.7 9.6 -9.3 8.35 -9.3 L7.9 -9.25 8.4 -9.45 8.45 -9.45 Q8.8 -9.45 8.9 -9.6 L10.05 -9.9 10.3 -9.95 10.4 -9.7 10.25 -9.55 Q9.75 -9.5 9.75 -9.0 9.75 -8.35 10.35 -8.2 10.1 -8.1 10.1 -7.75 L10.8 -7.1 Q12.5 -7.1 12.5 -7.75 L12.8 -7.75 Q13.55 -7.75 13.55 -8.5 L13.4 -8.95 13.8 -9.0 Q13.8 -8.6 14.2 -8.4 13.85 -8.2 13.85 -7.8 13.85 -7.15 14.65 -7.15 L15.05 -7.15 15.05 -7.0 15.05 -6.95 15.15 -6.95 15.1 -7.15 Q15.8 -7.35 15.8 -8.0 L15.65 -8.45 15.75 -8.7 15.5 -8.9 15.7 -8.9 Q16.25 -8.9 16.3 -9.5 L16.4 -9.4 16.55 -9.25 17.0 -8.75 17.6 -9.15 Q18.05 -9.35 18.05 -9.9 L17.7 -10.45 18.05 -10.65 18.45 -10.6 19.1 -10.8 19.25 -10.9 19.4 -10.9 Q20.2 -10.9 20.2 -11.45 L19.75 -12.0 19.8 -12.0 20.15 -12.1 Q20.25 -11.5 21.2 -11.5 L21.8 -11.65 M11.6 -10.1 L12.3 -10.2 12.4 -10.15 Q11.65 -9.95 11.65 -9.4 11.65 -9.0 12.1 -8.9 L11.9 -8.5 12.0 -8.1 11.15 -8.3 11.4 -8.85 11.3 -9.2 11.35 -9.45 11.35 -9.55 11.6 -10.1 M13.25 -10.75 L13.35 -10.5 13.35 -10.45 13.95 -10.85 Q14.3 -10.85 14.4 -11.1 L14.8 -11.25 14.75 -11.0 Q14.0 -10.95 13.9 -10.35 L13.2 -10.3 13.25 -10.6 13.25 -10.75 M15.0 -11.45 Q14.85 -11.55 14.85 -11.75 14.85 -12.45 15.55 -12.45 L15.85 -12.4 15.35 -12.0 15.1 -11.55 15.0 -11.45 M16.1 -12.5 L15.55 -13.05 15.75 -13.6 16.15 -13.55 16.55 -13.6 16.75 -13.1 16.75 -13.0 17.1 -13.95 17.0 -14.0 17.0 -14.25 Q17.05 -14.9 16.45 -14.9 L16.25 -14.9 16.3 -15.0 16.45 -15.5 Q16.35 -16.15 15.85 -16.15 L15.75 -16.05 15.55 -16.1 15.7 -16.35 15.95 -16.6 Q16.0 -16.1 16.65 -16.1 L16.9 -16.1 16.5 -15.5 16.9 -15.3 17.05 -15.3 17.45 -15.05 Q17.15 -14.85 17.15 -14.25 L17.5 -13.25 17.8 -12.65 17.5 -12.75 Q17.0 -12.75 16.85 -12.35 L16.45 -12.55 16.1 -12.5 M13.95 -14.8 L13.95 -14.7 Q13.95 -14.25 13.5 -14.25 12.6 -14.25 12.45 -14.6 L12.45 -14.8 12.45 -14.95 Q12.55 -15.3 13.15 -15.3 L13.35 -15.3 Q13.85 -15.25 13.95 -14.8 M11.7 -14.9 L11.1 -14.6 11.1 -14.65 10.85 -15.15 11.4 -15.0 11.85 -15.05 11.7 -14.9 M10.1 -14.25 L8.4 -13.95 8.5 -14.25 8.25 -14.7 8.55 -15.15 8.95 -15.1 9.15 -15.1 9.3 -15.1 9.7 -15.25 10.05 -14.95 10.0 -14.7 10.1 -14.25 M7.7 -14.05 L7.05 -13.95 Q6.8 -13.95 6.75 -14.1 7.15 -14.25 7.15 -14.65 L7.15 -14.75 7.6 -14.65 Q7.45 -14.55 7.45 -14.3 L7.7 -14.05 M6.75 -13.8 L6.8 -13.8 7.15 -13.4 Q7.15 -12.4 5.45 -12.4 4.6 -12.4 4.6 -13.0 L4.6 -13.1 4.5 -13.1 4.45 -13.1 4.1 -13.25 4.1 -13.1 Q4.1 -12.2 3.25 -12.2 3.05 -12.2 2.95 -12.3 L3.2 -12.7 3.2 -12.9 Q3.5 -12.95 3.65 -13.1 4.1 -13.25 4.1 -13.7 4.1 -14.4 3.4 -14.4 3.05 -14.4 2.85 -14.2 L2.75 -14.45 Q2.75 -14.85 3.1 -15.05 L3.5 -14.9 Q4.15 -14.9 4.2 -15.35 L4.45 -15.35 4.4 -15.05 Q4.4 -14.6 4.8 -14.45 4.9 -14.25 5.35 -14.25 L5.45 -14.25 5.75 -14.0 5.45 -13.9 4.7 -13.7 4.75 -13.6 4.75 -13.55 5.15 -13.75 5.25 -13.7 5.05 -13.3 Q5.05 -12.85 5.5 -12.85 5.95 -12.85 5.95 -13.3 L5.95 -13.5 6.0 -13.5 6.2 -13.3 Q6.75 -13.3 6.75 -13.75 L6.75 -13.8 M1.6 -12.05 L1.35 -12.05 Q0.9 -12.05 0.9 -12.45 L0.85 -12.3 0.95 -12.05 Q0.95 -11.7 0.5 -11.55 L-0.15 -11.5 -0.65 -11.65 -0.75 -11.95 Q-0.6 -12.05 -0.6 -12.3 L-0.6 -12.5 0.3 -12.75 Q0.3 -13.2 -0.4 -13.2 L-0.55 -13.2 -0.55 -13.35 0.2 -13.45 Q0.4 -13.25 0.7 -13.25 L0.95 -13.35 1.05 -13.95 0.85 -14.45 Q1.0 -14.9 1.5 -14.9 L2.6 -14.05 Q2.3 -13.85 2.3 -13.4 L2.6 -13.15 Q2.35 -13.15 2.25 -12.95 L2.15 -12.95 2.15 -13.0 2.25 -13.2 2.05 -13.45 1.75 -13.15 2.0 -13.0 Q1.45 -13.0 1.45 -12.5 1.4 -12.2 1.6 -12.05 M-0.95 -11.85 Q-1.0 -10.9 -1.65 -10.9 L-1.85 -11.1 -1.8 -10.95 Q-1.8 -10.5 -2.15 -10.5 L-2.6 -10.6 -3.25 -10.5 -2.85 -10.55 Q-2.9 -9.95 -3.4 -9.95 L-3.65 -10.2 -4.5 -9.95 -4.75 -10.15 -4.55 -10.75 Q-4.05 -10.8 -4.05 -11.25 L-3.85 -11.85 -3.8 -11.85 -3.7 -11.85 -3.5 -11.8 -3.45 -11.75 -3.5 -11.55 Q-3.5 -11.2 -3.05 -11.2 -2.6 -11.2 -2.5 -11.5 -2.15 -11.45 -1.95 -11.2 L-1.8 -11.65 -2.0 -12.1 -1.9 -12.2 -1.75 -12.2 Q-1.7 -11.85 -1.2 -11.85 L-0.95 -11.85 M-5.0 -10.8 L-5.05 -10.8 -6.0 -10.4 -6.15 -10.45 Q-5.8 -10.6 -5.8 -10.95 -5.8 -11.4 -6.15 -11.5 L-5.6 -11.75 -5.65 -11.55 Q-5.65 -11.15 -5.2 -11.0 L-5.0 -10.8 M-6.55 -10.45 L-6.75 -10.05 -6.75 -10.2 -6.85 -10.55 -6.55 -10.45 M-7.1 -9.75 Q-7.1 -9.3 -8.35 -9.3 -8.95 -9.3 -9.0 -9.75 -8.5 -9.75 -8.5 -10.15 L-8.45 -10.15 Q-7.85 -10.25 -7.85 -10.6 -7.85 -11.15 -8.55 -11.2 L-8.6 -11.25 -8.35 -11.4 -8.2 -11.35 -7.55 -11.55 -7.05 -11.6 -6.75 -11.45 -7.0 -11.0 -6.9 -10.6 -7.15 -10.7 Q-7.85 -10.7 -7.85 -10.2 -7.85 -9.75 -7.25 -9.75 L-7.1 -9.75 M-9.45 -10.05 L-9.5 -10.05 -9.5 -10.2 -9.45 -10.05 M-9.85 -9.55 L-9.65 -9.45 -9.6 -9.35 Q-9.6 -9.15 -10.2 -9.0 L-10.2 -9.25 -10.2 -9.45 -9.85 -9.55 M-11.55 -9.0 L-11.55 -8.9 Q-11.55 -8.6 -11.85 -8.6 L-12.1 -8.75 Q-11.8 -8.85 -11.8 -9.25 L-11.8 -9.45 -12.1 -9.65 -12.15 -9.7 -12.25 -9.7 -12.85 -9.15 Q-12.85 -8.75 -12.45 -8.7 L-13.4 -8.5 -14.15 -8.55 -14.3 -8.55 -14.5 -8.4 -14.4 -8.75 -14.95 -9.2 Q-15.35 -9.2 -15.55 -8.65 -15.55 -8.2 -15.1 -8.2 L-14.7 -8.25 -16.35 -7.15 -15.15 -7.75 Q-13.1 -8.7 -12.1 -8.7 -11.8 -8.7 -11.8 -8.35 L-12.3 -8.1 -14.2 -7.7 -18.05 -6.55 -18.45 -6.85 -17.6 -7.6 -16.35 -8.7 -16.35 -8.75 -16.95 -8.5 -17.1 -8.5 -17.3 -8.8 -16.25 -9.55 -13.85 -10.1 -13.95 -9.8 Q-13.95 -9.35 -13.4 -9.35 -12.9 -9.35 -12.9 -9.85 L-12.9 -9.9 -12.7 -10.3 -12.8 -10.65 Q-12.25 -10.55 -12.15 -9.95 L-12.2 -9.85 -12.0 -10.1 Q-11.95 -9.85 -11.55 -9.85 L-11.4 -9.85 -11.6 -9.3 -11.6 -9.45 -11.8 -9.45 -11.6 -9.2 -11.55 -9.0 M-17.15 -4.75 L-16.45 -4.75 -16.85 -4.6 -17.15 -4.7 -17.15 -4.75 M-11.0 -2.75 L-10.95 -2.8 -10.9 -2.8 -10.35 -2.6 -11.0 -2.75 M-12.55 -3.95 L-13.7 -3.95 -13.9 -3.95 -14.25 -4.0 -15.35 -4.15 Q-15.75 -4.3 -15.75 -4.6 L-15.7 -4.7 -12.7 -4.6 Q-12.25 -4.6 -12.15 -4.9 L-11.0 -4.8 Q-9.1 -4.65 -9.1 -4.15 -9.1 -3.65 -9.8 -3.65 L-12.55 -3.95 M-10.5 -5.65 L-11.15 -5.75 -13.4 -5.5 -15.3 -5.65 -14.25 -5.9 -10.85 -6.6 Q-10.1 -6.55 -10.1 -6.05 L-10.1 -5.95 Q-10.15 -5.65 -10.5 -5.65 M6.15 -15.45 L6.55 -15.7 6.8 -15.65 6.7 -15.35 6.75 -15.15 6.35 -15.25 6.15 -15.45 M7.55 -16.0 L7.55 -16.05 7.6 -16.0 7.55 -16.0 M8.65 -16.7 L9.45 -16.85 9.2 -16.8 9.15 -17.05 Q9.15 -17.6 9.5 -17.75 L9.75 -17.85 9.55 -17.7 Q9.4 -17.55 9.4 -17.2 L9.85 -16.6 9.75 -16.25 9.55 -16.1 9.15 -16.2 Q9.05 -16.55 8.65 -16.55 L8.55 -16.55 8.65 -16.7 M10.7 -17.45 L10.75 -17.5 10.7 -17.45 M7.95 -15.95 L8.15 -16.15 8.15 -16.05 8.2 -15.9 7.95 -15.95 M8.2 -16.3 L8.2 -16.4 8.3 -16.4 8.2 -16.3 M-3.0 -12.7 L-2.1 -12.9 -1.95 -12.85 -2.0 -12.9 -1.8 -12.95 -1.95 -12.85 -2.1 -12.55 Q-2.1 -12.3 -1.9 -12.2 L-2.15 -12.0 -2.5 -11.7 -2.95 -11.95 -3.2 -11.9 -3.15 -12.0 -3.1 -12.0 Q-2.7 -12.0 -2.7 -12.4 L-3.0 -12.7 M1.0 -13.0 L0.95 -12.75 0.95 -12.7 1.2 -13.05 1.0 -13.1 1.0 -13.0 M18.7 -14.5 L18.95 -15.15 19.3 -14.8 19.65 -14.5 19.1 -14.55 18.7 -14.5 M18.35 -14.35 L18.5 -14.35 18.4 -14.25 18.35 -14.35 M12.3 -15.2 L12.15 -15.25 12.2 -15.55 12.1 -15.85 12.15 -15.85 Q12.35 -15.85 12.7 -16.1 L12.7 -16.05 Q12.7 -15.6 13.3 -15.55 L13.3 -15.45 13.3 -15.4 12.7 -15.5 12.3 -15.2 M14.25 -16.55 L14.3 -16.55 14.3 -16.5 14.55 -16.3 14.25 -16.3 14.15 -16.55 14.25 -16.55 M18.8 -13.4 L18.7 -13.25 18.65 -13.45 18.8 -13.4 M11.65 -16.75 L11.75 -16.75 12.0 -16.7 11.95 -16.65 11.85 -16.6 Q10.8 -16.2 10.8 -15.95 L10.85 -15.75 10.8 -15.65 10.65 -16.05 10.85 -16.85 10.85 -16.9 10.8 -17.15 11.35 -16.8 11.45 -16.75 11.65 -16.75 M15.2 -9.15 L14.6 -9.55 14.75 -9.65 15.15 -9.25 15.2 -9.15 M16.8 -7.55 Q17.35 -7.55 17.35 -8.0 17.35 -8.5 16.85 -8.5 16.4 -8.5 16.4 -8.0 16.4 -7.55 16.8 -7.55 M19.3 -8.2 Q19.2 -8.8 18.75 -8.8 18.0 -8.8 18.0 -8.35 L18.4 -7.95 18.25 -7.95 Q17.6 -7.95 17.6 -7.35 L18.2 -6.75 Q18.75 -6.75 18.75 -7.35 L18.75 -7.6 Q19.3 -7.6 19.3 -8.2 M11.7 -6.35 L12.45 -5.65 Q13.2 -5.65 13.2 -6.4 13.05 -7.15 12.45 -7.15 11.7 -7.15 11.7 -6.35 M17.9 -5.85 L18.65 -6.1 18.25 -6.2 17.9 -5.85 M19.5 -6.05 L20.6 -6.9 Q21.2 -6.9 21.35 -6.25 21.35 -5.45 20.1 -5.45 L19.5 -6.05 M22.55 -9.65 Q22.55 -9.3 22.2 -9.3 L21.55 -9.9 Q21.55 -10.25 21.95 -10.25 L22.55 -9.65 M13.35 -1.95 L12.65 -2.55 13.35 -3.35 Q14.05 -3.95 14.55 -3.95 15.15 -3.95 15.2 -3.3 L14.7 -2.5 Q14.1 -1.95 13.35 -1.95 M10.75 -3.4 Q10.75 -4.15 11.5 -4.15 12.0 -4.15 12.1 -3.45 12.1 -2.75 11.4 -2.75 L10.75 -3.4 M11.45 -0.9 L10.65 -1.75 Q10.65 -2.55 11.95 -2.55 12.55 -2.55 12.55 -1.85 12.55 -0.9 11.45 -0.9 M-20.4 -6.3 L-20.35 -6.25 -19.75 -5.25 -19.8 -4.35 Q-19.8 -4.0 -20.65 -3.55 -21.45 -3.1 -22.0 -3.1 L-22.3 -3.1 -22.65 -3.5 -22.65 -3.55 Q-22.65 -3.85 -21.6 -4.05 L-21.15 -4.2 Q-20.65 -4.25 -20.6 -4.7 L-20.55 -5.0 -20.75 -6.0 -20.4 -6.3 M-18.95 -6.15 L-19.05 -6.2 -18.95 -6.3 -18.9 -6.2 -18.95 -6.15 M-9.55 -11.05 L-9.85 -10.65 -9.95 -10.65 Q-10.75 -10.65 -10.8 -10.15 L-11.0 -10.1 -10.9 -10.65 -11.1 -10.85 -9.65 -11.05 -9.55 -11.05 M-5.3 -9.75 Q-5.3 -9.2 -6.3 -9.2 L-6.75 -9.25 -6.95 -9.35 -6.95 -9.6 -5.8 -10.2 Q-5.3 -10.2 -5.3 -9.75 M-14.15 -1.5 L-14.15 -1.55 -13.8 -1.4 -14.15 -1.5 M-17.95 -2.5 L-17.3 -2.15 -17.9 -2.35 -18.2 -2.45 -17.95 -2.5 M-10.75 -1.8 L-10.3 -1.65 -10.5 -1.65 -10.8 -1.7 -10.75 -1.8" fill="#ffcccc" fill-rule="evenodd" stroke="none"/>
    <path d="M13.8 -18.15 Q13.9 -18.35 14.25 -18.35 L14.95 -18.1 15.2 -17.55 15.2 -17.4 15.3 -17.4 Q15.8 -17.4 15.95 -17.0 16.0 -17.6 16.65 -17.6 L17.1 -17.5 17.2 -17.5 Q17.7 -17.5 17.8 -16.8 L17.6 -16.25 18.1 -16.15 18.2 -16.3 Q18.45 -16.3 18.55 -16.1 18.7 -16.45 19.15 -16.45 19.7 -16.45 21.05 -14.85 L21.2 -14.7 21.45 -14.4 Q21.35 -13.9 20.9 -13.9 L20.2 -14.1 20.25 -13.85 20.2 -13.55 20.55 -13.05 20.55 -13.1 21.2 -13.7 21.75 -13.6 22.3 -12.95 Q22.3 -12.0 21.85 -11.65 L21.8 -11.65 21.2 -11.5 Q20.25 -11.5 20.15 -12.1 L19.8 -12.0 19.75 -12.0 20.2 -11.45 Q20.2 -10.9 19.4 -10.9 L19.25 -10.9 19.1 -10.8 18.45 -10.6 18.05 -10.65 17.7 -10.45 18.05 -9.9 Q18.05 -9.35 17.6 -9.15 L17.0 -8.75 16.55 -9.25 16.4 -9.4 16.3 -9.5 Q16.25 -8.9 15.7 -8.9 L15.5 -8.9 15.75 -8.7 15.65 -8.45 15.8 -8.0 Q15.8 -7.35 15.1 -7.15 L15.05 -7.15 14.65 -7.15 Q13.85 -7.15 13.85 -7.8 13.85 -8.2 14.2 -8.4 13.8 -8.6 13.8 -9.0 L13.4 -8.95 13.55 -8.5 Q13.55 -7.75 12.8 -7.75 L12.5 -7.75 Q12.5 -7.1 10.8 -7.1 L10.1 -7.75 Q10.1 -8.1 10.35 -8.2 9.75 -8.35 9.75 -9.0 9.75 -9.5 10.25 -9.55 L10.4 -9.7 10.3 -9.95 10.3 -10.0 Q10.3 -10.65 11.05 -10.65 11.5 -10.65 11.6 -10.1 L11.35 -9.55 11.35 -9.45 11.3 -9.2 11.4 -8.85 11.15 -8.3 12.0 -8.1 11.9 -8.5 12.1 -8.9 Q11.65 -9.0 11.65 -9.4 11.65 -9.95 12.4 -10.15 L12.3 -10.2 11.95 -10.6 Q11.95 -11.25 12.65 -11.25 13.2 -11.25 13.25 -10.75 L13.25 -10.6 13.2 -10.3 13.9 -10.35 Q14.0 -10.95 14.75 -11.0 L14.8 -11.25 15.0 -11.45 15.1 -11.55 15.35 -12.0 15.85 -12.4 16.1 -12.5 16.45 -12.55 16.85 -12.35 Q17.0 -12.75 17.5 -12.75 L17.8 -12.65 17.5 -13.25 17.15 -14.25 Q17.15 -14.85 17.45 -15.05 L17.05 -15.3 16.9 -15.3 16.5 -15.5 16.9 -16.1 16.65 -16.1 Q16.0 -16.1 15.95 -16.6 L15.7 -16.35 15.55 -16.1 15.75 -16.05 15.85 -16.15 Q16.35 -16.15 16.45 -15.5 L16.3 -15.0 16.25 -14.9 16.45 -14.9 Q17.05 -14.9 17.0 -14.25 L17.0 -14.0 16.55 -13.6 16.15 -13.55 15.75 -13.6 15.4 -13.85 15.35 -14.2 15.55 -14.65 13.95 -14.8 Q13.85 -15.25 13.35 -15.3 L13.3 -15.4 13.3 -15.45 13.3 -15.55 Q12.7 -15.6 12.7 -16.05 L12.7 -16.1 Q12.35 -15.85 12.15 -15.85 L12.1 -15.85 12.2 -15.55 12.15 -15.25 12.3 -15.2 12.45 -14.95 12.45 -14.8 12.45 -14.6 Q12.35 -14.15 11.9 -14.15 11.45 -14.15 11.45 -14.6 L11.7 -14.9 11.85 -15.05 11.4 -15.0 10.85 -15.15 11.1 -14.65 11.1 -14.6 Q11.1 -14.05 10.55 -14.05 10.25 -14.05 10.1 -14.25 L10.0 -14.7 10.05 -14.95 9.7 -15.25 9.3 -15.1 9.15 -15.1 8.95 -15.1 8.55 -15.15 8.25 -14.7 8.5 -14.25 8.4 -13.95 7.95 -13.8 7.7 -14.05 7.45 -14.3 Q7.45 -14.55 7.6 -14.65 L7.15 -14.75 7.15 -14.65 Q7.15 -14.25 6.75 -14.1 L6.65 -14.05 6.75 -13.8 6.75 -13.75 Q6.75 -13.3 6.2 -13.3 L6.0 -13.5 5.8 -13.7 5.9 -14.0 5.75 -14.0 5.45 -14.25 5.35 -14.25 Q4.9 -14.25 4.8 -14.45 4.4 -14.6 4.4 -15.05 L4.45 -15.35 Q4.65 -15.85 5.6 -15.85 L6.15 -15.45 6.35 -15.25 6.75 -15.15 6.7 -15.35 6.8 -15.65 7.55 -16.0 7.6 -16.0 7.55 -16.05 7.2 -16.45 Q7.2 -16.85 7.55 -16.9 7.55 -17.5 8.1 -17.5 8.65 -17.5 8.65 -16.9 L8.65 -16.7 8.55 -16.55 8.65 -16.55 Q9.05 -16.55 9.15 -16.2 L9.55 -16.1 9.75 -16.25 9.85 -16.6 9.4 -17.2 Q9.4 -17.55 9.55 -17.7 L9.75 -17.85 10.05 -17.9 10.7 -17.45 10.75 -17.5 11.1 -17.65 11.3 -17.7 11.7 -17.65 11.9 -17.7 12.0 -17.75 12.2 -17.75 Q13.05 -17.75 13.05 -17.15 L13.05 -17.05 13.2 -16.7 13.55 -16.75 13.75 -16.7 Q13.6 -16.9 13.6 -17.2 L13.75 -17.95 13.8 -18.15 M21.2 -10.35 L21.3 -10.0 21.25 -9.7 20.85 -9.3 20.6 -9.3 20.5 -9.4 19.9 -10.0 Q19.9 -10.7 20.65 -10.7 L21.2 -10.35 M15.05 -5.45 L14.35 -5.25 13.7 -5.9 Q13.7 -6.7 14.65 -6.7 15.15 -6.7 15.25 -6.05 L15.05 -5.45 M9.15 -7.95 L8.85 -7.7 9.0 -7.4 Q9.0 -7.0 8.6 -7.0 7.85 -7.0 7.85 -7.5 7.85 -7.85 8.2 -7.85 L8.3 -7.85 Q8.15 -7.95 8.15 -8.2 L8.15 -8.3 7.95 -8.25 7.4 -8.7 Q7.25 -8.5 6.9 -8.5 L6.4 -9.0 Q6.4 -9.55 6.9 -9.55 7.4 -9.55 7.5 -9.05 L7.9 -9.25 8.35 -9.3 Q9.6 -9.3 9.6 -8.7 9.6 -8.5 9.1 -8.5 L9.15 -8.15 9.15 -7.95 M8.4 -9.45 Q8.05 -9.5 8.05 -9.8 8.05 -10.2 8.45 -10.2 8.95 -10.2 8.95 -9.8 L8.9 -9.6 Q8.8 -9.45 8.45 -9.45 L8.4 -9.45 M13.95 -10.85 L13.9 -10.85 13.35 -11.35 Q13.35 -11.85 13.95 -11.85 14.4 -11.85 14.4 -11.3 L14.4 -11.1 Q14.3 -10.85 13.95 -10.85 M2.95 -12.3 L2.6 -12.25 2.45 -12.25 Q2.35 -12.0 2.0 -12.0 L1.6 -12.05 Q1.4 -12.2 1.45 -12.5 1.45 -13.0 2.0 -13.0 L2.15 -12.95 2.25 -12.95 Q2.35 -13.15 2.6 -13.15 L2.3 -13.4 Q2.3 -13.85 2.6 -14.05 L2.85 -14.15 2.85 -14.2 Q3.05 -14.4 3.4 -14.4 4.1 -14.4 4.1 -13.7 4.1 -13.25 3.65 -13.1 3.5 -12.95 3.2 -12.9 L3.2 -12.7 2.95 -12.3 M-0.75 -11.95 L-0.95 -11.85 -1.2 -11.85 Q-1.7 -11.85 -1.75 -12.2 L-1.9 -12.2 Q-2.1 -12.3 -2.1 -12.55 L-1.95 -12.85 -1.8 -12.95 -1.7 -13.0 -1.7 -13.1 Q-1.6 -13.65 -1.2 -13.65 -0.65 -13.65 -0.55 -13.35 L-0.55 -13.2 -0.4 -13.2 Q0.3 -13.2 0.3 -12.75 L-0.6 -12.5 -0.6 -12.3 Q-0.6 -12.05 -0.75 -11.95 M-4.55 -10.75 L-4.7 -10.75 -5.0 -10.8 -5.2 -11.0 Q-5.65 -11.15 -5.65 -11.55 L-5.6 -11.75 Q-5.5 -12.45 -4.3 -12.45 L-3.95 -12.1 -4.05 -12.4 -3.55 -12.85 -3.2 -12.95 -3.0 -12.7 -2.7 -12.4 Q-2.7 -12.0 -3.1 -12.0 L-3.15 -12.0 -3.2 -11.9 -2.95 -11.95 -2.5 -11.7 -2.5 -11.6 -2.5 -11.5 Q-2.6 -11.2 -3.05 -11.2 -3.5 -11.2 -3.5 -11.55 L-3.45 -11.75 -3.4 -11.8 -3.5 -11.8 -3.7 -11.85 -3.85 -11.9 -3.85 -11.85 -4.05 -11.25 Q-4.05 -10.8 -4.55 -10.75 M-6.15 -10.45 L-6.45 -10.45 -6.55 -10.45 -6.85 -10.55 -6.75 -10.2 -6.75 -10.05 -7.1 -9.75 -7.25 -9.75 Q-7.85 -9.75 -7.85 -10.2 -7.85 -10.7 -7.15 -10.7 L-6.9 -10.6 -7.0 -11.0 -6.75 -11.45 -6.45 -11.55 -6.15 -11.5 Q-5.8 -11.4 -5.8 -10.95 -5.8 -10.6 -6.15 -10.45 M-9.0 -9.75 L-9.45 -10.05 -9.5 -10.2 -9.5 -10.05 -9.85 -9.55 -10.2 -9.45 -10.2 -9.25 -10.2 -9.0 Q-10.35 -8.65 -10.85 -8.65 -11.4 -8.65 -11.55 -9.0 L-11.6 -9.2 -11.6 -9.3 -11.4 -9.85 -11.55 -9.85 Q-11.95 -9.85 -12.0 -10.1 L-12.0 -10.2 Q-12.0 -11.1 -11.35 -11.1 L-11.1 -10.85 -10.9 -10.65 -11.0 -10.1 -10.8 -10.15 Q-10.75 -10.65 -9.95 -10.65 L-9.85 -10.65 -9.55 -11.05 -9.45 -11.1 Q-9.4 -11.5 -8.9 -11.5 L-8.6 -11.25 -8.55 -11.2 Q-7.85 -11.15 -7.85 -10.6 -7.85 -10.25 -8.45 -10.15 L-8.5 -10.15 Q-8.5 -9.75 -9.0 -9.75 M-12.1 -8.75 L-12.4 -8.7 -12.45 -8.7 Q-12.85 -8.75 -12.85 -9.15 L-12.25 -9.7 -12.15 -9.7 -12.1 -9.65 -11.8 -9.45 -11.8 -9.25 Q-11.8 -8.85 -12.1 -8.75 M-14.5 -8.4 L-14.7 -8.25 -15.1 -8.2 Q-15.55 -8.2 -15.55 -8.65 -15.35 -9.2 -14.95 -9.2 L-14.4 -8.75 -14.5 -8.4 M3.85 -15.95 L4.2 -15.45 4.2 -15.35 Q4.15 -14.9 3.5 -14.9 L3.1 -15.05 3.05 -15.25 3.15 -15.65 Q3.25 -16.0 3.65 -16.0 L3.85 -15.95 M8.2 -16.3 L8.3 -16.4 8.2 -16.4 8.2 -16.3 M7.95 -15.95 L8.2 -15.9 8.15 -16.05 8.15 -16.15 7.95 -15.95 M5.95 -13.5 L5.95 -13.3 Q5.95 -12.85 5.5 -12.85 5.05 -12.85 5.05 -13.3 L5.25 -13.7 5.5 -13.75 5.95 -13.5 M-7.7 -12.25 L-7.5 -11.85 -7.55 -11.55 -8.2 -11.35 -8.35 -11.4 -8.45 -11.55 -8.3 -12.1 Q-8.2 -12.3 -7.95 -12.3 L-7.7 -12.25 M0.2 -13.45 Q0.0 -13.65 -0.05 -14.0 0.0 -14.55 0.5 -14.55 L0.85 -14.45 1.05 -13.95 0.95 -13.35 0.7 -13.25 Q0.4 -13.25 0.2 -13.45 M4.4 -6.05 L4.05 -5.7 Q3.8 -5.7 3.75 -6.05 3.75 -6.45 4.05 -6.45 L4.4 -6.05 M6.1 -9.65 L5.6 -9.25 Q5.35 -9.25 5.35 -9.55 5.35 -10.0 5.75 -10.0 L6.1 -9.65 M18.35 -14.35 L18.4 -14.25 18.5 -14.35 18.35 -14.35 M18.7 -14.5 L19.1 -14.55 19.65 -14.5 19.3 -14.8 18.95 -15.15 18.7 -14.5 M18.8 -13.4 L18.65 -13.45 18.7 -13.25 18.8 -13.4 M14.25 -16.55 L14.15 -16.55 14.25 -16.3 14.55 -16.3 14.3 -16.5 14.3 -16.55 14.25 -16.55 M11.65 -16.75 L11.45 -16.75 11.35 -16.8 10.8 -17.15 10.85 -16.9 10.85 -16.85 10.65 -16.05 10.8 -15.65 10.85 -15.75 10.8 -15.95 Q10.8 -16.2 11.85 -16.6 L11.95 -16.65 12.0 -16.7 11.75 -16.75 11.65 -16.75 M15.2 -9.15 L15.15 -9.25 14.75 -9.65 14.6 -9.55 15.2 -9.15 M11.7 -6.35 Q11.7 -7.15 12.45 -7.15 13.05 -7.15 13.2 -6.4 13.2 -5.65 12.45 -5.65 L11.7 -6.35 M19.3 -8.2 Q19.3 -7.6 18.75 -7.6 L18.75 -7.35 Q18.75 -6.75 18.2 -6.75 L17.6 -7.35 Q17.6 -7.95 18.25 -7.95 L18.4 -7.95 18.0 -8.35 Q18.0 -8.8 18.75 -8.8 19.2 -8.8 19.3 -8.2 M16.8 -7.55 Q16.4 -7.55 16.4 -8.0 16.4 -8.5 16.85 -8.5 17.35 -8.5 17.35 -8.0 17.35 -7.55 16.8 -7.55 M5.9 -4.95 L6.3 -5.3 Q6.85 -5.3 6.85 -4.75 6.85 -4.25 6.4 -4.25 5.9 -4.25 5.9 -4.95 M2.55 -4.7 L2.9 -4.3 2.55 -3.9 Q2.15 -3.9 2.25 -4.3 2.15 -4.7 2.55 -4.7 M4.0 -1.55 Q4.0 -2.7 4.9 -2.7 L5.45 -1.55 Q5.45 -0.9 4.65 -0.9 4.0 -0.9 4.0 -1.55 M-13.85 -10.1 L-13.65 -10.25 -13.65 -10.3 Q-13.65 -10.8 -13.1 -10.8 L-12.8 -10.65 -12.7 -10.3 -12.9 -9.9 -12.9 -9.85 Q-12.9 -9.35 -13.4 -9.35 -13.95 -9.35 -13.95 -9.8 L-13.85 -10.1 M-8.95 -8.65 L-8.55 -8.1 Q-8.55 -7.6 -9.05 -7.6 -9.5 -7.6 -9.6 -8.2 -9.6 -8.65 -8.95 -8.65" fill="#ffffff" fill-rule="evenodd" stroke="none"/>
    <path d="M13.8 -18.15 L13.5 -18.15 11.8 -17.9 11.45 -17.8 11.15 -17.7 11.1 -17.65 10.75 -17.5 10.7 -17.45 10.05 -17.9 9.75 -17.85 9.5 -17.75 Q9.15 -17.6 9.15 -17.05 L9.2 -16.8 9.45 -16.85 8.65 -16.7 8.65 -16.9 Q8.65 -17.5 8.1 -17.5 7.55 -17.5 7.55 -16.9 7.2 -16.85 7.2 -16.45 L7.55 -16.05 7.55 -16.0 6.8 -15.65 6.55 -15.7 6.15 -15.45 5.6 -15.85 Q4.65 -15.85 4.45 -15.35 L4.2 -15.35 4.2 -15.45 3.85 -15.95 7.55 -17.5 8.3 -17.6 9.95 -18.2 13.55 -18.8 Q18.35 -18.8 20.5 -17.4 21.65 -16.6 22.6 -15.1 L23.45 -12.8 23.85 -10.4 Q23.85 -8.9 22.75 -6.7 L21.6 -4.95 20.45 -4.0 19.35 -3.3 16.5 -1.55 12.95 -0.25 Q8.05 1.8 6.0 1.8 L5.4 1.65 6.05 1.45 6.1 1.45 Q10.65 -0.85 8.65 -5.85 L8.65 -5.8 Q7.4 -9.15 4.0 -9.15 L3.95 -9.15 2.0 -8.75 Q3.3 -9.8 7.9 -10.35 10.65 -10.65 12.05 -11.25 14.95 -12.35 14.95 -13.15 L14.55 -13.5 14.55 -13.4 13.55 -12.95 13.85 -13.0 12.7 -12.55 12.35 -12.4 12.05 -12.5 11.7 -12.2 11.25 -12.05 10.75 -12.75 Q10.3 -12.75 9.15 -11.55 L9.1 -11.55 9.1 -11.6 9.35 -12.2 Q9.35 -12.7 8.3 -12.7 7.3 -12.7 7.3 -12.1 7.3 -11.85 7.65 -11.4 L7.45 -11.35 Q6.55 -11.85 5.9 -11.85 L4.8 -11.4 4.15 -10.8 3.5 -10.95 2.85 -10.3 Q2.1 -10.05 1.65 -9.65 L1.1 -9.35 Q0.5 -9.35 0.4 -8.8 L0.4 -8.75 0.3 -8.65 0.25 -8.8 0.15 -8.9 -0.45 -9.7 Q-0.85 -9.7 -0.85 -9.25 L-0.6 -8.7 -0.4 -8.3 -0.2 -7.95 -0.35 -7.7 -0.45 -7.8 -1.85 -8.3 -2.25 -8.3 -2.8 -8.25 Q-4.3 -8.1 -4.05 -7.25 -3.95 -6.65 -4.45 -6.35 L-4.8 -6.1 -5.7 -7.3 -6.15 -6.85 -5.35 -5.75 -5.65 -5.6 -5.7 -5.65 -5.95 -6.15 Q-6.75 -7.4 -7.25 -7.4 L-7.95 -6.95 -7.95 -6.7 -7.8 -6.65 -8.2 -6.75 Q-7.7 -7.0 -8.35 -7.0 L-8.7 -6.75 -9.0 -7.0 -9.3 -6.6 -9.3 -6.45 -10.1 -5.95 -10.1 -6.05 Q-10.1 -6.55 -10.85 -6.6 L-14.25 -5.9 -15.3 -5.65 -13.4 -5.5 -11.15 -5.75 -10.5 -5.65 -10.65 -5.55 -11.0 -4.8 -12.15 -4.9 Q-12.25 -4.6 -12.7 -4.6 L-15.7 -4.7 -15.75 -4.6 Q-15.75 -4.3 -15.35 -4.15 L-14.25 -4.0 -13.9 -3.95 -13.7 -3.95 -12.55 -3.95 -12.6 -3.9 -12.55 -3.7 Q-10.9 -3.4 -10.9 -3.1 L-10.9 -2.85 -10.9 -2.8 -10.95 -2.8 -11.0 -2.75 -11.2 -2.8 -15.95 -4.15 -16.65 -3.9 -16.65 -3.65 -16.55 -3.6 -17.55 -4.0 -17.45 -4.35 -17.15 -4.7 -16.85 -4.6 -16.45 -4.75 -17.15 -4.75 -17.15 -4.85 Q-17.15 -5.25 -17.45 -5.3 L-18.05 -6.55 -14.2 -7.7 -12.3 -8.1 -11.8 -8.35 Q-11.8 -8.7 -12.1 -8.7 -13.1 -8.7 -15.15 -7.75 L-16.35 -7.15 -14.7 -8.25 -14.5 -8.4 -14.3 -8.55 -14.15 -8.55 -13.4 -8.5 -12.45 -8.7 -12.4 -8.7 -12.1 -8.75 -11.85 -8.6 Q-11.55 -8.6 -11.55 -8.9 L-11.55 -9.0 Q-11.4 -8.65 -10.85 -8.65 -10.35 -8.65 -10.2 -9.0 -9.6 -9.15 -9.6 -9.35 L-9.65 -9.45 -9.85 -9.55 -9.5 -10.05 -9.45 -10.05 -9.0 -9.75 Q-8.95 -9.3 -8.35 -9.3 -7.1 -9.3 -7.1 -9.75 L-6.75 -10.05 -6.55 -10.45 -6.45 -10.45 -6.15 -10.45 -6.0 -10.4 -5.05 -10.8 -5.0 -10.8 -4.7 -10.75 -4.55 -10.75 -4.75 -10.15 -4.5 -9.95 -3.65 -10.2 -3.4 -9.95 Q-2.9 -9.95 -2.85 -10.55 L-3.25 -10.5 -2.6 -10.6 -2.15 -10.5 Q-1.8 -10.5 -1.8 -10.95 L-1.85 -11.1 -1.65 -10.9 Q-1.0 -10.9 -0.95 -11.85 L-0.75 -11.95 -0.65 -11.65 -0.15 -11.5 0.5 -11.55 Q0.95 -11.7 0.95 -12.05 L0.85 -12.3 0.9 -12.45 Q0.9 -12.05 1.35 -12.05 L1.6 -12.05 2.0 -12.0 Q2.35 -12.0 2.45 -12.25 L2.6 -12.25 2.95 -12.3 Q3.05 -12.2 3.25 -12.2 4.1 -12.2 4.1 -13.1 L4.1 -13.25 4.45 -13.1 4.5 -13.1 4.6 -13.1 4.6 -13.0 Q4.6 -12.4 5.45 -12.4 7.15 -12.4 7.15 -13.4 L6.8 -13.8 6.75 -13.8 6.65 -14.05 6.75 -14.1 Q6.8 -13.95 7.05 -13.95 L7.7 -14.05 7.95 -13.8 8.4 -13.95 10.1 -14.25 Q10.25 -14.05 10.55 -14.05 11.1 -14.05 11.1 -14.6 L11.7 -14.9 11.45 -14.6 Q11.45 -14.15 11.9 -14.15 12.35 -14.15 12.45 -14.6 12.6 -14.25 13.5 -14.25 13.95 -14.25 13.95 -14.7 L13.95 -14.8 15.55 -14.65 15.35 -14.2 15.4 -13.85 15.75 -13.6 15.55 -13.05 16.1 -12.5 15.85 -12.4 15.55 -12.45 Q14.85 -12.45 14.85 -11.75 14.85 -11.55 15.0 -11.45 L14.8 -11.25 14.4 -11.1 14.4 -11.3 Q14.4 -11.85 13.95 -11.85 13.35 -11.85 13.35 -11.35 L13.9 -10.85 13.95 -10.85 13.35 -10.45 13.35 -10.5 13.25 -10.75 Q13.2 -11.25 12.65 -11.25 11.95 -11.25 11.95 -10.6 L12.3 -10.2 11.6 -10.1 Q11.5 -10.65 11.05 -10.65 10.3 -10.65 10.3 -10.0 L10.3 -9.95 10.05 -9.9 8.9 -9.6 8.95 -9.8 Q8.95 -10.2 8.45 -10.2 8.05 -10.2 8.05 -9.8 8.05 -9.5 8.4 -9.45 L7.9 -9.25 7.5 -9.05 Q7.4 -9.55 6.9 -9.55 6.4 -9.55 6.4 -9.0 L6.9 -8.5 Q7.25 -8.5 7.4 -8.7 L7.95 -8.25 8.15 -8.3 8.15 -8.2 Q8.15 -7.95 8.3 -7.85 L8.2 -7.85 Q7.85 -7.85 7.85 -7.5 7.85 -7.0 8.6 -7.0 9.0 -7.0 9.0 -7.4 L8.85 -7.7 9.15 -7.95 9.45 -7.15 Q9.6 -5.3 10.75 -5.3 L11.65 -5.9 11.6 -5.85 Q11.6 -4.65 13.15 -4.65 14.15 -4.65 14.35 -5.25 L15.05 -5.45 15.95 -5.6 Q16.5 -5.9 16.5 -6.5 L16.45 -6.7 16.65 -6.75 16.7 -6.7 17.05 -6.75 Q16.9 -6.65 16.9 -6.3 L17.4 -5.8 Q17.05 -5.75 16.9 -5.5 L16.8 -5.5 Q16.25 -5.5 15.45 -5.1 14.9 -4.9 14.9 -4.5 14.9 -3.8 16.05 -3.8 17.25 -3.8 17.5 -4.45 L17.7 -4.45 Q19.2 -4.45 19.55 -5.75 L19.4 -6.15 19.2 -6.1 Q19.75 -6.3 19.75 -7.1 L19.65 -7.5 19.8 -7.8 19.85 -7.85 Q19.6 -7.3 20.55 -7.3 21.45 -7.3 21.7 -8.25 L21.75 -8.85 21.75 -9.0 Q21.65 -9.6 21.25 -9.7 L21.3 -10.0 21.2 -10.35 21.85 -11.05 21.85 -11.15 21.8 -11.65 21.85 -11.65 22.25 -11.55 Q23.1 -11.55 23.1 -12.6 23.1 -13.0 22.7 -13.0 L22.65 -13.0 22.6 -13.0 22.3 -12.95 21.75 -13.6 21.95 -13.75 22.4 -14.15 Q22.1 -14.8 21.65 -14.8 L21.2 -14.7 21.05 -14.85 20.65 -15.6 20.8 -16.1 Q20.8 -16.8 19.45 -16.8 L19.1 -16.75 Q19.05 -17.95 14.95 -18.1 L14.25 -18.35 Q13.9 -18.35 13.8 -18.15 M5.75 -14.0 L5.9 -14.0 5.8 -13.7 6.0 -13.5 5.95 -13.5 5.5 -13.75 5.25 -13.7 5.15 -13.75 4.75 -13.55 4.75 -13.6 4.7 -13.7 5.45 -13.9 5.75 -14.0 M8.6 -12.05 L8.35 -11.6 8.0 -12.0 8.1 -12.05 8.6 -12.05 M3.1 -15.05 Q2.75 -14.85 2.75 -14.45 L2.85 -14.2 2.85 -14.15 2.6 -14.05 1.5 -14.9 Q1.0 -14.9 0.85 -14.45 L0.5 -14.55 Q0.0 -14.55 -0.05 -14.0 0.0 -13.65 0.2 -13.45 L-0.55 -13.35 Q-0.65 -13.65 -1.2 -13.65 -1.6 -13.65 -1.7 -13.1 L-1.7 -13.0 -1.8 -12.95 -2.0 -12.9 -1.95 -12.85 -2.1 -12.9 -3.0 -12.7 -3.2 -12.95 -3.55 -12.85 -4.05 -12.4 -3.95 -12.1 -4.3 -12.45 Q-5.5 -12.45 -5.6 -11.75 L-6.15 -11.5 -6.45 -11.55 -6.75 -11.45 -7.05 -11.6 -7.55 -11.55 -7.5 -11.85 -7.7 -12.25 Q-4.05 -12.95 -1.65 -13.8 L3.15 -15.65 3.05 -15.25 3.1 -15.05 M2.15 -12.95 L2.0 -13.0 1.75 -13.15 2.05 -13.45 2.25 -13.2 2.15 -13.0 2.15 -12.95 M1.0 -13.0 L1.0 -13.1 1.2 -13.05 0.95 -12.7 0.95 -12.75 1.0 -13.0 M6.1 -9.65 L5.75 -10.0 Q5.35 -10.0 5.35 -9.55 5.35 -9.25 5.6 -9.25 L6.1 -9.65 M16.55 -13.6 L17.0 -14.0 17.1 -13.95 16.75 -13.0 16.75 -13.1 16.55 -13.6 M12.3 -15.2 L12.7 -15.5 13.3 -15.4 13.35 -15.3 13.15 -15.3 Q12.55 -15.3 12.45 -14.95 L12.3 -15.2 M19.5 -6.05 L20.1 -5.45 Q21.35 -5.45 21.35 -6.25 21.2 -6.9 20.6 -6.9 L19.5 -6.05 M22.55 -9.65 L21.95 -10.25 Q21.55 -10.25 21.55 -9.9 L22.2 -9.3 Q22.55 -9.3 22.55 -9.65 M20.5 -9.4 L20.6 -9.3 20.85 -9.3 20.4 -9.1 20.25 -9.15 20.15 -9.4 20.5 -9.4 M11.45 -0.9 Q12.55 -0.9 12.55 -1.85 12.55 -2.55 11.95 -2.55 10.65 -2.55 10.65 -1.75 L11.45 -0.9 M10.75 -3.4 L11.4 -2.75 Q12.1 -2.75 12.1 -3.45 12.0 -4.15 11.5 -4.15 10.75 -4.15 10.75 -3.4 M13.35 -1.95 Q14.1 -1.95 14.7 -2.5 L15.2 -3.3 Q15.15 -3.95 14.55 -3.95 14.05 -3.95 13.35 -3.35 L12.65 -2.55 13.35 -1.95 M-20.35 -6.25 L-19.5 -5.45 -19.6 -5.15 Q-19.0 -5.4 -19.0 -4.75 -19.0 -4.1 -19.8 -3.5 L-21.9 -2.95 -22.1 -3.0 -22.3 -3.1 -22.0 -3.1 Q-21.45 -3.1 -20.65 -3.55 -19.8 -4.0 -19.8 -4.35 L-19.75 -5.25 -20.35 -6.25 M-18.85 -6.1 L-18.95 -6.15 -18.9 -6.2 -18.85 -6.1 M-22.7 -4.6 L-22.25 -4.75 Q-22.25 -4.2 -21.2 -4.2 L-21.15 -4.2 -21.6 -4.05 Q-22.65 -3.85 -22.65 -3.55 L-22.65 -3.5 -22.95 -4.0 -22.7 -4.6 M-20.6 -4.7 L-20.6 -4.8 Q-20.6 -5.9 -21.45 -6.4 -21.45 -6.8 -21.05 -6.8 L-20.4 -6.3 -20.75 -6.0 -20.55 -5.0 -20.6 -4.7 M-17.1 -8.5 L-16.95 -8.5 -16.35 -8.75 -16.35 -8.7 -17.6 -7.6 -17.1 -8.5 M-11.1 -10.85 L-11.35 -11.1 Q-12.0 -11.1 -12.0 -10.2 L-12.0 -10.1 -12.2 -9.85 -12.15 -9.95 Q-12.25 -10.55 -12.8 -10.65 L-13.1 -10.8 Q-13.65 -10.8 -13.65 -10.3 L-13.65 -10.25 -13.85 -10.1 -16.25 -9.55 Q-14.65 -11.15 -11.8 -11.55 L-8.3 -12.1 -8.45 -11.55 -8.35 -11.4 -8.6 -11.25 -8.9 -11.5 Q-9.4 -11.5 -9.45 -11.1 L-9.55 -11.05 -9.65 -11.05 -11.1 -10.85 M-11.6 -9.3 L-11.6 -9.2 -11.8 -9.45 -11.6 -9.45 -11.6 -9.3 M-12.15 -9.7 L-12.1 -9.65 -12.15 -9.7 M-3.7 -11.85 L-3.8 -11.85 -3.85 -11.85 -3.85 -11.9 -3.7 -11.85 M-2.5 -11.7 L-2.15 -12.0 -1.9 -12.2 -2.0 -12.1 -1.8 -11.65 -1.95 -11.2 Q-2.15 -11.45 -2.5 -11.5 L-2.5 -11.6 -2.5 -11.7 M-3.45 -11.75 L-3.5 -11.8 -3.4 -11.8 -3.45 -11.75 M-8.45 -10.15 L-8.5 -10.15 -8.45 -10.15 M-5.3 -9.75 Q-5.3 -10.2 -5.8 -10.2 L-6.95 -9.6 -6.95 -9.35 -6.75 -9.25 -6.3 -9.2 Q-5.3 -9.2 -5.3 -9.75 M-8.95 -8.65 Q-9.6 -8.65 -9.6 -8.2 -9.5 -7.6 -9.05 -7.6 -8.55 -7.6 -8.55 -8.1 L-8.95 -8.65 M-7.55 -6.7 L-7.15 -6.45 -7.65 -6.6 -7.55 -6.7 M-14.15 -1.55 L-14.15 -1.5 -16.85 -2.15 Q-17.2 -2.15 -17.2 -1.75 -17.2 -1.25 -16.05 -0.95 L-14.7 -0.7 -11.25 0.25 -10.8 -0.05 -10.45 0.3 -13.45 0.4 Q-16.85 0.4 -17.9 -2.35 L-17.3 -2.15 -17.95 -2.5 -18.4 -2.85 -18.15 -3.1 -18.7 -3.5 -18.3 -3.45 -17.9 -3.55 -14.15 -1.55 M-10.75 -1.8 L-10.8 -1.7 -11.1 -1.5 -14.1 -2.65 -16.4 -3.55 Q-15.7 -3.5 -11.9 -2.1 L-10.75 -1.8" fill="#e89f9f" fill-rule="evenodd" stroke="none"/>
    <path d="M-0.35 -7.7 L-0.2 -7.95 0.3 -8.65 0.4 -8.75 1.1 -9.35 1.65 -9.65 Q2.1 -10.05 2.85 -10.3 4.45 -10.95 7.45 -11.35 L7.65 -11.4 8.05 -11.45 9.1 -11.55 9.15 -11.55 11.25 -12.05 11.7 -12.2 11.9 -12.25 11.95 -12.25 12.35 -12.4 12.7 -12.55 13.85 -13.0 13.55 -12.95 14.55 -13.4 14.55 -13.5 14.95 -13.15 Q14.95 -12.35 12.05 -11.25 10.65 -10.65 7.9 -10.35 3.3 -9.8 2.0 -8.75 0.1 -7.9 -0.25 -5.2 L-0.25 -5.1 Q-0.2 -0.2 3.9 1.6 L4.0 1.6 5.4 1.65 6.0 1.8 Q8.05 1.8 12.95 -0.25 L16.5 -1.55 19.35 -3.3 20.45 -4.0 21.6 -4.95 22.75 -6.7 Q23.85 -8.9 23.85 -10.4 L23.45 -12.8 22.6 -15.1 Q21.65 -16.6 20.5 -17.4 18.35 -18.8 13.55 -18.8 L9.95 -18.2 8.3 -17.6 7.55 -17.5 3.85 -15.95 3.65 -16.0 Q3.25 -16.0 3.15 -15.65 L-1.65 -13.8 Q-4.05 -12.95 -7.7 -12.25 L-7.95 -12.3 Q-8.2 -12.3 -8.3 -12.1 L-11.8 -11.55 Q-14.65 -11.15 -16.25 -9.55 L-17.3 -8.8 -17.1 -8.5 -17.6 -7.6 -18.45 -6.85 -18.75 -6.9 Q-19.15 -6.9 -19.15 -6.45 L-18.95 -6.3 -19.05 -6.2 -19.45 -6.35 Q-21.25 -7.35 -22.05 -7.35 -22.65 -7.35 -22.7 -4.8 L-22.7 -4.6 -22.95 -4.0 -22.65 -3.5 -22.3 -3.1 -22.1 -3.0 -21.7 -2.9 -19.25 -3.5 -18.85 -3.65 -18.7 -3.5 -18.15 -3.1 -18.4 -2.85 -17.95 -2.5 -18.2 -2.45 -17.9 -2.35 Q-16.85 0.4 -13.45 0.4 L-10.45 0.3 -9.4 0.2 -6.6 -0.35 -0.5 -2.05 Q-0.95 -3.4 -1.0 -5.1 L-1.0 -5.4 -1.0 -5.45 Q-0.85 -6.75 -0.35 -7.7 M9.95 -19.25 L13.8 -19.9 Q19.0 -19.9 21.3 -18.35 L21.35 -18.3 Q22.6 -17.45 23.7 -15.75 L24.65 -13.15 24.7 -13.1 25.1 -10.5 Q25.15 -8.8 23.9 -6.35 23.05 -4.65 22.5 -4.25 L21.35 -3.3 21.25 -3.25 20.15 -2.55 17.25 -0.75 17.1 -0.7 13.6 0.6 Q8.4 2.75 6.25 2.7 L5.45 2.6 4.05 2.5 3.95 2.45 3.9 2.45 3.75 2.4 Q1.1 1.25 -0.05 -1.0 L-6.15 0.65 -6.25 0.7 -9.1 1.25 -9.15 1.25 -10.2 1.35 -10.25 1.35 -13.3 1.45 Q-17.15 1.45 -18.5 -1.5 L-18.95 -1.95 -19.05 -2.3 -19.05 -2.35 -19.1 -2.4 -21.55 -1.85 -22.45 -2.05 -22.6 -2.15 -22.95 -2.45 -23.2 -2.75 -23.35 -2.95 -23.65 -3.45 -23.65 -3.4 -23.8 -3.95 -23.55 -4.95 -23.2 -7.25 Q-22.75 -8.45 -21.85 -8.3 -21.05 -8.3 -19.55 -7.55 L-18.6 -7.85 -18.25 -8.1 -18.1 -8.45 -18.15 -8.65 Q-18.4 -9.75 -16.6 -10.35 -14.85 -12.05 -11.8 -12.5 -5.45 -13.45 -1.85 -14.7 1.8 -16.05 8.4 -18.85 L8.8 -18.95 8.9 -18.95 9.95 -19.25" fill="#000000" fill-rule="evenodd" stroke="none"/>
    <path d="M-17.45 -5.3 Q-17.15 -5.25 -17.15 -4.85 L-17.15 -4.75 -17.15 -4.7 -17.45 -4.35 -17.4 -5.05 -17.45 -5.3 M-17.55 -4.0 L-16.55 -3.6 -16.65 -3.65 -16.65 -3.9 -15.95 -4.15 -11.2 -2.8 -11.0 -2.75 -10.35 -2.6 -10.9 -2.8 -10.9 -2.85 -10.9 -3.1 Q-10.9 -3.4 -12.55 -3.7 L-12.6 -3.9 -12.55 -3.95 -9.8 -3.65 Q-9.1 -3.65 -9.1 -4.15 -9.1 -4.65 -11.0 -4.8 L-10.65 -5.55 -10.5 -5.65 Q-10.15 -5.65 -10.1 -5.95 L-9.3 -6.45 -9.3 -6.6 -9.0 -7.0 -8.7 -6.75 -8.35 -7.0 Q-7.7 -7.0 -8.2 -6.75 L-7.8 -6.65 -7.95 -6.7 -7.95 -6.95 -7.25 -7.4 Q-6.75 -7.4 -5.95 -6.15 L-5.7 -5.65 -5.65 -5.6 -5.35 -5.75 -6.15 -6.85 -5.7 -7.3 -4.8 -6.1 -4.45 -6.35 Q-3.95 -6.65 -4.05 -7.25 -4.3 -8.1 -2.8 -8.25 L-2.25 -8.3 -1.85 -8.3 -0.45 -7.8 -0.35 -7.7 Q-0.85 -6.75 -1.0 -5.45 L-1.0 -5.4 -1.0 -5.1 Q-0.95 -3.4 -0.5 -2.05 L-6.6 -0.35 -9.4 0.2 -10.45 0.3 -10.8 -0.05 -11.25 0.25 -14.7 -0.7 -16.05 -0.95 Q-17.2 -1.25 -17.2 -1.75 -17.2 -2.15 -16.85 -2.15 L-14.15 -1.5 -13.8 -1.4 -14.15 -1.55 -17.9 -3.55 -17.55 -4.0 M-0.2 -7.95 L-0.4 -8.3 -0.6 -8.7 -0.85 -9.25 Q-0.85 -9.7 -0.45 -9.7 L0.15 -8.9 0.25 -8.8 0.3 -8.65 -0.2 -7.95 M0.4 -8.75 L0.4 -8.8 Q0.5 -9.35 1.1 -9.35 L0.4 -8.75 M2.85 -10.3 L3.5 -10.95 4.15 -10.8 4.8 -11.4 5.9 -11.85 Q6.55 -11.85 7.45 -11.35 4.45 -10.95 2.85 -10.3 M7.65 -11.4 Q7.3 -11.85 7.3 -12.1 7.3 -12.7 8.3 -12.7 9.35 -12.7 9.35 -12.2 L9.1 -11.6 9.1 -11.55 8.05 -11.45 7.65 -11.4 M9.15 -11.55 Q10.3 -12.75 10.75 -12.75 L11.25 -12.05 9.15 -11.55 M11.7 -12.2 L12.05 -12.5 12.35 -12.4 11.95 -12.25 11.9 -12.25 11.7 -12.2 M8.6 -12.05 L8.1 -12.05 8.0 -12.0 8.35 -11.6 8.6 -12.05 M-20.35 -6.25 L-20.4 -6.3 -21.05 -6.8 Q-21.45 -6.8 -21.45 -6.4 -20.6 -5.9 -20.6 -4.8 L-20.6 -4.7 Q-20.65 -4.25 -21.15 -4.2 L-21.2 -4.2 Q-22.25 -4.2 -22.25 -4.75 L-22.7 -4.6 -22.7 -4.8 Q-22.65 -7.35 -22.05 -7.35 -21.25 -7.35 -19.45 -6.35 L-19.05 -6.2 -18.95 -6.15 -18.85 -6.1 -18.65 -5.3 Q-18.65 -4.75 -19.0 -3.95 L-18.85 -3.65 -19.25 -3.5 -21.7 -2.9 -22.1 -3.0 -21.9 -2.95 -19.8 -3.5 Q-19.0 -4.1 -19.0 -4.75 -19.0 -5.4 -19.6 -5.15 L-19.5 -5.45 -20.35 -6.25 M-7.55 -6.7 L-7.65 -6.6 -7.15 -6.45 -7.55 -6.7 M-10.8 -1.7 L-10.5 -1.65 -10.3 -1.65 -10.75 -1.8 -11.9 -2.1 Q-15.7 -3.5 -16.4 -3.55 L-14.1 -2.65 -11.1 -1.5 -10.8 -1.7" fill="#e08585" fill-rule="evenodd" stroke="none"/>
    <path d="M2.0 -8.75 L3.95 -9.15 4.0 -9.15 Q7.4 -9.15 8.65 -5.8 L8.65 -5.85 Q10.65 -0.85 6.1 1.45 L6.05 1.45 5.4 1.65 4.0 1.6 3.9 1.6 Q-0.2 -0.2 -0.25 -5.1 L-0.25 -5.2 Q0.1 -7.9 2.0 -8.75 M4.4 -6.05 L4.05 -6.45 Q3.75 -6.45 3.75 -6.05 3.8 -5.7 4.05 -5.7 L4.4 -6.05 M4.1 -5.35 Q3.3 -5.4 3.3 -6.3 3.3 -6.95 4.05 -6.95 L4.8 -6.15 Q4.8 -5.4 4.1 -5.35 M7.15 -5.1 Q7.15 -3.85 6.6 -3.85 6.2 -3.85 5.65 -4.85 5.65 -5.75 6.55 -5.75 L7.15 -5.1 M4.0 -8.05 Q1.15 -8.0 0.75 -5.0 0.75 -0.75 4.3 0.75 L5.65 0.65 Q9.35 -1.25 7.75 -5.35 6.7 -8.05 4.0 -8.05 M5.95 -1.75 Q5.95 -0.45 5.0 -0.45 3.65 -0.45 3.5 -1.95 3.45 -3.2 5.05 -3.15 5.65 -3.15 5.85 -2.45 L5.95 -1.75 M5.9 -4.95 Q5.9 -4.25 6.4 -4.25 6.85 -4.25 6.85 -4.75 6.85 -5.3 6.3 -5.3 L5.9 -4.95 M3.25 -4.35 Q3.2 -3.8 2.65 -3.8 2.0 -3.8 2.05 -4.3 2.05 -5.0 2.75 -5.0 L3.25 -4.35 M4.0 -1.55 Q4.0 -0.9 4.65 -0.9 5.45 -0.9 5.45 -1.55 L4.9 -2.7 Q4.0 -2.7 4.0 -1.55 M2.55 -4.7 Q2.15 -4.7 2.25 -4.3 2.15 -3.9 2.55 -3.9 L2.9 -4.3 2.55 -4.7" fill="#fe8181" fill-rule="evenodd" stroke="none"/>
    <path d="M4.1 -5.35 Q4.8 -5.4 4.8 -6.15 L4.05 -6.95 Q3.3 -6.95 3.3 -6.3 3.3 -5.4 4.1 -5.35 M7.15 -5.1 L6.55 -5.75 Q5.65 -5.75 5.65 -4.85 6.2 -3.85 6.6 -3.85 7.15 -3.85 7.15 -5.1 M4.0 -8.05 Q6.7 -8.05 7.75 -5.35 9.35 -1.25 5.65 0.65 L4.3 0.75 Q0.75 -0.75 0.75 -5.0 1.15 -8.0 4.0 -8.05 M5.95 -1.75 L5.85 -2.45 Q5.65 -3.15 5.05 -3.15 3.45 -3.2 3.5 -1.95 3.65 -0.45 5.0 -0.45 5.95 -0.45 5.95 -1.75 M3.25 -4.35 L2.75 -5.0 Q2.05 -5.0 2.05 -4.3 2.0 -3.8 2.65 -3.8 3.2 -3.8 3.25 -4.35" fill="#8f0101" fill-rule="evenodd" stroke="none"/>
    <path d="M15.05 -7.15 L15.1 -7.15 15.15 -6.95 15.05 -6.95 15.05 -7.0 15.05 -7.15 M17.9 -5.85 L18.25 -6.2 18.65 -6.1 17.9 -5.85" fill="#fe9292" fill-rule="evenodd" stroke="none"/>
    <path d="M-18.05 -6.55 L-17.45 -5.3 -17.4 -5.05 -17.45 -4.35 -17.55 -4.0 -17.9 -3.55 -18.3 -3.45 -18.7 -3.5 -18.85 -3.65 -19.0 -3.95 Q-18.65 -4.75 -18.65 -5.3 L-18.85 -6.1 -18.9 -6.2 -18.95 -6.3 -19.15 -6.45 Q-19.15 -6.9 -18.75 -6.9 L-18.45 -6.85 -18.05 -6.55" fill="#f3dca5" fill-rule="evenodd" stroke="none"/>
  </g>
</svg>
