<?xml version="1.0" encoding="UTF-8" standalone="no"?>
<svg xmlns:xlink="http://www.w3.org/1999/xlink" height="17.1px" width="37.95px" xmlns="http://www.w3.org/2000/svg">
  <g transform="matrix(1.0, 0.0, 0.0, 1.0, 19.0, 15.35)">
    <path d="M10.15 -14.65 L10.3 -14.6 Q14.25 -13.1 16.55 -9.2 17.95 -7.55 18.4 -6.45 L18.4 -6.5 18.4 -6.45 18.45 -6.4 18.6 -5.6 18.7 -5.1 18.7 -4.9 18.65 -4.55 18.7 -3.65 18.95 -2.7 18.95 -2.6 18.95 -2.4 18.95 -2.2 18.95 -2.15 18.95 -2.05 18.95 -2.0 18.95 -1.6 -18.95 -1.6 -18.95 -1.65 -18.95 -2.1 -18.9 -2.3 -18.9 -2.35 -18.9 -2.4 -18.9 -2.55 -19.0 -3.15 -18.95 -3.45 Q-18.9 -5.75 -12.0 -9.05 -10.95 -9.85 -9.15 -10.4 -9.15 -13.35 -3.5 -14.55 L-3.25 -14.55 1.25 -15.25 4.8 -15.35 10.15 -14.65 M18.95 -1.45 L18.95 -1.2 18.95 -1.05 18.75 0.1 18.65 0.25 18.15 0.9 Q17.3 1.7 15.25 1.75 L15.2 1.75 15.05 1.75 14.9 1.75 14.85 1.75 11.45 1.4 2.75 0.75 2.35 0.75 -5.5 0.95 -5.55 0.95 -8.65 0.65 Q-10.3 0.2 -10.95 -0.6 -12.0 -0.1 -13.7 0.65 L-14.2 0.75 -16.95 1.1 Q-17.6 0.95 -18.05 0.45 L-18.1 0.45 -18.65 -0.2 -18.75 -0.5 -18.95 -1.15 -18.95 -1.2 -18.95 -1.55 18.95 -1.55 18.95 -1.45" fill="#000000" fill-rule="evenodd" stroke="none"/>
    <path d="M3.75 -3.6 L5.1 -3.35 5.55 -3.6 Q5.5 -4.55 3.2 -4.55 L2.35 -4.5 2.0 -4.25 3.75 -3.6 M6.95 -4.8 L7.35 -5.15 4.65 -5.8 Q4.3 -5.8 4.3 -5.6 4.3 -4.85 6.95 -4.8 M6.9 -3.5 Q6.9 -3.2 7.8 -3.15 8.2 -3.15 8.2 -3.45 8.2 -3.9 7.3 -3.9 6.9 -3.9 6.9 -3.5 M7.4 -2.2 L7.1 -2.3 -1.8 -3.0 -6.2 -2.85 Q-8.3 -2.65 -8.25 -4.0 L-7.8 -4.55 -6.9 -4.4 -4.6 -5.1 Q-4.6 -5.4 -5.05 -5.35 L-5.6 -5.45 -7.15 -5.2 -6.55 -5.75 Q-5.8 -6.45 -2.35 -6.55 15.0 -5.5 15.05 -3.05 15.05 -1.65 12.3 -1.65 L7.4 -2.2 M13.05 -3.55 Q13.05 -4.3 10.75 -4.25 L8.85 -4.45 Q8.5 -4.45 8.5 -4.05 8.4 -3.0 12.05 -3.0 13.05 -3.05 13.05 -3.55 M-3.65 -4.5 L-3.05 -4.5 Q-5.15 -4.55 -5.15 -4.15 -5.15 -3.8 -2.45 -3.75 -1.9 -3.75 -1.9 -4.05 -1.9 -4.45 -3.65 -4.5 M-0.4 -5.3 Q-0.4 -5.75 -1.25 -5.75 -2.55 -5.8 -2.55 -5.45 L-2.5 -5.3 -0.7 -5.05 Q-0.4 -5.05 -0.4 -5.3 M1.7 -5.35 L1.4 -5.75 Q0.9 -5.8 0.9 -5.45 0.9 -5.25 1.3 -5.2 L1.7 -5.35" fill="#f3b6cf" fill-rule="evenodd" stroke="none"/>
    <path d="M6.9 -3.5 Q6.9 -3.9 7.3 -3.9 8.2 -3.9 8.2 -3.45 8.2 -3.15 7.8 -3.15 6.9 -3.2 6.9 -3.5 M6.95 -4.8 Q4.3 -4.85 4.3 -5.6 4.3 -5.8 4.65 -5.8 L7.35 -5.15 6.95 -4.8 M3.75 -3.6 L2.0 -4.25 2.35 -4.5 3.2 -4.55 Q5.5 -4.55 5.55 -3.6 L5.1 -3.35 3.75 -3.6 M12.3 -1.65 Q15.05 -1.65 15.05 -3.05 15.0 -5.5 -2.35 -6.55 -5.8 -6.45 -6.55 -5.75 L-7.15 -5.2 -5.6 -5.45 -5.05 -5.35 Q-4.6 -5.4 -4.6 -5.1 L-6.9 -4.4 -7.8 -4.55 -8.25 -4.0 Q-8.3 -2.65 -6.2 -2.85 L-1.8 -3.0 7.1 -2.3 7.4 -2.2 2.1 -2.55 -5.7 -2.3 Q-8.65 -2.3 -9.25 -3.0 L-9.45 -3.45 -9.35 -3.75 -9.45 -4.0 Q-9.45 -4.75 -7.7 -5.7 -6.15 -6.6 -4.3 -6.7 L0.15 -6.55 8.9 -5.7 10.8 -5.45 Q16.7 -4.5 16.7 -2.9 L16.65 -2.65 16.7 -2.35 16.5 -1.9 Q16.1 -1.4 14.5 -1.35 L12.3 -1.65 M13.05 -3.55 Q13.05 -3.05 12.05 -3.0 8.4 -3.0 8.5 -4.05 8.5 -4.45 8.85 -4.45 L10.75 -4.25 Q13.05 -4.3 13.05 -3.55 M-3.65 -4.5 Q-1.9 -4.45 -1.9 -4.05 -1.9 -3.75 -2.45 -3.75 -5.15 -3.8 -5.15 -4.15 -5.15 -4.55 -3.05 -4.5 L-3.65 -4.5 M1.7 -5.35 L1.3 -5.2 Q0.9 -5.25 0.9 -5.45 0.9 -5.8 1.4 -5.75 L1.7 -5.35 M-0.4 -5.3 Q-0.4 -5.05 -0.7 -5.05 L-2.5 -5.3 -2.55 -5.45 Q-2.55 -5.8 -1.25 -5.75 -0.4 -5.75 -0.4 -5.3" fill="#ed92b7" fill-rule="evenodd" stroke="none"/>
    <path d="M2.5 -0.05 L2.6 -1.8 11.05 -1.1 11.3 0.7 11.3 0.75 2.5 -0.05 M-4.4 -1.65 L-4.4 -1.35 -4.45 -1.35 -4.5 -1.65 -4.4 -1.65 M-8.55 -1.9 L-8.65 -0.25 -8.65 -0.1 Q-10.55 -0.6 -10.55 -2.0 L-10.55 -2.2 -10.55 -2.4 -10.5 -2.7 -10.55 -2.95 -10.55 -3.2 -10.45 -2.9 -10.55 -3.4 -10.55 -3.6 Q-10.4 -2.35 -8.55 -1.9" fill="#f9dbe8" fill-rule="evenodd" stroke="none"/>
    <path d="M2.6 -1.8 L2.5 -0.05 2.05 -0.05 -5.8 0.25 -8.65 -0.1 -8.65 -0.25 -8.55 -1.9 -5.8 -1.6 -5.3 -1.6 -4.5 -1.65 -4.45 -1.35 -4.4 -1.35 -4.4 -1.65 -2.7 -1.7 2.05 -1.8 2.6 -1.8 M11.3 0.75 L11.3 0.7 11.05 -1.1 14.7 -0.6 Q17.45 -0.6 17.6 -2.55 L17.6 -2.35 17.55 -1.8 17.6 -2.15 17.6 -1.95 17.6 -1.65 17.6 -1.4 17.6 -1.15 17.6 -0.95 17.45 -0.05 17.1 0.5 Q16.4 1.15 14.95 1.2 L14.7 1.2 11.3 0.75" fill="#fdf0f8" fill-rule="evenodd" stroke="none"/>
    <path d="M11.05 -1.1 L2.6 -1.8 2.05 -1.8 -2.7 -1.7 -4.4 -1.65 -4.5 -1.65 -5.3 -1.6 -5.8 -1.6 -8.55 -1.9 Q-10.4 -2.35 -10.55 -3.6 -10.4 -4.8 -8.65 -5.9 -6.2 -7.6 -2.05 -7.2 L-2.6 -7.2 12.4 -5.65 Q17.4 -4.65 17.6 -2.55 17.45 -0.6 14.7 -0.6 L11.05 -1.1 M12.3 -1.65 L14.5 -1.35 Q16.1 -1.4 16.5 -1.9 L16.7 -2.35 16.65 -2.65 16.7 -2.9 Q16.7 -4.5 10.8 -5.45 L8.9 -5.7 0.15 -6.55 -4.3 -6.7 Q-6.15 -6.6 -7.7 -5.7 -9.45 -4.75 -9.45 -4.0 L-9.35 -3.75 -9.45 -3.45 -9.25 -3.0 Q-8.65 -2.3 -5.7 -2.3 L2.1 -2.55 7.4 -2.2 12.3 -1.65" fill="#db246d" fill-rule="evenodd" stroke="none"/>
    <path d="M-11.45 -4.15 Q-14.6 -2.75 -14.95 -4.35 -13.3 -8.0 -2.75 -9.65 L-2.75 -9.7 2.1 -10.2 Q5.6 -10.2 6.4 -9.5 L6.95 -8.95 5.35 -9.15 4.85 -9.1 Q4.4 -9.1 4.4 -8.75 L6.65 -8.1 7.6 -8.35 8.1 -7.8 Q8.1 -6.45 5.95 -6.6 L1.55 -6.65 -2.75 -6.45 -2.75 -6.4 -7.35 -5.75 -7.5 -5.6 Q-10.05 -5.45 -11.45 -4.15 M2.4 -9.1 L1.0 -9.35 Q0.15 -9.35 0.2 -8.95 0.15 -8.6 0.5 -8.6 L2.25 -9.0 2.4 -9.1 M4.95 -7.9 Q4.95 -8.25 3.45 -8.2 1.65 -8.05 1.65 -7.7 1.65 -7.4 2.2 -7.4 4.95 -7.45 4.95 -7.9 M-11.35 -5.55 Q-8.95 -6.5 -8.5 -7.35 -8.4 -7.7 -8.85 -7.75 -10.15 -7.65 -10.4 -7.25 -12.0 -6.5 -12.35 -5.65 L-11.35 -5.55 M-1.5 -8.75 Q-1.15 -8.75 -1.15 -9.0 L-1.65 -9.3 -1.85 -8.95 -1.5 -8.75 M-3.4 -7.9 Q-5.4 -7.8 -5.6 -7.0 -5.6 -6.65 -5.15 -6.75 -4.85 -6.6 -3.85 -7.05 L-2.75 -7.4 -2.65 -7.45 -2.65 -7.6 -2.25 -7.8 -2.55 -8.0 -2.75 -8.0 -2.75 -7.95 -3.4 -7.9 M-7.3 -7.25 Q-8.25 -7.15 -8.3 -6.75 L-7.95 -6.5 Q-7.0 -6.5 -6.95 -6.85 -6.9 -7.2 -7.3 -7.25 M-6.95 -8.2 Q-4.35 -8.2 -4.35 -9.0 -4.25 -9.2 -4.75 -9.2 L-7.25 -8.55 Q-7.15 -8.05 -6.95 -8.2" fill="#f3b6cf" fill-rule="evenodd" stroke="none"/>
    <path d="M-7.5 -5.6 L-7.35 -5.75 -2.75 -6.4 -2.75 -6.45 1.55 -6.65 5.95 -6.6 Q8.1 -6.45 8.1 -7.8 L7.6 -8.35 6.65 -8.1 4.4 -8.75 Q4.4 -9.1 4.85 -9.1 L5.35 -9.15 6.95 -8.95 6.4 -9.5 Q5.6 -10.2 2.1 -10.2 L-2.75 -9.7 -2.75 -9.65 Q-13.3 -8.0 -14.95 -4.35 -14.6 -2.75 -11.45 -4.15 -12.5 -3.6 -14.15 -2.8 L-16.85 -2.65 -17.05 -3.1 -17.05 -3.4 -17.05 -3.65 Q-16.6 -5.15 -10.4 -8.5 -10.3 -8.75 -8.85 -9.0 L-2.75 -9.8 -2.75 -9.85 -0.35 -10.15 4.1 -10.4 Q5.9 -10.35 7.55 -9.45 9.25 -8.6 9.25 -7.8 L9.15 -7.5 9.25 -7.25 9.05 -6.8 Q8.4 -6.1 5.5 -6.05 L-2.35 -6.05 -2.75 -6.05 -2.75 -6.0 -7.5 -5.6 M4.95 -7.9 Q4.95 -7.45 2.2 -7.4 1.65 -7.4 1.65 -7.7 1.65 -8.05 3.45 -8.2 4.95 -8.25 4.95 -7.9 M2.4 -9.1 L2.25 -9.0 0.5 -8.6 Q0.15 -8.6 0.2 -8.95 0.15 -9.35 1.0 -9.35 L2.4 -9.1 M-6.95 -8.2 Q-7.15 -8.05 -7.25 -8.55 L-4.75 -9.2 Q-4.25 -9.2 -4.35 -9.0 -4.35 -8.2 -6.95 -8.2 M-7.3 -7.25 Q-6.9 -7.2 -6.95 -6.85 -7.0 -6.5 -7.95 -6.5 L-8.3 -6.75 Q-8.25 -7.15 -7.3 -7.25 M-3.4 -7.9 L-2.75 -7.95 -2.75 -8.0 -2.55 -8.0 -2.25 -7.8 -2.65 -7.6 -2.65 -7.45 -2.75 -7.4 -3.85 -7.05 Q-4.85 -6.6 -5.15 -6.75 -5.6 -6.65 -5.6 -7.0 -5.4 -7.8 -3.4 -7.9 M-1.5 -8.75 L-1.85 -8.95 -1.65 -9.3 -1.15 -9.0 Q-1.15 -8.75 -1.5 -8.75 M-11.35 -5.55 L-12.35 -5.65 Q-12.0 -6.5 -10.4 -7.25 -10.15 -7.65 -8.85 -7.75 -8.4 -7.7 -8.5 -7.35 -8.95 -6.5 -11.35 -5.55" fill="#ed92b7" fill-rule="evenodd" stroke="none"/>
    <path d="M10.3 -7.45 L10.3 -7.25 10.25 -6.75 10.3 -7.05 10.3 -6.8 10.25 -6.55 10.3 -6.25 10.3 -6.05 10.3 -5.85 Q10.3 -4.4 8.4 -3.9 L8.4 -4.05 8.35 -5.65 Q10.15 -6.2 10.3 -7.45 M-2.75 -3.55 L-2.75 -3.45 Q-6.55 -3.5 -10.7 -2.2 L-10.7 -2.25 Q-10.45 -3.4 -10.55 -4.1 -6.2 -5.25 -2.75 -5.25 L-2.75 -3.55 M4.15 -5.35 L4.3 -5.35 4.25 -5.0 4.15 -5.0 4.15 -5.35" fill="#f9dbe8" fill-rule="evenodd" stroke="none"/>
    <path d="M8.35 -5.65 L8.4 -4.05 8.4 -3.9 5.6 -3.5 -2.3 -3.55 -2.75 -3.55 -2.75 -5.25 Q-2.6 -5.2 -2.75 -5.3 L-2.75 -5.35 -2.3 -5.35 2.55 -5.4 4.15 -5.35 4.15 -5.0 4.25 -5.0 4.3 -5.35 5.1 -5.35 5.6 -5.35 8.35 -5.65 M-10.7 -2.2 Q-11.75 -1.3 -14.45 0.0 L-14.8 0.05 Q-16.75 0.9 -17.55 0.05 L-17.95 -0.45 -18.2 -1.5 -18.2 -1.75 -18.15 -1.95 Q-17.95 -2.05 -18.1 -2.3 L-18.15 -2.55 -18.15 -2.8 -18.2 -3.05 -18.15 -3.25 Q-18.15 -0.85 -14.45 -1.9 -11.75 -3.1 -10.55 -4.1 -10.45 -3.4 -10.7 -2.25 L-10.7 -2.2" fill="#fdf0f8" fill-rule="evenodd" stroke="none"/>
    <path d="M-11.45 -4.15 Q-10.05 -5.45 -7.5 -5.6 L-2.75 -6.0 -2.75 -6.05 -2.35 -6.05 5.5 -6.05 Q8.4 -6.1 9.05 -6.8 L9.25 -7.25 9.15 -7.5 9.25 -7.8 Q9.25 -8.6 7.55 -9.45 5.9 -10.35 4.1 -10.4 L-0.35 -10.15 -2.75 -9.85 -2.75 -9.8 -8.85 -9.0 Q-10.3 -8.75 -10.4 -8.5 -16.6 -5.15 -17.05 -3.65 L-17.05 -3.4 -17.05 -3.1 -16.85 -2.65 -14.15 -2.8 Q-12.5 -3.6 -11.45 -4.15 M10.3 -7.45 Q10.15 -6.2 8.35 -5.65 L5.6 -5.35 5.1 -5.35 4.3 -5.35 4.15 -5.35 2.55 -5.4 -2.3 -5.35 -2.75 -5.35 -2.75 -5.3 Q-2.6 -5.2 -2.75 -5.25 -6.2 -5.25 -10.55 -4.1 -11.75 -3.1 -14.45 -1.9 -18.15 -0.85 -18.15 -3.25 -18.05 -5.0 -11.6 -8.1 -9.35 -9.9 -2.75 -10.35 L2.45 -10.85 1.9 -10.85 Q5.95 -11.3 8.45 -9.7 10.15 -8.65 10.3 -7.45" fill="#db246d" fill-rule="evenodd" stroke="none"/>
    <path d="M1.05 -10.0 L-3.4 -9.4 Q-6.0 -9.4 -6.0 -10.85 -6.0 -12.5 1.1 -13.5 L4.45 -13.7 9.8 -12.9 Q12.95 -11.35 13.65 -9.7 L14.2 -8.75 12.7 -10.15 12.35 -10.4 Q11.9 -10.75 11.9 -10.4 L13.95 -8.0 Q14.4 -7.6 14.8 -7.6 L15.15 -6.7 Q15.2 -5.15 13.3 -7.0 12.15 -8.5 9.45 -9.6 L4.45 -10.4 1.1 -10.0 1.05 -10.0 M11.0 -10.4 L11.1 -10.35 10.45 -10.7 11.0 -10.4 Q9.35 -11.0 9.5 -10.6 9.5 -10.15 9.95 -10.15 12.3 -8.9 12.45 -9.1 L11.0 -10.4 M10.0 -11.7 Q9.9 -12.15 8.85 -12.4 8.0 -12.6 8.15 -12.15 8.1 -11.9 8.4 -11.8 L9.95 -11.65 10.0 -11.7 M6.9 -12.6 L6.4 -12.95 6.2 -12.65 Q6.1 -12.45 6.55 -12.4 L6.9 -12.6 M5.6 -11.9 L4.75 -12.1 4.45 -12.05 2.95 -11.9 2.85 -11.4 4.45 -11.25 5.9 -11.6 5.6 -11.9 M3.7 -13.15 L3.15 -13.55 1.1 -12.9 1.1 -12.85 3.7 -13.15 M1.1 -10.95 L1.15 -11.4 1.1 -11.65 Q0.2 -11.65 0.25 -11.2 0.2 -10.9 0.6 -10.9 L1.1 -10.95 M-2.05 -12.05 Q-4.2 -12.1 -4.2 -11.35 -4.2 -10.8 -3.25 -10.8 0.0 -10.8 0.0 -11.85 0.0 -12.2 -0.35 -12.2 L-2.05 -12.05" fill="#f3b6cf" fill-rule="evenodd" stroke="none"/>
    <path d="M-3.4 -9.4 L-5.5 -9.1 Q-6.95 -9.1 -7.3 -9.65 L-7.45 -10.1 -7.45 -10.35 -7.45 -10.65 Q-7.5 -12.25 -2.1 -13.25 L-0.4 -13.45 4.45 -13.85 7.55 -13.5 Q9.5 -13.2 11.65 -12.2 L14.6 -8.85 16.25 -6.15 16.15 -5.9 16.3 -5.6 16.15 -5.2 Q15.5 -4.65 12.9 -6.9 9.5 -9.6 5.85 -9.95 L4.45 -10.1 1.1 -10.0 1.05 -10.0 1.1 -10.0 4.45 -10.4 9.45 -9.6 Q12.15 -8.5 13.3 -7.0 15.2 -5.15 15.15 -6.7 L14.8 -7.6 Q14.4 -7.6 13.95 -8.0 L11.9 -10.4 Q11.9 -10.75 12.35 -10.4 L12.7 -10.15 14.2 -8.75 13.65 -9.7 Q12.95 -11.35 9.8 -12.9 L4.45 -13.7 1.1 -13.5 Q-6.0 -12.5 -6.0 -10.85 -6.0 -9.4 -3.4 -9.4 M11.0 -10.4 L12.45 -9.1 Q12.3 -8.9 9.95 -10.15 9.5 -10.15 9.5 -10.6 9.35 -11.0 11.0 -10.4 L10.45 -10.7 11.1 -10.35 11.0 -10.4 M10.0 -11.7 L9.95 -11.65 8.4 -11.8 Q8.1 -11.9 8.15 -12.15 8.0 -12.6 8.85 -12.4 9.9 -12.15 10.0 -11.7 M5.6 -11.9 L5.9 -11.6 4.45 -11.25 2.85 -11.4 2.95 -11.9 4.45 -12.05 4.75 -12.1 5.6 -11.9 M6.9 -12.6 L6.55 -12.4 Q6.1 -12.45 6.2 -12.65 L6.4 -12.95 6.9 -12.6 M3.7 -13.15 L1.1 -12.85 1.1 -12.9 3.15 -13.55 3.7 -13.15 M-2.05 -12.05 L-0.35 -12.2 Q0.0 -12.2 0.0 -11.85 0.0 -10.8 -3.25 -10.8 -4.2 -10.8 -4.2 -11.35 -4.2 -12.1 -2.05 -12.05 M1.1 -10.95 L0.6 -10.9 Q0.2 -10.9 0.25 -11.2 0.2 -11.65 1.1 -11.65 L1.15 -11.4 1.1 -10.95" fill="#ed92b7" fill-rule="evenodd" stroke="none"/>
    <path d="M1.05 -10.0 L1.1 -10.0 4.45 -10.1 5.85 -9.95 Q9.5 -9.6 12.9 -6.9 15.5 -4.65 16.15 -5.2 L16.3 -5.6 16.15 -5.9 16.25 -6.15 14.6 -8.85 11.65 -12.2 Q9.5 -13.2 7.55 -13.5 L4.45 -13.85 -0.4 -13.45 -2.1 -13.25 Q-7.5 -12.25 -7.45 -10.65 L-7.45 -10.35 -7.45 -10.1 -7.3 -9.65 Q-6.95 -9.1 -5.5 -9.1 L-3.4 -9.4 1.05 -10.0 M-8.3 -10.3 Q-8.15 -12.45 -3.55 -13.4 L1.1 -14.1 4.45 -14.2 9.65 -13.5 Q13.25 -12.1 15.45 -8.5 L17.3 -5.65 Q17.05 -4.1 15.5 -4.5 14.45 -4.9 12.95 -6.15 L12.55 -6.55 11.8 -7.25 11.8 -7.2 Q11.75 -7.15 11.7 -7.25 L11.7 -7.3 10.15 -8.25 6.0 -9.15 5.4 -9.2 4.45 -9.25 1.1 -9.25 -2.35 -8.85 -5.7 -8.35 Q-8.2 -8.35 -8.3 -10.3" fill="#db246d" fill-rule="evenodd" stroke="none"/>
    <path d="M-8.3 -10.3 Q-8.2 -8.35 -5.7 -8.35 L-2.35 -8.85 -2.55 -7.05 -2.55 -7.0 -5.7 -6.5 -5.85 -6.5 Q-7.2 -6.55 -7.8 -7.2 L-8.15 -7.75 -8.3 -8.75 -8.3 -8.9 -8.3 -9.15 -8.3 -9.4 -8.3 -9.7 -8.3 -9.85 -8.25 -9.55 -8.3 -10.1 -8.3 -10.3 M5.4 -9.2 L6.0 -9.15 10.15 -8.25 11.7 -7.3 11.7 -7.25 11.65 -7.0 11.7 -6.95 11.8 -7.2 11.8 -7.25 12.55 -6.55 12.95 -6.15 Q14.45 -4.9 15.5 -4.5 L15.55 -2.95 15.55 -2.8 Q14.55 -3.0 12.95 -4.55 9.5 -7.55 6.05 -7.4 L5.55 -7.5 Q5.25 -8.25 5.4 -9.2" fill="#fdf0f8" fill-rule="evenodd" stroke="none"/>
    <path d="M-2.35 -8.85 L1.1 -9.25 4.45 -9.25 5.4 -9.2 Q5.25 -8.25 5.55 -7.5 L3.9 -7.5 1.4 -7.5 -2.55 -7.0 -2.55 -7.05 -2.35 -8.85 M11.7 -7.25 Q11.75 -7.15 11.8 -7.2 L11.7 -6.95 11.65 -7.0 11.7 -7.25 M15.5 -4.5 Q17.05 -4.1 17.3 -5.65 L17.35 -5.35 17.15 -4.9 17.35 -5.15 17.3 -5.0 17.15 -4.7 17.35 -4.45 Q17.2 -4.25 17.35 -4.25 17.2 -4.2 17.35 -4.1 17.1 -2.7 15.55 -2.8 L15.55 -2.95 15.5 -4.5" fill="#f9dbe8" fill-rule="evenodd" stroke="none"/>
  </g>
</svg>
