<?xml version="1.0" encoding="UTF-8" standalone="no"?>
<svg xmlns:xlink="http://www.w3.org/1999/xlink" height="25.1px" width="27.0px" xmlns="http://www.w3.org/2000/svg">
  <g transform="matrix(1.0, 0.0, 0.0, 1.0, 13.45, 21.15)">
    <path d="M3.45 -13.3 L3.5 -13.25 3.55 -13.15 3.65 -13.05 3.7 -13.0 3.75 -12.9 4.1 -12.45 4.15 -12.3 4.5 -11.45 4.55 -11.35 4.6 -11.2 4.7 -10.8 4.8 -7.6 4.85 -6.8 4.9 -6.35 4.95 -6.1 5.65 -2.95 5.7 -2.8 5.75 -2.45 5.8 -2.15 6.15 1.25 6.15 1.75 4.6 2.45 2.25 2.95 -1.3 2.95 -9.0 2.7 Q-10.35 2.65 -11.55 2.0 -12.55 1.4 -12.45 0.35 -11.8 -6.75 -9.85 -13.65 L-9.75 -13.65 -8.3 -13.75 -6.85 -14.2 -4.7 -14.3 -2.2 -14.35 0.9 -14.4 2.3 -14.05 Q2.5 -13.95 2.75 -13.8 L3.3 -13.4 3.35 -13.4 3.45 -13.3 M3.25 -12.05 L3.1 -12.0 3.05 -11.7 3.4 -10.0 Q3.65 -10.0 3.7 -10.8 3.7 -12.05 3.25 -12.05 M2.0 -7.25 Q1.95 -8.2 3.2 -8.15 L3.35 -8.15 3.15 -10.9 Q3.05 -12.4 1.7 -13.0 L-0.25 -13.15 -0.15 -13.4 -0.5 -13.8 -2.4 -13.5 -2.25 -13.15 -4.45 -13.15 -6.6 -11.85 -7.2 -12.45 -7.0 -13.0 -7.15 -13.05 -8.55 -13.0 -9.35 -9.05 -7.9 -7.45 -8.95 -6.9 -9.6 -7.85 -9.6 -7.95 -9.55 -8.2 -9.65 -8.5 -9.5 -8.75 -9.7 -8.95 Q-10.05 -8.95 -10.7 -7.15 L-10.5 -6.85 Q-10.7 -6.35 -10.25 -6.35 -10.2 -6.0 -9.95 -5.95 L-10.4 -3.9 -9.5 -3.35 -7.95 -3.15 Q-6.95 -4.65 -6.1 -4.95 -6.0 -5.25 -5.15 -5.2 L-5.05 -5.2 Q-3.9 -5.9 -2.8 -6.55 L-2.8 -6.65 -2.8 -6.75 -3.0 -7.0 -2.8 -7.4 -3.0 -8.1 -2.95 -8.7 -2.9 -8.7 -1.95 -7.5 -1.7 -7.15 -1.95 -6.6 -2.05 -6.5 -2.4 -6.2 -3.05 -5.7 Q-4.2 -4.9 -4.75 -4.85 L-4.8 -4.1 Q-4.8 -3.75 -5.1 -3.75 -5.45 -3.75 -5.45 -4.0 -5.45 -4.35 -5.7 -4.35 L-5.9 -4.4 -7.25 -2.9 Q-6.45 -2.5 -6.45 -1.85 L-6.7 -0.05 -6.85 1.15 -7.4 1.25 -6.55 1.1 -6.65 1.25 Q-7.95 1.2 -7.95 1.55 L-7.3 2.15 -5.85 2.25 -4.95 2.5 Q-4.55 2.5 -4.25 2.1 L-4.1 1.65 -2.5 1.65 -2.05 1.3 -3.95 1.4 -3.5 0.65 -3.0 0.65 -1.1 0.3 -0.85 0.3 -0.85 0.25 0.0 -1.2 Q0.4 -3.75 2.4 -3.9 2.6 -4.3 3.35 -4.25 L3.75 -4.2 3.75 -4.5 3.45 -7.05 3.4 -7.05 Q2.95 -7.05 3.0 -7.4 L2.3 -6.9 Q1.95 -6.95 2.0 -7.25 M0.7 -7.2 Q0.7 -6.75 -0.9 -6.75 L-1.3 -6.8 -1.4 -6.9 0.55 -7.5 0.7 -7.2 M4.0 -6.85 L3.8 -6.65 3.9 -6.45 3.75 -5.6 Q3.75 -4.4 4.5 -4.4 L4.7 -4.6 4.4 -5.7 Q4.4 -6.45 4.0 -6.85 M2.7 -3.25 Q1.0 -3.25 1.05 -1.4 1.05 0.05 2.3 0.25 2.65 0.25 3.55 0.9 L3.7 1.0 4.55 0.7 4.45 0.0 4.55 0.05 Q4.9 0.05 5.1 -0.4 L5.1 -0.7 Q5.1 -0.95 5.25 -1.05 L4.95 -2.0 4.35 -2.9 4.3 -2.9 4.3 -2.8 4.4 -2.5 4.05 -2.3 4.0 -2.75 3.9 -3.15 3.65 -3.05 Q3.25 -3.1 3.25 -3.3 L2.7 -3.25 M4.15 1.5 L3.9 1.4 Q2.8 1.4 2.8 1.8 2.7 2.1 3.05 2.1 4.15 2.1 4.15 1.5 M2.85 0.8 L1.35 0.45 Q0.6 0.3 0.55 0.05 L0.0 0.6 0.0 0.7 1.2 0.9 1.55 1.25 1.55 1.5 2.65 1.3 2.75 1.25 3.0 1.2 3.15 1.15 2.85 0.8 M-11.4 -1.65 Q-11.95 -1.65 -11.9 -0.4 L-11.45 0.1 -11.05 -1.3 Q-11.05 -1.65 -11.4 -1.65 M-10.45 -3.8 L-10.4 -4.75 -10.45 -5.05 Q-10.6 -5.35 -10.95 -5.35 -11.25 -5.35 -11.2 -3.75 -11.3 -3.05 -10.95 -3.05 -10.6 -3.05 -10.45 -3.8 M-3.55 -10.85 L-3.25 -10.05 Q-3.25 -9.6 -3.55 -9.55 -3.9 -9.6 -3.9 -10.0 L-5.45 -10.2 -4.85 -10.75 -5.35 -11.5 -4.7 -11.7 -3.35 -12.25 Q-2.95 -12.3 -2.95 -11.95 L-3.55 -10.85 M-9.6 -7.95 L-9.4 -8.1 -9.5 -8.25 -9.6 -7.95 M-9.25 -11.3 L-9.45 -11.6 Q-9.85 -11.6 -10.0 -10.65 -10.0 -9.8 -9.75 -9.8 -9.55 -9.8 -9.55 -10.5 L-9.25 -11.3 M-9.35 -2.75 L-10.75 -2.05 -11.2 0.2 -11.1 0.6 Q-10.95 0.75 -10.75 0.85 L-10.9 1.1 Q-10.9 1.95 -9.6 1.95 -8.9 1.9 -8.85 1.5 L-9.05 1.35 -8.75 1.35 -8.3 1.4 -8.05 1.35 -6.85 -1.85 Q-6.85 -2.15 -8.65 -2.6 L-9.35 -2.75 M-5.2 0.95 L-5.45 0.9 -5.0 0.85 -5.2 0.95 M-0.35 1.25 Q-2.15 1.25 -2.5 1.65 L-2.55 1.9 -0.7 2.3 -0.95 2.35 Q0.95 2.35 0.95 1.75 0.95 1.25 -0.35 1.25" fill="#dd8892" fill-rule="evenodd" stroke="none"/>
    <path d="M3.25 -12.05 Q3.7 -12.05 3.7 -10.8 3.65 -10.0 3.4 -10.0 L3.05 -11.7 3.1 -12.0 3.25 -12.05 M2.15 -10.3 Q2.1 -11.7 0.35 -11.7 -2.25 -11.7 -2.25 -9.8 -2.2 -8.15 0.0 -8.1 0.8 -8.1 1.55 -9.05 2.15 -9.85 2.15 -10.3 M0.7 -7.2 L0.55 -7.5 -1.4 -6.9 -1.3 -6.8 -0.9 -6.75 Q0.7 -6.75 0.7 -7.2 M2.0 -7.25 Q1.95 -6.95 2.3 -6.9 L3.0 -7.4 Q2.95 -7.05 3.4 -7.05 L3.45 -7.05 3.75 -4.5 3.75 -4.2 3.35 -4.25 Q2.6 -4.3 2.4 -3.9 0.4 -3.75 0.0 -1.2 L-0.85 0.25 -0.85 0.3 -1.1 0.3 -3.0 0.65 -3.5 0.65 -3.95 1.4 -2.05 1.3 -2.5 1.65 -4.1 1.65 -4.25 2.1 Q-4.55 2.5 -4.95 2.5 L-5.85 2.25 -7.3 2.15 -7.95 1.55 Q-7.95 1.2 -6.65 1.25 L-6.55 1.1 -7.4 1.25 -6.85 1.15 -6.7 -0.05 -6.45 -1.85 Q-6.45 -2.5 -7.25 -2.9 L-5.9 -4.4 -5.7 -4.35 Q-5.45 -4.35 -5.45 -4.0 -5.45 -3.75 -5.1 -3.75 -4.8 -3.75 -4.8 -4.1 L-4.75 -4.85 Q-4.2 -4.9 -3.05 -5.7 L-2.4 -6.2 -2.05 -6.5 -1.95 -6.6 -1.7 -7.15 -1.95 -7.5 -2.9 -8.7 -2.95 -8.7 -3.0 -8.1 -2.8 -7.4 -3.0 -7.0 -2.8 -6.75 -2.8 -6.65 -2.8 -6.55 Q-3.9 -5.9 -5.05 -5.2 L-5.15 -5.2 Q-6.0 -5.25 -6.1 -4.95 -6.95 -4.65 -7.95 -3.15 L-9.5 -3.35 -10.4 -3.9 -9.95 -5.95 Q-10.2 -6.0 -10.25 -6.35 -10.7 -6.35 -10.5 -6.85 L-10.7 -7.15 Q-10.05 -8.95 -9.7 -8.95 L-9.5 -8.75 -9.65 -8.5 -9.55 -8.2 -9.6 -7.95 -9.6 -7.85 -8.95 -6.9 -7.9 -7.45 -9.35 -9.05 -8.55 -13.0 -7.15 -13.05 -7.0 -13.0 -7.2 -12.45 -6.6 -11.85 -4.45 -13.15 -2.25 -13.15 -2.4 -13.5 -0.5 -13.8 -0.15 -13.4 -0.25 -13.15 1.7 -13.0 Q3.05 -12.4 3.15 -10.9 L3.35 -8.15 3.2 -8.15 Q1.95 -8.2 2.0 -7.25 M4.0 -6.85 Q4.4 -6.45 4.4 -5.7 L4.7 -4.6 4.5 -4.4 Q3.75 -4.4 3.75 -5.6 L3.9 -6.45 3.8 -6.65 4.0 -6.85 M2.7 -3.25 L3.25 -3.3 Q3.25 -3.1 3.65 -3.05 L3.9 -3.15 4.0 -2.75 4.05 -2.3 4.4 -2.5 4.3 -2.8 4.3 -2.9 4.35 -2.9 4.95 -2.0 5.25 -1.05 Q5.1 -0.95 5.1 -0.7 L5.1 -0.4 Q4.9 0.05 4.55 0.05 L4.45 0.0 4.55 0.7 3.7 1.0 3.55 0.9 Q2.65 0.25 2.3 0.25 1.05 0.05 1.05 -1.4 1.0 -3.25 2.7 -3.25 M2.3 -2.05 Q1.55 -2.05 1.55 -1.4 1.5 -0.8 2.25 -0.75 2.9 -0.75 2.9 -1.3 2.75 -2.05 2.3 -2.05 M1.05 -5.45 Q1.7 -5.45 1.7 -6.0 1.7 -6.5 1.15 -6.5 0.5 -6.5 0.5 -5.95 0.5 -5.45 1.05 -5.45 M4.15 1.5 Q4.15 2.1 3.05 2.1 2.7 2.1 2.8 1.8 2.8 1.4 3.9 1.4 L4.15 1.5 M2.85 0.8 L3.15 1.15 3.0 1.2 2.75 1.25 2.65 1.3 1.55 1.5 1.55 1.25 1.2 0.9 0.0 0.7 0.0 0.6 0.55 0.05 Q0.6 0.3 1.35 0.45 L2.85 0.8 M-10.45 -3.8 Q-10.6 -3.05 -10.95 -3.05 -11.3 -3.05 -11.2 -3.75 -11.25 -5.35 -10.95 -5.35 -10.6 -5.35 -10.45 -5.05 L-10.4 -4.75 -10.45 -3.8 M-11.4 -1.65 Q-11.05 -1.65 -11.05 -1.3 L-11.45 0.1 -11.9 -0.4 Q-11.95 -1.65 -11.4 -1.65 M-3.55 -10.85 L-2.95 -11.95 Q-2.95 -12.3 -3.35 -12.25 L-4.7 -11.7 -5.35 -11.5 -4.85 -10.75 -5.45 -10.2 -3.9 -10.0 Q-3.9 -9.6 -3.55 -9.55 -3.25 -9.6 -3.25 -10.05 L-3.55 -10.85 M-3.6 -7.65 Q-3.6 -8.8 -5.0 -8.8 -6.1 -8.8 -6.75 -8.15 L-7.25 -7.4 Q-7.35 -6.1 -5.15 -6.1 -3.6 -6.1 -3.6 -7.65 M-6.4 -10.45 L-7.1 -11.0 Q-8.35 -11.05 -8.3 -10.25 -8.05 -9.2 -7.55 -9.2 -7.15 -9.2 -6.8 -9.7 L-6.4 -10.45 M-9.25 -11.3 L-9.55 -10.5 Q-9.55 -9.8 -9.75 -9.8 -10.0 -9.8 -10.0 -10.65 -9.85 -11.6 -9.45 -11.6 L-9.25 -11.3 M-9.6 -7.95 L-9.5 -8.25 -9.4 -8.1 -9.6 -7.95 M-8.1 -5.75 Q-8.8 -5.75 -9.15 -4.75 -9.1 -4.3 -8.5 -4.25 -7.55 -4.25 -7.55 -5.2 L-8.1 -5.75 M-9.55 -1.25 Q-9.45 -0.2 -8.6 -0.2 -7.45 -0.2 -7.45 -1.4 -7.45 -2.15 -8.3 -2.1 -9.55 -2.15 -9.55 -1.25 M-9.35 -2.75 L-8.65 -2.6 Q-6.85 -2.15 -6.85 -1.85 L-8.05 1.35 -8.3 1.4 -8.75 1.35 -9.05 1.35 -8.85 1.5 Q-8.9 1.9 -9.6 1.95 -10.9 1.95 -10.9 1.1 L-10.75 0.85 Q-10.95 0.75 -11.1 0.6 L-11.2 0.2 -10.75 -2.05 -9.35 -2.75 M-6.35 -2.6 Q-5.95 -2.65 -5.9 -3.05 L-6.25 -3.5 Q-6.75 -3.5 -6.75 -3.05 -6.75 -2.6 -6.35 -2.6 M-6.05 -1.1 Q-6.6 -1.1 -6.6 -0.45 -6.65 0.0 -6.1 0.05 -5.6 0.05 -5.6 -0.55 -5.6 -1.1 -6.05 -1.1 M-3.05 -0.35 Q-3.1 -0.8 -3.55 -0.8 L-4.05 -0.35 Q-4.05 0.15 -3.5 0.15 -3.05 0.15 -3.05 -0.35 M-3.9 -4.7 Q-4.8 -3.95 -4.8 -3.35 -4.8 -1.1 -2.3 -1.1 -0.55 -1.1 0.35 -4.0 0.2 -5.55 -1.3 -5.55 -2.8 -5.55 -3.9 -4.7 M-0.35 1.25 Q0.95 1.25 0.95 1.75 0.95 2.35 -0.95 2.35 L-0.7 2.3 -2.55 1.9 -2.5 1.65 Q-2.15 1.25 -0.35 1.25 M-5.2 0.95 L-5.0 0.85 -5.45 0.9 -5.2 0.95" fill="#e8b0b7" fill-rule="evenodd" stroke="none"/>
    <path d="M10.85 -17.25 L10.85 -17.2 10.15 -18.55 9.4 -17.85 Q8.3 -17.15 6.15 -14.7 4.6 -13.5 3.45 -13.3 L3.35 -13.4 4.95 -15.0 9.25 -18.7 Q9.15 -19.0 8.85 -19.0 8.2 -19.0 2.75 -13.8 2.5 -13.95 2.3 -14.05 L0.9 -14.4 -2.2 -14.35 -4.7 -14.3 -6.85 -14.2 -8.3 -13.75 -9.75 -13.65 Q-9.2 -14.55 -6.7 -16.75 -5.1 -18.05 -3.9 -19.25 L-2.6 -19.7 Q-3.1 -19.4 -3.05 -18.75 L-2.7 -18.45 Q-2.0 -18.5 -1.3 -18.95 -0.65 -19.4 -0.65 -19.75 L-0.8 -19.85 -0.45 -19.9 4.2 -20.1 7.3 -20.15 8.65 -19.75 9.7 -19.15 10.85 -17.25 M5.2 -19.65 Q5.15 -19.35 5.6 -19.35 L6.05 -19.65 Q6.05 -20.0 5.6 -20.0 5.15 -20.0 5.2 -19.65 M5.55 -18.95 Q5.55 -18.65 5.85 -18.65 L6.15 -18.95 5.85 -19.3 Q5.55 -19.3 5.55 -18.95 M2.9 -17.7 Q2.9 -18.05 2.55 -18.0 1.3 -18.05 0.5 -17.2 -0.1 -16.6 -0.1 -16.1 -0.1 -15.6 0.3 -15.55 1.1 -15.55 2.05 -16.5 L2.9 -17.7 M3.25 -19.55 Q2.4 -19.55 2.15 -19.25 2.0 -19.7 1.25 -19.65 0.65 -19.65 0.65 -19.3 1.05 -18.75 1.9 -18.75 L2.0 -18.8 Q2.0 -18.5 2.7 -18.45 3.65 -18.5 3.65 -19.15 3.65 -19.55 3.25 -19.55 M-3.3 -15.05 Q-3.3 -14.45 -2.9 -14.45 -2.65 -14.45 -2.05 -14.8 L-1.45 -15.35 -2.05 -15.9 -2.85 -15.55 -3.3 -15.05 M-3.0 -16.6 L-3.3 -16.9 -3.55 -16.75 Q-3.55 -16.35 -3.95 -16.25 -4.45 -16.15 -4.45 -15.9 -4.45 -15.6 -4.05 -15.55 L-3.0 -16.6 M-1.95 -17.95 L-1.55 -17.75 Q-0.9 -17.8 0.1 -18.65 L-0.3 -19.0 Q-1.8 -19.05 -1.95 -17.95 M-5.45 -15.6 L-5.75 -15.9 Q-6.2 -15.9 -6.6 -15.45 L-7.0 -14.85 -6.75 -14.6 -5.45 -15.6" fill="#ddbbc2" fill-rule="evenodd" stroke="none"/>
    <path d="M11.05 -16.25 L10.45 -15.6 9.85 -14.65 Q9.7 -14.85 9.55 -14.85 L9.45 -14.8 9.7 -14.1 Q8.8 -13.05 8.8 -12.05 8.8 -11.35 9.5 -11.35 L10.35 -11.55 Q10.95 -11.55 11.55 -11.05 12.35 -7.7 12.55 -4.25 L12.4 -3.9 12.35 -3.95 11.3 -3.9 Q11.1 -3.9 10.95 -4.35 L10.7 -5.3 10.1 -6.25 Q9.15 -7.0 8.5 -7.0 7.05 -7.0 7.1 -5.45 7.05 -4.75 7.65 -3.95 L8.25 -2.7 Q8.25 -1.25 7.4 -0.25 L7.6 0.45 6.15 1.6 6.15 1.25 5.8 -2.15 5.75 -2.45 5.7 -2.8 5.65 -2.95 6.2 -5.1 Q6.05 -6.35 5.65 -6.3 L4.95 -6.1 4.9 -6.35 4.85 -6.8 4.8 -7.6 5.75 -9.0 Q6.7 -10.7 6.7 -11.3 6.7 -11.7 6.35 -11.7 L5.65 -11.15 4.55 -11.45 4.5 -11.45 4.15 -12.3 4.1 -12.45 3.75 -12.9 3.7 -13.0 3.65 -13.05 3.55 -13.15 3.5 -13.25 3.45 -13.3 Q4.6 -13.5 6.15 -14.7 8.3 -17.15 9.4 -17.85 L10.15 -18.55 10.85 -17.2 10.85 -17.25 11.05 -16.5 11.05 -16.25 M11.25 -12.2 L11.15 -12.3 11.2 -12.45 11.25 -12.2 M11.15 -14.05 L11.05 -14.3 11.15 -14.55 11.15 -14.05 M5.55 -18.95 Q5.55 -19.3 5.85 -19.3 L6.15 -18.95 5.85 -18.65 Q5.55 -18.65 5.55 -18.95 M5.2 -19.65 Q5.15 -20.0 5.6 -20.0 6.05 -20.0 6.05 -19.65 L5.6 -19.35 Q5.15 -19.35 5.2 -19.65 M-0.8 -19.85 L-0.65 -19.75 Q-0.65 -19.4 -1.3 -18.95 -2.0 -18.5 -2.7 -18.45 L-3.05 -18.75 Q-3.1 -19.4 -2.6 -19.7 -2.1 -20.05 -1.0 -20.05 L-0.8 -19.85 M2.75 -13.8 Q8.2 -19.0 8.85 -19.0 9.15 -19.0 9.25 -18.7 L4.95 -15.0 3.35 -13.4 3.3 -13.4 2.75 -13.8 M3.25 -19.55 Q3.65 -19.55 3.65 -19.15 3.65 -18.5 2.7 -18.45 2.0 -18.5 2.0 -18.8 L1.9 -18.75 Q1.05 -18.75 0.65 -19.3 0.65 -19.65 1.25 -19.65 2.0 -19.7 2.15 -19.25 2.4 -19.55 3.25 -19.55 M2.9 -17.7 L2.05 -16.5 Q1.1 -15.55 0.3 -15.55 -0.1 -15.6 -0.1 -16.1 -0.1 -16.6 0.5 -17.2 1.3 -18.05 2.55 -18.0 2.9 -18.05 2.9 -17.7 M7.55 -8.65 L7.15 -9.05 Q6.55 -9.05 6.55 -8.5 L6.85 -8.15 Q7.5 -8.2 7.55 -8.65 M8.3 -10.55 L8.7 -11.5 Q8.7 -12.2 7.8 -12.2 7.1 -12.2 7.1 -11.45 L7.25 -11.1 6.85 -10.25 7.5 -9.75 8.3 -10.55 M9.0 -15.3 Q8.35 -15.3 8.35 -14.55 8.35 -14.25 8.65 -14.25 L9.05 -14.6 9.4 -15.05 9.0 -15.3 M10.25 -7.6 Q11.6 -7.6 11.6 -8.6 L10.9 -9.85 Q9.1 -9.85 9.1 -8.35 9.1 -7.6 10.25 -7.6 M-5.45 -15.6 L-6.75 -14.6 -7.0 -14.85 -6.6 -15.45 Q-6.2 -15.9 -5.75 -15.9 L-5.45 -15.6 M-1.95 -17.95 Q-1.8 -19.05 -0.3 -19.0 L0.1 -18.65 Q-0.9 -17.8 -1.55 -17.75 L-1.95 -17.95 M-3.0 -16.6 L-4.05 -15.55 Q-4.45 -15.6 -4.45 -15.9 -4.45 -16.15 -3.95 -16.25 -3.55 -16.35 -3.55 -16.75 L-3.3 -16.9 -3.0 -16.6 M-3.3 -15.05 L-2.85 -15.55 -2.05 -15.9 -1.45 -15.35 -2.05 -14.8 Q-2.65 -14.45 -2.9 -14.45 -3.3 -14.45 -3.3 -15.05" fill="#c9949f" fill-rule="evenodd" stroke="none"/>
    <path d="M2.15 -10.3 Q2.15 -9.85 1.55 -9.05 0.8 -8.1 0.0 -8.1 -2.2 -8.15 -2.25 -9.8 -2.25 -11.7 0.35 -11.7 2.1 -11.7 2.15 -10.3 M0.7 -10.05 Q0.65 -10.65 0.2 -10.65 -1.15 -10.65 -1.15 -9.85 -1.15 -9.2 -0.35 -9.2 0.7 -9.2 0.7 -10.05 M1.05 -5.45 Q0.5 -5.45 0.5 -5.95 0.5 -6.5 1.15 -6.5 1.7 -6.5 1.7 -6.0 1.7 -5.45 1.05 -5.45 M2.3 -2.05 Q2.75 -2.05 2.9 -1.3 2.9 -0.75 2.25 -0.75 1.5 -0.8 1.55 -1.4 1.55 -2.05 2.3 -2.05 M-3.6 -7.65 Q-3.6 -6.1 -5.15 -6.1 -7.35 -6.1 -7.25 -7.4 L-6.75 -8.15 Q-6.1 -8.8 -5.0 -8.8 -3.6 -8.8 -3.6 -7.65 M-4.1 -7.65 L-4.95 -8.35 Q-5.7 -8.4 -5.65 -7.9 L-5.6 -7.65 -5.7 -7.25 Q-5.75 -6.75 -5.2 -6.7 -4.1 -6.7 -4.1 -7.65 M-6.4 -10.45 L-6.8 -9.7 Q-7.15 -9.2 -7.55 -9.2 -8.05 -9.2 -8.3 -10.25 -8.35 -11.05 -7.1 -11.0 L-6.4 -10.45 M-7.0 -10.3 Q-7.0 -10.75 -7.4 -10.75 -7.9 -10.75 -7.85 -10.3 -7.9 -9.9 -7.4 -9.9 -7.0 -9.9 -7.0 -10.3 M-8.1 -5.75 L-7.55 -5.2 Q-7.55 -4.25 -8.5 -4.25 -9.1 -4.3 -9.15 -4.75 -8.8 -5.75 -8.1 -5.75 M-8.0 -5.15 L-8.2 -5.4 Q-8.65 -5.4 -8.65 -5.0 L-8.35 -4.75 Q-8.0 -4.8 -8.0 -5.15 M-9.55 -1.25 Q-9.55 -2.15 -8.3 -2.1 -7.45 -2.15 -7.45 -1.4 -7.45 -0.2 -8.6 -0.2 -9.45 -0.2 -9.55 -1.25 M-9.0 -1.0 Q-9.0 -0.55 -8.5 -0.55 -7.95 -0.55 -7.95 -1.1 L-8.45 -1.6 Q-9.0 -1.65 -9.0 -1.0 M-6.05 -1.1 Q-5.6 -1.1 -5.6 -0.55 -5.6 0.05 -6.1 0.05 -6.65 0.0 -6.6 -0.45 -6.6 -1.1 -6.05 -1.1 M-6.35 -2.6 Q-6.75 -2.6 -6.75 -3.05 -6.75 -3.5 -6.25 -3.5 L-5.9 -3.05 Q-5.95 -2.65 -6.35 -2.6 M-3.0 -3.85 Q-4.0 -3.9 -3.95 -3.15 -4.0 -2.1 -3.1 -2.1 -2.15 -2.1 -2.1 -3.05 -2.15 -3.9 -3.0 -3.85 M-1.6 -4.05 Q-1.65 -3.6 -1.15 -3.6 -0.7 -3.65 -0.65 -4.1 L-1.1 -4.55 Q-1.6 -4.55 -1.6 -4.05 M-3.9 -4.7 Q-2.8 -5.55 -1.3 -5.55 0.2 -5.55 0.35 -4.0 -0.55 -1.1 -2.3 -1.1 -4.8 -1.1 -4.8 -3.35 -4.8 -3.95 -3.9 -4.7 M-3.05 -0.35 Q-3.05 0.15 -3.5 0.15 -4.05 0.15 -4.05 -0.35 L-3.55 -0.8 Q-3.1 -0.8 -3.05 -0.35" fill="#f5dee3" fill-rule="evenodd" stroke="none"/>
    <path d="M0.7 -10.05 Q0.7 -9.2 -0.35 -9.2 -1.15 -9.2 -1.15 -9.85 -1.15 -10.65 0.2 -10.65 0.65 -10.65 0.7 -10.05 M-4.1 -7.65 Q-4.1 -6.7 -5.2 -6.7 -5.75 -6.75 -5.7 -7.25 L-5.6 -7.65 -5.65 -7.9 Q-5.7 -8.4 -4.95 -8.35 L-4.1 -7.65 M-7.0 -10.3 Q-7.0 -9.9 -7.4 -9.9 -7.9 -9.9 -7.85 -10.3 -7.9 -10.75 -7.4 -10.75 -7.0 -10.75 -7.0 -10.3 M-8.0 -5.15 Q-8.0 -4.8 -8.35 -4.75 L-8.65 -5.0 Q-8.65 -5.4 -8.2 -5.4 L-8.0 -5.15 M-9.0 -1.0 Q-9.0 -1.65 -8.45 -1.6 L-7.95 -1.1 Q-7.95 -0.55 -8.5 -0.55 -9.0 -0.55 -9.0 -1.0 M-1.6 -4.05 Q-1.6 -4.55 -1.1 -4.55 L-0.65 -4.1 Q-0.7 -3.65 -1.15 -3.6 -1.65 -3.6 -1.6 -4.05 M-3.0 -3.85 Q-2.15 -3.9 -2.1 -3.05 -2.15 -2.1 -3.1 -2.1 -4.0 -2.1 -3.95 -3.15 -4.0 -3.9 -3.0 -3.85" fill="#ffffff" fill-rule="evenodd" stroke="none"/>
    <path d="M11.55 -11.05 Q10.95 -11.55 10.35 -11.55 L9.5 -11.35 Q8.8 -11.35 8.8 -12.05 8.8 -13.05 9.7 -14.1 L9.45 -14.8 9.55 -14.85 Q9.7 -14.85 9.85 -14.65 L10.45 -15.6 11.05 -16.25 11.15 -14.55 11.05 -14.3 11.15 -14.05 11.2 -12.5 11.2 -12.45 11.15 -12.3 11.25 -12.2 11.25 -12.05 11.55 -11.05 M4.5 -11.45 L4.55 -11.45 5.65 -11.15 6.35 -11.7 Q6.7 -11.7 6.7 -11.3 6.7 -10.7 5.75 -9.0 L4.8 -7.6 4.7 -10.8 4.6 -11.2 4.55 -11.35 4.5 -11.45 M4.95 -6.1 L5.65 -6.3 Q6.05 -6.35 6.2 -5.1 L5.65 -2.95 4.95 -6.1 M7.6 0.45 L7.4 -0.25 Q8.25 -1.25 8.25 -2.7 L7.65 -3.95 Q7.05 -4.75 7.1 -5.45 7.05 -7.0 8.5 -7.0 9.15 -7.0 10.1 -6.25 L10.7 -5.3 10.95 -4.35 Q11.1 -3.9 11.3 -3.9 L12.35 -3.95 12.4 -3.9 12.2 -3.35 12.2 -3.4 11.4 -2.75 8.95 -0.85 8.15 -0.05 7.9 0.2 7.65 0.4 7.6 0.45 M9.0 -15.3 L9.4 -15.05 9.05 -14.6 8.65 -14.25 Q8.35 -14.25 8.35 -14.55 8.35 -15.3 9.0 -15.3 M8.3 -10.55 L7.5 -9.75 6.85 -10.25 7.25 -11.1 7.1 -11.45 Q7.1 -12.2 7.8 -12.2 8.7 -12.2 8.7 -11.5 L8.3 -10.55 M7.55 -8.65 Q7.5 -8.2 6.85 -8.15 L6.55 -8.5 Q6.55 -9.05 7.15 -9.05 L7.55 -8.65 M10.25 -7.6 Q9.1 -7.6 9.1 -8.35 9.1 -9.85 10.9 -9.85 L11.6 -8.6 Q11.6 -7.6 10.25 -7.6" fill="#bf8496" fill-rule="evenodd" stroke="none"/>
    <path d="M10.4 -19.85 Q11.35 -18.85 11.8 -17.55 L12.05 -16.7 12.05 -16.45 12.05 -16.3 12.15 -14.6 12.15 -14.1 12.15 -14.05 12.2 -12.55 12.2 -12.5 12.25 -12.35 12.25 -12.25 12.5 -11.3 Q13.35 -7.85 13.55 -4.3 L13.5 -3.9 13.15 -3.0 12.7 -2.5 12.65 -2.45 12.05 -1.95 12.0 -1.95 9.55 -0.05 8.8 0.65 8.85 0.65 8.6 0.9 8.35 1.1 8.25 1.2 7.0 2.25 6.7 2.6 4.85 3.4 5.0 3.35 Q3.65 3.95 2.25 3.95 L2.2 3.95 -1.3 3.95 -9.05 3.7 Q-10.6 3.65 -12.0 2.9 L-12.05 2.85 Q-13.65 1.9 -13.45 0.3 L-13.45 0.25 Q-12.8 -6.9 -10.8 -13.9 L-10.55 -14.35 -10.4 -14.45 Q-9.7 -15.45 -7.4 -17.5 L-7.35 -17.5 -4.6 -19.95 -4.5 -20.05 -2.9 -20.65 -1.0 -21.05 -0.5 -20.9 4.15 -21.1 7.3 -21.15 7.45 -21.1 9.0 -20.7 10.35 -19.85 10.4 -19.85 M11.05 -16.25 L11.05 -16.5 10.85 -17.25 9.7 -19.15 8.65 -19.75 7.3 -20.15 4.2 -20.1 -0.45 -19.9 -0.8 -19.85 -1.0 -20.05 Q-2.1 -20.05 -2.6 -19.7 L-3.9 -19.25 Q-5.1 -18.05 -6.7 -16.75 -9.2 -14.55 -9.75 -13.65 L-9.85 -13.65 Q-11.8 -6.75 -12.45 0.35 -12.55 1.4 -11.55 2.0 -10.35 2.65 -9.0 2.7 L-1.3 2.95 2.25 2.95 4.6 2.45 6.15 1.75 6.15 1.25 6.15 1.6 7.6 0.45 7.65 0.4 7.9 0.2 8.15 -0.05 8.95 -0.85 11.4 -2.75 12.2 -3.4 12.2 -3.35 12.4 -3.9 12.55 -4.25 Q12.35 -7.7 11.55 -11.05 L11.25 -12.05 11.25 -12.2 11.2 -12.45 11.2 -12.5 11.15 -14.05 11.15 -14.55 11.05 -16.25" fill="#000000" fill-rule="evenodd" stroke="none"/>
  </g>
</svg>
