<?xml version="1.0" encoding="UTF-8" standalone="no"?>
<svg xmlns:xlink="http://www.w3.org/1999/xlink" height="22.95px" width="31.25px" xmlns="http://www.w3.org/2000/svg">
  <g transform="matrix(1.0, 0.0, 0.0, 1.0, 15.0, 20.65)">
    <path d="M13.65 -17.2 L13.4 -17.55 13.6 -17.9 14.25 -17.4 14.4 -17.25 Q14.85 -16.75 14.75 -15.95 L14.4 -14.6 14.1 -14.05 13.3 -13.25 Q12.2 -12.3 10.8 -11.7 L8.9 -10.75 8.8 -10.7 6.35 -9.55 5.6 -9.25 5.25 -9.1 4.1 -8.6 2.95 -8.15 1.7 -7.65 1.05 -7.3 -0.4 -6.65 -1.5 -6.35 -0.1 -7.05 Q0.9 -7.7 2.05 -8.2 2.7 -8.65 3.45 -8.95 L5.9 -10.3 6.05 -10.35 6.95 -10.95 7.0 -10.95 7.5 -11.2 7.85 -11.35 8.75 -11.8 9.2 -12.0 10.2 -12.5 10.6 -12.7 11.75 -13.25 12.3 -13.55 13.3 -14.2 Q13.9 -14.8 14.05 -15.6 L14.05 -15.9 Q14.1 -16.55 13.65 -17.2 M13.3 -14.2 L13.3 -14.15 13.3 -14.2" fill="#ffffff" fill-rule="evenodd" stroke="none"/>
    <path d="M6.95 -10.95 L6.05 -10.35 5.9 -10.3 3.45 -8.95 Q2.7 -8.65 2.05 -8.2 0.9 -7.7 -0.1 -7.05 L-1.5 -6.35 -0.4 -6.65 1.05 -7.3 1.7 -7.65 2.95 -8.15 4.1 -8.6 5.25 -9.1 5.6 -9.25 6.35 -9.55 8.8 -10.7 8.9 -10.75 10.8 -11.7 Q12.2 -12.3 13.3 -13.25 L14.1 -14.05 14.4 -14.6 14.75 -15.95 Q14.85 -16.75 14.4 -17.25 L14.25 -17.4 13.6 -17.9 13.4 -17.55 13.65 -17.2 13.1 -17.75 Q11.8 -18.85 9.75 -19.0 7.65 -19.2 5.95 -18.4 L-10.35 -10.95 Q-12.1 -10.15 -12.35 -8.85 L-12.35 -8.75 -12.45 -7.8 -12.35 -7.55 Q-12.2 -7.05 -11.65 -6.6 L-11.5 -6.45 -10.85 -6.0 Q-9.8 -5.35 -8.1 -5.2 -6.1 -5.05 -4.2 -5.8 L5.5 -10.25 6.95 -10.95 M14.4 -13.2 L14.15 -12.9 14.05 -12.8 13.3 -12.25 12.45 -11.8 8.75 -10.1 7.8 -9.65 6.65 -9.1 5.45 -8.6 -3.55 -4.45 Q-5.75 -3.5 -8.3 -3.75 -10.35 -3.9 -11.75 -4.7 L-12.35 -5.1 -12.6 -5.25 -12.6 -5.3 -13.1 -5.8 -13.65 -6.75 -13.7 -7.85 -13.65 -8.9 -13.6 -9.0 Q-13.35 -10.0 -12.35 -10.75 L-11.05 -11.6 5.25 -19.05 Q7.35 -19.95 9.95 -19.8 12.6 -19.55 14.15 -18.2 15.3 -17.2 15.35 -16.05 L15.35 -15.65 15.35 -15.35 15.35 -14.95 15.25 -14.55 14.4 -13.2 M-3.95 -8.1 L-4.0 -8.15 Q-6.35 -6.7 -7.8 -6.7 L-8.35 -6.8 Q-8.85 -6.85 -8.95 -6.55 -9.85 -6.9 -10.0 -8.1 -10.0 -9.05 -8.25 -9.85 L-6.1 -10.55 -5.2 -10.4 -4.1 -9.55 -3.65 -8.85 -3.6 -8.75 Q-3.6 -8.45 -3.95 -8.1 M-7.05 -8.75 L-6.6 -7.9 -5.75 -8.1 -4.75 -8.75 -4.85 -9.15 -4.8 -9.3 Q-4.85 -9.9 -6.2 -9.95 L-6.25 -9.95 Q-7.6 -9.8 -7.6 -9.4 -7.65 -9.0 -7.25 -8.95 L-7.05 -8.75 M-9.0 -8.05 Q-9.0 -7.35 -8.25 -7.35 -7.45 -7.35 -7.4 -8.15 L-7.85 -8.65 Q-9.0 -8.7 -9.0 -8.05" fill="#cbd9de" fill-rule="evenodd" stroke="none"/>
    <path d="M12.2 -17.65 L13.05 -17.05 13.1 -17.05 13.05 -17.05 12.2 -17.65" fill="#fbec6a" fill-rule="evenodd" stroke="none"/>
    <path d="M-12.45 -7.8 L-12.35 -8.75 -12.35 -8.85 Q-12.1 -10.15 -10.35 -10.95 L5.95 -18.4 Q7.65 -19.2 9.75 -19.0 11.8 -18.85 13.1 -17.75 L13.65 -17.2 Q14.1 -16.55 14.05 -15.9 L14.05 -15.6 13.45 -16.65 13.1 -17.05 13.05 -17.05 12.2 -17.65 Q11.65 -17.9 11.15 -18.1 L9.8 -18.3 9.75 -18.3 Q7.65 -18.5 5.95 -17.7 L2.45 -16.1 1.4 -15.6 -10.35 -10.25 Q-12.1 -9.45 -12.35 -8.15 L-12.35 -8.05 -12.45 -7.8 M14.05 -12.8 L14.15 -12.9 14.4 -13.2 14.4 -8.55 14.05 -8.2 Q13.4 -7.6 12.45 -7.1 L-3.55 0.2 Q-5.75 1.15 -8.3 0.9 -11.05 0.7 -12.6 -0.65 L-13.1 -1.15 -13.1 -5.8 -12.6 -5.3 -12.6 -5.25 -12.35 -5.1 -12.35 -3.5 -12.35 -3.45 Q-12.6 -2.8 -12.35 -2.2 L-12.15 -1.8 -11.5 -1.15 Q-10.35 -0.05 -8.1 0.15 -6.1 0.3 -4.2 -0.5 L4.3 -4.4 5.45 -4.9 6.65 -5.45 7.7 -5.95 11.75 -7.8 Q13.45 -8.6 13.95 -9.95 L14.05 -10.55 14.05 -12.8 M-3.95 -8.1 L-3.7 -7.8 Q-3.75 -7.35 -4.7 -6.8 L-5.1 -6.6 Q-6.7 -5.85 -8.45 -5.8 -9.0 -5.85 -9.0 -6.3 L-8.95 -6.55 Q-8.85 -6.85 -8.35 -6.8 L-7.8 -6.7 Q-6.35 -6.7 -4.0 -8.15 L-3.95 -8.1 M-4.85 -9.15 L-5.0 -9.1 -5.15 -9.1 -6.0 -9.2 -7.2 -8.95 -7.25 -8.95 Q-7.65 -9.0 -7.6 -9.4 -7.6 -9.8 -6.25 -9.95 L-6.2 -9.95 Q-4.85 -9.9 -4.8 -9.3 L-4.85 -9.15 M-9.0 -8.05 Q-9.0 -8.7 -7.85 -8.65 L-7.4 -8.15 Q-7.45 -7.35 -8.25 -7.35 -9.0 -7.35 -9.0 -8.05" fill="#98b6bc" fill-rule="evenodd" stroke="none"/>
    <path d="M-5.0 -9.1 L-5.1 -9.05 -5.15 -9.1 -5.0 -9.1" fill="#ffd222" fill-rule="evenodd" stroke="none"/>
    <path d="M-13.1 -5.8 L-13.1 -1.15 -12.6 -0.65 Q-11.05 0.7 -8.3 0.9 -5.75 1.15 -3.55 0.2 L12.45 -7.1 Q13.4 -7.6 14.05 -8.2 L14.4 -8.55 14.4 -13.2 15.25 -14.55 15.35 -14.95 15.35 -15.35 15.35 -15.65 15.35 -16.05 Q15.3 -17.2 14.15 -18.2 12.6 -19.55 9.95 -19.8 7.35 -19.95 5.25 -19.05 L-11.05 -11.6 -12.35 -10.75 Q-13.35 -10.0 -13.6 -9.0 L-13.65 -8.9 -13.7 -7.85 -13.65 -6.75 -13.1 -5.8 M16.25 -15.45 L16.25 -15.35 16.25 -15.1 16.25 -15.05 16.25 -14.6 16.15 -14.0 16.1 -13.95 15.3 -12.5 15.3 -8.25 15.05 -7.6 14.6 -7.1 Q13.85 -6.45 12.75 -5.9 L12.7 -5.9 -3.25 1.4 -3.25 1.45 Q-5.75 2.5 -8.55 2.25 -11.7 2.0 -13.45 0.45 L-13.5 0.4 -14.1 -0.25 -14.35 -0.9 -14.35 -5.2 -14.8 -6.15 -14.8 -6.2 Q-15.05 -6.85 -14.95 -7.55 L-14.8 -8.95 -14.8 -9.0 Q-14.5 -10.35 -13.2 -11.35 L-11.7 -12.3 -11.65 -12.3 4.65 -19.75 Q7.0 -20.8 9.9 -20.6 12.9 -20.35 14.7 -18.7 16.25 -17.4 16.25 -15.8 L16.25 -15.75 16.25 -15.45" fill="#000000" fill-rule="evenodd" stroke="none"/>
    <path d="M13.3 -14.2 L13.3 -14.15 13.3 -14.2" fill="#1b618f" fill-rule="evenodd" stroke="none"/>
    <path d="M5.5 -10.25 L-4.2 -5.8 Q-6.1 -5.05 -8.1 -5.2 -9.8 -5.35 -10.85 -6.0 L-11.5 -6.45 -11.65 -6.6 Q-12.2 -7.05 -12.35 -7.55 L-12.45 -7.8 -12.35 -8.05 -12.35 -8.15 Q-12.1 -9.45 -10.35 -10.25 L1.4 -15.6 1.4 -15.15 Q1.35 -12.7 3.6 -12.1 5.8 -11.55 5.8 -10.95 L5.5 -10.25 M10.2 -12.5 L9.2 -12.0 8.75 -11.8 Q8.65 -13.2 7.4 -13.6 6.0 -14.0 6.0 -15.15 6.0 -15.75 7.0 -16.45 8.25 -17.5 10.55 -17.45 L13.05 -17.05 13.1 -17.05 13.45 -16.65 11.7 -16.9 Q8.5 -16.9 8.5 -14.45 8.25 -12.8 10.2 -12.5 M-8.95 -6.55 L-9.0 -6.3 Q-9.0 -5.85 -8.45 -5.8 -6.7 -5.85 -5.1 -6.6 L-4.7 -6.8 Q-2.85 -7.05 -2.85 -8.6 -2.85 -10.55 -4.45 -10.55 L-5.2 -10.4 -6.1 -10.55 -8.25 -9.85 Q-10.0 -9.05 -10.0 -8.1 -9.85 -6.9 -8.95 -6.55 M-5.0 -9.1 L-4.85 -9.15 -4.75 -8.75 -5.75 -8.1 -6.6 -7.9 -7.05 -8.75 -6.95 -8.75 -5.1 -9.05 -5.0 -9.1" fill="#3899d8" fill-rule="evenodd" stroke="none"/>
    <path d="M14.05 -12.8 L14.05 -10.55 13.95 -9.95 Q13.45 -8.6 11.75 -7.8 L7.7 -5.95 8.75 -10.1 12.45 -11.8 13.3 -12.25 14.05 -12.8 M4.3 -4.4 L-4.2 -0.5 Q-6.1 0.3 -8.1 0.15 -10.35 -0.05 -11.5 -1.15 L-12.15 -1.8 -12.35 -2.2 Q-12.6 -2.8 -12.35 -3.45 L-12.35 -3.5 -12.35 -5.1 -11.75 -4.7 Q-10.35 -3.9 -8.3 -3.75 -5.75 -3.5 -3.55 -4.45 L5.45 -8.6 4.3 -4.4" fill="#1b5c87" fill-rule="evenodd" stroke="none"/>
    <path d="M6.95 -10.95 L5.5 -10.25 5.8 -10.95 Q5.8 -11.55 3.6 -12.1 1.35 -12.7 1.4 -15.15 L1.4 -15.6 2.45 -16.1 2.35 -15.15 Q2.35 -13.2 4.2 -13.0 6.5 -12.7 6.9 -11.55 L7.0 -11.2 7.0 -11.1 7.0 -10.95 6.95 -10.95 M14.05 -15.6 Q13.9 -14.8 13.3 -14.2 L13.45 -14.85 Q12.85 -16.3 11.05 -15.8 9.45 -15.4 9.5 -14.5 9.45 -13.45 11.0 -13.45 L12.3 -13.55 11.75 -13.25 10.6 -12.7 10.2 -12.5 Q8.25 -12.8 8.5 -14.45 8.5 -16.9 11.7 -16.9 L13.45 -16.65 14.05 -15.6 M8.75 -11.8 L7.85 -11.35 7.5 -11.2 7.9 -11.6 7.6 -12.25 6.55 -13.0 Q5.15 -13.65 5.15 -15.1 5.15 -17.85 9.75 -18.3 L9.8 -18.3 11.15 -18.1 Q11.65 -17.9 12.2 -17.65 L13.05 -17.05 10.55 -17.45 Q8.25 -17.5 7.0 -16.45 6.0 -15.75 6.0 -15.15 6.0 -14.0 7.4 -13.6 8.65 -13.2 8.75 -11.8" fill="#71d3ec" fill-rule="evenodd" stroke="none"/>
    <path d="M13.3 -14.2 L12.3 -13.55 11.0 -13.45 Q9.45 -13.45 9.5 -14.5 9.45 -15.4 11.05 -15.8 12.85 -16.3 13.45 -14.85 L13.3 -14.2 M7.5 -11.2 L7.0 -10.95 7.0 -11.1 7.0 -11.2 6.9 -11.55 Q6.5 -12.7 4.2 -13.0 2.35 -13.2 2.35 -15.15 L2.45 -16.1 5.95 -17.7 Q7.65 -18.5 9.75 -18.3 5.15 -17.85 5.15 -15.1 5.15 -13.65 6.55 -13.0 L7.6 -12.25 7.9 -11.6 7.5 -11.2" fill="#c2edf8" fill-rule="evenodd" stroke="none"/>
    <path d="M7.7 -5.95 L6.65 -5.45 6.9 -6.4 7.8 -9.65 8.75 -10.1 7.7 -5.95 M5.45 -4.9 L4.3 -4.4 5.45 -8.6 6.65 -9.1 6.2 -7.8 Q5.55 -5.8 5.45 -4.9" fill="#1da7c9" fill-rule="evenodd" stroke="none"/>
    <path d="M6.65 -5.45 L5.45 -4.9 Q5.55 -5.8 6.2 -7.8 L6.65 -9.1 7.8 -9.65 6.9 -6.4 6.65 -5.45 M-4.7 -6.8 Q-3.75 -7.35 -3.7 -7.8 L-3.95 -8.1 Q-3.6 -8.45 -3.6 -8.75 L-3.65 -8.85 -4.1 -9.55 -5.2 -10.4 -4.45 -10.55 Q-2.85 -10.55 -2.85 -8.6 -2.85 -7.05 -4.7 -6.8 M-5.1 -9.05 L-6.95 -8.75 -7.05 -8.75 -7.25 -8.95 -7.2 -8.95 -6.0 -9.2 -5.15 -9.1 -5.1 -9.05" fill="#1788a4" fill-rule="evenodd" stroke="none"/>
    <path d="M11.7 -15.8 L10.95 -15.75 Q10.35 -15.95 10.15 -16.3 L8.7 -17.6 9.3 -17.8 10.45 -16.55 11.0 -16.25 11.25 -16.25 11.5 -16.35 11.2 -16.75 9.9 -17.95 10.25 -18.2 11.7 -16.95 12.1 -16.4 Q11.9 -16.45 12.25 -16.3 L11.7 -15.8 M1.95 -14.6 L2.9 -13.3 3.35 -12.7 2.9 -12.25 2.15 -12.3 1.5 -12.8 0.65 -14.2 0.9 -14.35 1.95 -12.95 2.25 -12.7 2.6 -12.65 2.7 -12.8 2.55 -13.3 1.65 -14.5 1.95 -14.6 M4.6 -15.4 L4.55 -15.25 4.95 -14.75 5.1 -14.75 5.25 -14.9 5.3 -15.0 5.25 -15.05 5.2 -15.25 5.05 -15.3 4.85 -15.45 4.75 -15.45 4.6 -15.4 M4.85 -15.8 Q4.75 -16.0 5.0 -15.8 L5.3 -15.75 5.6 -15.5 5.9 -15.1 5.85 -14.65 7.1 -14.15 6.7 -13.8 5.4 -14.45 5.25 -14.35 5.9 -13.45 5.6 -13.3 3.8 -15.45 4.45 -15.75 4.85 -15.8 M4.05 -14.45 L4.25 -14.2 3.65 -13.8 4.15 -13.35 4.85 -13.65 5.2 -13.1 4.0 -12.7 2.3 -14.8 3.5 -15.3 3.8 -14.9 3.05 -14.5 3.3 -14.25 4.05 -14.45 M7.9 -17.1 L10.6 -15.4 10.2 -15.25 9.7 -15.6 9.05 -15.3 9.2 -14.9 8.85 -14.75 7.4 -16.95 7.9 -17.1 M7.6 -15.5 L6.9 -15.2 7.45 -14.75 8.15 -15.0 8.7 -14.5 7.35 -14.15 5.45 -16.2 6.75 -16.75 7.05 -16.35 6.25 -15.95 6.55 -15.6 7.25 -15.9 7.6 -15.5 M9.05 -16.05 L8.25 -16.55 8.7 -15.8 9.05 -16.05 M0.4 -13.0 L0.2 -13.25 -0.1 -13.3 -0.25 -13.25 Q-0.55 -13.45 -0.35 -13.2 -0.55 -13.3 -0.35 -13.0 L-0.25 -12.7 -0.05 -12.45 0.05 -12.15 0.3 -11.95 0.65 -11.85 Q0.45 -12.05 0.8 -11.85 0.6 -12.15 0.85 -11.95 0.75 -12.25 0.9 -12.2 L0.85 -12.45 0.7 -12.7 0.4 -13.0 M1.4 -12.2 L1.3 -11.65 1.55 -11.55 Q1.7 -11.45 1.8 -11.4 L1.95 -11.65 2.25 -11.2 Q2.0 -11.35 2.15 -11.15 L1.9 -11.05 1.6 -11.0 1.4 -11.05 1.15 -11.25 1.0 -11.4 0.25 -11.55 Q-0.35 -11.9 -0.6 -12.2 -1.0 -12.9 -0.85 -13.1 -0.95 -13.7 -0.45 -13.6 L0.25 -13.65 1.0 -12.8 1.4 -12.2 M-1.9 -13.05 L0.15 -11.2 -0.45 -10.95 -0.7 -11.35 -1.4 -11.1 -1.05 -10.6 -1.6 -10.4 -2.4 -12.9 -1.9 -13.05 M-2.25 -10.25 L-3.0 -11.7 -2.85 -10.55 -3.1 -10.45 -3.95 -11.3 -3.0 -9.9 -3.3 -9.65 -4.55 -11.85 -4.15 -12.05 -3.2 -11.25 -3.6 -12.4 -3.1 -12.55 -1.75 -10.35 -2.25 -10.25 M-1.85 -12.4 L-1.45 -11.45 -1.1 -11.75 -1.85 -12.4" fill="#144463" fill-rule="evenodd" stroke="none"/>
  </g>
</svg>
