<?xml version="1.0" encoding="UTF-8" standalone="no"?>
<svg xmlns:xlink="http://www.w3.org/1999/xlink" height="20.6px" width="24.75px" xmlns="http://www.w3.org/2000/svg">
  <g transform="matrix(1.0, 0.0, 0.0, 1.0, 12.3, 17.75)">
    <path d="M12.45 -11.8 Q12.45 -10.95 11.85 -10.15 L11.85 -4.65 Q12.4 -3.9 12.4 -3.1 L12.4 -2.95 12.35 -2.55 12.4 -2.1 12.4 -2.0 Q12.55 0.25 8.4 1.65 4.95 2.85 0.05 2.85 -4.85 2.85 -8.3 1.65 -12.5 0.2 -12.3 -2.05 L-12.25 -2.55 -12.3 -3.0 Q-12.3 -3.75 -11.9 -4.45 L-11.85 -5.05 -11.85 -5.1 -11.85 -5.45 -11.85 -6.35 -11.85 -7.2 -11.85 -7.75 -11.85 -7.8 -11.8 -10.45 -12.25 -11.85 -12.2 -12.35 -12.25 -12.8 Q-12.45 -15.1 -8.25 -16.55 -4.8 -17.75 0.1 -17.75 5.0 -17.75 8.45 -16.55 12.6 -15.15 12.45 -12.9 L12.45 -12.75 12.4 -12.35 12.45 -11.9 12.45 -11.8" fill="#000000" fill-rule="evenodd" stroke="none"/>
    <path d="M-11.25 -2.5 Q-10.85 -1.2 -8.05 -0.2 -4.7 0.95 0.0 0.95 4.7 0.95 8.0 -0.2 10.85 -1.2 11.3 -2.5 L11.35 -2.05 11.35 -2.0 Q11.3 -0.4 8.0 0.75 4.7 1.9 0.0 1.9 -4.7 1.9 -8.05 0.75 -11.35 -0.4 -11.35 -2.05 L-11.25 -2.5" fill="#80a4bb" fill-rule="evenodd" stroke="none"/>
    <path d="M-11.25 -2.5 L-11.35 -3.0 Q-11.35 -4.6 -8.05 -5.75 -4.7 -6.9 0.0 -6.9 4.7 -6.9 8.0 -5.75 11.3 -4.6 11.35 -3.05 L11.35 -2.95 11.3 -2.5 Q10.85 -1.2 8.0 -0.2 4.7 0.95 0.0 0.95 -4.7 0.95 -8.05 -0.2 -10.85 -1.2 -11.25 -2.5" fill="#bccfdc" fill-rule="evenodd" stroke="none"/>
    <path d="M-10.9 -7.7 L-10.85 -12.1 -10.85 -11.0 -10.85 -10.15 -10.85 -9.7 -10.85 -9.65 -10.85 -7.75 -10.85 -7.7 -10.9 -7.7 M-10.85 -16.4 L-10.85 -15.9 -10.85 -15.95 -10.85 -16.4 M-10.85 -13.6 L-10.85 -12.95 -10.85 -13.6 M-10.85 -15.1 L-10.85 -14.45 -10.85 -15.1" fill="url(#gradient0)" fill-rule="evenodd" stroke="none"/>
    <path d="M6.1 -15.6 L5.1 -15.2 Q2.8 -14.1 2.8 -13.35 2.8 -13.05 2.95 -12.9 L1.15 -10.75 Q-0.7 -8.2 -0.7 -6.7 -0.7 -5.3 0.4 -4.5 1.5 -3.7 1.5 -2.5 L1.3 0.0 1.25 0.15 0.1 0.2 0.25 -1.7 Q0.25 -3.75 -2.2 -5.7 -2.2 -7.4 4.15 -16.0 L6.1 -15.6 M-1.7 0.15 L-3.35 0.0 Q-5.75 -0.25 -7.65 -0.9 L-8.75 -1.3 -9.4 -1.6 Q-10.8 -2.25 -10.95 -2.75 L-10.95 -2.8 -10.9 -5.0 -10.9 -5.05 -10.9 -5.4 -10.9 -6.3 -10.9 -7.15 -10.9 -7.7 -10.85 -7.7 -10.85 -7.75 -10.85 -9.65 -10.85 -10.15 -10.85 -11.0 -10.8 -10.95 -10.8 -11.3 -10.8 -11.45 -10.8 -11.65 -10.8 -11.9 -10.75 -12.05 -10.75 -12.1 -10.8 -12.3 -10.8 -12.35 -10.8 -12.45 -10.8 -12.55 -10.8 -12.75 -10.75 -12.95 Q-10.35 -14.25 -7.65 -15.15 -4.5 -16.25 0.0 -16.25 L1.75 -16.2 Q0.4 -14.8 -1.35 -11.75 L-3.15 -8.75 Q-4.2 -7.0 -4.2 -5.8 -4.2 -4.45 -2.85 -3.65 -1.55 -2.85 -1.55 -1.75 -1.55 -0.8 -2.05 0.1 L-1.7 0.15" fill="#cc33cc" fill-rule="evenodd" stroke="none"/>
    <path d="M6.1 -15.6 L7.6 -15.15 8.5 -14.85 Q10.4 -14.05 10.75 -12.95 L10.75 -12.85 10.75 -12.75 10.75 -12.65 10.8 -12.4 10.8 -12.35 10.8 -12.3 10.75 -12.05 10.75 -12.0 10.75 -11.9 10.75 -11.8 10.8 -11.7 10.8 -11.5 10.8 -11.45 10.8 -11.35 10.8 -11.25 10.75 -11.0 10.75 -10.9 10.8 -10.85 10.8 -10.6 10.8 -4.45 10.75 -4.0 10.8 -3.6 10.8 -3.55 Q10.75 -2.0 7.6 -0.9 5.7 -0.25 3.35 0.0 L2.95 0.05 1.25 0.15 1.3 0.0 1.5 -2.5 Q1.5 -3.7 0.4 -4.5 -0.7 -5.3 -0.7 -6.7 -0.7 -8.2 1.15 -10.75 L2.95 -12.9 Q2.8 -13.05 2.8 -13.35 2.8 -14.1 5.1 -15.2 L6.1 -15.6 M0.1 0.2 L0.0 0.2 -0.25 0.2 -1.7 0.15 -2.05 0.1 Q-1.55 -0.8 -1.55 -1.75 -1.55 -2.85 -2.85 -3.65 -4.2 -4.45 -4.2 -5.8 -4.2 -7.0 -3.15 -8.75 L-1.35 -11.75 Q0.4 -14.8 1.75 -16.2 L4.15 -16.0 Q-2.2 -7.4 -2.2 -5.7 0.25 -3.75 0.25 -1.7 L0.1 0.2" fill="#7e39c6" fill-rule="evenodd" stroke="none"/>
    <path d="M9.9 -7.05 Q9.9 -6.2 9.0 -6.2 8.45 -6.2 8.25 -6.6 L8.2 -7.05 Q8.2 -7.9 9.0 -7.9 9.85 -7.9 9.9 -7.05 M8.35 -5.75 Q8.35 -4.5 7.25 -4.5 6.45 -4.5 6.15 -4.9 L5.9 -5.3 6.35 -6.1 Q6.9 -6.75 7.4 -6.75 8.35 -6.75 8.35 -5.75 M3.8 -3.45 Q3.2 -3.45 2.4 -3.85 1.55 -4.2 1.55 -4.5 L2.2 -5.15 Q2.85 -5.55 3.4 -5.55 4.6 -5.55 4.65 -4.35 4.65 -3.45 3.8 -3.45 M-0.3 -3.7 Q-0.7 -3.7 -2.1 -4.7 -2.1 -5.65 -1.0 -5.65 0.5 -5.65 0.5 -4.6 0.5 -3.7 -0.3 -3.7 M-5.5 -6.2 Q-4.2 -6.2 -4.35 -5.05 -4.35 -4.0 -5.25 -4.0 -5.95 -4.0 -6.9 -4.75 -7.75 -5.45 -7.75 -5.8 -7.75 -6.75 -7.1 -6.75 -6.7 -6.2 -5.5 -6.2 M-8.5 -7.15 L-8.35 -6.2 Q-8.35 -5.5 -9.1 -5.5 -10.0 -5.5 -9.95 -6.95 -9.95 -8.05 -9.2 -8.05 -8.85 -8.05 -8.5 -7.15" fill="#ffffff" fill-rule="evenodd" stroke="none"/>
    <path d="M11.35 -12.3 L11.4 -11.85 11.4 -11.8 Q11.35 -10.2 8.05 -9.05 4.75 -7.9 0.05 -7.9 -4.65 -7.9 -8.0 -9.05 -11.3 -10.2 -11.3 -11.8 L-11.2 -12.3 Q-10.8 -10.95 -8.0 -10.0 L-6.55 -9.55 -3.55 -9.05 -1.8 -8.9 0.05 -8.85 3.6 -9.0 6.6 -9.55 8.05 -10.0 Q10.9 -10.95 11.35 -12.3 M10.05 -12.8 L10.0 -12.55 10.0 -12.6 Q9.7 -13.85 7.1 -14.7 4.2 -15.75 0.05 -15.7 -4.1 -15.75 -7.0 -14.7 -9.6 -13.8 -9.9 -12.55 L-9.9 -12.5 -9.9 -12.8 Q-9.95 -14.25 -7.0 -15.25 -4.1 -16.3 0.05 -16.25 4.2 -16.3 7.1 -15.25 10.0 -14.3 10.05 -12.85 L10.05 -12.8" fill="#80a4bb" fill-rule="evenodd" stroke="none"/>
    <path d="M-11.2 -12.3 L-11.3 -12.75 Q-11.3 -14.4 -8.0 -15.55 -4.65 -16.7 0.05 -16.7 4.75 -16.7 8.05 -15.55 11.35 -14.45 11.4 -12.8 L11.4 -12.75 11.35 -12.3 Q10.9 -10.95 8.05 -10.0 L6.6 -9.55 3.6 -9.0 0.05 -8.85 -1.8 -8.9 -3.55 -9.05 -6.55 -9.55 -8.0 -10.0 Q-10.8 -10.95 -11.2 -12.3 M7.35 -11.65 L6.9 -11.05 5.6 -10.7 Q3.45 -10.0 1.25 -10.1 L-4.95 -10.95 Q-3.3 -10.15 -1.35 -9.95 0.85 -9.7 3.25 -9.9 5.6 -10.05 7.45 -11.1 L7.9 -11.5 7.9 -12.35 Q7.15 -12.95 6.3 -13.0 L1.05 -13.4 -1.25 -13.45 Q-4.3 -13.5 -6.95 -12.1 -4.95 -12.85 -2.6 -12.8 L2.55 -13.05 Q5.3 -13.45 7.6 -12.05 L7.35 -11.65 M9.9 -12.2 Q8.45 -14.0 6.1 -14.25 L1.3 -14.8 0.0 -15.0 1.35 -15.0 -4.6 -14.5 -6.25 -14.05 Q-8.35 -13.65 -9.6 -11.85 L-9.4 -11.65 Q-7.75 -13.5 -5.25 -13.7 L-0.6 -14.4 Q1.5 -14.7 3.7 -14.35 6.25 -14.25 8.4 -13.1 L9.4 -12.35 9.5 -11.7 9.8 -12.1 9.9 -12.2 M10.05 -12.8 L10.05 -12.85 Q10.0 -14.3 7.1 -15.25 4.2 -16.3 0.05 -16.25 -4.1 -16.3 -7.0 -15.25 -9.95 -14.25 -9.9 -12.8 L-9.9 -12.5 -9.9 -12.55 Q-9.6 -13.8 -7.0 -14.7 -4.1 -15.75 0.05 -15.7 4.2 -15.75 7.1 -14.7 9.7 -13.85 10.0 -12.6 L10.0 -12.55 10.05 -12.8 M4.45 -11.55 L5.05 -12.05 1.85 -12.4 -4.6 -11.8 1.1 -12.15 4.5 -11.95 0.95 -11.65 3.05 -11.45 4.45 -11.55" fill="#bccfdc" fill-rule="evenodd" stroke="none"/>
    <path d="M7.35 -11.65 L7.6 -12.05 Q5.3 -13.45 2.55 -13.05 L-2.6 -12.8 Q-4.95 -12.85 -6.95 -12.1 -4.3 -13.5 -1.25 -13.45 L1.05 -13.4 6.3 -13.0 Q7.15 -12.95 7.9 -12.35 L7.9 -11.5 7.45 -11.1 Q5.6 -10.05 3.25 -9.9 0.85 -9.7 -1.35 -9.95 -3.3 -10.15 -4.95 -10.95 L1.25 -10.1 Q3.45 -10.0 5.6 -10.7 L6.9 -11.05 7.35 -11.65 M9.9 -12.2 L9.8 -12.1 9.5 -11.7 9.4 -12.35 8.4 -13.1 Q6.25 -14.25 3.7 -14.35 1.5 -14.7 -0.6 -14.4 L-5.25 -13.7 Q-7.75 -13.5 -9.4 -11.65 L-9.6 -11.85 Q-8.35 -13.65 -6.25 -14.05 L-4.6 -14.5 1.35 -15.0 0.0 -15.0 1.3 -14.8 6.1 -14.25 Q8.45 -14.0 9.9 -12.2 M4.45 -11.55 L3.05 -11.45 0.95 -11.65 4.5 -11.95 1.1 -12.15 -4.6 -11.8 1.85 -12.4 5.05 -12.05 4.45 -11.55" fill="#e3ecf0" fill-rule="evenodd" stroke="none"/>
  </g>
  <defs>
    <linearGradient gradientTransform="matrix(0.0132, 0.0, 0.0, 0.0102, -0.05, -10.9)" gradientUnits="userSpaceOnUse" id="gradient0" spreadMethod="pad" x1="-819.2" x2="819.2">
      <stop offset="0.0" stop-color="#fa8585"/>
      <stop offset="0.3607843137254902" stop-color="#ffc4c4"/>
      <stop offset="0.6470588235294118" stop-color="#ffc6bd"/>
      <stop offset="0.9490196078431372" stop-color="#fa8585"/>
    </linearGradient>
  </defs>
</svg>
