<?xml version="1.0" encoding="UTF-8" standalone="no"?>
<svg xmlns:xlink="http://www.w3.org/1999/xlink" height="18.95px" width="22.8px" xmlns="http://www.w3.org/2000/svg">
  <g transform="matrix(1.0, 0.0, 0.0, 1.0, 12.75, 17.45)">
    <path d="M7.4 -8.5 L7.75 -8.05 7.65 -7.2 7.65 -7.15 7.6 -6.45 7.55 -5.65 7.55 -5.15 7.55 -4.45 7.7 -3.2 Q7.85 -2.6 8.15 -1.95 L8.5 -1.5 8.9 -1.0 9.15 -0.7 9.3 -0.4 9.4 0.0 9.15 0.4 7.7 0.35 6.85 0.25 6.45 0.25 5.4 0.15 4.8 0.15 3.35 0.05 1.7 0.05 1.4 0.05 -0.05 0.2 -0.2 -0.25 -0.3 -0.35 0.2 -0.35 Q0.9 -0.4 1.05 -0.6 L1.55 -0.55 1.9 -0.8 1.05 -0.95 1.1 -1.2 0.95 -1.4 1.45 -1.45 Q1.8 -1.45 1.75 -1.8 L1.65 -2.0 1.0 -2.9 1.15 -3.45 1.45 -2.85 1.75 -2.55 1.7 -2.4 1.8 -2.45 1.9 -2.45 2.2 -2.3 3.4 -2.0 Q3.9 -2.05 3.85 -2.35 L3.25 -2.95 2.05 -3.95 2.95 -3.75 3.15 -3.8 2.25 -4.85 Q2.65 -4.55 2.8 -4.55 L3.15 -4.9 2.1 -5.85 2.2 -6.05 2.35 -5.95 Q2.6 -5.3 3.35 -5.3 L5.0 -4.2 Q5.4 -4.2 5.35 -4.55 L4.3 -5.5 4.3 -5.6 4.15 -5.7 4.7 -5.65 4.85 -5.7 4.85 -5.65 5.4 -4.85 Q5.95 -4.25 6.4 -4.25 6.7 -4.3 6.65 -4.65 L6.6 -6.05 6.75 -6.05 Q7.05 -6.1 7.05 -6.45 L6.85 -7.35 7.4 -8.5 M6.1 -7.0 L6.2 -6.6 6.15 -6.6 5.8 -5.65 5.8 -5.75 5.25 -6.15 5.65 -6.15 Q5.95 -6.2 6.0 -6.6 L6.1 -6.6 6.0 -6.75 6.1 -7.0 M4.2 -7.3 L4.2 -7.2 4.15 -7.15 4.0 -7.35 4.05 -7.4 4.05 -7.45 4.2 -7.3 M3.75 -4.55 Q3.4 -4.55 3.4 -4.2 L4.15 -3.2 Q4.85 -2.35 5.25 -2.4 L5.6 -2.75 3.75 -4.55 M1.75 -5.25 L1.95 -5.1 2.2 -4.85 1.7 -5.15 1.75 -5.25 M4.75 -6.35 L5.2 -6.2 4.95 -6.05 4.75 -6.35" fill="#f3dafa" fill-rule="evenodd" stroke="none"/>
    <path d="M-1.45 0.4 L-2.9 -0.05 -3.95 -0.7 -4.4 -0.85 Q-5.9 -1.45 -5.9 -1.7 L-5.7 -2.0 Q-4.0 -1.35 -3.5 -1.4 L-3.2 -1.55 -2.8 -1.4 -2.45 -1.6 Q-3.3 -1.6 -4.7 -2.15 L-6.05 -2.95 -5.8 -3.25 -4.5 -2.95 -4.55 -3.0 -4.15 -3.6 -4.7 -4.45 -4.45 -4.75 -3.85 -4.55 Q-3.95 -5.3 -3.3 -5.45 L-2.85 -6.35 -2.0 -6.15 -2.3 -6.85 -2.1 -7.25 -2.55 -8.3 Q-2.6 -8.85 -2.1 -8.9 L-1.3 -8.85 -1.25 -8.9 -1.7 -9.55 Q-1.75 -10.05 -1.2 -10.1 L-0.6 -9.95 -0.55 -9.95 -1.0 -10.45 Q-1.05 -10.9 -0.65 -10.95 0.0 -11.0 0.4 -10.3 L0.7 -10.5 1.4 -10.15 1.7 -10.3 2.2 -10.2 Q2.15 -10.65 2.35 -10.75 L2.5 -11.1 1.95 -11.75 Q1.9 -12.1 2.3 -12.15 2.8 -12.2 3.95 -11.1 L3.6 -11.85 3.75 -12.2 4.9 -10.95 4.9 -11.1 5.65 -10.6 5.05 -11.45 5.25 -11.75 Q5.6 -11.8 6.2 -10.95 L6.3 -11.25 Q6.7 -11.3 7.1 -9.85 L7.95 -9.55 7.85 -8.85 7.8 -8.3 7.75 -8.05 7.4 -8.5 7.4 -8.55 7.35 -8.7 7.15 -8.4 6.9 -8.95 6.65 -8.8 6.35 -8.95 Q5.9 -8.9 6.0 -7.75 L6.1 -7.0 6.0 -6.75 Q5.65 -8.5 5.35 -8.5 L4.95 -8.2 4.5 -8.5 Q4.05 -8.45 4.15 -7.65 L4.2 -7.3 4.05 -7.45 4.05 -7.4 4.0 -7.35 3.8 -7.4 3.55 -7.1 3.15 -7.8 2.95 -7.75 2.6 -7.85 Q2.2 -7.8 2.25 -7.3 1.8 -7.2 1.85 -6.9 1.85 -6.45 2.2 -6.05 L2.1 -5.85 1.55 -6.15 Q1.2 -6.15 1.25 -5.8 1.25 -5.65 1.75 -5.25 L1.7 -5.15 1.15 -5.2 Q0.8 -5.2 0.8 -4.9 0.8 -4.8 0.95 -4.65 L0.65 -4.7 Q0.2 -4.7 0.25 -4.25 L0.7 -3.95 1.15 -3.45 1.0 -2.9 0.6 -3.2 -0.1 -2.65 0.05 -2.4 -0.15 -2.0 0.1 -1.65 -0.45 -1.3 -0.9 -1.4 -1.25 -1.1 Q-1.25 -0.75 -0.5 -0.65 L-0.3 -0.35 -0.2 -0.25 -0.05 0.2 -0.15 0.2 -0.8 0.3 -1.45 0.4 M6.0 -6.6 L6.0 -6.7 6.0 -6.75 6.1 -6.6 6.0 -6.6 M4.2 -7.2 L4.3 -7.05 4.15 -7.15 4.2 -7.2 M1.75 -2.55 L1.8 -2.45 1.7 -2.4 1.75 -2.55 M-2.65 -3.95 L-2.5 -3.95 -2.7 -4.15 -2.65 -3.95" fill="#e78df1" fill-rule="evenodd" stroke="none"/>
    <path d="M-4.8 -12.1 L-3.7 -12.25 Q-2.4 -12.4 -2.25 -12.0 -1.35 -12.1 -1.5 -13.85 L-1.4 -13.85 Q-0.85 -13.3 -0.4 -13.35 L0.1 -13.6 0.5 -13.5 Q0.8 -13.85 1.15 -13.9 2.5 -13.0 3.35 -13.05 L3.95 -13.45 6.9 -11.6 7.6 -10.9 7.85 -10.15 7.95 -9.9 8.0 -9.7 7.95 -9.65 7.95 -9.55 7.1 -9.85 Q6.7 -11.3 6.3 -11.25 L6.2 -10.95 Q5.6 -11.8 5.25 -11.75 L5.05 -11.45 5.65 -10.6 4.9 -11.1 4.9 -10.95 3.75 -12.2 3.6 -11.85 3.95 -11.1 Q2.8 -12.2 2.3 -12.15 1.9 -12.1 1.95 -11.75 L2.5 -11.1 2.35 -10.75 Q2.15 -10.65 2.2 -10.2 L1.7 -10.3 1.4 -10.15 0.7 -10.5 0.4 -10.3 Q0.0 -11.0 -0.65 -10.95 -1.05 -10.9 -1.0 -10.45 L-0.55 -9.95 -0.6 -9.95 -1.2 -10.1 Q-1.75 -10.05 -1.7 -9.55 L-1.25 -8.9 -1.3 -8.85 -2.1 -8.9 Q-2.6 -8.85 -2.55 -8.3 L-2.1 -7.25 -2.3 -6.85 -2.0 -6.15 -2.85 -6.35 -3.3 -5.45 Q-3.95 -5.3 -3.85 -4.55 L-4.45 -4.75 -4.7 -4.45 -4.15 -3.6 -4.55 -3.0 -4.5 -2.95 -5.8 -3.25 -6.05 -2.95 -4.7 -2.15 Q-3.3 -1.6 -2.45 -1.6 L-2.8 -1.4 -3.2 -1.55 -3.5 -1.4 Q-4.0 -1.35 -5.7 -2.0 L-5.9 -1.7 Q-5.9 -1.45 -4.4 -0.85 L-3.95 -0.7 -2.9 -0.05 -1.45 0.4 -1.95 0.45 -2.1 0.45 -4.1 0.45 -4.3 0.35 -4.55 0.35 -6.05 0.15 -7.25 -0.25 -8.9 -1.55 -8.2 -5.7 -6.75 -7.5 Q-5.4 -8.95 -5.5 -10.0 L-5.65 -10.8 -4.8 -12.1 M-2.65 -3.95 L-2.7 -4.15 -2.5 -3.95 -2.65 -3.95" fill="#df67ed" fill-rule="evenodd" stroke="none"/>
    <path d="M7.6 -10.9 L6.9 -11.6 3.95 -13.45 3.35 -13.05 Q2.5 -13.0 1.15 -13.9 0.8 -13.85 0.5 -13.5 L0.1 -13.6 -0.4 -13.35 Q-0.85 -13.3 -1.4 -13.85 L-1.5 -13.85 Q-1.35 -12.1 -2.25 -12.0 -2.4 -12.4 -3.7 -12.25 L-4.8 -12.1 -3.9 -13.9 -3.9 -14.15 -3.85 -14.2 -3.65 -14.2 Q-3.25 -14.25 -3.3 -14.6 L-4.1 -15.15 -4.0 -15.25 Q-3.7 -15.25 -3.7 -15.5 -3.45 -15.9 -2.55 -15.75 -1.6 -15.85 -0.45 -15.05 -0.1 -15.1 -0.15 -15.5 L0.7 -15.35 Q0.95 -15.4 1.1 -15.7 L4.15 -14.8 4.85 -14.4 5.85 -13.6 6.7 -12.65 7.25 -11.75 7.5 -11.2 7.6 -10.9 M-5.65 -10.8 L-5.5 -10.0 Q-5.4 -8.95 -6.75 -7.5 L-8.2 -5.7 -8.9 -1.55 -7.25 -0.25 -7.65 -0.4 -7.7 -0.4 Q-8.7 -0.8 -9.55 -1.6 L-10.15 -2.3 -10.15 -2.6 Q-9.9 -3.3 -10.1 -4.0 -10.3 -4.95 -9.85 -6.65 L-10.0 -7.4 Q-10.1 -8.1 -9.3 -9.85 L-9.3 -9.8 -9.4 -9.45 Q-9.35 -8.4 -8.9 -8.4 -8.7 -8.45 -8.55 -9.45 L-8.2 -9.4 Q-7.8 -9.45 -7.75 -9.8 L-7.15 -9.75 Q-6.45 -9.8 -5.65 -10.8" fill="#d22be6" fill-rule="evenodd" stroke="none"/>
    <path d="M4.15 -14.8 L1.1 -15.7 Q0.95 -15.4 0.7 -15.35 L-0.15 -15.5 Q-0.1 -15.1 -0.45 -15.05 -1.6 -15.85 -2.55 -15.75 -3.45 -15.9 -3.7 -15.5 -3.7 -15.25 -4.0 -15.25 L-4.1 -15.15 -3.3 -14.6 Q-3.25 -14.25 -3.65 -14.2 L-3.85 -14.2 -3.75 -14.25 Q-3.85 -15.15 -5.5 -15.0 -6.1 -14.95 -6.85 -14.25 -7.85 -14.1 -8.6 -13.05 -9.3 -12.15 -9.25 -11.65 L-9.15 -11.3 -9.3 -11.05 Q-9.1 -9.75 -8.55 -9.45 -8.7 -8.45 -8.9 -8.4 -9.35 -8.4 -9.4 -9.45 L-9.3 -9.8 -9.3 -9.85 Q-10.1 -8.1 -10.0 -7.4 L-9.85 -6.65 Q-10.3 -4.95 -10.1 -4.0 -9.9 -3.3 -10.15 -2.6 L-10.15 -2.3 -10.75 -3.45 -10.85 -3.75 -10.95 -4.1 -11.15 -4.8 -11.15 -4.95 -11.4 -6.75 -11.25 -8.45 -10.75 -10.45 -9.75 -12.2 -8.6 -13.55 -8.35 -13.8 -8.3 -13.85 -7.35 -14.65 -5.9 -15.35 -3.85 -16.1 -1.9 -16.45 0.0 -16.3 1.9 -15.9 3.9 -14.95 4.15 -14.8" fill="#7b1188" fill-rule="evenodd" stroke="none"/>
    <path d="M6.1 -7.0 L6.0 -7.75 Q5.9 -8.9 6.35 -8.95 L6.65 -8.8 6.9 -8.95 7.15 -8.4 7.35 -8.7 7.4 -8.55 7.4 -8.5 6.85 -7.35 7.05 -6.45 Q7.05 -6.1 6.75 -6.05 L6.6 -6.05 6.65 -4.65 Q6.7 -4.3 6.4 -4.25 5.95 -4.25 5.4 -4.85 L4.85 -5.65 4.85 -5.7 4.7 -5.65 4.15 -5.7 4.3 -5.6 4.3 -5.5 5.35 -4.55 Q5.4 -4.2 5.0 -4.2 L3.35 -5.3 Q2.6 -5.3 2.35 -5.95 L2.2 -6.05 Q1.85 -6.45 1.85 -6.9 1.8 -7.2 2.25 -7.3 2.2 -7.8 2.6 -7.85 L2.95 -7.75 3.15 -7.8 3.55 -7.1 3.8 -7.4 4.0 -7.35 4.15 -7.15 4.3 -7.05 4.2 -7.2 4.2 -7.3 4.15 -7.65 Q4.05 -8.45 4.5 -8.5 L4.95 -8.2 5.35 -8.5 Q5.65 -8.5 6.0 -6.75 L6.0 -6.7 6.0 -6.6 Q5.95 -6.2 5.65 -6.15 L5.25 -6.15 5.8 -5.75 5.8 -5.65 6.15 -6.6 6.2 -6.6 6.1 -7.0 M3.75 -4.55 L5.6 -2.75 5.25 -2.4 Q4.85 -2.35 4.15 -3.2 L3.4 -4.2 Q3.4 -4.55 3.75 -4.55 M2.1 -5.85 L3.15 -4.9 2.8 -4.55 Q2.65 -4.55 2.25 -4.85 L3.15 -3.8 2.95 -3.75 2.05 -3.95 3.25 -2.95 3.85 -2.35 Q3.9 -2.05 3.4 -2.0 L2.2 -2.3 1.9 -2.45 1.8 -2.45 1.75 -2.55 1.45 -2.85 1.15 -3.45 0.7 -3.95 0.25 -4.25 Q0.2 -4.7 0.65 -4.7 L0.95 -4.65 Q0.8 -4.8 0.8 -4.9 0.8 -5.2 1.15 -5.2 L1.7 -5.15 2.2 -4.85 1.95 -5.1 1.75 -5.25 Q1.25 -5.65 1.25 -5.8 1.2 -6.15 1.55 -6.15 L2.1 -5.85 M1.0 -2.9 L1.65 -2.0 1.75 -1.8 Q1.8 -1.45 1.45 -1.45 L0.95 -1.4 1.1 -1.2 1.05 -0.95 1.9 -0.8 1.55 -0.55 1.05 -0.6 Q0.9 -0.4 0.2 -0.35 L-0.3 -0.35 -0.5 -0.65 Q-1.25 -0.75 -1.25 -1.1 L-0.9 -1.4 -0.45 -1.3 0.1 -1.65 -0.15 -2.0 0.05 -2.4 -0.1 -2.65 0.6 -3.2 1.0 -2.9 M4.75 -6.35 L4.95 -6.05 5.2 -6.2 4.75 -6.35" fill="#f2c2f8" fill-rule="evenodd" stroke="none"/>
    <path d="M4.35 -15.65 L5.1 -15.15 6.1 -14.35 6.2 -14.25 7.1 -13.3 7.15 -13.25 7.8 -12.15 8.05 -11.55 8.1 -11.5 8.2 -11.2 8.45 -10.4 8.55 -10.15 8.6 -10.05 8.6 -9.95 8.6 -9.45 8.6 -9.35 8.45 -8.75 8.4 -8.2 8.4 -7.9 8.3 -7.15 8.3 -7.1 8.3 -7.05 8.25 -6.4 8.2 -5.6 8.2 -5.55 8.2 -5.05 8.2 -4.45 8.35 -3.35 8.7 -2.4 8.95 -2.0 8.85 -2.15 9.3 -1.65 9.35 -1.6 9.6 -1.3 9.65 -1.25 9.85 -0.8 9.95 -0.7 10.05 0.0 9.85 0.7 9.7 0.85 9.3 1.3 8.75 1.45 7.35 1.4 7.25 1.35 6.4 1.3 6.35 1.3 6.05 1.25 6.0 1.25 5.0 1.2 4.95 1.2 4.5 1.15 4.35 1.15 3.0 1.1 2.95 1.1 1.4 1.1 1.3 1.1 1.15 1.05 1.1 1.1 -0.25 1.2 -0.35 1.25 -1.05 1.3 -1.65 1.4 -1.7 1.4 -2.1 1.5 -2.55 1.45 -4.4 1.45 -4.7 1.4 -4.8 1.4 -5.0 1.35 -6.55 1.15 -6.7 1.1 -7.95 0.7 -8.3 0.6 -8.4 0.55 Q-9.6 0.1 -10.6 -0.85 L-10.65 -0.9 -11.35 -1.7 -12.0 -3.0 -12.15 -3.4 -12.15 -3.45 -12.25 -3.75 -12.5 -4.6 -12.5 -4.75 -12.75 -6.7 -12.6 -8.6 -12.05 -10.8 -12.0 -10.85 -10.95 -12.7 -10.9 -12.75 -9.65 -14.25 -9.45 -14.45 -9.4 -14.45 -9.4 -14.5 Q-8.9 -15.1 -8.25 -15.5 L-8.15 -15.5 -6.65 -16.25 -6.6 -16.25 -4.55 -17.0 -4.5 -17.0 -2.35 -17.4 -0.2 -17.25 1.9 -16.8 4.05 -15.85 4.05 -15.8 4.3 -15.65 4.35 -15.65 M-7.25 -0.25 L-6.05 0.15 -4.55 0.35 -4.3 0.35 -4.1 0.45 -2.1 0.45 -1.95 0.45 -1.45 0.4 -0.8 0.3 -0.15 0.2 -0.05 0.2 1.4 0.05 1.7 0.05 3.35 0.05 4.8 0.15 5.4 0.15 6.45 0.25 6.85 0.25 7.7 0.35 9.15 0.4 9.4 0.0 9.3 -0.4 9.15 -0.7 8.9 -1.0 8.5 -1.5 8.15 -1.95 Q7.85 -2.6 7.7 -3.2 L7.55 -4.45 7.55 -5.15 7.55 -5.65 7.6 -6.45 7.65 -7.15 7.65 -7.2 7.75 -8.05 7.8 -8.3 7.85 -8.85 7.95 -9.55 7.95 -9.65 8.0 -9.7 7.95 -9.9 7.85 -10.15 7.6 -10.9 7.5 -11.2 7.25 -11.75 6.7 -12.65 5.85 -13.6 4.85 -14.4 4.15 -14.8 3.9 -14.95 1.9 -15.9 0.0 -16.3 -1.9 -16.45 -3.85 -16.1 -5.9 -15.35 -7.35 -14.65 -8.3 -13.85 -8.35 -13.8 -8.6 -13.55 -9.75 -12.2 -10.75 -10.45 -11.25 -8.45 -11.4 -6.75 -11.15 -4.95 -11.15 -4.8 -10.95 -4.1 -10.85 -3.75 -10.75 -3.45 -10.15 -2.3 -9.55 -1.6 Q-8.7 -0.8 -7.7 -0.4 L-7.65 -0.4 -7.25 -0.25" fill="#000000" fill-rule="evenodd" stroke="none"/>
    <path d="M-4.8 -12.1 L-5.65 -10.8 Q-6.45 -9.8 -7.15 -9.75 L-7.75 -9.8 Q-7.8 -9.45 -8.2 -9.4 L-8.55 -9.45 Q-9.1 -9.75 -9.3 -11.05 L-9.15 -11.3 Q-9.0 -10.8 -8.4 -10.85 L-8.05 -10.9 -6.85 -12.8 -6.0 -13.95 -6.6 -14.3 -6.85 -14.25 Q-6.1 -14.95 -5.5 -15.0 -3.85 -15.15 -3.75 -14.25 L-3.85 -14.2 -3.9 -14.15 -3.9 -13.9 -4.8 -12.1" fill="#4ea527" fill-rule="evenodd" stroke="none"/>
    <path d="M-9.15 -11.3 L-9.25 -11.65 Q-9.3 -12.15 -8.6 -13.05 -7.85 -14.1 -6.85 -14.25 L-6.6 -14.3 -6.0 -13.95 -6.85 -12.8 -8.05 -10.9 -8.4 -10.85 Q-9.0 -10.8 -9.15 -11.3" fill="#3a7b1e" fill-rule="evenodd" stroke="none"/>
  </g>
</svg>
