<?xml version="1.0" encoding="UTF-8" standalone="no"?>
<svg xmlns:xlink="http://www.w3.org/1999/xlink" height="24.25px" width="53.8px" xmlns="http://www.w3.org/2000/svg">
  <g transform="matrix(1.0, 0.0, 0.0, 1.0, 31.2, 24.5)">
    <path d="M-27.4 -24.2 L-24.55 -21.8 -23.1 -20.8 -22.45 -20.7 -22.2 -20.6 -20.15 -19.45 -20.0 -19.35 -19.5 -18.9 -18.6 -18.3 -18.2 -18.05 -18.25 -18.1 Q-17.3 -17.6 -15.95 -17.25 L-15.9 -17.2 -9.6 -15.1 -9.5 -15.05 Q0.6 -12.35 13.5 -10.15 L13.6 -10.15 19.9 -8.25 20.35 -8.05 20.55 -8.0 Q22.0 -7.35 22.1 -6.2 22.8 -5.65 22.5 -4.55 22.5 -3.8 20.25 -3.15 L19.15 -2.8 19.1 -2.8 19.05 -2.8 19.0 -2.8 18.75 -2.75 18.6 -2.7 18.55 -2.7 13.9 -1.7 13.15 -1.55 13.1 -1.55 12.95 -1.5 12.3 -1.4 12.15 -1.35 8.75 -0.75 8.7 -0.7 Q-0.7 0.5 -8.1 -1.5 -19.55 -4.6 -23.8 -11.1 L-23.8 -11.15 -24.15 -11.65 -24.45 -12.2 -24.5 -12.3 -24.6 -12.45 -24.55 -12.4 Q-25.95 -14.95 -26.0 -16.95 L-27.0 -17.95 -27.15 -18.1 -27.15 -18.15 Q-31.5 -22.45 -31.15 -22.75 L-31.0 -23.15 -30.7 -23.45 Q-28.5 -24.8 -27.8 -24.45 L-27.4 -24.2" fill="#000000" fill-rule="evenodd" stroke="none"/>
    <path d="M5.55 -6.55 L7.9 -6.45 12.85 -6.2 14.85 -6.2 16.6 -6.15 18.3 -6.05 18.95 -5.65 21.4 -5.45 21.6 -5.5 Q21.85 -5.2 21.75 -4.75 21.65 -4.5 20.2 -4.05 L19.3 -4.55 19.1 -4.6 18.1 -4.8 14.9 -5.05 14.85 -5.05 12.35 -4.9 Q12.25 -4.95 12.25 -4.95 L9.85 -4.9 8.0 -4.9 4.65 -5.1 0.65 -5.65 -2.8 -6.25 -7.8 -7.4 -8.15 -7.5 -11.85 -8.65 Q-14.4 -9.55 -16.75 -10.75 L-19.3 -12.15 -19.6 -12.35 Q-21.8 -13.45 -22.95 -14.55 L-23.8 -15.4 -24.75 -17.15 Q-24.65 -17.3 -24.8 -17.25 L-24.8 -17.35 -24.6 -18.35 -24.55 -18.45 -24.4 -18.5 Q-24.4 -17.7 -23.7 -17.5 L-23.3 -17.45 -22.5 -16.7 -19.1 -13.8 -18.0 -13.05 -16.1 -11.9 Q-13.95 -10.8 -11.15 -9.8 L-8.5 -9.0 -7.6 -8.75 -2.1 -7.5 0.7 -7.0 5.4 -6.55 5.55 -6.55 M10.55 -8.65 Q-0.85 -10.65 -9.95 -13.1 L-16.1 -15.15 -17.35 -15.55 -17.35 -15.65 Q-17.7 -16.6 -18.5 -17.15 -17.45 -16.65 -16.0 -16.25 L-9.65 -14.05 Q0.5 -11.35 13.55 -9.15 L19.75 -7.3 19.75 -7.2 Q18.65 -7.0 18.35 -6.65 18.1 -7.6 17.05 -7.9 16.5 -8.05 15.8 -7.4 L12.5 -8.35 12.2 -8.4 11.8 -8.55 10.55 -8.65 M6.2 -3.15 L9.2 -3.2 Q9.45 -3.1 9.35 -2.75 L6.25 -2.5 Q6.15 -2.7 6.2 -3.15 M4.0 -3.25 L3.95 -3.2 3.55 -2.55 3.3 -2.55 0.95 -2.35 0.8 -2.4 0.55 -2.45 -0.25 -3.05 -0.3 -3.95 4.0 -3.25 M-20.45 -18.55 L-19.95 -18.15 -18.9 -17.35 -19.5 -17.6 -20.5 -17.8 -19.95 -18.15 -20.45 -18.55 M-2.9 -4.5 Q-3.25 -3.45 -3.85 -3.1 L-6.9 -3.85 -8.2 -4.2 -8.3 -4.35 Q-9.05 -5.25 -8.95 -5.55 L-8.8 -5.95 -8.55 -5.9 -2.9 -4.5 M-19.5 -9.85 L-18.95 -9.9 -14.75 -8.15 -12.35 -7.15 -12.0 -6.6 -11.7 -5.95 -12.15 -5.6 Q-16.55 -7.35 -19.5 -9.85" fill="#29bc18" fill-rule="evenodd" stroke="none"/>
    <path d="M-24.8 -17.25 Q-24.65 -17.3 -24.75 -17.15 L-23.8 -15.4 -22.95 -14.55 Q-21.8 -13.45 -19.6 -12.35 L-19.3 -12.15 -16.75 -10.75 Q-14.4 -9.55 -11.85 -8.65 L-8.15 -7.5 -7.8 -7.4 -2.8 -6.25 0.65 -5.65 4.65 -5.1 8.0 -4.9 9.85 -4.9 12.25 -4.95 Q12.25 -4.95 12.35 -4.9 L14.85 -5.05 14.9 -5.05 18.1 -4.8 19.1 -4.6 19.3 -4.55 20.2 -4.05 19.05 -3.75 19.0 -3.7 18.85 -3.7 18.6 -3.6 18.55 -3.65 13.95 -2.6 13.15 -2.45 12.2 -2.25 12.15 -2.3 8.75 -1.7 Q-0.4 -0.5 -7.65 -2.45 -18.6 -5.4 -22.8 -11.65 L-23.1 -12.1 -23.4 -12.7 -23.4 -12.75 -23.45 -12.85 Q-24.9 -15.25 -24.8 -17.25 M4.0 -3.25 L-0.3 -3.95 -0.25 -3.05 0.55 -2.45 0.8 -2.4 0.95 -2.35 3.3 -2.55 3.55 -2.55 3.95 -3.2 4.0 -3.25 M6.2 -3.15 Q6.15 -2.7 6.25 -2.5 L9.35 -2.75 Q9.45 -3.1 9.2 -3.2 L6.2 -3.15 M-2.9 -4.5 L-8.55 -5.9 -8.8 -5.95 -8.95 -5.55 Q-9.05 -5.25 -8.3 -4.35 L-8.2 -4.2 -6.9 -3.85 -3.85 -3.1 Q-3.25 -3.45 -2.9 -4.5 M-19.5 -9.85 Q-16.55 -7.35 -12.15 -5.6 L-11.7 -5.95 -12.0 -6.6 -12.35 -7.15 -14.75 -8.15 -18.95 -9.9 -19.5 -9.85" fill="#26a417" fill-rule="evenodd" stroke="none"/>
    <path d="M5.55 -6.55 Q6.0 -8.4 3.85 -8.95 1.45 -9.6 0.9 -7.65 L0.7 -7.0 -2.1 -7.5 -2.3 -8.85 Q-2.75 -10.15 -4.0 -10.45 L-5.6 -10.4 -5.7 -10.4 -6.55 -9.9 -7.6 -8.75 -8.5 -9.0 -11.15 -9.8 -11.05 -10.25 Q-10.8 -12.6 -12.3 -13.0 -14.1 -13.5 -15.4 -12.5 L-16.1 -11.9 -18.0 -13.05 Q-17.35 -13.5 -17.15 -14.2 L-17.35 -15.55 -16.1 -15.15 -9.95 -13.1 Q-0.85 -10.65 10.55 -8.65 9.7 -8.55 9.0 -8.05 8.1 -7.45 7.85 -6.55 L7.9 -6.45 5.55 -6.55 M14.85 -6.2 L12.85 -6.2 12.9 -6.4 Q13.3 -7.85 12.2 -8.4 L12.5 -8.35 15.8 -7.4 15.6 -7.25 14.85 -6.2 M18.45 -6.05 L18.35 -6.55 19.1 -6.3 19.65 -5.95 18.45 -6.05 M-20.85 -17.75 Q-22.2 -17.8 -22.5 -16.7 L-23.3 -17.45 -23.85 -18.05 Q-23.45 -18.85 -22.35 -18.55 -21.6 -18.35 -20.85 -17.75" fill="#1d8011" fill-rule="evenodd" stroke="none"/>
    <path d="M0.7 -7.0 L0.9 -7.65 Q1.45 -9.6 3.85 -8.95 6.0 -8.4 5.55 -6.55 L5.4 -6.55 0.7 -7.0 M7.9 -6.45 L7.85 -6.55 Q8.1 -7.45 9.0 -8.05 9.7 -8.55 10.55 -8.65 L11.8 -8.55 12.2 -8.4 Q13.3 -7.85 12.9 -6.4 L12.85 -6.2 7.9 -6.45 M-17.35 -15.55 L-17.15 -14.2 Q-17.35 -13.5 -18.0 -13.05 L-19.1 -13.8 -22.5 -16.7 Q-22.2 -17.8 -20.85 -17.75 L-20.5 -17.8 -19.5 -17.6 -18.9 -17.35 -18.5 -17.15 Q-17.7 -16.6 -17.35 -15.65 L-17.35 -15.55 M-16.1 -11.9 L-15.4 -12.5 Q-14.1 -13.5 -12.3 -13.0 -10.8 -12.6 -11.05 -10.25 L-11.15 -9.8 Q-13.95 -10.8 -16.1 -11.9 M-7.6 -8.75 L-6.55 -9.9 -5.7 -10.4 -5.75 -10.35 -6.25 -9.7 Q-6.45 -8.8 -5.6 -8.6 -4.65 -8.35 -4.35 -9.35 -4.25 -10.2 -5.0 -10.4 L-5.6 -10.4 -4.0 -10.45 Q-2.75 -10.15 -2.3 -8.85 L-2.1 -7.5 -7.6 -8.75 M1.45 -8.1 Q1.3 -7.5 1.9 -7.35 3.45 -6.9 3.7 -7.75 3.85 -8.35 3.3 -8.5 1.7 -8.95 1.45 -8.1 M18.3 -6.05 L16.6 -6.15 14.85 -6.2 15.6 -7.25 15.8 -7.4 Q16.5 -8.05 17.05 -7.9 18.1 -7.6 18.35 -6.65 L18.35 -6.55 18.45 -6.05 18.3 -6.05 M9.8 -7.8 L9.75 -7.4 10.15 -7.1 Q11.5 -6.75 11.7 -7.55 11.85 -8.1 11.0 -8.3 10.0 -8.6 9.8 -7.8 M17.5 -7.05 L17.25 -7.5 Q16.05 -7.8 15.9 -7.15 15.85 -7.0 16.1 -6.6 17.4 -6.75 17.5 -7.05 M-19.55 -17.6 Q-21.1 -18.0 -21.35 -17.0 -21.65 -15.85 -20.1 -15.45 -18.7 -15.05 -18.4 -16.2 -18.15 -17.2 -19.55 -17.6 M-12.05 -11.8 L-12.0 -12.25 Q-12.05 -12.7 -12.5 -12.8 -14.45 -13.35 -14.75 -12.2 -15.05 -11.4 -13.75 -11.05 -12.35 -10.7 -12.05 -11.8" fill="#00cc00" fill-rule="evenodd" stroke="none"/>
    <path d="M-5.7 -10.4 L-5.6 -10.4 -5.0 -10.4 Q-4.25 -10.2 -4.35 -9.35 -4.65 -8.35 -5.6 -8.6 -6.45 -8.8 -6.25 -9.7 L-5.75 -10.35 -5.7 -10.4 M1.45 -8.1 Q1.7 -8.95 3.3 -8.5 3.85 -8.35 3.7 -7.75 3.45 -6.9 1.9 -7.35 1.3 -7.5 1.45 -8.1 M2.8 -8.3 Q2.45 -8.6 2.3 -8.0 L2.6 -7.45 2.95 -7.5 3.15 -7.75 2.8 -8.3 M9.8 -7.8 Q10.0 -8.6 11.0 -8.3 11.85 -8.1 11.7 -7.55 11.5 -6.75 10.15 -7.1 L9.75 -7.4 9.8 -7.8 M17.5 -7.05 Q17.4 -6.75 16.1 -6.6 15.85 -7.0 15.9 -7.15 16.05 -7.8 17.25 -7.5 L17.5 -7.05 M16.65 -7.55 L16.35 -7.55 Q16.3 -7.2 16.6 -7.0 L16.9 -7.05 17.0 -7.2 16.8 -7.55 16.65 -7.55 M10.8 -7.1 Q11.4 -6.95 11.55 -7.45 11.7 -8.05 11.1 -8.2 10.5 -8.35 10.35 -7.75 10.2 -7.25 10.8 -7.1 M-18.8 -16.35 L-18.8 -16.85 Q-18.95 -17.25 -19.7 -17.45 -20.4 -17.65 -20.6 -17.0 -20.75 -16.1 -19.75 -15.8 -18.95 -15.6 -18.8 -16.35 M-19.55 -17.6 Q-18.15 -17.2 -18.4 -16.2 -18.7 -15.05 -20.1 -15.45 -21.65 -15.85 -21.35 -17.0 -21.1 -18.0 -19.55 -17.6 M-12.05 -11.8 Q-12.35 -10.7 -13.75 -11.05 -15.05 -11.4 -14.75 -12.2 -14.45 -13.35 -12.5 -12.8 -12.05 -12.7 -12.0 -12.25 L-12.05 -11.8 M-14.15 -12.15 Q-14.35 -11.55 -13.7 -11.4 -12.85 -11.2 -12.65 -11.9 -12.5 -12.5 -13.1 -12.65 -14.0 -12.85 -14.15 -12.15 M-5.2 -9.1 Q-4.8 -8.95 -4.65 -9.45 -4.5 -9.95 -5.05 -10.1 -5.5 -10.25 -5.65 -9.75 L-5.7 -9.35 Q-5.5 -9.15 -5.2 -9.1" fill="#45e600" fill-rule="evenodd" stroke="none"/>
    <path d="M2.8 -8.3 L3.15 -7.75 2.95 -7.5 2.6 -7.45 2.3 -8.0 Q2.45 -8.6 2.8 -8.3 M16.65 -7.55 L16.8 -7.55 17.0 -7.2 16.9 -7.05 16.6 -7.0 Q16.3 -7.2 16.35 -7.55 L16.65 -7.55 M10.8 -7.1 Q10.2 -7.25 10.35 -7.75 10.5 -8.35 11.1 -8.2 11.7 -8.05 11.55 -7.45 11.4 -6.95 10.8 -7.1 M-18.8 -16.35 Q-18.95 -15.6 -19.75 -15.8 -20.75 -16.1 -20.6 -17.0 -20.4 -17.65 -19.7 -17.45 -18.95 -17.25 -18.8 -16.85 L-18.8 -16.35 M-14.15 -12.15 Q-14.0 -12.85 -13.1 -12.65 -12.5 -12.5 -12.65 -11.9 -12.85 -11.2 -13.7 -11.4 -14.35 -11.55 -14.15 -12.15 M-5.2 -9.1 Q-5.5 -9.15 -5.7 -9.35 L-5.65 -9.75 Q-5.5 -10.25 -5.05 -10.1 -4.5 -9.95 -4.65 -9.45 -4.8 -8.95 -5.2 -9.1" fill="#caffb3" fill-rule="evenodd" stroke="none"/>
    <path d="M21.6 -5.5 L21.4 -5.45 18.95 -5.65 18.3 -6.05 18.45 -6.05 19.65 -5.95 19.1 -6.3 18.35 -6.55 18.35 -6.65 Q18.65 -7.0 19.75 -7.2 L19.75 -7.3 20.25 -7.05 20.3 -7.05 Q21.4 -6.55 21.3 -5.7 L21.6 -5.5 M-26.25 -18.8 L-30.0 -22.55 Q-28.3 -23.6 -27.85 -23.45 -26.25 -21.9 -24.9 -20.9 L-25.15 -21.15 -26.25 -18.8 M-23.15 -19.75 L-22.5 -19.65 -20.45 -18.55 -19.95 -18.15 -20.5 -17.8 -20.85 -17.75 Q-21.6 -18.35 -22.35 -18.55 -23.45 -18.85 -23.85 -18.05 L-23.3 -17.45 -23.7 -17.5 Q-24.4 -17.7 -24.4 -18.5 L-24.2 -18.45 -24.1 -18.3 -24.1 -18.9 Q-23.9 -19.65 -23.15 -19.75" fill="#25a516" fill-rule="evenodd" stroke="none"/>
    <path d="M-24.8 -17.35 L-24.85 -17.35 -24.8 -17.35 M-26.1 -18.6 L-26.25 -18.8 -25.15 -21.15 -24.9 -20.9 -24.7 -20.8 -26.05 -18.8 -26.1 -18.6" fill="#229515" fill-rule="evenodd" stroke="none"/>
    <path d="M-24.85 -17.35 L-26.1 -18.6 -26.05 -18.8 -24.7 -20.8 -23.15 -19.75 Q-23.9 -19.65 -24.1 -18.9 L-24.1 -18.3 -24.2 -18.45 -24.4 -18.5 -24.55 -18.45 -24.6 -18.35 -24.8 -17.35 -24.85 -17.35" fill="#218d14" fill-rule="evenodd" stroke="none"/>
  </g>
</svg>
