<?xml version="1.0" encoding="UTF-8" standalone="no"?>
<svg xmlns:xlink="http://www.w3.org/1999/xlink" height="14.7px" width="36.7px" xmlns="http://www.w3.org/2000/svg">
  <g transform="matrix(1.0, 0.0, 0.0, 1.0, 18.2, 11.85)">
    <path d="M18.5 -7.65 L18.5 -7.4 18.5 -6.1 18.5 -5.95 18.5 -5.8 18.5 -4.5 Q18.75 -2.3 11.05 0.5 4.1 2.95 -1.6 2.85 -7.3 2.75 -12.45 1.25 -18.45 -0.5 -18.2 -2.95 L-18.15 -4.0 -18.2 -4.55 Q-18.2 -8.8 -14.15 -9.5 L-14.1 -9.5 -8.7 -10.65 -0.45 -11.75 0.65 -11.85 Q13.05 -11.85 16.6 -9.85 18.25 -8.95 18.5 -7.65" fill="#000000" fill-rule="evenodd" stroke="none"/>
    <path d="M1.6 -8.4 L-3.25 -7.45 -3.1 -7.4 -2.85 -7.2 Q-2.4 -8.05 0.95 -7.6 L4.35 -7.3 Q5.1 -7.3 5.1 -7.75 L4.55 -8.4 5.7 -8.4 Q6.85 -8.35 6.85 -7.55 6.85 -6.85 6.2 -6.85 L0.75 -7.35 -8.6 -6.1 Q-9.25 -6.1 -9.3 -6.55 -3.1 -8.35 1.6 -8.4" fill="#ffcc00" fill-rule="evenodd" stroke="none"/>
    <path d="M1.6 -8.4 L3.5 -8.5 4.55 -8.4 5.1 -7.75 Q5.1 -7.3 4.35 -7.3 L0.95 -7.6 Q-2.4 -8.05 -2.85 -7.2 L-3.1 -7.4 -3.25 -7.45 1.6 -8.4" fill="#ffefb3" fill-rule="evenodd" stroke="none"/>
    <path d="M-0.75 -4.65 L4.35 -5.35 7.35 -6.1 Q8.65 -6.5 8.95 -6.85 L9.85 -7.7 Q8.6 -8.85 2.2 -8.6 L-5.4 -8.25 -8.3 -7.95 Q-9.95 -7.85 -12.1 -6.7 -14.3 -5.6 -9.25 -4.95 L-0.75 -4.65 M0.5 -10.85 Q12.5 -10.85 15.95 -8.95 17.15 -8.3 17.35 -7.4 L17.35 -6.1 17.35 -5.9 17.35 -5.8 17.35 -4.5 Q17.35 -2.9 10.6 -0.45 3.8 1.95 -1.75 1.85 -7.3 1.8 -12.3 0.3 -17.35 -1.15 -17.35 -2.95 L-17.25 -4.05 -17.35 -4.55 Q-17.35 -7.95 -14.1 -8.5 L-8.6 -9.7 -0.4 -10.75 0.5 -10.85 M12.05 -7.85 L12.45 -7.8 12.2 -8.2 12.05 -7.85" fill="url(#gradient0)" fill-rule="evenodd" stroke="none"/>
    <path d="M-0.75 -4.65 L-9.25 -4.95 Q-14.3 -5.6 -12.1 -6.7 -9.95 -7.85 -8.3 -7.95 L-5.4 -8.25 2.2 -8.6 Q8.6 -8.85 9.85 -7.7 L8.95 -6.85 Q8.65 -6.5 7.35 -6.1 L4.35 -5.35 -0.75 -4.65 M4.55 -8.4 L3.5 -8.5 1.6 -8.4 Q-3.1 -8.35 -9.3 -6.55 -9.25 -6.1 -8.6 -6.1 L0.75 -7.35 6.2 -6.85 Q6.85 -6.85 6.85 -7.55 6.85 -8.35 5.7 -8.4 L4.55 -8.4" fill="#ff9900" fill-rule="evenodd" stroke="none"/>
    <path d="M12.05 -7.85 L12.2 -8.2 12.45 -7.8 12.05 -7.85" fill="#ffe991" fill-rule="evenodd" stroke="none"/>
  </g>
  <defs>
    <radialGradient cx="0" cy="0" gradientTransform="matrix(0.0, -0.0172, 0.0405, 0.0, -1.15, -9.65)" gradientUnits="userSpaceOnUse" id="gradient0" r="819.2" spreadMethod="pad">
      <stop offset="0.396078431372549" stop-color="#ffe991"/>
      <stop offset="0.7411764705882353" stop-color="#feaa56"/>
    </radialGradient>
  </defs>
</svg>
