<?xml version="1.0" encoding="UTF-8" standalone="no"?>
<svg xmlns:xlink="http://www.w3.org/1999/xlink" height="31.25px" width="33.5px" xmlns="http://www.w3.org/2000/svg">
  <g transform="matrix(1.0, 0.0, 0.0, 1.0, 18.55, 27.95)">
    <path d="M5.05 -27.85 L5.6 -27.9 Q12.9 -26.5 14.45 -18.55 15.5 -13.05 14.4 -7.6 12.55 1.35 4.1 2.3 L3.95 2.3 1.55 2.3 Q-4.8 4.3 -9.35 2.3 -14.65 0.05 -17.55 -7.5 -19.65 -12.95 -17.4 -18.5 L-16.25 -21.35 -16.2 -21.4 -16.15 -22.45 Q-16.15 -23.7 -15.35 -24.7 L-15.3 -24.75 -14.5 -25.65 Q-13.9 -26.4 -13.1 -25.8 L-12.5 -24.95 -11.6 -22.2 -8.5 -20.1 -7.9 -21.25 Q-6.55 -23.6 -4.5 -25.65 -0.95 -29.15 3.4 -27.05 L5.05 -27.85 M2.95 -3.75 Q2.95 -3.4 3.1 -3.15 L3.95 0.05 4.05 0.7 4.1 0.85 4.05 1.05 4.2 1.05 4.8 0.95 8.75 -0.6 9.15 -0.9 9.7 -1.35 10.3 -1.9 11.65 -3.7 Q12.75 -5.55 13.3 -8.1 14.35 -13.35 13.35 -18.65 11.9 -26.0 5.2 -27.35 L3.1 -26.4 Q-0.85 -28.5 -4.1 -25.35 -6.55 -22.85 -7.9 -20.0 L-8.05 -19.75 -6.15 -18.15 -5.95 -19.0 Q-3.15 -27.15 3.95 -24.5 L5.75 -25.1 Q9.65 -24.4 10.45 -20.3 L10.55 -19.9 9.6 -20.15 Q8.35 -22.2 7.4 -22.2 L7.25 -22.2 Q7.25 -23.95 5.65 -24.05 L4.95 -24.15 Q4.15 -24.15 3.5 -23.0 L3.5 -23.1 Q3.5 -24.5 1.1 -24.5 0.25 -24.5 -0.45 -23.3 L-0.95 -22.15 -1.05 -22.0 Q-1.25 -22.7 -1.9 -22.7 -3.1 -22.7 -3.6 -20.5 -3.75 -19.0 -2.75 -18.95 L-3.45 -18.2 -4.8 -18.7 Q-5.5 -18.7 -6.0 -18.0 L-3.95 -15.9 -3.1 -14.95 -2.05 -13.6 -0.85 -11.95 -0.5 -11.4 0.1 -10.35 Q1.8 -7.25 2.95 -3.75 M11.2 -16.2 L11.45 -14.6 11.5 -14.15 11.35 -14.3 Q10.9 -14.6 10.9 -14.95 L11.2 -16.2 M11.55 -13.1 L11.6 -12.3 11.4 -12.5 11.55 -13.1 M7.25 -1.9 L7.45 -2.1 Q8.4 -3.15 8.4 -3.85 L7.9 -4.65 8.35 -5.45 Q9.85 -5.9 11.35 -8.8 10.55 -3.95 7.25 -1.9 M-14.65 -24.25 Q-15.35 -23.4 -15.35 -22.4 L-15.45 -20.45 -15.45 -20.95 -16.65 -18.2 Q-18.75 -12.95 -16.8 -7.75 -11.25 6.55 3.35 0.85 0.4 -14.1 -12.2 -21.65 -13.3 -25.8 -13.9 -25.15 L-14.65 -24.25" fill="#000000" fill-rule="evenodd" stroke="none"/>
    <path d="M3.55 -9.75 L4.3 -14.35 4.45 -13.35 Q4.75 -12.35 5.25 -12.35 6.0 -12.35 6.0 -13.7 L6.6 -18.55 Q6.6 -20.6 5.55 -20.6 4.55 -20.6 4.55 -19.4 L4.75 -18.8 4.2 -19.9 Q4.2 -20.8 4.7 -21.15 5.3 -20.8 6.15 -20.8 L6.5 -20.8 Q7.1 -19.7 7.7 -16.75 6.15 -13.1 6.15 -12.6 L6.7 -11.45 Q5.15 -4.45 4.35 -4.45 3.2 -4.45 3.5 -5.85 4.15 -7.3 4.15 -8.65 L3.55 -9.6 3.55 -9.75 M4.7 -16.75 L4.9 -18.1 4.9 -17.6 4.7 -16.75 M2.7 -22.2 Q3.0 -21.75 2.95 -20.8 L2.7 -19.2 2.95 -17.85 Q2.75 -10.35 0.1 -10.35 L-0.5 -11.4 -0.65 -11.75 -0.85 -11.95 -2.05 -13.6 Q-1.7 -14.25 -0.75 -14.8 -0.2 -15.6 0.1 -16.75 L0.25 -17.3 0.25 -17.35 Q0.95 -17.6 0.95 -18.65 L1.1 -20.75 0.55 -21.9 1.05 -22.55 1.35 -22.65 2.65 -22.2 2.7 -22.2 M10.55 -19.9 L10.45 -20.3 Q9.65 -24.4 5.75 -25.1 L3.95 -24.5 Q-3.15 -27.15 -5.95 -19.0 L-6.15 -18.15 -8.05 -19.75 -7.9 -20.0 Q-6.55 -22.85 -4.1 -25.35 -0.85 -28.5 3.1 -26.4 L5.2 -27.35 Q11.9 -26.0 13.35 -18.65 14.35 -13.35 13.3 -8.1 12.75 -5.55 11.65 -3.7 11.25 -4.6 11.25 -5.25 11.85 -6.4 11.85 -7.6 11.9 -8.6 11.45 -9.1 L12.2 -10.8 Q12.2 -11.5 11.6 -12.3 L11.55 -13.1 11.8 -13.45 11.5 -14.15 11.45 -14.6 11.2 -16.2 11.95 -17.8 Q11.65 -19.35 10.55 -19.9 M4.2 1.05 L4.05 1.05 4.1 0.85 4.2 1.05 M5.8 -10.45 Q5.8 -11.0 5.25 -11.0 4.3 -11.0 4.3 -9.55 4.3 -9.15 5.05 -8.8 5.8 -9.55 5.8 -10.45 M1.7 -19.35 L1.6 -19.35 0.7 -16.85 Q-0.1 -14.8 -0.1 -14.15 L1.1 -12.5 Q1.7 -12.5 1.75 -13.4 L1.75 -14.65 2.3 -16.95 2.35 -18.1 1.7 -19.35 M2.7 -21.2 Q2.6 -22.15 1.8 -22.15 1.05 -22.15 1.05 -21.45 1.05 -20.55 2.05 -20.55 2.7 -20.55 2.7 -21.2 M10.1 -13.35 Q10.1 -11.85 9.3 -11.85 8.7 -11.85 8.55 -12.55 8.45 -12.9 8.5 -13.35 8.5 -14.7 9.3 -14.7 10.4 -14.7 10.1 -13.35 M-13.5 -22.35 L-13.95 -22.95 Q-14.55 -22.95 -14.6 -21.95 -14.8 -21.2 -14.05 -21.2 -13.5 -21.2 -13.5 -22.35 M-14.65 -24.25 L-13.9 -25.15 Q-13.3 -25.8 -12.2 -21.65 0.4 -14.1 3.35 0.85 -11.25 6.55 -16.8 -7.75 -18.75 -12.95 -16.65 -18.2 L-15.45 -20.95 -15.45 -20.45 -15.35 -22.4 Q-15.35 -23.4 -14.65 -24.25 M-4.35 0.95 L-0.15 0.55 Q0.1 0.1 -0.3 -3.95 -0.7 -8.1 -5.9 -13.2 L-13.3 -20.5 -13.6 -20.05 Q-14.0 -19.4 -13.75 -18.55 -12.55 -14.1 -8.3 -12.3 -4.9 -10.85 -5.15 -7.65 L-3.1 -4.85 -2.65 -4.05 Q-2.35 -3.3 -2.45 -2.45 L-2.75 -1.4 -3.15 -1.3 -5.0 -4.4 Q-5.3 -5.6 -6.05 -6.7 -7.1 -8.0 -7.7 -9.45 -8.2 -10.6 -10.95 -11.3 L-13.4 -13.55 -13.5 -13.5 -13.15 -11.75 Q-13.1 -11.35 -11.15 -10.3 -9.05 -9.25 -8.75 -8.85 L-6.35 -5.25 -5.25 -2.0 -5.05 -0.95 -5.75 -0.8 Q-6.95 -1.5 -7.95 -3.7 L-8.45 -5.5 Q-9.3 -7.15 -10.65 -6.75 L-10.75 -6.75 -10.8 -6.6 Q-9.8 -5.85 -8.45 -2.15 L-7.95 -1.05 -10.75 -2.45 -10.9 -2.45 -10.85 -2.1 Q-10.6 -1.1 -9.25 0.1 -7.35 1.8 -5.05 1.2 L-4.85 0.95 -4.85 0.85 -4.35 0.95 M-14.8 -15.7 L-14.8 -16.2 -14.55 -16.9 -15.15 -17.95 Q-15.55 -17.95 -15.55 -17.55 -15.9 -16.65 -15.9 -15.35 -16.0 -14.4 -15.45 -14.4 L-14.8 -14.8 -14.05 -14.55 Q-13.8 -14.55 -13.8 -14.85 -13.8 -15.55 -14.8 -15.7 M-14.5 -10.25 L-15.4 -12.4 -15.45 -12.9 Q-16.15 -11.95 -16.15 -9.7 -16.4 -8.5 -15.25 -8.5 L-14.4 -8.7 -12.65 -7.85 Q-12.35 -7.85 -12.35 -8.25 -12.35 -8.85 -13.2 -9.15 -14.15 -9.5 -14.5 -10.25 M-3.95 -15.9 Q-3.75 -16.45 -3.15 -16.45 L-2.6 -15.9 Q-2.6 -15.15 -3.1 -14.95 L-3.95 -15.9 M-13.6 -6.65 Q-14.15 -6.65 -14.15 -6.15 -14.35 -4.3 -12.85 -4.3 -12.3 -4.3 -12.3 -4.85 L-12.8 -5.8 Q-12.8 -6.65 -13.6 -6.65" fill="#f0c96c" fill-rule="evenodd" stroke="none"/>
    <path d="M5.65 -24.05 L5.4 -24.05 Q4.85 -24.05 4.3 -23.45 L3.85 -22.55 Q4.0 -21.9 4.4 -21.45 3.65 -19.7 3.65 -13.5 L3.55 -9.75 3.55 -9.6 Q3.45 -6.25 3.0 -4.05 L2.95 -3.75 Q1.8 -7.25 0.1 -10.35 2.75 -10.35 2.95 -17.85 L2.7 -19.2 2.95 -20.8 Q3.0 -21.75 2.7 -22.2 3.5 -22.2 3.5 -23.0 4.15 -24.15 4.95 -24.15 L5.65 -24.05 M3.1 -3.15 L4.05 -2.9 Q4.7 -2.9 5.25 -4.4 L5.85 -6.65 Q6.05 -7.3 7.95 -10.6 L7.25 -12.4 7.05 -13.6 Q7.05 -14.5 8.0 -15.35 8.9 -16.2 8.9 -16.65 L8.7 -17.2 9.35 -16.05 Q10.55 -16.05 10.55 -18.2 L9.6 -20.15 10.55 -19.9 Q11.65 -19.35 11.95 -17.8 L11.2 -16.2 10.9 -14.95 Q10.9 -14.6 11.35 -14.3 L11.5 -14.15 11.8 -13.45 11.55 -13.1 11.4 -12.5 11.6 -12.3 Q12.2 -11.5 12.2 -10.8 L11.45 -9.1 11.35 -8.8 Q9.85 -5.9 8.35 -5.45 L7.9 -4.65 8.4 -3.85 Q8.4 -3.15 7.45 -2.1 L7.25 -1.9 Q6.3 -0.95 5.05 -0.8 L3.95 0.05 3.1 -3.15 M-0.95 -22.15 L-1.0 -21.95 -1.05 -22.0 -0.95 -22.15 M-2.75 -18.95 L-2.7 -18.95 Q-1.9 -18.95 -1.15 -20.85 L-1.25 -18.9 -1.3 -18.55 Q-2.4 -18.2 -2.4 -16.6 -2.5 -15.6 -1.4 -15.6 -0.8 -15.6 0.25 -17.3 L0.1 -16.75 Q-0.2 -15.6 -0.75 -14.8 -1.7 -14.25 -2.05 -13.6 L-3.1 -14.95 Q-2.6 -15.15 -2.6 -15.9 L-3.15 -16.45 Q-3.75 -16.45 -3.95 -15.9 L-6.0 -18.0 Q-5.5 -18.7 -4.8 -18.7 L-3.45 -18.2 -2.75 -18.95 M1.05 -22.55 L1.2 -22.65 1.35 -22.65 1.05 -22.55 M10.1 -13.35 Q10.4 -14.7 9.3 -14.7 8.5 -14.7 8.5 -13.35 8.45 -12.9 8.55 -12.55 8.7 -11.85 9.3 -11.85 10.1 -11.85 10.1 -13.35 M-0.5 -11.4 L-0.85 -11.95 -0.65 -11.75 -0.5 -11.4" fill="#6c4f0b" fill-rule="evenodd" stroke="none"/>
    <path d="M3.55 -9.75 L3.65 -13.5 Q3.65 -19.7 4.4 -21.45 4.0 -21.9 3.85 -22.55 L4.3 -23.45 Q4.85 -24.05 5.4 -24.05 L5.65 -24.05 Q7.25 -23.95 7.25 -22.2 L7.4 -22.2 Q8.35 -22.2 9.6 -20.15 L10.55 -18.2 Q10.55 -16.05 9.35 -16.05 L8.7 -17.2 8.9 -16.65 Q8.9 -16.2 8.0 -15.35 7.05 -14.5 7.05 -13.6 L7.25 -12.4 7.95 -10.6 Q6.05 -7.3 5.85 -6.65 L5.25 -4.4 Q4.7 -2.9 4.05 -2.9 L3.1 -3.15 Q2.95 -3.4 2.95 -3.75 L3.0 -4.05 Q3.45 -6.25 3.55 -9.6 L4.15 -8.65 Q4.15 -7.3 3.5 -5.85 3.2 -4.45 4.35 -4.45 5.15 -4.45 6.7 -11.45 L6.15 -12.6 Q6.15 -13.1 7.7 -16.75 7.1 -19.7 6.5 -20.8 L6.15 -20.8 Q5.3 -20.8 4.7 -21.15 4.2 -20.8 4.2 -19.9 L4.75 -18.8 4.9 -18.1 4.7 -16.75 4.3 -14.45 4.3 -14.35 3.55 -9.75 M3.5 -23.0 Q3.5 -22.2 2.7 -22.2 L2.65 -22.2 1.35 -22.65 1.2 -22.65 1.05 -22.55 0.55 -21.9 1.1 -20.75 0.95 -18.65 Q0.95 -17.6 0.25 -17.35 L0.25 -17.3 Q-0.8 -15.6 -1.4 -15.6 -2.5 -15.6 -2.4 -16.6 -2.4 -18.2 -1.3 -18.55 L-1.25 -18.9 -1.15 -20.85 Q-1.9 -18.95 -2.7 -18.95 L-2.75 -18.95 Q-3.75 -19.0 -3.6 -20.5 -3.1 -22.7 -1.9 -22.7 -1.25 -22.7 -1.05 -22.0 L-1.0 -21.95 -0.95 -22.15 -0.45 -23.3 Q0.25 -24.5 1.1 -24.5 3.5 -24.5 3.5 -23.1 L3.5 -23.0 M-2.65 -4.05 L-2.7 -5.5 Q-2.7 -6.1 -3.35 -6.9 L-4.15 -8.2 Q-4.4 -9.05 -5.9 -10.95 L-8.4 -13.5 Q-10.0 -15.25 -10.15 -16.3 L-9.95 -16.4 Q-9.55 -16.4 -8.9 -15.55 L-8.05 -14.4 -5.8 -12.4 Q-3.2 -8.7 -3.15 -8.25 -3.0 -7.6 -1.6 -6.3 L-0.75 -4.4 Q-0.55 -3.15 -0.6 -0.35 -0.6 0.9 -4.35 0.95 L-4.85 0.85 -4.85 0.95 Q-7.85 0.9 -7.85 0.05 -7.85 -0.5 -7.4 -0.5 L-6.05 -0.1 -4.95 -0.65 -5.05 -1.5 Q-5.05 -2.3 -4.55 -2.3 -4.2 -2.3 -3.6 -1.3 L-2.75 -0.3 Q-1.95 -0.3 -2.2 -1.1 L-2.45 -2.45 Q-2.35 -3.3 -2.65 -4.05" fill="#a37610" fill-rule="evenodd" stroke="none"/>
    <path d="M4.3 -14.35 L4.3 -14.45 4.7 -16.75 4.9 -17.6 4.9 -18.1 4.75 -18.8 4.55 -19.4 Q4.55 -20.6 5.55 -20.6 6.6 -20.6 6.6 -18.55 L6.0 -13.7 Q6.0 -12.35 5.25 -12.35 4.75 -12.35 4.45 -13.35 L4.3 -14.35 M2.7 -21.2 Q2.7 -20.55 2.05 -20.55 1.05 -20.55 1.05 -21.45 1.05 -22.15 1.8 -22.15 2.6 -22.15 2.7 -21.2 M1.7 -19.35 L2.35 -18.1 2.3 -16.95 1.75 -14.65 1.75 -13.4 Q1.7 -12.5 1.1 -12.5 L-0.1 -14.15 Q-0.1 -14.8 0.7 -16.85 L1.6 -19.35 1.7 -19.35 M5.8 -10.45 Q5.8 -9.55 5.05 -8.8 4.3 -9.15 4.3 -9.55 4.3 -11.0 5.25 -11.0 5.8 -11.0 5.8 -10.45" fill="#ffffff" fill-rule="evenodd" stroke="none"/>
    <path d="M11.65 -3.7 L10.3 -1.9 9.7 -1.35 9.15 -0.9 8.75 -0.6 4.8 0.95 4.2 1.05 4.1 0.85 4.05 0.7 3.95 0.05 5.05 -0.8 Q6.3 -0.95 7.25 -1.9 10.55 -3.95 11.35 -8.8 L11.45 -9.1 Q11.9 -8.6 11.85 -7.6 11.85 -6.4 11.25 -5.25 11.25 -4.6 11.65 -3.7 M-4.35 0.95 Q-0.6 0.9 -0.6 -0.35 -0.55 -3.15 -0.75 -4.4 L-1.6 -6.3 Q-3.0 -7.6 -3.15 -8.25 -3.2 -8.7 -5.8 -12.4 L-8.05 -14.4 -8.9 -15.55 Q-9.55 -16.4 -9.95 -16.4 L-10.15 -16.3 Q-10.0 -15.25 -8.4 -13.5 L-5.9 -10.95 Q-4.4 -9.05 -4.15 -8.2 L-3.35 -6.9 Q-2.7 -6.1 -2.7 -5.5 L-2.65 -4.05 -3.1 -4.85 -5.15 -7.65 Q-4.9 -10.85 -8.3 -12.3 -12.55 -14.1 -13.75 -18.55 -14.0 -19.4 -13.6 -20.05 L-13.3 -20.5 -5.9 -13.2 Q-0.7 -8.1 -0.3 -3.95 0.1 0.1 -0.15 0.55 L-4.35 0.95 M-2.45 -2.45 L-2.2 -1.1 Q-1.95 -0.3 -2.75 -0.3 L-3.6 -1.3 Q-4.2 -2.3 -4.55 -2.3 -5.05 -2.3 -5.05 -1.5 L-4.95 -0.65 -6.05 -0.1 -7.4 -0.5 Q-7.85 -0.5 -7.85 0.05 -7.85 0.9 -4.85 0.95 L-5.05 1.2 Q-7.35 1.8 -9.25 0.1 -10.6 -1.1 -10.85 -2.1 L-10.9 -2.45 -10.75 -2.45 -7.95 -1.05 -8.45 -2.15 Q-9.8 -5.85 -10.8 -6.6 L-10.75 -6.75 -10.65 -6.75 Q-9.3 -7.15 -8.45 -5.5 L-7.95 -3.7 Q-6.95 -1.5 -5.75 -0.8 L-5.05 -0.95 -5.25 -2.0 -6.35 -5.25 -8.75 -8.85 Q-9.05 -9.25 -11.15 -10.3 -13.1 -11.35 -13.15 -11.75 L-13.5 -13.5 -13.4 -13.55 -10.95 -11.3 Q-8.2 -10.6 -7.7 -9.45 -7.1 -8.0 -6.05 -6.7 -5.3 -5.6 -5.0 -4.4 L-3.15 -1.3 -2.75 -1.4 -2.45 -2.45" fill="#d09815" fill-rule="evenodd" stroke="none"/>
    <path d="M-13.5 -22.35 Q-13.5 -21.2 -14.05 -21.2 -14.8 -21.2 -14.6 -21.95 -14.55 -22.95 -13.95 -22.95 L-13.5 -22.35 M-14.8 -15.7 Q-13.8 -15.55 -13.8 -14.85 -13.8 -14.55 -14.05 -14.55 L-14.8 -14.8 -15.45 -14.4 Q-16.0 -14.4 -15.9 -15.35 -15.9 -16.65 -15.55 -17.55 -15.55 -17.95 -15.15 -17.95 L-14.55 -16.9 -14.8 -16.2 -14.8 -15.7 M-14.5 -10.25 Q-14.15 -9.5 -13.2 -9.15 -12.35 -8.85 -12.35 -8.25 -12.35 -7.85 -12.65 -7.85 L-14.4 -8.7 -15.25 -8.5 Q-16.4 -8.5 -16.15 -9.7 -16.15 -11.95 -15.45 -12.9 L-15.4 -12.4 -14.5 -10.25 M-13.6 -6.65 Q-12.8 -6.65 -12.8 -5.8 L-12.3 -4.85 Q-12.3 -4.3 -12.85 -4.3 -14.35 -4.3 -14.15 -6.15 -14.15 -6.65 -13.6 -6.65" fill="#f8e4ba" fill-rule="evenodd" stroke="none"/>
  </g>
</svg>
