<?xml version="1.0" encoding="UTF-8" standalone="no"?>
<svg xmlns:xlink="http://www.w3.org/1999/xlink" height="24.7px" width="29.55px" xmlns="http://www.w3.org/2000/svg">
  <g transform="matrix(1.0, 0.0, 0.0, 1.0, 14.8, 23.85)">
    <path d="M10.65 -13.45 L10.8 -14.05 Q10.7 -15.05 10.15 -15.25 L10.1 -15.25 Q10.05 -16.0 9.45 -16.1 L8.55 -17.15 Q8.55 -17.7 7.7 -18.4 6.9 -19.1 5.75 -19.3 L5.1 -19.35 4.95 -19.45 Q1.7 -20.75 -1.05 -20.7 L-2.25 -20.9 Q-6.15 -20.9 -8.6 -18.35 L-9.7 -16.9 Q-10.55 -15.65 -10.55 -14.4 -10.55 -12.95 -9.2 -12.95 -8.55 -12.95 -7.8 -13.5 L-7.3 -12.95 Q-6.4 -14.35 -3.35 -14.35 -1.85 -14.35 -0.95 -13.1 -0.3 -12.2 -0.3 -11.45 -0.3 -8.9 -3.6 -8.9 L-3.7 -8.9 -2.6 -7.6 -1.5 -7.8 Q0.65 -7.8 0.65 -5.5 0.65 -3.35 -2.1 -3.35 L-2.85 -3.4 Q-1.15 -0.8 4.0 -2.8 L4.25 -3.6 2.95 -6.9 4.7 -8.0 Q7.85 -9.6 10.9 -10.65 L10.95 -11.0 10.65 -13.45 M7.2 -9.45 Q5.6 -9.45 5.6 -10.7 5.6 -12.5 7.05 -12.5 8.25 -12.5 8.55 -10.55 8.55 -9.45 7.2 -9.45 M6.45 -7.0 L6.15 -7.05 Q4.65 -7.05 4.65 -5.65 4.65 -4.7 5.55 -4.7 6.85 -4.7 6.95 -6.0 7.5 -5.2 7.5 -4.3 7.5 0.0 0.95 0.0 -3.05 0.0 -5.25 -1.2 -7.35 -1.2 -7.7 -4.35 -7.7 -5.15 -6.3 -7.55 -6.3 -7.95 -10.2 -9.95 -14.1 -11.9 -14.1 -14.6 -14.1 -17.0 -12.2 -19.1 -8.9 -22.75 -1.05 -22.75 4.55 -22.75 9.05 -19.3 13.5 -15.95 13.5 -11.95 13.5 -7.65 6.45 -7.0 M6.35 -10.25 Q6.5 -9.75 7.2 -9.75 8.1 -9.75 8.1 -10.7 7.95 -11.6 7.25 -11.6 6.3 -11.6 6.3 -10.8 L6.35 -10.25 M3.9 -9.6 Q3.9 -7.45 1.9 -7.45 0.9 -7.45 0.65 -9.0 0.65 -10.95 2.65 -10.95 3.9 -10.95 3.9 -9.6 M2.4 -10.5 Q1.35 -10.5 1.35 -9.65 1.25 -8.85 2.4 -8.85 3.35 -8.85 3.35 -9.7 3.35 -10.5 2.4 -10.5 M-4.5 -5.4 Q-4.35 -4.0 -3.25 -4.0 -2.5 -4.0 -1.95 -4.75 -1.45 -5.35 -1.45 -5.8 -1.55 -6.75 -2.25 -6.75 -4.5 -6.75 -4.5 -5.4 M-4.75 -9.15 Q-3.8 -9.15 -2.95 -10.05 -2.15 -10.85 -2.15 -11.55 -1.8 -13.3 -3.9 -13.3 -6.9 -13.3 -6.9 -11.5 -6.8 -9.15 -4.75 -9.15" fill="#bdaa7d" fill-rule="evenodd" stroke="none"/>
    <path d="M10.65 -13.45 L10.95 -11.0 10.9 -10.65 Q7.85 -9.6 4.7 -8.0 L2.95 -6.9 4.25 -3.6 4.0 -2.8 Q-1.15 -0.8 -2.85 -3.4 L-2.1 -3.35 Q0.65 -3.35 0.65 -5.5 0.65 -7.8 -1.5 -7.8 L-2.6 -7.6 -3.7 -8.9 -3.6 -8.9 Q-0.3 -8.9 -0.3 -11.45 -0.3 -12.2 -0.95 -13.1 -1.85 -14.35 -3.35 -14.35 -6.4 -14.35 -7.3 -12.95 L-7.8 -13.5 -6.85 -14.5 -5.4 -16.4 Q-4.3 -17.45 -1.95 -18.05 -0.15 -18.45 -0.15 -19.45 -0.15 -20.4 -1.05 -20.7 1.7 -20.75 4.95 -19.45 L5.1 -19.35 4.7 -19.4 Q2.75 -19.4 2.75 -18.3 2.75 -18.25 3.5 -17.9 3.7 -17.2 4.85 -17.2 L4.95 -17.2 7.5 -16.0 Q8.55 -16.0 8.55 -17.15 L9.45 -16.1 9.15 -16.15 Q8.25 -16.15 8.25 -15.25 8.25 -14.65 8.7 -14.4 L8.7 -14.3 Q8.7 -13.1 9.8 -13.1 10.4 -13.1 10.65 -13.45 M2.2 -15.05 Q0.6 -15.05 0.6 -13.85 1.3 -12.05 2.3 -12.05 3.65 -12.05 3.65 -13.45 3.5 -15.05 2.2 -15.05 M7.2 -9.45 Q8.55 -9.45 8.55 -10.55 8.25 -12.5 7.05 -12.5 5.6 -12.5 5.6 -10.7 5.6 -9.45 7.2 -9.45 M6.35 -10.25 L6.3 -10.8 Q6.3 -11.6 7.25 -11.6 7.95 -11.6 8.1 -10.7 8.1 -9.75 7.2 -9.75 6.5 -9.75 6.35 -10.25 M6.95 -6.0 Q6.85 -4.7 5.55 -4.7 4.65 -4.7 4.65 -5.65 4.65 -7.05 6.15 -7.05 L6.45 -7.0 Q6.85 -6.8 6.95 -6.15 L6.95 -6.0 M3.9 -9.6 Q3.9 -10.95 2.65 -10.95 0.65 -10.95 0.65 -9.0 0.9 -7.45 1.9 -7.45 3.9 -7.45 3.9 -9.6 M2.4 -10.5 Q3.35 -10.5 3.35 -9.7 3.35 -8.85 2.4 -8.85 1.25 -8.85 1.35 -9.65 1.35 -10.5 2.4 -10.5 M-4.75 -9.15 Q-6.8 -9.15 -6.9 -11.5 -6.9 -13.3 -3.9 -13.3 -1.8 -13.3 -2.15 -11.55 -2.15 -10.85 -2.95 -10.05 -3.8 -9.15 -4.75 -9.15 M-4.5 -5.4 Q-4.5 -6.75 -2.25 -6.75 -1.55 -6.75 -1.45 -5.8 -1.45 -5.35 -1.95 -4.75 -2.5 -4.0 -3.25 -4.0 -4.35 -4.0 -4.5 -5.4" fill="#705f3a" fill-rule="evenodd" stroke="none"/>
    <path d="M5.1 -19.35 L5.75 -19.3 5.7 -19.25 Q3.45 -19.25 3.45 -18.2 L3.5 -17.9 Q2.75 -18.25 2.75 -18.3 2.75 -19.4 4.7 -19.4 L5.1 -19.35 M10.1 -15.25 L10.15 -15.25 10.1 -15.25" fill="#d3cb81" fill-rule="evenodd" stroke="none"/>
    <path d="M9.45 -16.1 Q10.05 -16.0 10.1 -15.25 10.1 -14.35 9.2 -14.35 L8.7 -14.4 Q8.25 -14.65 8.25 -15.25 8.25 -16.15 9.15 -16.15 L9.45 -16.1 M5.7 -19.25 Q6.8 -19.25 6.8 -18.3 6.8 -17.2 4.95 -17.2 L4.85 -17.2 Q3.7 -17.2 3.5 -17.9 L3.45 -18.2 Q3.45 -19.25 5.7 -19.25 M2.2 -15.05 Q3.5 -15.05 3.65 -13.45 3.65 -12.05 2.3 -12.05 1.3 -12.05 0.6 -13.85 0.6 -15.05 2.2 -15.05 M-9.55 -16.85 L-8.45 -18.1 Q-6.75 -19.7 -5.1 -19.7 -4.45 -19.6 -4.2 -19.25 L-9.3 -15.05 Q-9.8 -15.05 -9.95 -16.05 L-9.55 -16.85" fill="#ffffff" fill-rule="evenodd" stroke="none"/>
    <path d="M9.95 -20.3 Q12.15 -18.75 13.55 -16.45 15.2 -13.85 14.55 -10.9 L13.85 -9.25 13.85 -9.2 Q13.0 -8.05 12.0 -7.55 L12.05 -7.55 Q10.25 -6.6 8.25 -6.3 L8.75 -4.65 8.75 -4.25 8.05 -2.2 8.05 -2.15 6.7 -0.55 6.65 -0.5 Q5.9 0.05 4.95 0.35 L5.0 0.3 1.2 0.85 1.15 0.85 -2.5 0.3 -2.45 0.3 -5.3 -0.4 -6.2 -0.65 Q-7.7 -1.25 -8.1 -2.8 L-8.1 -2.9 -8.2 -4.55 Q-8.0 -6.25 -7.35 -7.55 L-7.9 -7.85 -8.0 -7.9 -9.4 -8.55 -9.45 -8.6 Q-11.35 -9.5 -12.9 -10.85 -14.3 -12.05 -14.7 -13.8 L-14.7 -13.85 Q-15.1 -15.65 -14.1 -17.45 -13.5 -18.7 -12.55 -19.75 -11.65 -20.85 -10.45 -21.55 -9.15 -22.35 -7.75 -22.75 L-4.6 -23.6 -4.5 -23.65 0.65 -23.8 0.75 -23.8 3.6 -23.1 6.15 -22.4 6.2 -22.35 Q8.25 -21.5 9.95 -20.3 M6.45 -7.0 Q13.5 -7.65 13.5 -11.95 13.5 -15.95 9.05 -19.3 4.55 -22.75 -1.05 -22.75 -8.9 -22.75 -12.2 -19.1 -14.1 -17.0 -14.1 -14.6 -14.1 -11.9 -10.2 -9.95 -6.3 -7.95 -6.3 -7.55 -7.7 -5.15 -7.7 -4.35 -7.35 -1.2 -5.25 -1.2 -3.05 0.0 0.95 0.0 7.5 0.0 7.5 -4.3 7.5 -5.2 6.95 -6.0 L6.95 -6.15 Q6.85 -6.8 6.45 -7.0" fill="#000000" fill-rule="evenodd" stroke="none"/>
    <path d="M10.15 -15.25 Q10.7 -15.05 10.8 -14.05 L10.65 -13.45 Q10.4 -13.1 9.8 -13.1 8.7 -13.1 8.7 -14.3 L8.7 -14.4 9.2 -14.35 Q10.1 -14.35 10.1 -15.25 L10.15 -15.25 M-7.8 -13.5 Q-8.55 -12.95 -9.2 -12.95 -10.55 -12.95 -10.55 -14.4 -10.55 -15.65 -9.7 -16.9 L-8.6 -18.35 Q-6.15 -20.9 -2.25 -20.9 L-1.05 -20.7 Q-0.15 -20.4 -0.15 -19.45 -0.15 -18.45 -1.95 -18.05 -4.3 -17.45 -5.4 -16.4 L-6.85 -14.5 -7.8 -13.5 M5.75 -19.3 Q6.9 -19.1 7.7 -18.4 8.55 -17.7 8.55 -17.15 8.55 -16.0 7.5 -16.0 L4.95 -17.2 Q6.8 -17.2 6.8 -18.3 6.8 -19.25 5.7 -19.25 L5.75 -19.3 M-9.55 -16.85 L-9.95 -16.05 Q-9.8 -15.05 -9.3 -15.05 L-4.2 -19.25 Q-4.45 -19.6 -5.1 -19.7 -6.75 -19.7 -8.45 -18.1 L-9.55 -16.85" fill="#e9d5a7" fill-rule="evenodd" stroke="none"/>
  </g>
</svg>
