<?xml version="1.0" encoding="UTF-8" standalone="no"?>
<svg xmlns:xlink="http://www.w3.org/1999/xlink" height="27.35px" width="28.25px" xmlns="http://www.w3.org/2000/svg">
  <g transform="matrix(1.0, 0.0, 0.0, 1.0, 10.85, 25.85)">
    <path d="M10.95 -25.75 L11.75 -25.85 Q14.2 -25.85 15.45 -24.25 L15.9 -23.8 Q16.8 -21.65 17.15 -19.4 L17.3 -18.0 17.35 -16.05 Q17.25 -15.0 16.8 -14.35 L16.8 -14.3 Q15.9 -12.35 15.05 -12.6 L15.0 -12.6 Q14.3 -12.6 13.9 -12.95 L13.4 -13.7 Q12.35 -12.45 11.55 -12.55 L11.5 -12.55 Q10.75 -12.6 10.4 -13.0 L10.35 -13.05 10.25 -13.15 Q9.95 -13.5 9.95 -14.1 L9.95 -14.25 10.0 -14.55 10.9 -17.45 10.9 -17.4 11.1 -18.1 11.1 -18.15 11.1 -18.5 10.8 -20.55 8.1 -17.1 1.3 -7.7 Q-2.4 -2.6 -4.8 -0.3 L-5.05 -0.05 -6.0 0.6 -6.15 0.7 -8.35 1.45 -8.65 1.5 Q-9.45 1.5 -9.85 1.0 L-10.05 0.7 -10.2 0.0 -10.2 -0.2 Q-10.9 -0.6 -10.8 -1.4 L-10.8 -1.45 -10.8 -1.5 -10.6 -2.1 -10.15 -2.45 -10.05 -2.5 -9.85 -2.55 -9.75 -2.6 -7.85 -3.6 -7.8 -3.6 Q-7.1 -4.1 -6.7 -4.7 L-4.35 -7.8 -2.75 -9.8 0.15 -13.75 0.2 -13.8 0.35 -13.95 0.45 -14.1 0.45 -14.15 3.25 -18.1 4.7 -20.25 4.7 -20.3 4.85 -20.45 4.85 -20.5 5.8 -21.65 5.75 -21.65 6.7 -22.75 6.75 -22.8 6.95 -23.0 7.0 -23.0 Q9.25 -25.4 11.0 -25.75 L10.95 -25.75" fill="#000000" fill-rule="evenodd" stroke="none"/>
    <path d="M7.6 -22.25 Q9.65 -24.45 11.2 -24.75 L11.75 -24.85 Q13.75 -24.85 14.75 -23.5 L14.95 -23.25 14.95 -23.4 Q15.95 -21.05 16.25 -18.55 L16.35 -18.05 16.15 -18.55 15.25 -19.45 14.7 -19.55 Q13.9 -19.55 13.2 -19.05 L12.65 -18.55 12.25 -18.1 12.05 -17.8 12.1 -17.95 12.1 -18.55 Q12.0 -20.2 11.7 -20.95 L11.2 -21.95 Q10.15 -21.75 7.25 -17.7 L0.5 -8.25 Q-3.25 -3.1 -5.65 -0.85 L-6.1 -1.2 -7.4 -1.05 -7.45 -1.05 -7.55 -1.05 -7.4 -1.2 -7.3 -1.25 -7.1 -1.4 -7.1 -1.45 -6.95 -1.95 -6.95 -2.1 -7.0 -2.5 -7.25 -2.8 Q-6.4 -3.4 -5.85 -4.15 L-3.6 -7.15 -1.95 -9.2 0.95 -13.15 1.2 -13.45 1.25 -13.5 1.3 -13.55 3.35 -16.55 2.2 -14.65 Q0.6 -11.95 -5.15 -4.65 L-5.1 -4.45 2.5 -13.85 5.85 -18.75 Q9.05 -22.85 11.6 -22.85 12.95 -22.85 13.35 -20.15 L13.45 -20.15 13.9 -21.9 Q13.7 -24.15 11.7 -24.15 9.7 -24.15 7.6 -22.25 M-9.8 -1.45 L-9.8 -1.5 -9.75 -1.55 -9.8 -1.45" fill="#990000" fill-rule="evenodd" stroke="none"/>
    <path d="M3.35 -16.55 L4.05 -17.55 5.5 -19.7 5.6 -19.85 6.55 -21.05 7.45 -22.1 7.6 -22.25 Q9.7 -24.15 11.7 -24.15 13.7 -24.15 13.9 -21.9 L13.45 -20.15 13.35 -20.15 Q12.95 -22.85 11.6 -22.85 9.05 -22.85 5.85 -18.75 L2.5 -13.85 -5.1 -4.45 -5.15 -4.65 Q0.6 -11.95 2.2 -14.65 L3.35 -16.55" fill="#f70000" fill-rule="evenodd" stroke="none"/>
    <path d="M14.55 -13.75 L14.3 -14.1 14.25 -14.6 14.5 -16.2 14.8 -17.5 Q14.95 -18.3 14.7 -18.55 L14.1 -18.55 11.1 -13.7 11.05 -13.75 10.95 -14.1 10.95 -14.2 10.95 -14.25 11.85 -17.15 12.05 -17.75 12.05 -17.8 12.25 -18.1 12.65 -18.55 13.2 -19.05 Q13.9 -19.55 14.7 -19.55 L15.25 -19.45 15.35 -18.55 15.4 -16.3 14.55 -13.75 M-9.15 0.25 L-9.2 0.0 Q-9.2 -0.5 -8.65 -0.7 L-8.7 -0.65 Q-8.7 -0.4 -8.4 -0.3 L-9.15 0.25 M-9.45 -1.65 Q-8.15 -2.15 -7.25 -2.8 L-7.0 -2.5 -6.95 -2.1 -6.95 -1.95 -7.6 -1.55 -8.3 -1.7 -9.45 -1.65" fill="#cccccc" fill-rule="evenodd" stroke="none"/>
    <path d="M16.35 -18.05 L16.45 -16.4 15.9 -14.75 Q15.35 -13.6 15.0 -13.6 14.7 -13.6 14.55 -13.75 L15.4 -16.3 15.35 -18.55 15.25 -19.45 16.15 -18.55 16.35 -18.05 M14.5 -16.2 L14.5 -16.15 14.55 -16.5 14.6 -16.6 14.25 -17.25 13.15 -15.05 Q12.15 -13.55 11.55 -13.55 11.2 -13.55 11.1 -13.7 L14.1 -18.55 14.7 -18.55 Q14.95 -18.3 14.8 -17.5 L14.5 -16.2 M-5.65 -0.85 Q-6.1 -0.5 -6.5 -0.25 L-8.65 0.5 -9.1 0.35 -9.15 0.25 -8.4 -0.3 Q-8.7 -0.4 -8.7 -0.65 L-8.65 -0.7 -8.55 -0.75 -8.65 -0.75 Q-9.8 -0.9 -9.8 -1.45 L-9.75 -1.55 -9.5 -1.6 -9.45 -1.65 -8.3 -1.7 -7.6 -1.55 -6.95 -1.95 -7.1 -1.45 -7.1 -1.4 -7.3 -1.25 -7.4 -1.2 -7.55 -1.05 -7.45 -1.05 -7.4 -1.05 -6.1 -1.2 -5.65 -0.85" fill="#999999" fill-rule="evenodd" stroke="none"/>
  </g>
</svg>
