<?xml version="1.0" encoding="UTF-8" standalone="no"?>
<svg xmlns:xlink="http://www.w3.org/1999/xlink" height="45.8px" width="25.25px" xmlns="http://www.w3.org/2000/svg">
  <g transform="matrix(1.0, 0.0, 0.0, 1.0, 12.45, 44.9)">
    <path d="M-6.45 -27.2 L-6.4 -27.15 -6.3 -26.7 -6.15 -25.9 -6.15 -25.6 Q-5.9 -23.7 -5.95 -21.85 -5.75 -23.35 -5.0 -24.55 -4.55 -25.3 -4.8 -25.4 L-4.3 -25.5 -4.3 -27.1 -5.6 -27.7 -6.8 -28.05 -6.8 -27.4 -6.55 -27.2 -6.45 -27.2 M0.5 -1.35 Q0.9 -1.2 0.7 -1.5 0.4 -2.05 0.5 -1.35 L-0.25 -1.35 -0.4 -0.8 0.6 -0.85 0.5 -1.35 M0.95 -16.45 L0.6 -16.1 0.1 -15.95 -0.4 -16.15 -0.4 -16.1 -0.75 -16.45 -0.75 -15.55 -0.3 -15.3 0.15 -11.0 Q0.0 -13.3 0.6 -15.35 L0.95 -15.55 0.95 -16.45 M4.6 -27.15 L4.95 -25.5 5.45 -25.3 5.6 -24.85 6.0 -22.95 6.25 -25.55 6.5 -25.95 Q6.35 -26.45 6.75 -27.2 L7.0 -27.4 6.6 -27.9 6.15 -27.9 6.2 -27.9 6.2 -27.95 6.15 -27.9 4.6 -27.15 M8.5 -44.35 L8.55 -43.9 Q8.1 -42.65 7.6 -40.45 7.1 -38.3 5.45 -37.35 3.75 -36.45 3.35 -36.3 L3.35 -35.75 5.05 -35.75 5.1 -36.7 5.2 -37.15 6.2 -37.05 7.25 -36.7 7.35 -35.8 8.05 -35.75 9.35 -35.6 Q10.1 -35.5 10.75 -35.05 L11.4 -34.6 11.85 -33.85 12.7 -30.9 12.7 -30.8 Q12.9 -30.55 12.6 -30.2 L12.35 -30.05 11.4 -29.5 11.4 -27.45 11.85 -27.25 11.9 -27.25 11.9 -27.2 11.95 -27.15 12.05 -26.7 12.25 -25.9 12.25 -25.4 12.75 -19.3 12.75 -19.2 12.65 -18.95 12.5 -18.65 12.4 -18.6 12.05 -18.5 11.85 -18.45 11.6 -15.2 11.5 -14.65 7.5 -14.45 7.65 -12.95 7.85 -11.45 8.1 -9.15 8.15 -8.45 8.3 -7.7 8.5 -5.45 8.55 -4.65 8.75 -2.45 9.2 -1.95 9.4 -1.5 9.4 -1.45 9.7 -0.35 9.55 0.25 0.1 0.9 -0.3 0.6 -8.9 0.9 -9.35 0.3 -9.45 -0.35 -9.4 -0.8 -9.15 -1.45 -8.95 -1.85 -8.85 -1.95 -8.5 -2.45 -8.35 -3.95 -8.15 -5.45 -7.9 -7.65 -7.8 -8.45 -7.75 -9.15 -7.5 -11.45 -7.4 -12.1 Q-7.15 -13.35 -7.25 -14.45 L-11.3 -14.65 -11.5 -18.5 -11.8 -18.5 -12.1 -18.65 -12.4 -18.9 -12.45 -19.15 -12.05 -25.4 -12.05 -25.45 -11.95 -25.85 -11.8 -26.7 -11.65 -27.25 -11.2 -27.45 -11.2 -29.45 -12.0 -29.85 -12.15 -29.95 -12.2 -29.95 -12.35 -30.15 -12.45 -30.75 -12.45 -30.8 -12.45 -30.9 -11.55 -33.95 -11.55 -34.0 -10.8 -35.05 -10.75 -35.1 -8.7 -35.75 -8.6 -35.75 -7.1 -35.8 -7.1 -36.7 -6.85 -37.3 -5.0 -37.2 -4.75 -36.7 Q-4.65 -36.2 -4.8 -35.75 L-3.3 -35.75 -3.3 -36.3 -4.2 -36.7 Q-4.95 -36.95 -6.1 -38.6 -7.3 -40.25 -7.8 -42.2 L-8.3 -44.4 -8.05 -44.75 -7.6 -44.9 -7.2 -44.65 -5.9 -43.9 Q-4.65 -43.25 -3.25 -42.95 L2.3 -42.65 2.65 -42.35 3.35 -42.55 Q4.7 -43.0 6.05 -43.9 L7.8 -44.9 8.25 -44.75 8.5 -44.4 8.5 -44.35" fill="#4d4d4d" fill-rule="evenodd" stroke="none"/>
    <path d="M1.25 -38.2 L1.25 -36.1 3.9 -37.35 3.9 -37.3 5.45 -38.8 5.65 -39.2 3.9 -38.4 3.9 -38.45 3.5 -38.4 1.25 -38.2" fill="#fed23d" fill-rule="evenodd" stroke="none"/>
    <path d="M5.65 -39.2 L6.9 -41.95 3.9 -39.9 3.9 -39.95 1.25 -39.25 1.25 -38.2 3.5 -38.4 3.9 -38.45 3.9 -38.4 5.65 -39.2" fill="#fefe01" fill-rule="evenodd" stroke="none"/>
    <path d="M2.15 -40.4 L2.15 -38.3 4.8 -39.55 4.8 -39.5 6.35 -41.0 6.55 -41.4 4.8 -40.6 4.8 -40.65 4.4 -40.6 2.15 -40.4" fill="#fed23d" fill-rule="evenodd" stroke="none"/>
    <path d="M6.55 -41.4 L7.8 -44.15 4.8 -42.1 4.8 -42.15 2.15 -41.45 2.15 -40.4 4.4 -40.6 4.8 -40.65 4.8 -40.6 6.55 -41.4" fill="#fefe01" fill-rule="evenodd" stroke="none"/>
    <path d="M8.65 -30.75 L9.7 -25.65 10.65 -25.65 10.65 -30.75 8.65 -30.75" fill="#f7f9ff" fill-rule="evenodd" stroke="none"/>
    <path d="M9.7 -25.65 L8.65 -30.75 7.75 -30.75 7.75 -25.65 9.7 -25.65" fill="#ccdcff" fill-rule="evenodd" stroke="none"/>
    <path d="M2.6 -20.65 L3.25 -18.65 4.3 -15.6 5.0 -13.45 Q5.0 -13.15 4.65 -13.15 L3.7 -13.35 1.7 -13.4 1.7 -10.85 6.1 -10.85 6.1 -20.65 2.6 -20.65" fill="#f7f9ff" fill-rule="evenodd" stroke="none"/>
    <path d="M1.7 -13.4 L3.7 -13.35 4.65 -13.15 Q5.0 -13.15 5.0 -13.45 L4.3 -15.6 3.25 -18.65 2.6 -20.65 1.7 -20.65 1.7 -13.4" fill="#ccdcff" fill-rule="evenodd" stroke="none"/>
    <path d="M3.75 -13.95 L3.85 -13.8 Q4.05 -13.25 4.05 -10.2 4.3 -6.9 3.95 -6.9 L3.85 -7.55 3.5 -10.5 Q3.35 -14.0 3.75 -13.95 M5.45 -13.65 L5.5 -13.3 5.9 -10.45 6.05 -8.75 6.05 -8.65 6.05 -8.55 Q6.4 -6.8 5.75 -6.8 5.5 -6.8 5.4 -7.25 L5.25 -7.9 5.15 -9.1 5.0 -13.3 4.9 -13.55 5.15 -14.05 5.45 -13.65 M1.05 -14.8 L0.3 -2.1 8.2 -2.1 6.65 -14.8 1.05 -14.8" fill="#000000" fill-rule="evenodd" stroke="none"/>
    <path d="M5.45 -13.65 L5.15 -14.05 4.9 -13.55 5.0 -13.3 5.15 -9.1 5.25 -7.9 5.4 -7.25 Q5.5 -6.8 5.75 -6.8 6.4 -6.8 6.05 -8.55 L6.05 -8.65 6.05 -8.75 5.9 -10.45 5.5 -13.3 5.45 -13.65 M3.75 -13.95 Q3.35 -14.0 3.5 -10.5 L3.85 -7.55 3.95 -6.9 Q4.3 -6.9 4.05 -10.2 4.05 -13.25 3.85 -13.8 L3.75 -13.95" fill="#99ccff" fill-rule="evenodd" stroke="none"/>
    <path d="M4.6 -3.25 L3.45 -3.15 Q2.4 -2.95 1.55 -2.35 0.25 -1.45 0.25 -0.2 L0.3 0.15 8.9 0.15 8.95 -0.2 Q8.95 -1.45 7.65 -2.35 6.8 -2.95 5.75 -3.15 L4.6 -3.25" fill="#000000" fill-rule="evenodd" stroke="none"/>
    <path d="M5.25 -3.05 L4.8 -2.25 Q4.5 -1.35 4.45 -0.1 L4.5 0.25 6.55 0.25 6.55 -0.1 Q6.6 -1.35 6.25 -2.25 L5.8 -3.05 5.5 -3.15 5.25 -3.05" fill="#d21313" fill-rule="evenodd" stroke="none"/>
    <path d="M8.4 -16.75 Q7.55 -16.75 7.55 -17.55 L8.25 -18.25 Q9.15 -18.25 9.15 -17.45 9.25 -16.75 8.4 -16.75 M10.95 -19.4 L6.75 -19.4 6.75 -15.2 10.95 -15.2 10.95 -19.4" fill="#000000" fill-rule="evenodd" stroke="none"/>
    <path d="M11.35 -19.3 L11.35 -26.7 8.1 -26.7 11.35 -19.3" fill="#256f9e" fill-rule="evenodd" stroke="none"/>
    <path d="M8.1 -26.7 L7.2 -26.7 7.2 -19.25 11.35 -19.25 11.35 -19.3 8.1 -26.7" fill="#4d4d4d" fill-rule="evenodd" stroke="none"/>
    <path d="M11.5 -25.4 L11.05 -19.25 11.95 -19.25 11.5 -25.4" fill="#de0101" fill-rule="evenodd" stroke="none"/>
    <path d="M9.35 -25.4 L8.45 -19.25 10.35 -19.25 9.35 -25.4" fill="#de0101" fill-rule="evenodd" stroke="none"/>
    <path d="M7.0 -25.4 L6.55 -19.25 7.45 -19.25 7.0 -25.4" fill="#de0101" fill-rule="evenodd" stroke="none"/>
    <path d="M6.8 -32.15 L6.95 -32.05 6.9 -32.1 6.8 -32.15" fill="#fed23d" fill-rule="evenodd" stroke="none"/>
    <path d="M11.9 -30.75 Q11.7 -33.2 10.65 -34.4 8.95 -35.3 6.6 -35.05 L11.9 -30.75" fill="#256f9e" fill-rule="evenodd" stroke="none"/>
    <path d="M6.6 -35.05 L6.35 -35.05 6.35 -29.1 Q9.55 -29.35 11.9 -30.55 L11.9 -30.75 6.6 -35.05 M6.8 -32.15 L6.9 -32.1 6.95 -32.05 6.8 -32.15" fill="#000000" fill-rule="evenodd" stroke="none"/>
    <path d="M6.05 -36.7 L6.3 -28.65 6.6 -28.65 6.6 -36.7 6.05 -36.7" fill="#f7f9ff" fill-rule="evenodd" stroke="none"/>
    <path d="M6.05 -36.7 L5.8 -36.7 5.8 -28.65 6.3 -28.65 6.05 -36.7" fill="#ccdcff" fill-rule="evenodd" stroke="none"/>
    <path d="M-1.05 -38.2 L-1.05 -36.1 -3.7 -37.35 -3.7 -37.3 -5.25 -38.8 -5.45 -39.2 -3.7 -38.4 -3.7 -38.45 -3.3 -38.4 -1.05 -38.2" fill="#fed23d" fill-rule="evenodd" stroke="none"/>
    <path d="M-5.45 -39.2 L-6.7 -41.95 -3.7 -39.9 -3.7 -39.95 -1.05 -39.25 -1.05 -38.2 -3.3 -38.4 -3.7 -38.45 -3.7 -38.4 -5.45 -39.2" fill="#fefe01" fill-rule="evenodd" stroke="none"/>
    <path d="M-1.95 -40.4 L-1.95 -38.3 -4.6 -39.55 -4.6 -39.5 -6.15 -41.0 -6.35 -41.4 -4.6 -40.6 -4.6 -40.65 -4.2 -40.6 -1.95 -40.4" fill="#fed23d" fill-rule="evenodd" stroke="none"/>
    <path d="M-6.35 -41.4 L-7.6 -44.15 -4.6 -42.1 -4.6 -42.15 -1.95 -41.45 -1.95 -40.4 -4.2 -40.6 -4.6 -40.65 -4.6 -40.6 -6.35 -41.4" fill="#fefe01" fill-rule="evenodd" stroke="none"/>
    <path d="M-8.45 -30.75 L-9.5 -25.65 -10.45 -25.65 -10.45 -30.75 -8.45 -30.75" fill="#f7f9ff" fill-rule="evenodd" stroke="none"/>
    <path d="M-8.45 -30.75 L-7.55 -30.75 -7.55 -25.65 -9.5 -25.65 -8.45 -30.75" fill="#ccdcff" fill-rule="evenodd" stroke="none"/>
    <path d="M1.7 -29.95 Q0.7 -28.05 -0.65 -24.15 L-3.55 -24.15 -3.55 -29.95 1.7 -29.95" fill="#f7f9ff" fill-rule="evenodd" stroke="none"/>
    <path d="M1.7 -29.95 L3.85 -29.95 3.85 -24.15 -0.65 -24.15 Q0.7 -28.05 1.7 -29.95" fill="#ccdcff" fill-rule="evenodd" stroke="none"/>
    <path d="M-2.4 -20.65 L-3.05 -18.65 -4.1 -15.6 -4.8 -13.45 Q-4.8 -13.15 -4.45 -13.15 L-3.5 -13.35 -1.5 -13.4 -1.5 -10.85 -5.9 -10.85 -5.9 -20.65 -2.4 -20.65" fill="#f7f9ff" fill-rule="evenodd" stroke="none"/>
    <path d="M-1.5 -13.4 L-3.5 -13.35 -4.45 -13.15 Q-4.8 -13.15 -4.8 -13.45 L-4.1 -15.6 -3.05 -18.65 -2.4 -20.65 -1.5 -20.65 -1.5 -13.4" fill="#ccdcff" fill-rule="evenodd" stroke="none"/>
    <path d="M-0.85 -14.8 L-0.1 -2.1 -8.0 -2.1 -6.45 -14.8 -0.85 -14.8 M-5.25 -13.65 L-5.3 -13.3 -5.7 -10.45 -5.85 -8.75 -5.85 -8.65 -5.85 -8.55 Q-6.2 -6.8 -5.55 -6.8 -5.3 -6.8 -5.2 -7.25 L-5.05 -7.9 -4.95 -9.1 -4.8 -13.3 -4.7 -13.55 -4.95 -14.05 -5.25 -13.65 M-3.55 -13.95 L-3.65 -13.8 Q-3.85 -13.25 -3.85 -10.2 -4.1 -6.9 -3.75 -6.9 L-3.65 -7.55 -3.3 -10.5 Q-3.15 -14.0 -3.55 -13.95" fill="#000000" fill-rule="evenodd" stroke="none"/>
    <path d="M-3.55 -13.95 Q-3.15 -14.0 -3.3 -10.5 L-3.65 -7.55 -3.75 -6.9 Q-4.1 -6.9 -3.85 -10.2 -3.85 -13.25 -3.65 -13.8 L-3.55 -13.95 M-5.25 -13.65 L-4.95 -14.05 -4.7 -13.55 -4.8 -13.3 -4.95 -9.1 -5.05 -7.9 -5.2 -7.25 Q-5.3 -6.8 -5.55 -6.8 -6.2 -6.8 -5.85 -8.55 L-5.85 -8.65 -5.85 -8.75 -5.7 -10.45 -5.3 -13.3 -5.25 -13.65" fill="#99ccff" fill-rule="evenodd" stroke="none"/>
    <path d="M-4.4 -3.25 L-3.25 -3.15 Q-2.2 -2.95 -1.35 -2.35 -0.05 -1.45 -0.05 -0.2 L-0.1 0.15 -8.7 0.15 -8.75 -0.2 Q-8.75 -1.45 -7.45 -2.35 -6.6 -2.95 -5.55 -3.15 L-4.4 -3.25" fill="#000000" fill-rule="evenodd" stroke="none"/>
    <path d="M-5.3 -3.15 L-5.05 -3.05 -4.6 -2.25 Q-4.3 -1.35 -4.25 -0.1 L-4.3 0.25 -6.35 0.25 -6.35 -0.1 Q-6.4 -1.35 -6.05 -2.25 L-5.6 -3.05 -5.3 -3.15" fill="#d21313" fill-rule="evenodd" stroke="none"/>
    <path d="M-1.7 -18.35 Q-0.3 -19.2 -0.05 -19.7 L0.85 -22.4 1.65 -24.75 4.95 -24.75 5.45 -21.65 0.1 -16.7 -1.7 -18.35" fill="#000000" fill-rule="evenodd" stroke="none"/>
    <path d="M1.65 -24.75 L0.85 -22.4 -0.05 -19.7 Q-0.3 -19.2 -1.7 -18.35 L-5.2 -21.65 -4.75 -24.75 1.65 -24.75" fill="#256f9e" fill-rule="evenodd" stroke="none"/>
    <path d="M2.15 -25.9 L0.9 -17.25 -0.45 -17.25 -0.45 -17.3 -1.65 -25.9 2.15 -25.9" fill="#2291ff" fill-rule="evenodd" stroke="none"/>
    <path d="M0.8 -19.7 L0.65 -18.2 -0.2 -18.2 -0.3 -19.7 0.8 -19.7 M1.0 -22.35 L0.85 -20.85 -0.4 -20.85 -0.5 -22.35 1.0 -22.35 M1.2 -25.1 L1.05 -23.35 -0.6 -23.35 -0.7 -25.1 1.2 -25.1" fill="#000000" fill-rule="evenodd" stroke="none"/>
    <path d="M-10.75 -19.4 L-6.55 -19.4 -6.55 -15.2 -10.75 -15.2 -10.75 -19.4 M-8.2 -16.75 Q-7.35 -16.75 -7.35 -17.55 L-8.05 -18.25 Q-8.95 -18.25 -8.95 -17.45 -9.05 -16.75 -8.2 -16.75" fill="#000000" fill-rule="evenodd" stroke="none"/>
    <path d="M-11.15 -19.3 L-11.15 -26.7 -7.9 -26.7 -11.15 -19.3" fill="#256f9e" fill-rule="evenodd" stroke="none"/>
    <path d="M-7.9 -26.7 L-7.0 -26.7 -7.0 -19.25 -11.15 -19.25 -11.15 -19.3 -7.9 -26.7" fill="#4d4d4d" fill-rule="evenodd" stroke="none"/>
    <path d="M-11.3 -25.4 L-10.85 -19.25 -11.75 -19.25 -11.3 -25.4" fill="#de0101" fill-rule="evenodd" stroke="none"/>
    <path d="M-9.15 -25.4 L-8.25 -19.25 -10.15 -19.25 -9.15 -25.4" fill="#de0101" fill-rule="evenodd" stroke="none"/>
    <path d="M-6.8 -25.4 L-6.35 -19.25 -7.25 -19.25 -6.8 -25.4" fill="#de0101" fill-rule="evenodd" stroke="none"/>
    <path d="M-6.6 -32.15 L-6.75 -32.05 -6.7 -32.1 -6.6 -32.15" fill="#fed23d" fill-rule="evenodd" stroke="none"/>
    <path d="M-11.7 -30.75 Q-11.5 -33.2 -10.45 -34.4 -8.75 -35.3 -6.4 -35.05 L-11.7 -30.75" fill="#256f9e" fill-rule="evenodd" stroke="none"/>
    <path d="M-6.4 -35.05 L-6.15 -35.05 -6.15 -29.1 Q-9.35 -29.35 -11.7 -30.55 L-11.7 -30.75 -6.4 -35.05 M-6.6 -32.15 L-6.7 -32.1 -6.75 -32.05 -6.6 -32.15" fill="#000000" fill-rule="evenodd" stroke="none"/>
    <path d="M2.85 -35.0 L0.0 -30.95 Q-1.3 -29.05 -3.0 -27.45 L-5.55 -28.4 -5.55 -35.0 2.85 -35.0" fill="#226894" fill-rule="evenodd" stroke="none"/>
    <path d="M-3.0 -27.45 Q-1.3 -29.05 0.0 -30.95 L2.85 -35.0 5.6 -35.0 5.6 -28.4 5.1 -28.2 5.05 -28.2 0.15 -26.3 -3.0 -27.45" fill="#000000" fill-rule="evenodd" stroke="none"/>
    <path d="M1.45 -38.55 L1.9 -38.1 Q1.85 -37.85 1.25 -37.85 0.55 -37.85 0.55 -38.2 0.55 -38.55 1.45 -38.55 M-1.7 -38.65 L-1.25 -38.65 Q-0.55 -38.65 -0.55 -38.25 -0.55 -37.85 -0.95 -37.85 -1.8 -37.85 -1.8 -38.4 L-1.7 -38.65" fill="#fefe01" fill-rule="evenodd" stroke="none"/>
    <path d="M-0.9 -35.5 L-0.9 -35.85 -0.85 -36.4 Q-0.7 -37.65 0.1 -37.65 1.05 -37.65 1.1 -36.55 L1.1 -36.1 1.0 -35.5 -0.9 -35.5" fill="#9ba0dd" fill-rule="evenodd" stroke="none"/>
    <path d="M1.45 -38.55 Q0.55 -38.55 0.55 -38.2 0.55 -37.85 1.25 -37.85 1.85 -37.85 1.9 -38.1 L1.45 -38.55 M-1.9 -40.2 L-1.9 -39.55 2.1 -39.55 2.1 -40.15 2.6 -39.85 2.6 -35.5 1.0 -35.5 1.1 -36.1 1.1 -36.55 Q1.05 -37.65 0.1 -37.65 -0.7 -37.65 -0.85 -36.4 L-0.9 -35.85 -0.9 -35.5 -2.55 -35.5 -2.55 -39.85 -1.9 -40.2 M-1.7 -38.65 L-1.8 -38.4 Q-1.8 -37.85 -0.95 -37.85 -0.55 -37.85 -0.55 -38.25 -0.55 -38.65 -1.25 -38.65 L-1.7 -38.65" fill="#4d4d4d" fill-rule="evenodd" stroke="none"/>
    <path d="M2.1 -40.15 L2.1 -39.55 -1.9 -39.55 -1.9 -40.2 -1.9 -41.85 2.1 -41.85 2.1 -40.15" fill="#de0101" fill-rule="evenodd" stroke="none"/>
    <path d="M4.9 -34.6 L4.9 -32.35 -0.05 -28.3 -0.05 -28.2 -0.1 -28.25 -0.2 -28.2 -0.2 -28.3 -5.15 -32.35 -5.15 -34.6 -0.1 -31.85 4.9 -34.6" fill="#de0101" fill-rule="evenodd" stroke="none"/>
    <path d="M-5.85 -36.7 L-6.1 -28.65 -6.4 -28.65 -6.4 -36.7 -5.85 -36.7" fill="#f7f9ff" fill-rule="evenodd" stroke="none"/>
    <path d="M-6.1 -28.65 L-5.85 -36.7 -5.6 -36.7 -5.6 -28.65 -6.1 -28.65" fill="#ccdcff" fill-rule="evenodd" stroke="none"/>
  </g>
</svg>
