<?xml version="1.0" encoding="UTF-8" standalone="no"?>
<svg xmlns:xlink="http://www.w3.org/1999/xlink" height="41.05px" width="34.2px" xmlns="http://www.w3.org/2000/svg">
  <g transform="matrix(1.0, 0.0, 0.0, 1.0, 21.65, 41.2)">
    <path d="M0.05 -38.3 L0.1 -37.05 -0.2 -35.6 -0.55 -34.7 -0.3 -34.6 Q1.2 -33.7 1.05 -33.35 1.0 -32.4 0.1 -32.4 -0.9 -32.35 -3.15 -34.15 L-3.25 -34.35 -3.3 -34.55 -3.2 -35.0 -3.15 -35.05 -3.25 -35.05 -4.1 -35.0 -4.05 -34.75 -4.05 -34.7 Q-4.05 -34.35 -4.55 -33.15 L-5.05 -32.25 -5.05 -32.15 -5.05 -32.1 Q-4.7 -31.25 -4.75 -29.6 L-4.75 -29.5 -4.75 -29.4 -4.85 -28.95 -4.1 -27.05 -4.0 -27.05 Q-3.05 -27.15 -1.8 -23.7 L-0.4 -24.3 -0.15 -24.4 -0.1 -24.4 3.6 -26.85 3.4 -27.65 3.25 -28.15 3.2 -28.3 3.3 -28.85 Q3.6 -30.2 6.3 -30.2 L6.35 -30.2 Q7.25 -30.3 8.0 -29.05 L8.05 -28.8 7.85 -28.2 Q7.65 -27.95 7.25 -27.9 L7.1 -27.95 6.35 -28.15 5.35 -28.05 5.3 -28.0 5.45 -27.5 6.2 -27.15 7.7 -27.9 7.95 -27.95 8.6 -27.7 8.75 -27.0 8.75 -26.95 8.05 -26.0 7.85 -25.8 7.8 -25.8 Q6.8 -25.0 6.15 -25.05 L4.85 -25.3 4.45 -25.05 3.05 -24.15 2.2 -23.45 0.0 -21.85 -0.95 -21.25 -1.1 -21.15 -1.85 -20.35 Q-2.7 -19.75 -3.25 -19.8 -4.65 -19.7 -6.2 -23.95 L-6.2 -23.45 -6.25 -22.9 -6.2 -21.85 -6.2 -21.8 Q-6.15 -20.85 -6.65 -20.4 L-6.95 -20.3 -7.55 -20.15 -6.9 -19.55 -5.45 -17.75 -5.5 -17.8 -5.45 -17.75 -4.7 -16.55 -4.35 -16.85 -4.05 -16.95 Q-3.35 -17.05 -0.9 -13.9 L-0.45 -14.3 -0.25 -14.35 0.4 -14.45 Q1.85 -14.55 4.9 -12.0 L8.1 -8.95 10.3 -6.75 10.7 -6.25 11.45 -5.0 Q12.15 -3.65 12.5 -2.1 12.7 -1.25 11.9 -0.65 L11.85 -0.65 Q11.2 -0.25 10.4 -0.25 L7.2 -0.15 3.5 -0.15 -10.1 -0.25 -11.4 -0.5 Q-11.75 -0.4 -11.9 -0.8 L-12.0 -1.15 -12.0 -1.25 -11.85 -1.6 -11.8 -1.75 Q-11.85 -2.7 -10.75 -3.9 L-10.7 -3.95 -9.15 -5.6 -14.9 -5.6 -14.7 -4.55 -14.7 -4.45 Q-14.7 -3.6 -15.4 -2.55 L-15.4 -2.6 Q-16.45 -1.0 -18.7 -0.95 -21.65 -1.0 -21.65 -3.4 -21.7 -4.25 -20.6 -5.75 -19.5 -7.4 -18.0 -7.7 L-18.0 -10.2 -17.85 -10.55 -17.5 -10.7 -6.95 -10.7 -8.0 -13.15 -8.05 -13.3 Q-8.15 -13.6 -7.35 -14.35 L-8.55 -15.65 -8.55 -15.7 -9.65 -17.2 -9.65 -17.15 Q-10.55 -18.4 -10.5 -18.8 L-10.5 -18.85 Q-11.2 -19.15 -12.0 -19.8 -13.6 -21.1 -13.45 -21.75 L-13.4 -21.95 -13.1 -22.45 -14.1 -22.7 Q-15.6 -22.75 -15.55 -23.95 L-15.5 -24.2 Q-12.95 -28.85 -12.25 -28.7 L-12.1 -28.65 -9.8 -27.95 -8.8 -29.05 -9.0 -29.6 -9.0 -29.65 Q-9.05 -30.0 -8.15 -31.55 L-7.6 -32.45 -7.5 -32.6 -7.55 -32.5 -7.35 -33.0 -7.95 -34.85 -7.95 -35.0 Q-10.05 -35.1 -10.7 -35.55 L-10.75 -35.55 Q-11.3 -35.8 -11.3 -36.85 -11.3 -38.0 -11.0 -38.35 -10.65 -39.0 -9.6 -39.25 -9.35 -40.15 -8.5 -40.1 L-8.2 -40.0 -8.2 -39.95 -8.15 -39.95 -5.95 -39.7 -5.5 -39.3 -3.85 -39.2 -3.8 -39.2 -3.9 -39.85 Q-3.95 -40.4 -2.15 -40.85 L0.2 -41.2 Q1.0 -41.2 1.55 -40.75 L1.7 -40.5 1.7 -40.2 Q1.65 -39.7 -0.75 -39.3 L-0.85 -39.3 Q-0.2 -39.0 0.05 -38.35 L0.05 -38.3 M-6.0 -10.4 L-5.95 -10.25 -5.8 -10.5 -6.1 -10.55 -6.0 -10.4" fill="#000000" fill-rule="evenodd" stroke="none"/>
    <path d="M1.25 -40.35 L-0.85 -39.8 -3.15 -39.45 Q-3.5 -39.45 -3.4 -39.75 -3.4 -40.05 -2.05 -40.35 L0.2 -40.7 Q0.8 -40.7 1.25 -40.35 M-1.15 -34.5 L-0.55 -34.15 0.55 -33.35 Q0.55 -32.9 0.1 -32.9 -0.8 -32.9 -2.8 -34.55 L-2.6 -34.85 -2.65 -34.8 -1.35 -34.5 -1.15 -34.5 M-2.5 -34.95 L-3.0 -35.6 -4.9 -35.45 -4.55 -34.7 -5.0 -33.35 -5.25 -32.8 -6.85 -33.1 -7.45 -34.95 -7.15 -35.45 Q-9.75 -35.55 -10.5 -36.0 -10.8 -36.15 -10.8 -36.85 L-10.6 -38.1 Q-10.25 -38.65 -9.2 -38.8 -9.1 -39.6 -8.5 -39.6 L-8.15 -39.45 -6.15 -39.25 -5.85 -38.95 -5.85 -38.8 -3.9 -38.7 -6.15 -38.65 -6.7 -38.8 -7.0 -38.35 -6.75 -36.0 -6.65 -35.65 -4.7 -35.5 -3.65 -35.55 -3.05 -35.6 -3.0 -36.35 Q-3.0 -38.2 -3.15 -38.7 -3.0 -39.1 -2.45 -39.1 -0.8 -39.1 -0.45 -38.2 L-0.4 -37.05 -0.65 -35.75 -1.1 -34.8 -2.8 -35.3 -2.5 -34.95 M-5.5 -32.45 L-5.55 -32.2 -5.55 -32.0 Q-5.2 -31.25 -5.25 -29.6 L-5.75 -29.95 Q-6.2 -29.95 -7.25 -29.2 L-7.65 -29.2 -8.15 -29.2 -8.05 -29.1 -8.5 -29.65 -7.7 -31.3 -7.15 -32.2 -7.1 -32.3 -7.05 -32.4 -6.1 -32.15 -5.8 -32.4 -5.55 -32.3 -5.5 -32.45 M-5.25 -29.4 Q-5.25 -29.15 -5.4 -29.0 L-4.45 -26.5 -4.0 -26.55 Q-3.35 -26.6 -2.15 -23.2 L-1.7 -21.15 -2.15 -20.75 Q-2.8 -20.3 -3.25 -20.3 -4.4 -20.3 -6.0 -24.9 L-5.8 -25.5 -6.2 -26.55 -5.7 -26.1 -5.55 -26.3 Q-5.55 -27.45 -6.45 -28.8 L-6.05 -29.0 -6.05 -28.8 Q-5.3 -26.55 -5.0 -26.55 L-4.8 -26.75 Q-4.8 -27.4 -5.95 -29.05 L-5.25 -29.4 M-0.25 -23.8 L0.1 -23.95 Q1.05 -24.45 3.9 -26.45 L4.5 -25.85 4.6 -25.75 4.2 -25.45 2.75 -24.55 0.0 -23.3 Q0.0 -23.75 -0.25 -23.8 M3.85 -27.8 L3.7 -28.3 3.75 -28.7 3.85 -27.85 3.85 -27.8 M6.3 -29.7 L6.35 -29.7 Q7.0 -29.75 7.55 -28.8 7.55 -28.45 7.25 -28.4 L6.45 -28.65 Q4.75 -28.7 4.75 -27.95 L5.05 -27.05 Q5.65 -27.05 6.05 -26.6 6.35 -26.6 7.95 -27.45 8.35 -27.45 8.25 -27.05 L7.7 -26.35 Q6.9 -26.0 6.4 -26.0 4.5 -26.0 4.5 -27.95 4.5 -28.6 6.3 -29.7 M-6.4 -26.9 L-6.7 -24.1 -6.75 -24.55 Q-6.7 -24.85 -7.1 -25.05 L-7.05 -26.25 Q-7.05 -26.8 -7.75 -27.0 L-7.75 -27.1 -9.3 -27.75 -8.5 -28.65 -8.65 -28.55 -7.75 -28.45 -7.5 -28.5 -7.4 -28.5 -6.65 -27.45 -6.4 -26.9 M-6.8 -22.95 L-6.7 -21.8 Q-6.65 -21.1 -7.0 -20.8 L-8.2 -20.35 -9.4 -20.2 Q-9.05 -20.4 -8.7 -20.75 L-8.4 -21.05 Q-7.75 -21.15 -7.2 -22.15 L-6.8 -22.95 M-7.7 -19.65 L-7.3 -19.2 -5.85 -17.5 -5.85 -17.45 -4.85 -15.85 -5.0 -16.1 -5.1 -16.05 -5.55 -16.25 -7.1 -15.05 -6.65 -14.55 -6.75 -14.45 -6.7 -14.4 -8.15 -16.0 -9.25 -17.45 -10.0 -18.8 -9.9 -19.15 -9.95 -19.15 -9.55 -19.5 -7.7 -19.65 M-3.8 -16.35 Q-3.1 -15.95 -1.3 -13.6 L-2.95 -11.75 -2.4 -12.6 Q-3.45 -12.85 -3.5 -13.05 L-4.65 -12.65 -5.9 -12.35 Q-6.15 -12.35 -6.4 -12.6 L-6.85 -12.2 -5.1 -9.75 -4.95 -9.8 -5.0 -9.75 -7.5 -7.65 -7.55 -7.7 -7.55 -8.05 Q-7.55 -8.65 -8.2 -8.65 -7.55 -8.75 -7.55 -8.95 -6.45 -9.4 -11.25 -9.4 L-14.85 -8.95 Q-14.85 -8.55 -12.0 -8.5 -12.85 -8.5 -12.85 -7.65 L-12.85 -7.35 -14.55 -7.0 -12.4 -6.75 -12.15 -6.7 -11.95 -6.7 -9.75 -6.7 -8.55 -6.75 -9.25 -6.1 -14.95 -6.1 -15.1 -6.4 -14.35 -7.45 -15.1 -9.55 Q-15.55 -9.55 -15.55 -8.65 L-15.4 -6.8 -15.7 -7.1 Q-15.55 -7.3 -15.55 -7.75 L-16.05 -9.7 Q-16.65 -9.7 -16.65 -8.5 L-16.55 -7.65 -17.5 -7.85 -17.5 -10.2 -6.5 -10.2 -6.45 -10.1 -5.9 -10.0 Q-6.6 -10.95 -7.35 -12.8 L-6.5 -13.5 -6.8 -13.1 -6.5 -12.8 -5.15 -13.6 -4.1 -14.6 -2.45 -13.2 -2.4 -13.3 Q-2.5 -13.8 -3.1 -14.65 -3.8 -15.55 -4.2 -15.55 L-4.65 -15.4 -3.8 -16.35 M-0.85 -13.25 L-0.15 -13.9 0.4 -13.95 Q1.75 -14.0 4.6 -11.6 L7.75 -8.6 9.9 -6.4 10.25 -5.95 11.0 -4.75 12.0 -2.0 Q12.1 -1.45 11.6 -1.05 L10.35 -0.75 7.2 -0.65 3.5 -0.65 -10.05 -0.75 -11.4 -1.05 -11.5 -1.2 -11.3 -1.35 -11.3 -1.7 Q-11.35 -2.5 -10.35 -3.6 L-8.65 -5.4 -8.0 -6.1 -8.1 -6.1 -7.1 -6.95 -5.3 -8.45 -5.35 -8.25 -5.35 -8.15 -5.7 -7.75 Q-5.7 -7.35 -5.25 -7.35 -4.9 -7.35 -4.9 -7.75 L-4.95 -7.8 -4.9 -7.8 Q-4.4 -7.8 -4.4 -8.3 L-4.9 -8.75 -5.05 -8.7 -4.4 -9.35 -2.6 -11.15 -2.55 -11.2 -2.7 -10.85 -3.05 -10.4 -2.95 -10.15 -3.1 -10.15 Q-3.65 -10.15 -3.65 -9.55 -3.7 -9.0 -3.1 -9.0 L-2.5 -9.55 Q-2.5 -9.85 -2.65 -10.0 L-2.6 -10.0 Q-2.3 -10.0 -2.2 -10.2 L-2.0 -10.2 Q-1.5 -10.2 -1.5 -10.8 -1.55 -11.4 -2.1 -11.4 L-2.5 -11.25 -1.9 -12.0 -0.65 -13.45 -0.85 -13.25 M-15.4 -5.35 L-15.2 -4.45 Q-15.2 -3.7 -15.8 -2.85 -16.75 -1.5 -18.7 -1.45 -21.15 -1.5 -21.15 -3.4 -21.15 -4.15 -20.2 -5.45 -19.2 -6.95 -17.9 -7.2 L-17.35 -7.05 Q-16.35 -6.85 -16.05 -6.5 L-15.4 -5.35 M-10.9 -19.6 L-11.7 -20.2 Q-13.0 -21.25 -12.95 -21.7 L-12.35 -22.8 -14.05 -23.2 Q-15.05 -23.25 -15.05 -23.95 -12.7 -28.2 -12.25 -28.2 -10.8 -27.85 -10.1 -27.5 L-9.45 -27.15 -9.4 -27.15 -9.6 -26.85 -9.7 -26.9 -10.75 -25.05 Q-11.4 -24.0 -12.45 -24.35 -13.4 -24.7 -13.8 -23.7 -13.0 -23.25 -11.45 -23.25 -10.6 -23.25 -9.95 -24.8 -9.4 -26.0 -9.4 -26.5 L-8.25 -26.25 -8.8 -23.2 Q-9.2 -23.5 -9.8 -23.5 L-10.2 -23.15 -8.95 -22.1 -9.05 -21.35 -9.0 -21.2 Q-9.4 -20.6 -10.7 -20.5 L-10.15 -20.0 -10.05 -20.0 -10.35 -19.9 -10.9 -19.6 M0.8 -13.15 Q0.15 -13.15 0.15 -12.55 0.15 -12.3 0.5 -12.3 1.05 -12.3 1.05 -12.8 L0.8 -13.15 M5.4 -9.65 L5.4 -9.85 Q5.4 -10.25 5.05 -10.3 5.0 -10.85 4.4 -10.85 3.75 -10.85 3.75 -10.15 L4.4 -9.55 4.7 -9.55 4.95 -9.3 5.2 -9.35 5.15 -9.15 5.7 -8.6 Q6.2 -8.6 6.3 -9.15 6.3 -9.75 5.7 -9.75 L5.4 -9.65 M6.9 -7.95 L6.8 -7.6 7.4 -6.95 7.7 -7.0 Q7.75 -6.65 8.2 -6.65 8.6 -6.65 8.6 -7.05 8.6 -7.45 8.15 -7.45 L8.05 -7.45 8.05 -7.55 Q7.95 -8.2 7.45 -8.2 L6.95 -8.0 7.0 -8.3 6.6 -8.75 Q6.05 -8.75 6.05 -8.3 6.05 -7.85 6.55 -7.85 6.8 -7.85 6.9 -7.95 M4.3 -7.55 Q5.6 -6.25 6.05 -6.25 L6.2 -6.35 Q6.25 -6.85 4.05 -9.05 L1.4 -11.45 1.5 -11.65 1.4 -11.85 1.1 -11.9 -2.65 -8.9 -5.25 -6.5 -5.25 -6.7 -5.8 -7.25 Q-6.3 -7.25 -6.35 -6.75 L-6.7 -6.4 -6.65 -6.15 -7.0 -6.25 Q-7.55 -6.25 -7.55 -5.65 -7.6 -5.2 -7.2 -5.1 L-9.5 -2.3 Q-9.5 -1.8 -9.05 -1.8 L-7.2 -1.7 -7.15 -1.6 -6.95 -1.55 -6.3 -1.7 -6.1 -1.7 Q-5.3 -1.7 -5.3 -2.25 L-5.3 -2.15 -1.5 -4.6 1.5 -6.2 4.3 -7.55 M9.5 -6.2 L9.5 -6.25 Q9.5 -6.85 8.9 -6.85 8.35 -6.85 8.35 -6.25 L8.9 -5.7 9.0 -5.7 Q9.0 -5.2 9.4 -5.2 L9.3 -4.8 9.95 -4.2 10.0 -4.2 9.95 -3.95 Q9.95 -3.6 10.25 -3.5 10.1 -3.4 10.1 -3.1 L10.75 -2.5 10.7 -2.3 Q10.7 -1.9 11.1 -1.9 11.4 -1.9 11.4 -2.4 L11.25 -2.8 11.3 -3.1 10.75 -3.7 10.8 -3.95 Q10.8 -4.45 10.45 -4.45 L10.5 -4.8 Q10.4 -5.4 9.9 -5.4 L9.85 -5.4 9.9 -5.65 Q9.9 -6.2 9.5 -6.2 M3.6 -11.4 L3.6 -11.6 Q3.6 -12.4 2.8 -12.4 L2.45 -12.35 Q2.45 -12.75 2.05 -12.75 1.6 -12.75 1.6 -12.3 1.6 -11.85 2.05 -11.85 L2.0 -11.55 Q2.0 -10.8 2.8 -10.8 L3.05 -10.8 Q3.1 -10.5 3.5 -10.5 3.95 -10.5 3.95 -10.95 L3.6 -11.4 M9.6 -1.85 L10.0 -2.0 10.3 -2.55 Q8.4 -6.4 7.6 -6.4 7.15 -6.4 3.95 -2.5 3.95 -1.9 7.25 -1.8 L7.75 -1.8 9.6 -1.85 M-8.4 -37.75 L-7.3 -37.95 -8.7 -38.3 -10.25 -38.05 -8.4 -37.75 M-1.1 -38.0 Q-1.45 -38.55 -2.45 -38.55 -2.9 -38.55 -2.8 -37.7 L-2.35 -36.35 -1.1 -38.0 M-10.35 -26.85 L-10.4 -27.1 -11.8 -27.45 -13.05 -26.1 -14.1 -24.5 -13.9 -24.3 -12.4 -25.8 Q-11.75 -25.45 -11.25 -25.45 L-11.0 -25.65 -12.0 -26.5 -11.7 -26.95 -10.65 -26.65 -10.4 -26.7 -10.35 -26.85 M-6.3 -34.2 L-6.65 -34.7 Q-6.95 -34.7 -6.95 -34.3 -6.9 -33.8 -6.6 -33.8 -6.3 -33.8 -6.3 -34.2 M-6.5 -31.05 Q-5.95 -30.9 -5.95 -31.35 L-6.4 -31.9 -7.75 -30.6 Q-7.75 -30.1 -7.05 -30.1 -6.5 -30.1 -6.5 -31.05 M-5.6 -25.15 Q-5.7 -24.85 -5.25 -24.85 L-4.3 -25.2 -3.8 -23.65 Q-3.5 -22.8 -2.85 -22.3 L-2.6 -23.35 Q-3.3 -26.15 -4.05 -26.15 -4.4 -26.15 -5.0 -25.75 L-5.6 -25.15 M-4.55 -24.65 L-4.85 -24.15 -3.45 -20.85 -3.35 -20.9 -4.55 -24.65 M-8.6 -19.4 Q-9.4 -19.4 -9.4 -18.65 -9.4 -18.25 -8.95 -18.25 L-8.25 -18.2 -7.75 -17.45 -7.0 -16.75 -7.4 -16.3 -7.2 -16.1 Q-6.4 -16.35 -6.4 -16.75 L-6.55 -16.95 -6.55 -17.1 -7.7 -18.3 -8.6 -19.4 M-11.1 -22.45 Q-12.1 -22.45 -12.1 -21.7 -12.1 -20.95 -11.2 -20.95 -10.2 -20.95 -10.2 -21.8 L-10.3 -22.1 Q-10.5 -22.45 -11.1 -22.45 M-8.4 -8.6 L-8.55 -8.55 -8.65 -7.65 -8.65 -7.6 -11.5 -7.4 -11.5 -7.8 -11.5 -8.15 Q-11.55 -8.5 -11.95 -8.5 L-11.25 -8.5 -8.4 -8.6 M-17.2 -5.45 Q-16.8 -5.6 -16.8 -5.85 L-17.55 -6.25 Q-19.85 -6.25 -19.85 -3.9 -20.0 -2.7 -19.35 -2.7 -19.1 -2.7 -19.05 -3.4 -18.85 -2.5 -17.95 -2.5 -16.1 -2.5 -16.1 -4.15 L-16.15 -4.75 Q-16.25 -5.4 -16.65 -5.4 L-17.2 -5.45 M-17.35 -4.5 L-16.85 -4.5 -16.85 -4.35 -16.9 -4.15 -17.35 -4.5 M-17.35 -3.65 L-17.8 -3.55 -18.05 -3.8 -17.4 -3.65 -17.35 -3.65 M-10.15 -2.1 L-10.0 -2.1 Q-9.5 -2.1 -9.5 -2.6 L-10.0 -3.05 Q-10.45 -3.05 -10.45 -2.55 L-10.4 -2.3 -10.45 -2.3 -10.8 -2.0 -10.35 -1.65 -10.15 -2.05 -10.15 -2.1 M-1.0 -12.1 L-1.2 -12.15 Q-1.75 -12.15 -1.75 -11.5 -1.75 -11.15 -1.35 -11.15 -0.9 -11.15 -0.85 -11.6 L-0.3 -11.5 Q0.2 -11.5 0.2 -12.1 0.1 -12.7 -0.4 -12.7 -1.0 -12.7 -1.0 -12.1 M-4.35 -9.0 Q-4.45 -8.6 -3.95 -8.6 -3.6 -8.6 -3.6 -9.05 L-3.95 -9.4 Q-4.35 -9.4 -4.35 -9.0 M-7.75 -5.1 Q-7.75 -5.5 -8.1 -5.5 -8.65 -5.5 -8.65 -4.8 L-8.2 -4.5 Q-7.75 -4.5 -7.75 -5.1 M-9.3 -3.85 L-8.8 -3.75 Q-8.35 -3.75 -8.35 -4.3 L-8.9 -4.85 Q-9.45 -4.85 -9.45 -4.25 L-9.35 -3.95 -9.85 -3.45 Q-9.85 -2.9 -9.45 -2.9 -8.95 -2.9 -8.95 -3.4 L-9.3 -3.85" fill="#737373" fill-rule="evenodd" stroke="none"/>
    <path d="M-5.25 -29.6 L-5.25 -29.5 -5.25 -29.4 -5.95 -29.05 -6.0 -29.1 -6.05 -29.1 -6.05 -29.0 -6.45 -28.8 Q-5.55 -27.45 -5.55 -26.3 L-5.7 -26.1 -6.2 -26.55 -6.35 -27.05 -6.4 -26.9 -6.65 -27.45 -7.4 -28.5 -7.55 -29.0 -7.5 -29.0 -7.35 -29.15 -7.25 -29.2 Q-6.2 -29.95 -5.75 -29.95 L-5.25 -29.6 M-1.9 -23.05 L-0.25 -23.8 Q0.0 -23.75 0.0 -23.3 L2.75 -24.55 1.85 -23.8 Q1.45 -23.4 -0.25 -22.3 L-1.2 -21.7 -1.9 -23.05 M3.9 -26.45 L4.15 -26.65 3.85 -27.8 3.85 -27.85 3.75 -28.7 Q4.05 -29.7 6.3 -29.7 4.5 -28.6 4.5 -27.95 4.5 -26.0 6.4 -26.0 6.9 -26.0 7.7 -26.35 L7.5 -26.2 Q6.65 -25.55 6.15 -25.55 5.2 -25.55 4.8 -26.0 L4.6 -25.75 4.5 -25.85 3.9 -26.45 M-6.7 -24.1 L-6.7 -23.45 -6.8 -22.95 -7.2 -22.15 Q-7.75 -21.15 -8.4 -21.05 L-8.7 -20.75 Q-9.05 -20.4 -9.4 -20.2 -9.75 -20.0 -10.05 -20.0 L-10.15 -20.0 -10.7 -20.5 Q-9.4 -20.6 -9.0 -21.2 L-9.05 -21.35 -8.95 -22.1 -10.2 -23.15 -9.8 -23.5 Q-9.2 -23.5 -8.8 -23.2 L-8.25 -26.25 -9.4 -26.5 Q-9.4 -26.0 -9.95 -24.8 -10.6 -23.25 -11.45 -23.25 -13.0 -23.25 -13.8 -23.7 -13.4 -24.7 -12.45 -24.35 -11.4 -24.0 -10.75 -25.05 L-9.7 -26.9 -9.6 -26.85 -9.4 -27.15 -9.15 -27.2 -7.75 -27.0 Q-7.05 -26.8 -7.05 -26.25 L-7.1 -25.05 Q-6.7 -24.85 -6.75 -24.55 L-6.7 -24.1 M-3.9 -38.7 L-3.2 -38.65 -3.15 -38.7 Q-3.0 -38.2 -3.0 -36.35 L-3.05 -35.6 -3.65 -35.55 -4.7 -35.5 -6.65 -35.65 -6.75 -36.0 -7.0 -38.35 -6.7 -38.8 -6.15 -38.65 -3.9 -38.7 M5.05 -10.3 L5.05 -10.15 Q5.05 -9.7 4.7 -9.55 L4.4 -9.55 3.75 -10.15 Q3.75 -10.85 4.4 -10.85 5.0 -10.85 5.05 -10.3 M5.2 -9.35 L5.4 -9.65 5.7 -9.75 Q6.3 -9.75 6.3 -9.15 6.2 -8.6 5.7 -8.6 L5.15 -9.15 5.2 -9.35 M6.9 -7.95 L6.95 -8.0 7.45 -8.2 Q7.95 -8.2 8.05 -7.55 L8.05 -7.45 7.7 -7.0 7.4 -6.95 6.8 -7.6 6.9 -7.95 M-7.2 -5.1 Q-7.6 -5.2 -7.55 -5.65 -7.55 -6.25 -7.0 -6.25 L-6.65 -6.15 -6.55 -6.1 Q-6.4 -6.0 -6.4 -5.65 L-6.45 -5.55 -7.0 -5.1 -7.2 -5.1 M-6.35 -6.75 Q-6.3 -7.25 -5.8 -7.25 L-5.25 -6.7 -5.25 -6.5 -5.6 -6.15 -5.7 -6.15 -5.95 -6.15 Q-6.35 -6.25 -6.35 -6.65 L-6.35 -6.75 M9.0 -5.7 L8.9 -5.7 8.35 -6.25 Q8.35 -6.85 8.9 -6.85 9.5 -6.85 9.5 -6.25 L9.5 -6.2 9.0 -5.7 M9.85 -5.4 L9.9 -5.4 Q10.4 -5.4 10.5 -4.8 L10.45 -4.45 Q10.3 -4.2 10.0 -4.2 L9.95 -4.2 9.3 -4.8 9.4 -5.2 Q9.55 -5.4 9.85 -5.4 M10.75 -3.7 L11.3 -3.1 11.25 -2.8 10.75 -2.5 10.1 -3.1 Q10.1 -3.4 10.25 -3.5 10.4 -3.7 10.7 -3.7 L10.75 -3.7 M2.45 -12.35 L2.8 -12.4 Q3.6 -12.4 3.6 -11.6 L3.6 -11.4 Q3.5 -10.9 3.05 -10.8 L2.8 -10.8 Q2.0 -10.8 2.0 -11.55 L2.05 -11.85 2.45 -12.35 M7.3 -5.65 Q8.5 -5.65 9.8 -2.55 9.8 -2.0 9.0 -2.0 L5.3 -2.5 5.25 -2.55 6.2 -2.75 8.75 -2.45 9.25 -2.5 9.3 -2.55 Q9.3 -3.85 6.9 -5.2 6.9 -5.65 7.3 -5.65 M5.75 -3.7 L5.7 -3.85 6.5 -4.65 6.7 -4.55 Q6.6 -3.9 5.75 -3.7 M-5.8 -38.0 L-6.15 -37.85 -6.05 -37.7 -5.25 -37.65 -4.55 -37.65 -4.5 -37.75 -4.55 -37.9 -5.8 -38.0 M-4.55 -24.65 L-3.35 -20.9 -3.45 -20.85 -4.85 -24.15 -4.55 -24.65 M-6.65 -14.55 L-7.1 -15.05 -5.55 -16.25 -5.1 -16.05 -5.05 -15.85 Q-5.05 -15.65 -5.55 -15.1 L-6.35 -14.5 -6.65 -14.55 M-4.95 -9.8 L-5.1 -9.75 -6.85 -12.2 -6.4 -12.6 Q-6.15 -12.35 -5.9 -12.35 L-4.65 -12.65 -3.5 -13.05 Q-3.45 -12.85 -2.4 -12.6 L-2.95 -11.75 -3.65 -11.0 -4.55 -10.05 -4.9 -9.8 -4.95 -9.8 M-15.4 -6.8 L-15.55 -8.65 Q-15.55 -9.55 -15.1 -9.55 L-14.35 -7.45 -15.1 -6.4 -15.4 -6.8 M-8.55 -6.75 L-9.75 -6.7 -11.95 -6.7 -12.15 -6.7 -12.4 -6.75 -14.55 -7.0 -12.85 -7.35 -12.85 -7.65 Q-12.85 -8.5 -12.0 -8.5 L-11.95 -8.5 Q-11.55 -8.5 -11.5 -8.15 L-11.5 -7.8 -11.5 -7.4 -8.65 -7.6 -8.65 -7.65 -8.55 -8.55 -8.4 -8.6 -8.2 -8.65 Q-7.55 -8.65 -7.55 -8.05 L-7.55 -7.7 -7.5 -7.65 -7.45 -7.35 -7.45 -7.3 -7.5 -7.1 -7.6 -7.05 Q-7.85 -6.85 -8.55 -6.75 M-17.2 -5.45 L-16.65 -5.4 Q-16.25 -5.4 -16.15 -4.75 L-16.1 -4.15 Q-16.1 -2.5 -17.95 -2.5 -18.85 -2.5 -19.05 -3.4 L-19.1 -4.0 Q-19.1 -5.5 -17.8 -5.5 L-17.2 -5.45 M-16.9 -4.15 L-16.85 -4.35 -16.85 -4.5 -17.35 -4.5 -17.5 -4.5 Q-18.1 -4.5 -18.05 -3.95 L-18.05 -3.8 -17.8 -3.55 -17.35 -3.65 -16.9 -4.15 M-10.15 -2.1 L-10.4 -2.3 -10.45 -2.55 Q-10.45 -3.05 -10.0 -3.05 L-9.5 -2.6 Q-9.5 -2.1 -10.0 -2.1 L-10.15 -2.1 M-0.85 -11.6 L-1.0 -12.1 Q-1.0 -12.7 -0.4 -12.7 0.1 -12.7 0.2 -12.1 0.2 -11.5 -0.3 -11.5 L-0.85 -11.6 M-2.5 -11.25 L-2.1 -11.4 Q-1.55 -11.4 -1.5 -10.8 -1.5 -10.2 -2.0 -10.2 L-2.2 -10.2 Q-2.75 -10.3 -2.7 -10.8 L-2.7 -10.85 -2.55 -11.2 -2.5 -11.25 M-2.65 -10.0 Q-2.5 -9.85 -2.5 -9.55 L-3.1 -9.0 Q-3.7 -9.0 -3.65 -9.55 -3.65 -10.15 -3.1 -10.15 L-2.95 -10.15 Q-2.9 -10.0 -2.65 -10.0 M-5.05 -8.7 L-4.9 -8.75 -4.4 -8.3 Q-4.4 -7.8 -4.9 -7.8 L-4.95 -7.8 -5.35 -8.15 -5.35 -8.25 -5.3 -8.45 -5.05 -8.7 M-6.35 -3.15 L-6.45 -3.1 Q-6.75 -3.1 -6.8 -3.7 L-6.7 -3.95 -6.35 -3.4 -6.35 -3.15 M-6.5 -4.6 Q-8.25 -3.0 -8.35 -2.45 L-5.6 -2.2 -5.55 -2.05 -5.6 -1.9 -7.25 -1.85 Q-8.85 -1.85 -8.85 -2.6 L-8.0 -3.8 -6.65 -4.8 -6.5 -4.6 M-9.3 -3.85 L-9.35 -3.95 -9.45 -4.25 Q-9.45 -4.85 -8.9 -4.85 L-8.35 -4.3 Q-8.35 -3.75 -8.8 -3.75 L-9.3 -3.85" fill="#43445f" fill-rule="evenodd" stroke="none"/>
    <path d="M-5.8 -38.0 L-4.55 -37.9 -4.5 -37.75 -4.55 -37.65 -5.25 -37.65 -6.05 -37.7 -6.15 -37.85 -5.8 -38.0 M-16.9 -4.15 L-17.35 -3.65 -17.4 -3.65 -18.05 -3.8 -18.05 -3.95 Q-18.1 -4.5 -17.5 -4.5 L-17.35 -4.5 -16.9 -4.15 M-2.7 -10.8 L-2.7 -10.85 -2.7 -10.8" fill="#aaaaaa" fill-rule="evenodd" stroke="none"/>
    <path d="M4.3 -7.55 L1.5 -6.2 -1.5 -4.6 -5.3 -2.15 -5.3 -2.25 -5.3 -2.3 -5.35 -2.45 -5.4 -2.6 -6.45 -5.55 -6.4 -5.65 Q-6.4 -6.0 -6.55 -6.1 L-6.3 -6.05 Q-6.05 -6.05 -5.95 -6.15 L-5.7 -6.15 -5.6 -6.15 -5.85 -5.7 -5.75 -5.5 -1.2 -9.1 1.1 -11.15 3.1 -8.85 4.0 -7.9 4.3 -7.55 M-6.3 -1.7 L-6.95 -1.55 -7.15 -1.6 -7.2 -1.7 -6.3 -1.7" fill="#808080" fill-rule="evenodd" stroke="none"/>
    <path d="M0.8 -13.15 L1.05 -12.8 Q1.05 -12.3 0.5 -12.3 0.15 -12.3 0.15 -12.55 0.15 -13.15 0.8 -13.15 M5.05 -10.3 Q5.4 -10.25 5.4 -9.85 L5.4 -9.65 5.2 -9.35 4.95 -9.3 4.7 -9.55 Q5.05 -9.7 5.05 -10.15 L5.05 -10.3 M6.95 -8.0 L6.9 -7.95 Q6.8 -7.85 6.55 -7.85 6.05 -7.85 6.05 -8.3 6.05 -8.75 6.6 -8.75 L7.0 -8.3 6.95 -8.0 M7.7 -7.0 L8.05 -7.45 8.15 -7.45 Q8.6 -7.45 8.6 -7.05 8.6 -6.65 8.2 -6.65 7.75 -6.65 7.7 -7.0 M-5.25 -6.5 L-2.65 -8.9 1.1 -11.9 1.4 -11.85 1.5 -11.65 1.4 -11.45 4.05 -9.05 Q6.25 -6.85 6.2 -6.35 L6.05 -6.25 Q5.6 -6.25 4.3 -7.55 L4.0 -7.9 3.1 -8.85 1.1 -11.15 -1.2 -9.1 -5.75 -5.5 -5.85 -5.7 -5.6 -6.15 -5.25 -6.5 M-5.3 -2.25 Q-5.3 -1.7 -6.1 -1.7 L-6.3 -1.7 -7.2 -1.7 -9.05 -1.8 Q-9.5 -1.8 -9.5 -2.3 L-7.2 -5.1 -7.0 -5.1 -6.45 -5.55 -5.4 -2.6 -5.35 -2.45 -5.3 -2.3 -5.3 -2.25 M-6.65 -6.15 L-6.7 -6.4 -6.35 -6.75 -6.35 -6.65 Q-6.35 -6.25 -5.95 -6.15 -6.05 -6.05 -6.3 -6.05 L-6.55 -6.1 -6.65 -6.15 M9.5 -6.2 Q9.9 -6.2 9.9 -5.65 L9.85 -5.4 Q9.55 -5.4 9.4 -5.2 9.0 -5.2 9.0 -5.7 L9.5 -6.2 M10.45 -4.45 Q10.8 -4.45 10.8 -3.95 L10.75 -3.7 10.7 -3.7 Q10.4 -3.7 10.25 -3.5 9.95 -3.6 9.95 -3.95 L10.0 -4.2 Q10.3 -4.2 10.45 -4.45 M11.25 -2.8 L11.4 -2.4 Q11.4 -1.9 11.1 -1.9 10.7 -1.9 10.7 -2.3 L10.75 -2.5 11.25 -2.8 M3.6 -11.4 L3.95 -10.95 Q3.95 -10.5 3.5 -10.5 3.1 -10.5 3.05 -10.8 3.5 -10.9 3.6 -11.4 M2.05 -11.85 Q1.6 -11.85 1.6 -12.3 1.6 -12.75 2.05 -12.75 2.45 -12.75 2.45 -12.35 L2.05 -11.85 M5.75 -3.7 Q6.6 -3.9 6.7 -4.55 L6.5 -4.65 5.7 -3.85 5.75 -3.7 M7.3 -5.65 Q6.9 -5.65 6.9 -5.2 9.3 -3.85 9.3 -2.55 L9.25 -2.5 8.75 -2.45 6.2 -2.75 5.25 -2.55 5.3 -2.5 9.0 -2.0 Q9.8 -2.0 9.8 -2.55 8.5 -5.65 7.3 -5.65 M9.6 -1.85 L7.75 -1.8 7.25 -1.8 Q3.95 -1.9 3.95 -2.5 7.15 -6.4 7.6 -6.4 8.4 -6.4 10.3 -2.55 L10.0 -2.0 9.6 -1.85 M-1.1 -38.0 L-2.35 -36.35 -2.8 -37.7 Q-2.9 -38.55 -2.45 -38.55 -1.45 -38.55 -1.1 -38.0 M-19.05 -3.4 Q-19.1 -2.7 -19.35 -2.7 -20.0 -2.7 -19.85 -3.9 -19.85 -6.25 -17.55 -6.25 L-16.8 -5.85 Q-16.8 -5.6 -17.2 -5.45 L-17.8 -5.5 Q-19.1 -5.5 -19.1 -4.0 L-19.05 -3.4 M-10.4 -2.3 L-10.15 -2.1 -10.15 -2.05 -10.35 -1.65 -10.8 -2.0 -10.45 -2.3 -10.4 -2.3 M-0.85 -11.6 Q-0.9 -11.15 -1.35 -11.15 -1.75 -11.15 -1.75 -11.5 -1.75 -12.15 -1.2 -12.15 L-1.0 -12.1 -0.85 -11.6 M-2.2 -10.2 Q-2.3 -10.0 -2.6 -10.0 L-2.65 -10.0 Q-2.9 -10.0 -2.95 -10.15 L-3.05 -10.4 -2.7 -10.85 -2.7 -10.8 Q-2.75 -10.3 -2.2 -10.2 M-4.95 -7.8 L-4.9 -7.75 Q-4.9 -7.35 -5.25 -7.35 -5.7 -7.35 -5.7 -7.75 L-5.35 -8.15 -4.95 -7.8 M-4.35 -9.0 Q-4.35 -9.4 -3.95 -9.4 L-3.6 -9.05 Q-3.6 -8.6 -3.95 -8.6 -4.45 -8.6 -4.35 -9.0 M-6.5 -4.6 L-6.65 -4.8 -8.0 -3.8 -8.85 -2.6 Q-8.85 -1.85 -7.25 -1.85 L-5.6 -1.9 -5.55 -2.05 -5.6 -2.2 -8.35 -2.45 Q-8.25 -3.0 -6.5 -4.6 M-6.35 -3.15 L-6.35 -3.4 -6.7 -3.95 -6.8 -3.7 Q-6.75 -3.1 -6.45 -3.1 L-6.35 -3.15 M-7.75 -5.1 Q-7.75 -4.5 -8.2 -4.5 L-8.65 -4.8 Q-8.65 -5.5 -8.1 -5.5 -7.75 -5.5 -7.75 -5.1 M-9.35 -3.95 L-9.3 -3.85 -8.95 -3.4 Q-8.95 -2.9 -9.45 -2.9 -9.85 -2.9 -9.85 -3.45 L-9.35 -3.95" fill="#c8c8c8" fill-rule="evenodd" stroke="none"/>
    <path d="M-2.6 -34.85 L-2.45 -34.85 -2.35 -34.85 -2.45 -34.9 -2.5 -34.95 -2.8 -35.3 -1.1 -34.8 -1.45 -34.65 -1.15 -34.5 -1.35 -34.5 -2.65 -34.8 -2.6 -34.85 M-5.25 -32.8 L-5.5 -32.5 -5.5 -32.45 -5.55 -32.3 -5.8 -32.4 -6.1 -32.15 -7.05 -32.4 -6.75 -32.95 -6.85 -33.1 -5.25 -32.8 M-2.15 -23.2 L-2.05 -23.0 -1.9 -23.05 -1.2 -21.7 -1.55 -21.5 -1.7 -21.15 -2.15 -23.2 M-8.2 -20.35 L-8.3 -20.2 -7.7 -19.65 -9.55 -19.5 -9.95 -19.15 Q-10.45 -19.3 -10.9 -19.6 L-10.35 -19.9 -10.05 -20.0 Q-9.75 -20.0 -9.4 -20.2 L-8.2 -20.35 M-4.85 -15.85 L-4.85 -15.8 -4.05 -16.45 -3.8 -16.35 -4.65 -15.4 -6.5 -13.5 -7.35 -12.8 -7.55 -13.3 -6.6 -14.35 -6.7 -14.4 -6.75 -14.45 -6.65 -14.55 -6.35 -14.5 -5.55 -15.1 Q-5.05 -15.65 -5.05 -15.85 L-5.1 -16.05 -5.0 -16.1 -4.85 -15.85 M-1.3 -13.6 L-0.95 -13.15 -0.85 -13.25 -0.65 -13.45 -1.9 -12.0 -2.5 -11.25 -2.55 -11.2 -2.6 -11.15 -4.4 -9.35 -5.05 -8.7 -5.3 -8.45 -7.1 -6.95 -8.1 -6.1 -9.25 -6.1 -8.55 -6.75 Q-7.85 -6.85 -7.6 -7.05 L-7.5 -7.1 -7.45 -7.3 -7.45 -7.35 -7.5 -7.65 -5.0 -9.75 -4.95 -9.8 -4.9 -9.8 -4.55 -10.05 -3.65 -11.0 -2.95 -11.75 -1.3 -13.6 M-14.95 -6.1 L-15.55 -6.1 -15.45 -5.85 -15.35 -5.35 -15.4 -5.35 -16.05 -6.5 Q-16.35 -6.85 -17.35 -7.05 L-17.9 -7.2 -17.5 -7.25 -17.5 -7.85 -16.55 -7.65 Q-16.4 -7.05 -16.05 -7.0 L-16.0 -7.0 Q-15.8 -7.0 -15.7 -7.1 L-15.4 -6.8 -15.1 -6.4 -14.95 -6.1 M-10.1 -27.5 L-10.1 -27.55 -9.75 -27.35 -9.65 -27.25 -9.3 -27.75 -7.75 -27.1 -7.75 -27.0 -9.15 -27.2 -9.4 -27.15 -9.45 -27.15 -10.1 -27.5 M-8.5 -28.65 L-8.1 -28.65 -8.0 -29.1 -8.05 -29.1 -8.15 -29.2 -7.65 -29.2 -7.25 -29.2 -7.35 -29.15 -7.5 -29.0 -7.55 -29.0 -7.4 -28.5 -7.5 -28.5 -7.75 -28.45 -8.65 -28.55 -8.5 -28.65" fill="#000000" fill-rule="evenodd" stroke="none"/>
    <path d="M-8.4 -37.75 L-10.25 -38.05 -8.7 -38.3 -7.3 -37.95 -8.4 -37.75 M-10.35 -26.85 L-10.4 -26.7 -10.65 -26.65 -11.7 -26.95 -12.0 -26.5 -11.0 -25.65 -11.25 -25.45 Q-11.75 -25.45 -12.4 -25.8 L-13.9 -24.3 -14.1 -24.5 -13.05 -26.1 -11.8 -27.45 -10.4 -27.1 -10.35 -26.85 M-6.3 -34.2 Q-6.3 -33.8 -6.6 -33.8 -6.9 -33.8 -6.95 -34.3 -6.95 -34.7 -6.65 -34.7 L-6.3 -34.2 M-6.5 -31.05 Q-6.5 -30.1 -7.05 -30.1 -7.75 -30.1 -7.75 -30.6 L-6.4 -31.9 -5.95 -31.35 Q-5.95 -30.9 -6.5 -31.05 M-6.05 -29.0 L-6.05 -29.1 -6.0 -29.1 -5.95 -29.05 Q-4.8 -27.4 -4.8 -26.75 L-5.0 -26.55 Q-5.3 -26.55 -6.05 -28.8 L-6.05 -29.0 M-5.6 -25.15 L-5.0 -25.75 Q-4.4 -26.15 -4.05 -26.15 -3.3 -26.15 -2.6 -23.35 L-2.85 -22.3 Q-3.5 -22.8 -3.8 -23.65 L-4.3 -25.2 -5.25 -24.85 Q-5.7 -24.85 -5.6 -25.15 M-8.6 -19.4 L-7.7 -18.3 -6.55 -17.1 -6.55 -16.95 -6.4 -16.75 Q-6.4 -16.35 -7.2 -16.1 L-7.4 -16.3 -7.0 -16.75 -7.75 -17.45 -8.25 -18.2 -8.95 -18.25 Q-9.4 -18.25 -9.4 -18.65 -9.4 -19.4 -8.6 -19.4 M-4.65 -15.4 L-4.2 -15.55 Q-3.8 -15.55 -3.1 -14.65 -2.5 -13.8 -2.4 -13.3 L-2.45 -13.2 -4.1 -14.6 -5.15 -13.6 -6.5 -12.8 -6.8 -13.1 -6.5 -13.5 -4.65 -15.4 M-11.1 -22.45 Q-10.5 -22.45 -10.3 -22.1 L-10.2 -21.8 Q-10.2 -20.95 -11.2 -20.95 -12.1 -20.95 -12.1 -21.7 -12.1 -22.45 -11.1 -22.45 M-8.2 -8.65 L-8.4 -8.6 -11.25 -8.5 -11.95 -8.5 -12.0 -8.5 Q-14.85 -8.55 -14.85 -8.95 L-11.25 -9.4 Q-6.45 -9.4 -7.55 -8.95 -7.55 -8.75 -8.2 -8.65 M-15.7 -7.1 Q-15.8 -7.0 -16.0 -7.0 L-16.05 -7.0 Q-16.4 -7.05 -16.55 -7.65 L-16.65 -8.5 Q-16.65 -9.7 -16.05 -9.7 L-15.55 -7.75 Q-15.55 -7.3 -15.7 -7.1" fill="#ffffff" fill-rule="evenodd" stroke="none"/>
  </g>
</svg>
