<?xml version="1.0" encoding="UTF-8" standalone="no"?>
<svg xmlns:xlink="http://www.w3.org/1999/xlink" height="34.55px" width="34.3px" xmlns="http://www.w3.org/2000/svg">
  <g transform="matrix(1.0, 0.0, 0.0, 1.0, 16.9, 34.65)">
    <path d="M9.75 -32.0 L9.9 -31.9 10.25 -31.95 16.5 -31.95 16.95 -31.8 17.0 -31.8 17.3 -31.45 17.3 -31.4 17.4 -30.95 16.1 -22.0 15.8 -21.5 15.75 -21.45 15.75 -21.5 14.55 -20.45 14.75 -19.85 14.15 -9.6 13.9 -9.1 13.6 -8.7 13.5 -8.6 8.8 -4.55 8.15 -4.3 8.15 -3.55 8.05 -3.15 8.05 -3.2 7.85 -2.9 5.95 -1.25 5.65 -1.1 5.6 -0.7 5.6 -0.75 5.35 -0.25 5.3 -0.25 4.8 -0.1 -4.2 -0.1 -4.75 -0.25 -4.8 -0.25 -5.05 -0.75 -5.05 -0.7 -5.1 -1.05 -5.5 -1.25 -7.4 -2.9 -7.6 -3.2 -7.6 -3.15 -7.7 -3.55 -7.7 -4.3 Q-8.05 -4.3 -8.3 -4.55 L-13.05 -8.6 -13.1 -8.7 -13.45 -9.1 -13.65 -9.6 -14.3 -19.85 -14.05 -20.45 -15.3 -21.5 -15.3 -21.45 -15.35 -21.5 -15.6 -22.0 -16.9 -30.95 -16.85 -31.4 -16.85 -31.45 -16.55 -31.8 -16.5 -31.8 -16.05 -31.95 -9.75 -31.95 -9.15 -31.7 -9.1 -31.6 -8.9 -31.8 Q-5.2 -34.35 0.1 -34.65 L0.15 -34.65 0.3 -34.65 Q3.9 -34.7 8.2 -32.75 L9.75 -32.0 M3.7 -30.3 L3.8 -30.35 3.75 -30.5 3.7 -30.3 M0.25 -23.55 L0.2 -23.5 0.25 -23.45 0.35 -23.6 0.3 -23.55 0.25 -23.55 M3.55 -29.75 L3.6 -29.75 3.85 -29.85 3.95 -30.0 3.8 -30.35 3.8 -30.15 3.7 -29.85 3.55 -29.75" fill="#000000" fill-rule="evenodd" stroke="none"/>
    <path d="M-8.4 -29.5 Q-5.3 -31.8 -0.9 -32.55 L0.05 -32.7 Q6.05 -32.25 8.95 -29.5 L9.1 -29.5 0.2 -24.45 -8.4 -29.3 -8.4 -29.5 M3.8 -30.55 L3.8 -30.6 -3.3 -30.6 -3.3 -30.55 -3.35 -30.55 -3.35 -29.85 0.1 -27.9 0.25 -27.95 0.4 -27.9 3.8 -29.85 3.8 -30.55 M16.25 -29.5 L15.2 -22.15 9.35 -17.2 3.25 -17.2 3.75 -25.15 3.7 -25.45 9.8 -28.85 10.1 -29.15 10.1 -29.2 10.15 -29.2 10.2 -29.5 16.25 -29.5 M-1.9 -11.05 L-1.9 -19.85 -2.35 -24.9 -0.25 -23.7 0.0 -23.55 0.1 -23.55 0.2 -23.55 0.2 -23.45 0.25 -23.45 0.25 -23.55 0.35 -23.55 0.55 -23.65 0.65 -23.7 2.8 -24.95 2.35 -19.85 2.35 -11.1 -1.9 -11.05 M6.4 -23.95 L6.8 -23.95 13.2 -26.35 13.4 -26.6 13.45 -26.95 13.2 -27.2 12.85 -27.2 6.45 -24.75 6.2 -24.55 6.2 -24.2 6.4 -23.95 M12.4 -23.2 L12.05 -23.2 5.65 -20.8 5.4 -20.55 5.4 -20.2 5.65 -20.0 6.0 -19.95 12.4 -22.4 12.6 -22.65 12.65 -22.95 12.4 -23.2 M8.2 -7.25 L8.2 -14.0 10.75 -15.95 10.75 -17.25 13.9 -19.85 13.35 -11.55 8.2 -7.25 M-6.85 -5.3 L-6.85 -13.65 -2.8 -15.95 -2.8 -9.9 -2.55 -9.25 -1.9 -9.0 2.35 -9.0 3.0 -9.25 3.25 -9.9 3.25 -15.95 7.3 -13.65 7.3 -5.55 4.75 -3.55 3.45 -6.8 3.3 -7.0 3.05 -7.1 0.95 -7.1 0.95 -7.15 0.9 -7.1 -2.55 -7.1 -2.75 -7.0 -2.95 -6.8 -4.3 -3.35 -6.85 -5.3 M4.8 -0.95 L-4.2 -0.95 -2.2 -6.2 2.7 -6.2 4.8 -0.95 M-9.8 -29.5 L-9.65 -29.2 -9.35 -28.85 -9.05 -28.7 -8.85 -28.55 -3.25 -25.4 -3.25 -25.15 -2.8 -17.2 -8.9 -17.2 -14.7 -22.15 -15.8 -29.5 -9.8 -29.5 M-12.95 -26.95 L-12.95 -26.6 -12.7 -26.35 -6.3 -23.95 -6.0 -23.95 -5.7 -24.2 -5.75 -24.55 -6.0 -24.75 -12.4 -27.2 -12.75 -27.2 -12.95 -26.95 M-11.95 -23.2 L-12.15 -22.95 -12.15 -22.65 -11.9 -22.4 -5.5 -19.95 -5.2 -20.0 -4.9 -20.2 -4.95 -20.55 -5.2 -20.8 -11.6 -23.2 -11.95 -23.2 M-12.9 -11.5 L-13.4 -19.85 -10.3 -17.25 -10.3 -15.95 -7.75 -14.0 -7.75 -7.0 -12.9 -11.5" fill="url(#gradient0)" fill-rule="evenodd" stroke="none"/>
    <path d="M9.1 -29.5 L8.95 -29.5 Q6.05 -32.25 0.05 -32.7 L-0.9 -32.55 Q-5.3 -31.8 -8.4 -29.5 L-8.4 -31.1 Q-4.9 -33.5 0.15 -33.75 L0.3 -33.75 Q3.75 -33.8 7.85 -31.95 L9.35 -31.2 9.35 -29.6 9.1 -29.5 M10.2 -29.5 L10.2 -29.6 10.2 -31.1 16.5 -31.1 16.25 -29.5 10.2 -29.5 M2.35 -11.1 L2.35 -9.9 -1.9 -9.9 -1.9 -11.05 2.35 -11.1 M13.35 -11.55 L13.25 -9.65 12.9 -9.25 8.2 -5.2 8.2 -7.25 13.35 -11.55 M7.3 -5.55 L7.3 -5.0 7.25 -4.95 7.25 -3.55 5.35 -1.95 4.75 -3.55 7.3 -5.55 M-4.3 -3.35 L-4.85 -1.95 -4.9 -1.95 -6.8 -3.55 -6.8 -4.95 -6.85 -5.0 -6.85 -5.3 -4.3 -3.35 M-9.8 -29.5 L-15.8 -29.5 -16.05 -31.1 -9.8 -31.1 -9.8 -29.6 -9.8 -29.5 M-12.9 -11.5 L-7.75 -7.0 -7.75 -5.2 -12.45 -9.25 -12.8 -9.65 -12.9 -11.5" fill="#ffffff" fill-rule="evenodd" stroke="none"/>
  </g>
  <defs>
    <linearGradient gradientTransform="matrix(0.0, 0.0198, -0.0199, 0.0, 0.25, -17.4)" gradientUnits="userSpaceOnUse" id="gradient0" spreadMethod="pad" x1="-819.2" x2="819.2">
      <stop offset="0.0" stop-color="#0066fd"/>
      <stop offset="0.3764705882352941" stop-color="#ffffff"/>
      <stop offset="0.4549019607843137" stop-color="#ffffff"/>
      <stop offset="0.5254901960784314" stop-color="#985b01"/>
      <stop offset="0.6666666666666666" stop-color="#ff9900"/>
      <stop offset="0.9490196078431372" stop-color="#ffe377"/>
      <stop offset="1.0" stop-color="#ffffff"/>
    </linearGradient>
  </defs>
</svg>
