<?xml version="1.0" encoding="UTF-8" standalone="no"?>
<svg xmlns:xlink="http://www.w3.org/1999/xlink" height="37.55px" width="20.75px" xmlns="http://www.w3.org/2000/svg">
  <g transform="matrix(1.0, 0.0, 0.0, 1.0, 11.25, 35.85)">
    <path d="M4.55 -34.15 L5.45 -33.9 Q5.9 -33.65 5.85 -33.15 L5.9 -32.8 6.45 -32.3 3.9 -31.9 3.95 -32.45 Q3.55 -33.3 2.65 -33.45 L2.1 -33.6 4.55 -34.15 M0.4 -32.9 L0.55 -32.65 Q1.25 -31.8 1.05 -30.8 L-0.15 -29.4 -0.45 -29.45 -1.75 -30.2 -1.15 -30.85 -0.45 -31.9 0.4 -32.9 M-2.35 -28.1 Q-1.95 -27.15 -0.7 -27.15 L-0.45 -28.4 -0.6 -26.9 -0.65 -25.1 -1.1 -25.0 Q-1.65 -24.9 -2.0 -25.5 L-2.45 -26.05 -2.35 -28.1 M-0.85 -23.1 L-0.9 -21.9 -0.9 -21.65 -1.25 -21.5 Q-1.75 -21.5 -2.15 -22.0 L-2.45 -22.25 -2.45 -22.75 -2.5 -23.4 -2.5 -24.0 -2.45 -23.6 -2.3 -23.45 Q-1.85 -23.0 -0.85 -23.1 M-0.85 -19.7 L-0.85 -19.65 -0.9 -19.45 -0.9 -19.15 -1.2 -18.7 -1.25 -18.65 -1.8 -18.55 -2.3 -18.85 Q-2.55 -18.95 -2.5 -19.2 L-2.5 -19.25 -2.5 -19.8 -1.25 -19.6 -0.85 -19.7" fill="#ca0202" fill-rule="evenodd" stroke="none"/>
    <path d="M6.45 -32.3 L5.9 -32.8 5.85 -33.15 Q5.9 -33.65 5.45 -33.9 L4.55 -34.15 7.25 -34.25 7.4 -33.85 Q7.65 -33.3 7.25 -32.75 L6.9 -32.55 6.45 -32.3 M2.1 -33.6 L2.65 -33.45 Q3.55 -33.3 3.95 -32.45 L3.9 -31.9 3.5 -31.85 2.7 -31.65 1.05 -30.8 Q1.25 -31.8 0.55 -32.65 L0.4 -32.9 2.1 -33.6 M-1.75 -30.2 L-0.45 -29.45 -0.15 -29.4 -0.45 -28.4 -0.7 -27.15 Q-1.95 -27.15 -2.35 -28.1 L-1.75 -30.2 M-0.65 -25.1 L-0.85 -23.1 Q-1.85 -23.0 -2.3 -23.45 L-2.45 -23.6 -2.5 -24.0 -2.45 -26.05 -2.0 -25.5 Q-1.65 -24.9 -1.1 -25.0 L-0.65 -25.1 M-0.9 -21.65 L-0.95 -20.05 -0.85 -19.7 -1.25 -19.6 -2.5 -19.8 -2.5 -20.2 -2.45 -22.25 -2.15 -22.0 Q-1.75 -21.5 -1.25 -21.5 L-0.9 -21.65" fill="#ffe6e6" fill-rule="evenodd" stroke="none"/>
    <path d="M8.4 -34.3 L8.35 -32.9 8.2 -31.95 Q7.15 -31.15 5.9 -30.7 L4.1 -30.4 3.1 -30.35 2.15 -30.0 1.7 -29.65 1.45 -29.3 0.85 -28.35 0.6 -27.25 Q0.45 -26.7 0.55 -26.0 L3.2 -25.75 5.4 -24.95 7.45 -23.8 8.65 -22.45 9.35 -20.4 9.5 -20.15 Q9.4 -20.0 9.45 -19.7 L9.45 -19.25 9.45 -18.95 9.35 -18.7 8.4 -16.45 6.8 -0.75 6.75 -0.55 6.35 0.2 5.55 0.85 4.7 1.1 2.35 1.7 1.05 1.65 0.6 1.65 -0.5 1.55 -1.6 1.3 Q-3.4 0.8 -4.85 -0.3 L-5.25 -0.7 -5.55 -1.25 -5.7 -1.6 -5.75 -1.75 -9.75 -14.95 -10.65 -16.4 -11.0 -17.0 -11.0 -17.3 -11.15 -17.95 -11.25 -18.75 -11.0 -20.25 Q-11.0 -20.9 -10.6 -21.3 L-9.25 -23.0 -8.6 -23.45 -7.2 -24.3 Q-6.2 -24.9 -5.0 -25.15 L-3.55 -25.6 -3.45 -26.9 -3.25 -28.9 -2.65 -30.65 Q-2.35 -31.65 -1.5 -32.45 L-0.45 -33.65 1.1 -34.6 2.35 -35.2 3.35 -35.4 4.3 -35.65 5.35 -35.8 8.0 -35.5 8.15 -35.05 8.4 -34.3 M6.45 -32.3 L6.9 -32.55 7.25 -32.75 Q7.65 -33.3 7.4 -33.85 L7.25 -34.25 4.55 -34.15 2.1 -33.6 0.4 -32.9 -0.45 -31.9 -1.15 -30.85 -1.75 -30.2 -2.35 -28.1 -2.45 -26.05 -2.5 -24.0 -2.55 -23.4 -2.55 -22.75 -2.45 -22.25 -2.5 -20.2 -2.7 -19.95 -3.0 -19.9 -3.5 -21.1 Q-3.75 -21.75 -3.55 -22.55 L-3.6 -23.2 -3.5 -24.35 -4.2 -24.15 -5.6 -23.65 -6.9 -23.15 -8.55 -22.0 -9.5 -20.95 Q-10.15 -20.3 -10.35 -19.25 -10.55 -18.6 -10.15 -17.85 L-10.2 -17.8 Q-10.1 -17.0 -9.65 -16.35 L-8.95 -15.5 -8.65 -14.65 -7.15 -9.2 -6.7 -7.75 -6.6 -7.5 -5.35 -3.3 -4.95 -1.75 -4.55 -1.0 -3.65 -0.3 -2.35 0.45 -1.5 0.65 -0.5 0.9 1.1 1.05 2.55 0.95 3.45 0.7 4.25 0.45 5.35 0.0 5.9 -0.9 5.95 -2.6 6.4 -7.6 6.45 -8.05 6.6 -9.35 7.15 -15.9 7.25 -16.75 Q8.05 -17.55 8.15 -18.75 L8.1 -19.55 8.15 -20.3 7.45 -21.7 6.55 -22.9 4.8 -23.8 2.75 -24.6 1.55 -24.65 0.25 -24.75 0.25 -23.6 0.25 -22.95 0.25 -22.15 0.0 -20.25 Q-0.15 -19.55 -0.8 -19.65 L-0.85 -19.65 -0.85 -19.7 -0.95 -20.05 -0.9 -21.65 -0.9 -21.9 -0.85 -23.1 -0.65 -25.1 -0.6 -26.9 -0.45 -28.4 -0.15 -29.4 1.05 -30.8 2.7 -31.65 3.5 -31.85 3.9 -31.9 6.45 -32.3" fill="#000000" fill-rule="evenodd" stroke="none"/>
    <path d="M0.25 -23.6 L0.25 -24.75 1.55 -24.65 2.75 -24.6 4.8 -23.8 6.55 -22.9 7.45 -21.7 8.15 -20.3 8.1 -19.55 7.3 -18.0 5.25 -16.3 Q2.4 -14.7 -1.25 -14.4 -4.8 -14.25 -7.4 -15.4 -8.6 -15.9 -9.25 -16.45 -9.95 -17.15 -10.15 -17.8 L-10.15 -17.85 Q-10.55 -18.6 -10.35 -19.25 -10.15 -20.3 -9.5 -20.95 L-8.55 -22.0 -6.9 -23.15 -5.6 -23.65 -4.2 -24.15 -3.5 -24.35 -3.6 -23.2 Q-6.3 -22.65 -7.9 -21.3 -9.5 -20.0 -9.45 -18.75 L-9.45 -18.7 -9.45 -18.45 -9.35 -18.2 -9.35 -18.1 Q-8.85 -17.0 -7.1 -16.2 L-5.4 -15.7 -3.15 -15.4 -1.35 -15.4 Q2.05 -15.7 4.6 -17.15 6.35 -18.35 6.85 -19.65 L6.85 -19.7 6.8 -19.8 6.9 -19.8 6.9 -19.85 6.9 -20.1 6.9 -20.15 Q6.6 -21.85 4.3 -22.8 2.45 -23.55 0.25 -23.6 M-2.5 -24.0 L-2.5 -23.4 -2.55 -23.4 -2.5 -24.0" fill="#dadbea" fill-rule="evenodd" stroke="none"/>
    <path d="M6.8 -19.8 L6.85 -19.7 6.85 -19.65 Q6.35 -18.35 4.6 -17.15 2.05 -15.7 -1.35 -15.4 L-3.15 -15.4 -1.25 -18.65 -1.2 -18.7 -0.9 -19.15 -0.9 -19.45 -0.8 -19.6 -0.8 -19.65 Q-0.15 -19.55 0.0 -20.25 L0.25 -22.15 0.25 -22.95 Q2.4 -22.9 4.3 -22.1 6.45 -21.25 6.8 -19.8 M-5.4 -15.7 L-7.1 -16.2 Q-8.85 -17.0 -9.35 -18.1 L-9.35 -18.2 Q-9.35 -19.55 -7.85 -20.65 -6.2 -22.1 -3.55 -22.55 -3.75 -21.75 -3.5 -21.1 L-3.0 -19.9 -2.7 -19.95 -2.5 -20.2 -2.5 -19.8 -2.5 -19.25 -4.05 -17.2 -5.4 -15.7 M-2.45 -22.75 L-2.45 -22.25 -2.55 -22.75 -2.45 -22.75" fill="#dadbe9" fill-rule="evenodd" stroke="none"/>
    <path d="M0.25 -23.6 Q2.45 -23.55 4.3 -22.8 6.6 -21.85 6.9 -20.15 L6.9 -20.1 6.9 -19.85 6.9 -19.8 6.8 -19.8 Q6.45 -21.25 4.3 -22.1 2.4 -22.9 0.25 -22.95 L0.25 -23.6 M-3.15 -15.4 L-5.4 -15.7 -4.05 -17.2 -2.5 -19.25 -2.5 -19.2 Q-2.55 -18.95 -2.3 -18.85 L-1.8 -18.55 -1.25 -18.65 -3.15 -15.4 M-9.35 -18.2 L-9.45 -18.45 -9.45 -18.7 -9.45 -18.75 Q-9.5 -20.0 -7.9 -21.3 -6.3 -22.65 -3.6 -23.2 L-3.55 -22.55 Q-6.2 -22.1 -7.85 -20.65 -9.35 -19.55 -9.35 -18.2 M-0.85 -19.65 L-0.8 -19.65 -0.8 -19.6 -0.9 -19.45 -0.85 -19.65 M-2.55 -23.4 L-2.5 -23.4 -2.45 -22.75 -2.55 -22.75 -2.55 -23.4" fill="#8f99bc" fill-rule="evenodd" stroke="none"/>
    <path d="M-10.15 -17.8 Q-9.95 -17.15 -9.25 -16.45 -8.6 -15.9 -7.4 -15.4 -4.8 -14.25 -1.25 -14.4 2.4 -14.7 5.25 -16.3 L7.3 -18.0 8.1 -19.55 8.15 -18.75 Q8.05 -17.55 7.25 -16.75 L5.25 -15.15 Q2.5 -13.65 -1.2 -13.4 -4.7 -13.3 -7.25 -14.45 L-8.95 -15.5 -9.65 -16.35 Q-10.1 -17.0 -10.2 -17.8 L-10.15 -17.8" fill="#9fa8c6" fill-rule="evenodd" stroke="none"/>
    <path d="M7.25 -16.75 L7.15 -15.9 5.5 -14.65 Q3.3 -13.0 -1.5 -12.8 -5.3 -12.65 -6.65 -13.4 L-8.65 -14.65 -8.95 -15.5 -7.25 -14.45 Q-4.7 -13.3 -1.2 -13.4 2.5 -13.65 5.25 -15.15 L7.25 -16.75" fill="#709e50" fill-rule="evenodd" stroke="none"/>
    <path d="M7.15 -15.9 L6.6 -9.35 6.45 -8.85 6.45 -8.8 Q5.95 -7.9 4.45 -7.2 L4.05 -7.05 Q3.65 -7.45 2.95 -7.45 1.0 -7.45 -0.15 -6.45 -1.4 -7.2 -1.4 -7.65 -1.55 -8.6 -0.25 -8.9 L0.55 -8.25 2.4 -8.0 2.35 -7.95 Q5.3 -8.0 5.25 -9.25 5.15 -10.55 2.35 -10.45 L1.7 -10.35 0.9 -10.3 0.7 -10.3 Q-2.9 -10.25 -2.55 -7.65 -2.5 -7.1 -1.55 -6.4 L-3.25 -6.6 Q-3.6 -7.3 -3.75 -8.45 L-3.75 -8.75 -3.8 -8.85 -3.8 -8.95 Q-4.35 -10.7 -5.35 -10.65 -6.5 -10.6 -6.2 -9.4 -5.35 -7.75 -4.55 -7.7 L-4.15 -7.75 -4.1 -6.9 -4.95 -7.25 Q-6.4 -7.85 -6.9 -8.6 L-6.9 -8.65 -7.1 -9.2 -7.15 -9.2 -8.65 -14.65 -6.65 -13.4 Q-5.3 -12.65 -1.5 -12.8 3.3 -13.0 5.5 -14.65 L7.15 -15.9 M6.45 -8.05 L6.4 -7.6 Q6.05 -6.7 4.4 -6.0 L3.7 -5.75 4.35 -6.4 4.35 -6.45 4.45 -6.45 Q6.05 -7.15 6.45 -8.05 M5.95 -2.6 L5.9 -0.9 5.35 0.0 4.25 0.45 3.45 0.7 2.55 0.95 1.1 1.05 -0.5 0.9 -1.5 0.65 -2.35 0.45 -3.65 -0.3 -4.55 -1.0 -4.95 -1.75 -5.35 -3.3 -5.0 -2.8 -3.7 -2.05 Q-2.5 -1.5 -0.85 -1.25 L-0.65 -1.0 -0.75 -0.85 Q-0.75 -0.6 -0.35 -0.6 0.0 -0.6 -0.05 -1.0 L-0.1 -1.15 0.25 -1.1 0.65 -1.1 0.65 -0.9 Q0.65 -0.65 0.95 -0.6 L1.75 -1.15 1.95 -1.15 1.95 -1.0 1.85 -0.55 Q1.85 -0.25 2.3 -0.25 L2.75 -0.95 2.65 -1.25 4.4 -1.6 5.75 -2.35 5.95 -2.6 M-6.6 -7.5 L-6.7 -7.75 Q-6.2 -7.1 -4.95 -6.6 L-3.65 -6.1 -3.0 -5.55 -4.75 -6.15 Q-6.2 -6.75 -6.6 -7.5 M-2.25 -5.8 L-2.4 -5.9 -2.2 -5.85 -2.25 -5.8" fill="#97bf7b" fill-rule="evenodd" stroke="none"/>
    <path d="M0.9 -10.3 L1.7 -10.35 2.35 -10.45 Q5.15 -10.55 5.25 -9.25 5.3 -8.0 2.35 -7.95 L2.4 -8.0 0.55 -8.25 -0.25 -8.9 -0.4 -9.25 Q-0.5 -9.65 0.4 -9.95 L0.9 -10.3 M-0.15 -6.45 L0.6 -6.45 1.1 -6.4 1.35 -6.35 2.05 -6.1 2.25 -5.9 2.4 -5.45 2.4 -5.4 2.4 -5.15 2.05 -4.6 1.6 -4.25 0.6 -3.85 -0.3 -3.75 -0.75 -3.75 -1.25 -3.8 -2.2 -4.1 Q-2.85 -4.4 -2.8 -4.95 L-2.8 -5.3 -2.65 -5.45 -2.25 -5.8 -2.2 -5.85 -2.15 -5.9 -1.25 -6.25 -0.65 -6.4 -0.15 -6.45" fill="#e9fe92" fill-rule="evenodd" stroke="none"/>
    <path d="M4.05 -7.05 L4.35 -6.45 4.35 -6.4 3.7 -5.75 3.35 -5.55 2.5 -5.05 Q3.5 -4.4 3.6 -3.55 L2.45 -1.85 2.4 -1.8 1.9 -1.3 1.75 -1.15 0.95 -0.6 Q0.65 -0.65 0.65 -0.9 L0.65 -1.1 1.55 -2.05 1.7 -2.1 2.05 -2.45 Q2.75 -3.2 2.75 -3.55 2.7 -4.1 2.05 -4.6 L2.4 -5.15 2.4 -5.4 2.4 -5.45 2.25 -5.9 2.05 -6.1 2.65 -6.4 2.1 -6.45 1.35 -6.35 1.1 -6.4 0.6 -6.45 -0.15 -6.45 -0.65 -6.4 -1.25 -6.25 -1.55 -6.4 Q-2.5 -7.1 -2.55 -7.65 -2.9 -10.25 0.7 -10.3 L0.9 -10.3 0.4 -9.95 Q-0.5 -9.65 -0.4 -9.25 L-0.25 -8.9 Q-1.55 -8.6 -1.4 -7.65 -1.4 -7.2 -0.15 -6.45 1.0 -7.45 2.95 -7.45 3.65 -7.45 4.05 -7.05 M-2.2 -4.1 L-1.25 -3.8 -1.95 -3.35 Q-2.9 -2.9 -2.75 -2.45 -0.35 -2.0 -0.1 -1.15 L-0.05 -1.0 Q0.0 -0.6 -0.35 -0.6 -0.75 -0.6 -0.75 -0.85 L-0.65 -1.0 -0.85 -1.25 -2.0 -1.6 Q-3.35 -1.95 -3.45 -2.45 -3.55 -3.15 -2.8 -3.6 L-2.2 -4.1" fill="#ffffff" fill-rule="evenodd" stroke="none"/>
    <path d="M6.6 -9.35 L6.45 -8.05 Q6.05 -7.15 4.45 -6.45 L4.35 -6.45 4.05 -7.05 4.45 -7.2 Q5.95 -7.9 6.45 -8.8 L6.45 -8.85 6.6 -9.35 M6.4 -7.6 L5.95 -2.6 5.75 -2.35 4.4 -1.6 2.65 -1.25 2.45 -1.85 3.6 -3.55 Q3.5 -4.4 2.5 -5.05 L3.35 -5.55 3.7 -5.75 4.4 -6.0 Q6.05 -6.7 6.4 -7.6 M-5.35 -3.3 L-6.6 -7.5 Q-6.2 -6.75 -4.75 -6.15 L-3.0 -5.55 -2.8 -5.3 -2.8 -4.95 Q-2.85 -4.4 -2.2 -4.1 L-2.8 -3.6 Q-3.55 -3.15 -3.45 -2.45 -3.35 -1.95 -2.0 -1.6 L-0.85 -1.25 Q-2.5 -1.5 -3.7 -2.05 L-5.0 -2.8 -5.35 -3.3 M-6.7 -7.75 L-7.15 -9.2 -7.1 -9.2 -6.9 -8.65 -6.9 -8.6 Q-6.4 -7.85 -4.95 -7.25 L-4.1 -6.9 -4.05 -6.8 -3.65 -6.1 -4.95 -6.6 Q-6.2 -7.1 -6.7 -7.75 M1.35 -6.35 L2.1 -6.45 2.65 -6.4 2.05 -6.1 1.35 -6.35 M2.05 -4.6 Q2.7 -4.1 2.75 -3.55 2.75 -3.2 2.05 -2.45 L0.6 -3.85 1.6 -4.25 2.05 -4.6 M1.55 -2.05 L0.65 -1.1 0.25 -1.1 -0.1 -1.15 Q-0.35 -2.0 -2.75 -2.45 -2.9 -2.9 -1.95 -3.35 L-1.25 -3.8 -0.75 -3.75 -0.3 -3.75 1.55 -2.05 M1.75 -1.15 L1.9 -1.3 1.95 -1.15 1.75 -1.15 M-2.4 -5.9 L-2.9 -6.2 -3.25 -6.6 -1.55 -6.4 -1.25 -6.25 -2.15 -5.9 -2.2 -5.85 -2.4 -5.9" fill="#bbd6a9" fill-rule="evenodd" stroke="none"/>
    <path d="M2.05 -2.45 L1.7 -2.1 1.55 -2.05 -0.3 -3.75 0.6 -3.85 2.05 -2.45 M1.9 -1.3 L2.4 -1.8 2.45 -1.85 2.65 -1.25 2.75 -0.95 2.3 -0.25 Q1.85 -0.25 1.85 -0.55 L1.95 -1.0 1.95 -1.15 1.9 -1.3 M-4.15 -7.75 L-4.25 -9.3 -3.95 -9.3 -3.95 -9.25 -3.9 -9.2 -3.8 -8.85 -3.75 -8.75 -3.75 -8.45 Q-3.6 -7.3 -3.25 -6.6 L-2.9 -6.2 -2.4 -5.9 -2.25 -5.8 -2.65 -5.45 -2.8 -5.3 -3.0 -5.55 -3.65 -6.1 -4.05 -6.8 -4.1 -6.9 -4.15 -7.75" fill="#fbffe6" fill-rule="evenodd" stroke="none"/>
    <path d="M-10.15 -17.85 L-10.15 -17.8 -10.2 -17.8 -10.15 -17.85" fill="#babdd6" fill-rule="evenodd" stroke="none"/>
    <path d="M-3.8 -8.85 L-3.9 -9.2 -3.95 -9.25 -3.95 -9.3 -4.25 -9.3 -4.15 -7.75 -4.55 -7.7 Q-5.35 -7.75 -6.2 -9.4 -6.5 -10.6 -5.35 -10.65 -4.35 -10.7 -3.8 -8.95 L-3.8 -8.85" fill="#e1fd71" fill-rule="evenodd" stroke="none"/>
  </g>
</svg>
