<?xml version="1.0" encoding="UTF-8" standalone="no"?>
<svg
   xmlns:dc="http://purl.org/dc/elements/1.1/"
   xmlns:cc="http://creativecommons.org/ns#"
   xmlns:rdf="http://www.w3.org/1999/02/22-rdf-syntax-ns#"
   xmlns:svg="http://www.w3.org/2000/svg"
   xmlns="http://www.w3.org/2000/svg"
   xmlns:sodipodi="http://sodipodi.sourceforge.net/DTD/sodipodi-0.dtd"
   xmlns:inkscape="http://www.inkscape.org/namespaces/inkscape"
   height="36.1px"
   width="36.05px"
   version="1.1"
   id="svg6"
   sodipodi:docname="3423.svg"
   inkscape:version="0.92.1 r15371">
  <metadata
     id="metadata12">
    <rdf:RDF>
      <cc:Work
         rdf:about="">
        <dc:format>image/svg+xml</dc:format>
        <dc:type
           rdf:resource="http://purl.org/dc/dcmitype/StillImage" />
        <dc:title></dc:title>
      </cc:Work>
    </rdf:RDF>
  </metadata>
  <defs
     id="defs10" />
  <sodipodi:namedview
     pagecolor="#ffffff"
     bordercolor="#666666"
     borderopacity="1"
     objecttolerance="10"
     gridtolerance="10"
     guidetolerance="10"
     inkscape:pageopacity="0"
     inkscape:pageshadow="2"
     inkscape:window-width="1920"
     inkscape:window-height="1016"
     id="namedview8"
     showgrid="false"
     inkscape:object-nodes="false"
     inkscape:zoom="18.490549"
     inkscape:cx="32.214896"
     inkscape:cy="18.62245"
     inkscape:window-x="0"
     inkscape:window-y="27"
     inkscape:window-maximized="1"
     inkscape:current-layer="svg6" />
  <g
     transform="matrix(1.0, 0.0, 0.0, 1.0, 15.45, 33.3)"
     id="g4">
    <path
       d="M5.45 -30.0 L8.05 -27.7 8.35 -27.1 8.25 -26.4 7.85 -25.7 8.0 -25.75 8.45 -25.5 9.95 -24.0 10.15 -23.6 10.2 -23.05 10.2 -22.85 10.4 -22.85 10.9 -22.85 11.3 -22.65 12.8 -21.15 13.05 -20.7 13.05 -20.5 13.75 -20.9 14.4 -21.05 15.0 -20.75 17.3 -18.15 17.5 -17.65 17.45 -17.1 17.45 -17.0 19.5 -14.95 19.8 -14.25 19.9 -12.55 20.3 -12.25 20.6 -11.65 20.4 -10.95 15.05 -2.8 14.55 -2.4 12.1 -1.65 11.55 -1.6 2.4 -4.05 Q2.1 -4.15 1.9 -4.35 1.7 -4.55 1.65 -4.9 L1.4 -6.75 1.45 -7.2 1.65 -7.6 2.8 -8.75 1.95 -8.7 Q1.65 -8.7 1.4 -8.85 L1.1 -9.25 1.0 -9.35 -1.3 -7.05 -1.85 -6.7 -3.1 -6.65 -4.55 -5.2 -4.65 -4.4 -4.95 -3.9 -11.05 2.2 -11.6 2.55 -14.35 2.8 -14.9 2.65 -15.3 2.25 -15.45 1.7 -15.2 -1.05 -14.9 -1.65 -14.6 -1.95 -14.65 -2.4 -14.35 -3.1 -14.3 -3.15 -14.45 -3.8 -14.25 -4.5 -13.05 -5.7 -12.3 -5.95 -11.7 -5.75 -11.2 -6.25 -11.2 -6.55 -10.95 -7.3 -9.7 -8.55 -8.95 -8.8 Q-8.6 -8.85 -8.3 -8.55 L-7.7 -7.95 -6.05 -9.6 -5.95 -10.8 -5.65 -11.4 -3.35 -13.7 -3.4 -13.75 -3.85 -14.1 -3.95 -14.6 -3.95 -15.5 -5.1 -14.35 -5.5 -14.15 -5.95 -14.1 -7.8 -14.35 Q-8.15 -14.4 -8.35 -14.6 L-8.65 -15.1 -11.1 -24.25 -11.05 -24.8 -10.3 -27.25 -9.85 -27.7 -1.75 -33.1 -1.05 -33.3 -0.4 -32.95 -0.1 -32.55 1.6 -32.45 2.25 -32.2 4.35 -30.1 4.4 -30.15 4.95 -30.2 5.45 -30.0"
       fill="#000000"
       fill-rule="evenodd"
       stroke="none"
       id="path2" />
  </g>
  <g
     id="g3838"
     transform="rotate(45.667279,26.51647,-41.192075)">
    <g
       id="g32"
       transform="matrix(-1,0,0,1,62.822187,27.912288)">
      <path
         id="path14"
         d="m -11.8,-32.35 -0.75,0.55 h 4.1 l -0.2,-0.45 -3.15,-0.1 m -1.3,1.85 -0.65,-0.05 0.15,-0.8 1.4,-1.3 h 4.8 l 0.2,1.1 h -4.85 l -1.05,1.05"
         inkscape:connector-curvature="0"
         style="fill:#006633;fill-rule:evenodd;stroke:none" />
      <path
         id="path16"
         d="m -13.1,-30.5 1.05,-1.05 h 4.85 l 0.25,1.4 -6.15,-0.35"
         inkscape:connector-curvature="0"
         style="fill:#014321;fill-rule:evenodd;stroke:none" />
      <path
         id="path18"
         d="m -11.8,-32.35 3.15,0.1 0.2,0.45 h -4.1 l 0.75,-0.55"
         inkscape:connector-curvature="0"
         style="fill:#02db6f;fill-rule:evenodd;stroke:none" />
      <path
         id="path20"
         d="m -11.2,-16.95 -4.3,-2.5 -1.15,-2.25 2,-9.55 6.8,0.4 -0.45,-2.5 3.45,-0.2 0.75,3.05 1.05,-1.75 h 2.1 L 0,-30.9 v 2.05 l -1.15,-1.45 -1.15,0.5 v 2.15 l -2.9,-2 -0.25,-2.95 -1.3,0.25 0.35,1.9 -0.65,0.5 -3.95,-0.3 10.2,4.6 0.8,-1 v 1.1 l -2.3,2.85 -0.45,0.85 -0.65,0.6 -0.65,0.25 -1.55,-2.2 1.25,2.6 1,0.1 1.5,-1.65 0.5,-0.4 0.6,-1.05 L 0,-23.65 V 2.2 L -1.75,0.1 v -8.6 l 0.65,-0.85 v -2.75 l -1,-1.25 v -4.55 l -1.35,0.4 -1.65,-1.75 -1.5,-1.6 v -4 h 1.35 l 1.55,2.2 2.05,-1.95 -9.9,-4.55 -1.8,2.4 -0.8,5.85 4.1,1.75 -1.15,2.2 m -2.6,-13.55 -0.6,1.2 v 1.85 l 0.6,-1.15 1.25,-1.5 -1.25,-0.4 m 11.9,-1.05 h -1.15 v 1.1 h 1.15 v -1.1 m 0.75,10.75 -0.35,0.25 -0.2,0.6 -0.8,1.3 1.95,-0.35 -0.3,-3.2 -0.3,1.4 m -10.5,2.75 0.6,-0.15 -3.1,-2.25 2.5,2.4"
         inkscape:connector-curvature="0"
         style="fill:#9e872e;fill-rule:evenodd;stroke:none" />
      <path
         id="path22"
         d="m 0,-28.85 v 2.2 l -0.8,1 -10.2,-4.6 3.95,0.3 0.65,-0.5 -0.35,-1.9 1.3,-0.25 0.25,2.95 2.9,2 v -2.15 l 1.15,-0.5 1.15,1.45 m -5.1,9.6 -0.7,0.65 v 2.8 l -1.5,1.1 -3.9,-2.25 1.15,-2.2 -4.1,-1.75 0.8,-5.85 1.8,-2.4 9.9,4.55 -2.05,1.95 -1.55,-2.2 H -6.6 v 4 l 1.5,1.6 m -7.05,-7.05 -0.2,0.5 -0.3,3.8 0.3,0.2 2.05,1.35 0.25,0.15 0.35,-0.1 1.6,-0.6 0.35,-0.2 v -3.95 l -0.15,-0.55 -1.6,-0.9 -0.35,-0.1 -2.3,0.4"
         inkscape:connector-curvature="0"
         style="fill:#4b4a23;fill-rule:evenodd;stroke:none" />
      <path
         id="path24"
         d="m -10.55,-26.45 -0.15,0.05 -0.1,0.15 0.1,0.15 0.15,0.05 0.2,-0.05 0.05,-0.15 -0.05,-0.15 -0.2,-0.05 m -1.8,0.65 0.65,0.7 -0.25,2.55 -0.7,0.55 0.3,-3.8 m 1,0.5 -0.8,-1 2.3,-0.4 -0.05,1.15 -0.15,0.05 -1.3,0.2 m 1.9,-0.25 -0.05,-1.05 1.6,0.9 -0.65,0.85 L -8.8,-25 -9,-25.4 -9.45,-25.55 m 1.7,0.4 v 3.95 l -0.55,-0.55 -0.05,-2.65 0.6,-0.75 m -0.35,4.15 -1.6,0.6 0.1,-0.35 v -0.1 q -0.05,-0.85 0.85,-0.7 L -8.1,-21 m -2.2,0.55 -2.05,-1.35 0.55,-0.35 h 0.45 l 1.1,0.9 -0.05,0.8"
         inkscape:connector-curvature="0"
         style="fill:#990000;fill-rule:evenodd;stroke:none" />
      <path
         id="path26"
         d="m -11.7,-25.1 -0.65,-0.7 0.2,-0.5 0.8,1 -0.35,0.2 m -0.95,3.1 0.7,-0.55 0.15,0.4 -0.55,0.35 -0.3,-0.2 m 2.8,-4.7 0.35,0.1 0.05,1.05 -0.5,0.35 -0.1,-0.3 0.15,-0.05 0.05,-1.15 m 1.95,1 0.15,0.55 -0.6,0.75 0.05,2.65 0.55,0.55 -0.35,0.2 -0.65,-0.55 q -0.9,-0.15 -0.85,0.7 v 0.1 l -0.1,0.35 -0.35,0.1 -0.25,-0.15 0.05,-0.8 -1.1,-0.9 0.35,-2.2 1.05,-0.85 1.15,0.2 0.25,0.15 0.65,-0.85 m -1.85,2.4 v -0.85 h -0.9 v 0.85 h 0.9"
         inkscape:connector-curvature="0"
         style="fill:#5e0000;fill-rule:evenodd;stroke:none" />
      <path
         id="path28"
         d="m -10.55,-26.45 0.2,0.05 0.05,0.15 -0.05,0.15 -0.2,0.05 -0.15,-0.05 -0.1,-0.15 0.1,-0.15 0.15,-0.05 m -1.15,1.35 0.35,-0.2 1.3,-0.2 0.1,0.3 0.5,-0.35 0.45,0.15 0.2,0.4 -1.15,-0.2 -1.05,0.85 -0.35,2.2 h -0.45 l -0.15,-0.4 0.25,-2.55 m 1.95,1.8 h -0.9 v -0.85 h 0.9 v 0.85"
         inkscape:connector-curvature="0"
         style="fill:#ff0000;fill-rule:evenodd;stroke:none" />
      <path
         id="path30"
         d="m 0,-25.55 0.45,0.8 -0.45,1.1 -0.75,0.05 -0.6,1.05 -0.5,0.4 -1.5,1.65 -1,-0.1 -1.25,-2.6 1.55,2.2 0.65,-0.25 0.65,-0.6 0.45,-0.85 2.3,-2.85 m -13.8,-4.95 1.25,0.4 -1.25,1.5 -0.6,1.15 v -1.85 l 0.6,-1.2 m 11.9,-1.05 v 1.1 h -1.15 v -1.1 h 1.15 m 0.75,10.75 0.3,-1.4 0.3,3.2 -1.95,0.35 0.8,-1.3 0.2,-0.6 0.35,-0.25 m -10.5,2.75 -2.5,-2.4 3.1,2.25 -0.6,0.15"
         inkscape:connector-curvature="0"
         style="fill:#eeed55;fill-rule:evenodd;stroke:none" />
    </g>
    <g
       id="g32-3"
       transform="translate(62.876269,27.912288)">
      <path
         id="path14-6"
         d="m -11.8,-32.35 -0.75,0.55 h 4.1 l -0.2,-0.45 -3.15,-0.1 m -1.3,1.85 -0.65,-0.05 0.15,-0.8 1.4,-1.3 h 4.8 l 0.2,1.1 h -4.85 l -1.05,1.05"
         inkscape:connector-curvature="0"
         style="fill:#006633;fill-rule:evenodd;stroke:none" />
      <path
         id="path16-7"
         d="m -13.1,-30.5 1.05,-1.05 h 4.85 l 0.25,1.4 -6.15,-0.35"
         inkscape:connector-curvature="0"
         style="fill:#014321;fill-rule:evenodd;stroke:none" />
      <path
         id="path18-5"
         d="m -11.8,-32.35 3.15,0.1 0.2,0.45 h -4.1 l 0.75,-0.55"
         inkscape:connector-curvature="0"
         style="fill:#02db6f;fill-rule:evenodd;stroke:none" />
      <path
         id="path20-3"
         d="m -11.2,-16.95 -4.3,-2.5 -1.15,-2.25 2,-9.55 6.8,0.4 -0.45,-2.5 3.45,-0.2 0.75,3.05 1.05,-1.75 h 2.1 L 0,-30.9 v 2.05 l -1.15,-1.45 -1.15,0.5 v 2.15 l -2.9,-2 -0.25,-2.95 -1.3,0.25 0.35,1.9 -0.65,0.5 -3.95,-0.3 10.2,4.6 0.8,-1 v 1.1 l -2.3,2.85 -0.45,0.85 -0.65,0.6 -0.65,0.25 -1.55,-2.2 1.25,2.6 1,0.1 1.5,-1.65 0.5,-0.4 0.6,-1.05 L 0,-23.65 V 2.2 L -1.75,0.1 v -8.6 l 0.65,-0.85 v -2.75 l -1,-1.25 v -4.55 l -1.35,0.4 -1.65,-1.75 -1.5,-1.6 v -4 h 1.35 l 1.55,2.2 2.05,-1.95 -9.9,-4.55 -1.8,2.4 -0.8,5.85 4.1,1.75 -1.15,2.2 m -2.6,-13.55 -0.6,1.2 v 1.85 l 0.6,-1.15 1.25,-1.5 -1.25,-0.4 m 11.9,-1.05 h -1.15 v 1.1 h 1.15 v -1.1 m 0.75,10.75 -0.35,0.25 -0.2,0.6 -0.8,1.3 1.95,-0.35 -0.3,-3.2 -0.3,1.4 m -10.5,2.75 0.6,-0.15 -3.1,-2.25 2.5,2.4"
         inkscape:connector-curvature="0"
         style="fill:#9e872e;fill-rule:evenodd;stroke:none" />
      <path
         id="path22-5"
         d="m 0,-28.85 v 2.2 l -0.8,1 -10.2,-4.6 3.95,0.3 0.65,-0.5 -0.35,-1.9 1.3,-0.25 0.25,2.95 2.9,2 v -2.15 l 1.15,-0.5 1.15,1.45 m -5.1,9.6 -0.7,0.65 v 2.8 l -1.5,1.1 -3.9,-2.25 1.15,-2.2 -4.1,-1.75 0.8,-5.85 1.8,-2.4 9.9,4.55 -2.05,1.95 -1.55,-2.2 H -6.6 v 4 l 1.5,1.6 m -7.05,-7.05 -0.2,0.5 -0.3,3.8 0.3,0.2 2.05,1.35 0.25,0.15 0.35,-0.1 1.6,-0.6 0.35,-0.2 v -3.95 l -0.15,-0.55 -1.6,-0.9 -0.35,-0.1 -2.3,0.4"
         inkscape:connector-curvature="0"
         style="fill:#4b4a23;fill-rule:evenodd;stroke:none" />
      <path
         id="path24-6"
         d="m -10.55,-26.45 -0.15,0.05 -0.1,0.15 0.1,0.15 0.15,0.05 0.2,-0.05 0.05,-0.15 -0.05,-0.15 -0.2,-0.05 m -1.8,0.65 0.65,0.7 -0.25,2.55 -0.7,0.55 0.3,-3.8 m 1,0.5 -0.8,-1 2.3,-0.4 -0.05,1.15 -0.15,0.05 -1.3,0.2 m 1.9,-0.25 -0.05,-1.05 1.6,0.9 -0.65,0.85 L -8.8,-25 -9,-25.4 -9.45,-25.55 m 1.7,0.4 v 3.95 l -0.55,-0.55 -0.05,-2.65 0.6,-0.75 m -0.35,4.15 -1.6,0.6 0.1,-0.35 v -0.1 q -0.05,-0.85 0.85,-0.7 L -8.1,-21 m -2.2,0.55 -2.05,-1.35 0.55,-0.35 h 0.45 l 1.1,0.9 -0.05,0.8"
         inkscape:connector-curvature="0"
         style="fill:#990000;fill-rule:evenodd;stroke:none" />
      <path
         id="path26-2"
         d="m -11.7,-25.1 -0.65,-0.7 0.2,-0.5 0.8,1 -0.35,0.2 m -0.95,3.1 0.7,-0.55 0.15,0.4 -0.55,0.35 -0.3,-0.2 m 2.8,-4.7 0.35,0.1 0.05,1.05 -0.5,0.35 -0.1,-0.3 0.15,-0.05 0.05,-1.15 m 1.95,1 0.15,0.55 -0.6,0.75 0.05,2.65 0.55,0.55 -0.35,0.2 -0.65,-0.55 q -0.9,-0.15 -0.85,0.7 v 0.1 l -0.1,0.35 -0.35,0.1 -0.25,-0.15 0.05,-0.8 -1.1,-0.9 0.35,-2.2 1.05,-0.85 1.15,0.2 0.25,0.15 0.65,-0.85 m -1.85,2.4 v -0.85 h -0.9 v 0.85 h 0.9"
         inkscape:connector-curvature="0"
         style="fill:#5e0000;fill-rule:evenodd;stroke:none" />
      <path
         id="path28-9"
         d="m -10.55,-26.45 0.2,0.05 0.05,0.15 -0.05,0.15 -0.2,0.05 -0.15,-0.05 -0.1,-0.15 0.1,-0.15 0.15,-0.05 m -1.15,1.35 0.35,-0.2 1.3,-0.2 0.1,0.3 0.5,-0.35 0.45,0.15 0.2,0.4 -1.15,-0.2 -1.05,0.85 -0.35,2.2 h -0.45 l -0.15,-0.4 0.25,-2.55 m 1.95,1.8 h -0.9 v -0.85 h 0.9 v 0.85"
         inkscape:connector-curvature="0"
         style="fill:#ff0000;fill-rule:evenodd;stroke:none" />
      <path
         id="path30-1"
         d="m 0,-25.55 0.45,0.8 -0.45,1.1 -0.75,0.05 -0.6,1.05 -0.5,0.4 -1.5,1.65 -1,-0.1 -1.25,-2.6 1.55,2.2 0.65,-0.25 0.65,-0.6 0.45,-0.85 2.3,-2.85 m -13.8,-4.95 1.25,0.4 -1.25,1.5 -0.6,1.15 v -1.85 l 0.6,-1.2 m 11.9,-1.05 v 1.1 h -1.15 v -1.1 h 1.15 m 0.75,10.75 0.3,-1.4 0.3,3.2 -1.95,0.35 0.8,-1.3 0.2,-0.6 0.35,-0.25 m -10.5,2.75 -2.5,-2.4 3.1,2.25 -0.6,0.15"
         inkscape:connector-curvature="0"
         style="fill:#eeed55;fill-rule:evenodd;stroke:none" />
    </g>
  </g>
  <g
     transform="translate(15.251742,33.282996)"
     id="g48">
    <path
       d="m -0.75,-13.3 0.5,0.5 -3.7,3.7 -0.05,-0.95 3.25,-3.25 m -6.75,6.75 1.1,-0.1 -6.85,6.85 0.1,-1.1 5.65,-5.65"
       id="path42"
       inkscape:connector-curvature="0"
       style="fill:#eeed55;fill-rule:evenodd;stroke:none" />
    <path
       d="m -10.2,-5.75 0.85,0.85 -1.1,1.1 -0.85,-0.85 1.1,-1.1 m -2.6,4.3 -0.85,-0.85 0.8,-0.8 -0.65,-0.65 1.15,-1.15 1.55,1.55 -1.15,1.15 -0.05,-0.05 -0.8,0.8"
       id="path44"
       inkscape:connector-curvature="0"
       style="fill:#9e872e;fill-rule:evenodd;stroke:none" />
    <path
       d="m -8.9,-5.35 -1.25,-1.25 1.2,-1.2 1.25,1.25 -1.2,1.2"
       id="path46"
       inkscape:connector-curvature="0"
       style="fill:#9e872e;fill-rule:evenodd;stroke:none" />
  </g>
</svg>
