<?xml version="1.0" encoding="UTF-8" standalone="no"?>
<svg xmlns:xlink="http://www.w3.org/1999/xlink" height="25.9px" width="28.1px" xmlns="http://www.w3.org/2000/svg">
  <g transform="matrix(1.0, 0.0, 0.0, 1.0, 14.25, 24.55)">
    <path d="M12.35 -15.85 Q13.7 -13.65 13.85 -11.15 13.9 -9.55 12.8 -8.3 10.95 -6.4 8.5 -5.65 9.55 -3.0 6.7 -0.75 3.25 1.9 -2.1 1.2 -5.35 0.75 -6.95 -1.0 L-7.9 -2.35 Q-8.3 -3.15 -8.2 -4.0 L-8.2 -4.05 -7.95 -5.1 -10.7 -5.85 Q-13.95 -6.9 -14.2 -9.75 -14.45 -12.15 -13.55 -14.75 -12.7 -17.35 -10.0 -20.4 -7.2 -23.5 -2.7 -24.5 L-2.5 -24.5 -1.65 -24.5 -1.1 -24.45 -1.05 -24.4 2.35 -23.75 Q3.9 -23.45 5.35 -22.65 7.55 -21.4 9.25 -19.9 L9.3 -19.85 Q11.15 -17.95 12.4 -15.85 L12.35 -15.85" fill="#000000" fill-rule="evenodd" stroke="none"/>
    <path d="M-4.2 -7.5 L-4.15 -7.55 Q-3.2 -8.15 -2.05 -8.55 L-0.65 -8.85 -0.45 -8.85 2.4 -8.6 4.2 -8.05 4.35 -7.95 6.25 -6.75 6.25 -6.7 6.3 -6.65 6.95 -5.7 Q8.05 -3.4 5.6 -1.5 2.7 0.75 -1.8 0.15 -4.45 -0.2 -5.75 -1.6 L-4.95 -1.55 Q-2.4 -1.15 -0.1 -2.0 L0.2 -2.1 Q1.8 -3.35 2.75 -4.9 L2.85 -5.9 2.1 -6.4 Q-1.0 -6.1 -3.95 -7.1 L-4.65 -7.15 -4.2 -7.5" fill="#ffccff" fill-rule="evenodd" stroke="none"/>
    <path d="M-5.75 -1.6 Q-6.25 -2.1 -6.55 -2.75 -6.85 -3.35 -6.75 -4.0 -6.45 -6.0 -4.2 -7.5 L-4.65 -7.15 -3.95 -7.1 Q-1.0 -6.1 2.1 -6.4 L2.85 -5.9 2.75 -4.9 Q1.8 -3.35 0.2 -2.1 L-0.1 -2.0 Q-2.4 -1.15 -4.95 -1.55 L-5.75 -1.6" fill="#ffffff" fill-rule="evenodd" stroke="none"/>
    <path d="M4.0 -17.65 L4.35 -17.65 4.4 -16.9 4.85 -14.45 4.05 -14.5 Q-0.45 -14.75 -0.3 -10.4 -0.25 -9.4 0.45 -8.7 1.15 -8.15 2.2 -8.1 L2.4 -8.1 2.45 -8.1 -0.85 -6.6 -1.6 -6.3 -0.85 -6.15 -6.8 -6.05 Q-7.8 -6.05 -10.4 -6.85 -13.0 -7.7 -13.2 -9.9 -13.45 -12.1 -12.6 -14.5 -11.8 -16.9 -9.25 -19.75 -6.65 -22.65 -2.45 -23.55 L-1.7 -23.55 -1.25 -23.5 1.5 -20.95 1.55 -19.75 Q1.75 -18.0 3.8 -17.7 L4.0 -17.65 M-9.95 -12.85 L-9.15 -12.55 -6.45 -11.85 -6.25 -11.9 Q-4.65 -12.25 -3.4 -13.95 -2.75 -14.75 -2.55 -15.8 -2.1 -18.8 -4.75 -19.35 -5.85 -19.2 -7.2 -18.45 -11.05 -16.9 -9.95 -12.85" fill="#33cc66" fill-rule="evenodd" stroke="none"/>
    <path d="M1.6 -21.25 L4.0 -17.65 3.8 -17.7 Q1.75 -18.0 1.55 -19.75 L1.5 -20.95 1.6 -21.25 M4.85 -14.45 Q4.25 -13.2 4.05 -11.85 3.7 -9.8 2.4 -8.1 L2.2 -8.1 Q1.15 -8.15 0.45 -8.7 -0.25 -9.4 -0.3 -10.4 -0.45 -14.75 4.05 -14.5 L4.85 -14.45 M-9.95 -12.85 Q-11.05 -16.9 -7.2 -18.45 -5.85 -19.2 -4.75 -19.35 -2.1 -18.8 -2.55 -15.8 -2.75 -14.75 -3.4 -13.95 -4.65 -12.25 -6.25 -11.9 L-6.45 -11.85 -9.15 -12.55 -9.95 -12.85" fill="#ffffff" fill-rule="evenodd" stroke="none"/>
    <path d="M8.6 -19.2 L8.0 -18.85 Q6.3 -17.65 4.35 -17.65 L4.0 -17.65 1.6 -21.25 2.15 -22.85 Q3.55 -22.55 4.85 -21.85 L8.6 -19.2 M4.85 -14.45 Q7.45 -13.8 6.85 -11.15 6.3 -8.8 3.85 -8.15 L2.45 -8.1 2.4 -8.1 Q3.7 -9.8 4.05 -11.85 4.25 -13.2 4.85 -14.45" fill="#cccccc" fill-rule="evenodd" stroke="none"/>
    <path d="M4.35 -17.65 Q6.3 -17.65 8.0 -18.85 L8.6 -19.2 Q10.35 -17.4 11.5 -15.4 12.7 -13.4 12.85 -11.15 12.9 -9.95 12.05 -9.05 10.3 -7.25 7.9 -6.6 L3.55 -6.15 -0.85 -6.15 -1.6 -6.3 -0.85 -6.6 2.45 -8.1 3.85 -8.15 Q6.3 -8.8 6.85 -11.15 7.45 -13.8 4.85 -14.45 L4.4 -16.9 4.35 -17.65 M2.15 -22.85 L1.6 -21.25 1.5 -20.95 -1.25 -23.5 2.15 -22.85" fill="#669900" fill-rule="evenodd" stroke="none"/>
  </g>
</svg>
