<?xml version="1.0" encoding="UTF-8" standalone="no"?>
<svg xmlns:xlink="http://www.w3.org/1999/xlink" height="38.45px" width="24.8px" xmlns="http://www.w3.org/2000/svg">
  <g transform="matrix(1.0, 0.0, 0.0, 1.0, 12.75, 19.6)">
    <path d="M9.15 11.0 L7.6 13.3 Q8.55 13.4 9.45 13.95 L9.9 14.3 Q10.4 14.65 10.55 15.25 L10.6 16.1 9.95 17.15 9.3 17.6 Q7.0 18.65 4.55 18.2 3.2 17.95 2.4 16.9 L2.35 16.85 2.35 16.75 Q2.3 16.6 2.4 16.55 L2.3 15.95 0.85 16.1 Q0.8 16.85 0.1 17.45 L-0.55 17.85 Q-2.9 18.85 -5.35 18.3 -6.5 18.0 -7.25 17.05 L-7.4 16.85 -7.45 16.8 -7.45 16.75 -7.4 16.5 Q-7.7 15.35 -6.95 14.6 L-6.7 14.4 -6.4 14.2 Q-5.65 13.7 -4.8 13.55 L-5.95 11.35 -6.95 11.8 Q-8.1 11.2 -8.15 9.95 L-8.2 9.45 -8.15 8.55 -8.45 8.0 -8.85 7.1 -9.4 6.25 -9.65 6.15 -9.85 6.0 Q-10.95 6.15 -11.0 5.15 -11.05 4.85 -10.75 4.8 -10.0 4.55 -9.4 4.15 -7.9 3.2 -6.95 1.75 L-5.9 0.15 -4.15 -1.95 -4.1 -3.15 -4.0 -3.25 -3.4 -3.6 -3.1 -3.5 -3.7 -4.7 -4.65 -4.4 -5.6 -7.4 -6.8 -10.3 -8.1 -12.8 Q-9.55 -15.35 -11.35 -17.65 L-11.45 -17.75 -11.4 -17.75 -11.75 -18.5 -10.95 -18.3 -10.95 -18.35 -7.4 -17.9 -6.0 -17.45 -5.55 -17.3 -3.6 -16.7 -3.4 -16.6 -3.05 -16.5 2.45 -15.0 2.4 -15.2 3.25 -14.8 6.4 -14.0 6.25 -13.6 6.35 -13.1 8.25 -11.6 8.75 -10.85 Q10.1 -8.45 9.6 -5.65 L9.4 -4.9 9.45 -4.9 9.1 -4.1 7.75 -2.35 8.25 -2.45 8.5 -2.2 Q9.05 -0.7 9.05 1.05 L9.05 1.15 9.35 1.65 10.1 2.75 10.7 3.9 10.85 4.35 11.4 6.1 11.65 7.6 11.65 8.15 11.7 8.55 10.4 8.65 9.9 6.55 9.25 6.2 7.95 3.15 7.15 3.9 6.6 4.0 Q6.55 5.25 6.1 6.25 L5.75 6.95 Q4.45 9.15 1.95 9.7 L-2.45 10.35 -2.25 11.4 Q-0.9 12.3 0.65 12.65 L1.5 12.9 Q4.1 12.9 5.8 11.1 L8.75 7.8 9.15 11.0 M11.05 10.2 L10.55 10.55 10.1 10.4 11.05 10.2 M-2.3 -6.0 L1.35 -10.15 5.15 -12.1 4.65 -12.45 -0.3 -10.15 -8.75 -16.95 -3.7 -6.2 -2.3 -6.0 M6.35 -7.6 Q6.0 -6.95 6.35 -6.3 L6.5 -6.15 Q6.85 -5.85 7.25 -5.8 8.4 -5.6 8.45 -6.65 8.5 -8.0 6.95 -7.9 L6.55 -7.8 6.35 -7.6 M1.9 -6.35 L2.0 -6.1 2.05 -5.95 2.3 -5.75 Q3.7 -5.25 4.4 -6.45 5.05 -7.55 3.75 -8.0 2.1 -7.95 1.9 -6.35 M1.7 -3.75 L1.75 -3.7 5.55 -3.35 6.2 -3.55 Q6.85 -3.9 6.15 -4.35 L5.95 -4.4 2.5 -4.5 Q1.85 -4.4 1.7 -3.75 M7.45 -2.5 L1.5 -3.2 Q-1.3 -3.2 -2.7 -2.6 L0.9 -1.85 7.65 -2.05 Q7.8 -2.5 7.45 -2.5 M8.4 0.9 Q5.8 2.35 2.9 1.45 0.5 0.8 -1.6 -0.35 L-3.95 0.6 -2.55 1.0 -4.15 2.6 Q-6.3 5.2 -6.2 8.45 L-1.3 2.3 -1.45 1.3 0.5 2.1 Q1.65 2.6 2.9 2.7 L4.3 2.95 Q6.6 3.15 8.35 2.3 L8.65 1.35 8.4 0.9 M7.4 17.05 Q8.4 16.9 8.9 16.15 L8.9 15.75 Q7.95 14.7 6.35 14.95 L5.95 15.0 Q4.7 14.95 4.2 15.95 L4.2 16.3 Q5.25 17.35 6.85 17.1 L7.4 17.05 M-0.8 16.1 Q-0.8 15.65 -1.2 15.5 L-4.0 15.15 Q-4.85 15.15 -5.65 15.6 -6.05 15.85 -6.05 16.3 L-5.8 16.75 Q-4.1 17.8 -2.05 17.4 -0.85 17.2 -0.8 16.1" fill="#ffcc00" fill-rule="evenodd" stroke="none"/>
    <path d="M11.7 8.55 L11.05 10.2 10.1 10.4 9.5 10.2 9.35 10.6 9.15 11.0 8.75 7.8 5.8 11.1 Q4.1 12.9 1.5 12.9 L0.65 12.65 Q-0.9 12.3 -2.25 11.4 L-2.45 10.35 1.95 9.7 Q4.45 9.15 5.75 6.95 L6.1 6.25 Q6.55 5.25 6.6 4.0 L7.15 3.9 7.95 3.15 9.25 6.2 9.9 6.55 10.4 8.65 11.7 8.55 M7.4 17.05 L6.85 17.1 Q5.25 17.35 4.2 16.3 L4.2 15.95 Q4.7 14.95 5.95 15.0 L6.35 14.95 Q7.95 14.7 8.9 15.75 L8.9 16.15 Q8.4 16.9 7.4 17.05 M8.4 0.9 L8.65 1.35 8.35 2.3 Q6.6 3.15 4.3 2.95 L2.9 2.7 Q1.65 2.6 0.5 2.1 L-1.45 1.3 -1.3 2.3 -6.2 8.45 Q-6.3 5.2 -4.15 2.6 L-2.55 1.0 -3.95 0.6 -1.6 -0.35 Q0.5 0.8 2.9 1.45 5.8 2.35 8.4 0.9 M7.45 -2.5 Q7.8 -2.5 7.65 -2.05 L0.9 -1.85 -2.7 -2.6 Q-1.3 -3.2 1.5 -3.2 L7.45 -2.5 M1.7 -3.75 Q1.85 -4.4 2.5 -4.5 L5.95 -4.4 6.15 -4.35 Q6.85 -3.9 6.2 -3.55 L5.55 -3.35 1.75 -3.7 1.7 -3.75 M1.9 -6.35 Q2.1 -7.95 3.75 -8.0 5.05 -7.55 4.4 -6.45 3.7 -5.25 2.3 -5.75 L2.05 -5.95 2.0 -6.1 1.9 -6.35 M6.35 -7.6 L6.55 -7.8 6.95 -7.9 Q8.5 -8.0 8.45 -6.65 8.4 -5.6 7.25 -5.8 6.85 -5.85 6.5 -6.15 L6.35 -6.3 Q6.0 -6.95 6.35 -7.6 M-2.3 -6.0 L-3.7 -6.2 -8.75 -16.95 -0.3 -10.15 4.65 -12.45 5.15 -12.1 1.35 -10.15 -2.3 -6.0 M-0.8 16.1 Q-0.85 17.2 -2.05 17.4 -4.1 17.8 -5.8 16.75 L-6.05 16.3 Q-6.05 15.85 -5.65 15.6 -4.85 15.15 -4.0 15.15 L-1.2 15.5 Q-0.8 15.65 -0.8 16.1" fill="#cc9900" fill-rule="evenodd" stroke="none"/>
    <path d="M9.15 11.0 L7.6 13.3 Q8.55 13.4 9.45 13.95 L9.9 14.3 Q10.4 14.65 10.55 15.25 L10.6 16.1 9.95 17.15 9.3 17.6 Q7.0 18.65 4.55 18.2 3.2 17.95 2.4 16.9 L2.35 16.85 2.35 16.75 Q2.3 16.6 2.4 16.55 L2.3 15.95 0.85 16.1 Q0.8 16.85 0.1 17.45 L-0.55 17.85 Q-2.9 18.85 -5.35 18.3 -6.5 18.0 -7.25 17.05 L-7.4 16.85 -7.45 16.8 -7.45 16.75 -7.4 16.5 Q-7.7 15.35 -6.95 14.6 L-6.7 14.4 -6.4 14.2 Q-5.65 13.7 -4.8 13.55 L-5.95 11.35 -6.95 11.8 Q-8.1 11.2 -8.15 9.95 L-8.2 9.45 -8.15 8.55 -8.45 8.0 -8.85 7.1 -9.4 6.25 -9.65 6.15 -9.85 6.0 Q-10.95 6.15 -11.0 5.15 -11.05 4.85 -10.75 4.8 -10.0 4.55 -9.4 4.15 -7.9 3.2 -6.95 1.75 L-5.9 0.15 -4.15 -1.95 -4.1 -3.15 -4.0 -3.25 -3.4 -3.6 -3.1 -3.5 -3.7 -4.7 -4.65 -4.4 -5.6 -7.4 -6.8 -10.3 -8.1 -12.8 Q-9.55 -15.35 -11.35 -17.65 L-11.45 -17.75 -11.4 -17.75 -11.75 -18.5 -10.95 -18.3 -10.95 -18.35 -7.4 -17.9 -6.0 -17.45 -5.55 -17.3 -3.6 -16.7 -3.4 -16.6 -3.05 -16.5 2.45 -15.0 2.4 -15.2 3.25 -14.8 6.4 -14.0 6.25 -13.6 6.35 -13.1 8.25 -11.6 8.75 -10.85 Q10.1 -8.45 9.6 -5.65 L9.4 -4.9 9.45 -4.9 9.1 -4.1 7.75 -2.35 8.25 -2.45 8.5 -2.2 Q9.05 -0.7 9.05 1.05 L9.05 1.15 9.35 1.65 10.1 2.75 10.7 3.9 10.85 4.35 11.4 6.1 11.65 7.6 11.65 8.15 11.7 8.55 11.05 10.2 10.55 10.55 10.1 10.4 9.5 10.2 9.35 10.6" fill="none" stroke="#ffffcc" stroke-linecap="round" stroke-linejoin="round" stroke-width="0.75"/>
    <path d="M6.6 -7.55 L7.1 -7.8 7.65 -7.55 7.85 -7.05 7.65 -6.5 7.1 -6.3 Q6.8 -6.3 6.6 -6.5 L6.35 -7.05 6.6 -7.55 M2.05 -6.9 Q2.05 -7.2 2.4 -7.4 L3.2 -7.6 4.05 -7.4 4.35 -6.9 4.05 -6.4 3.2 -6.2 2.4 -6.4 Q2.05 -6.6 2.05 -6.9 M5.0 -10.45 L0.75 -6.95 1.75 -5.6 1.9 -4.0 1.35 -3.25 0.25 -3.75 -0.55 -6.4 0.45 -7.2 -0.3 -7.0 1.0 -8.9 5.0 -10.45 M6.5 -3.45 L2.35 -3.65 5.85 -4.0 6.5 -3.45 M6.25 -1.1 L3.8 0.95 5.7 1.6 3.65 1.65 1.95 0.35 1.95 -0.75 6.25 -1.1 M9.15 3.2 Q10.3 4.85 9.5 6.45 L9.2 6.95 9.0 3.6 9.4 4.4 9.15 3.2 M3.65 5.6 L4.5 6.9 3.35 7.3 3.9 7.8 2.05 8.75 0.6 11.05 -4.05 11.8 1.1 7.9 1.6 3.1 5.15 3.1 4.4 5.35 3.65 5.6 M9.5 16.55 L4.6 16.9 7.9 16.1 4.5 15.15 7.7 15.1 9.5 16.55 M6.5 13.4 L1.35 15.2 -2.3 13.75 4.1 13.3 5.6 11.5 5.65 13.2 6.5 13.4 M-0.35 -1.45 L-5.85 3.2 -2.9 -1.05 -0.35 -1.45 M-7.6 -17.05 L1.45 -11.45 -2.45 -6.85 -0.8 -10.9 -7.9 -16.55 -9.1 -16.6 -7.6 -17.05 M-3.8 4.4 L-1.7 3.45 -3.45 3.65 -2.65 2.7 -0.9 2.1 0.4 2.6 -1.7 3.95 -3.8 9.5 -6.3 10.2 -5.35 9.4 -5.25 8.25 -4.25 7.75 -2.75 4.45 -3.8 4.4 M-1.55 15.25 L-2.3 15.9 -0.6 16.55 -6.55 17.35 -2.4 16.65 -5.25 15.6 -1.35 14.4 -1.55 15.25" fill="#000000" fill-rule="evenodd" stroke="none"/>
    <path d="M6.5 14.5 L6.65 14.75 Q6.7 15.8 5.75 16.05 4.45 16.35 3.4 15.7 3.15 15.6 3.15 15.3 3.15 14.55 3.9 14.3 L4.15 14.2 4.35 14.1 Q5.6 13.9 6.5 14.5 M3.55 8.15 Q3.75 7.6 4.25 7.55 5.6 7.25 5.85 8.35 6.0 8.95 5.4 9.25 4.1 9.85 3.55 8.6 L3.55 8.15 M6.95 5.7 Q6.15 6.5 5.25 5.95 L5.1 5.55 Q5.35 4.05 6.75 3.8 8.05 4.55 6.95 5.7 M-4.7 13.9 Q-3.55 13.6 -2.85 14.3 -2.65 14.5 -2.75 14.75 -3.25 15.75 -4.5 15.7 L-4.8 15.7 Q-6.0 15.8 -6.0 14.75 L-5.7 14.25 -4.7 13.9 M-3.75 11.95 L-4.5 10.65 1.6 10.8 3.6 12.15 -3.75 11.95 M-7.85 4.15 Q-7.0 4.1 -6.75 4.9 L-6.7 5.0 Q-7.3 6.45 -8.8 6.35 L-9.0 6.2 Q-9.2 5.55 -9.0 4.9 L-8.2 4.2 -7.85 4.15 M-3.95 -1.15 L-3.75 -0.75 -6.35 3.4 -7.45 2.25 Q-5.8 0.35 -3.95 -1.15 M-12.3 -19.15 Q-11.85 -19.6 -11.25 -19.6 -10.65 -19.6 -10.2 -19.15 -9.75 -18.7 -9.75 -18.1 -9.75 -17.5 -10.2 -17.05 -10.65 -16.6 -11.25 -16.6 -11.85 -16.6 -12.3 -17.05 -12.75 -17.5 -12.75 -18.1 L-12.3 -19.15 M-7.75 -14.7 Q-6.05 -14.0 -4.7 -12.5 -2.85 -10.4 -3.7 -8.85 L-5.05 -9.9 Q-6.75 -12.05 -7.85 -14.4 L-7.75 -14.7 M8.1 -9.65 L8.25 -7.7 3.95 -9.55 7.45 -10.35 8.1 -9.65 M0.55 -3.35 L2.8 -3.5 4.95 -2.2 Q6.05 -1.7 6.75 -1.0 L6.65 -0.45 -0.8 -1.5 -0.45 -2.35 0.55 -3.35 M4.0 -13.35 L3.2 -12.45 -2.45 -14.7 -0.5 -14.9 Q1.95 -14.65 4.0 -13.35" fill="#ffffff" fill-rule="evenodd" stroke="none"/>
  </g>
</svg>
