<?xml version="1.0" encoding="UTF-8" standalone="no"?>
<svg
   xmlns:dc="http://purl.org/dc/elements/1.1/"
   xmlns:cc="http://creativecommons.org/ns#"
   xmlns:rdf="http://www.w3.org/1999/02/22-rdf-syntax-ns#"
   xmlns:svg="http://www.w3.org/2000/svg"
   xmlns="http://www.w3.org/2000/svg"
   xmlns:xlink="http://www.w3.org/1999/xlink"
   xmlns:sodipodi="http://sodipodi.sourceforge.net/DTD/sodipodi-0.dtd"
   xmlns:inkscape="http://www.inkscape.org/namespaces/inkscape"
   height="16"
   width="48.451786"
   version="1.1"
   id="svg112"
   sodipodi:docname="47.svg"
   inkscape:version="0.92.1 r15371">
  <metadata
     id="metadata116">
    <rdf:RDF>
      <cc:Work
         rdf:about="">
        <dc:format>image/svg+xml</dc:format>
        <dc:type
           rdf:resource="http://purl.org/dc/dcmitype/StillImage" />
        <dc:title></dc:title>
      </cc:Work>
    </rdf:RDF>
  </metadata>
  <sodipodi:namedview
     pagecolor="#ffffff"
     bordercolor="#666666"
     borderopacity="1"
     objecttolerance="10"
     gridtolerance="10"
     guidetolerance="10"
     inkscape:pageopacity="0"
     inkscape:pageshadow="2"
     inkscape:window-width="818"
     inkscape:window-height="480"
     id="namedview114"
     showgrid="false"
     fit-margin-top="0"
     fit-margin-left="0"
     fit-margin-right="0"
     fit-margin-bottom="0"
     inkscape:zoom="3.4528165"
     inkscape:cx="24"
     inkscape:cy="20.525001"
     inkscape:window-x="0"
     inkscape:window-y="27"
     inkscape:window-maximized="0"
     inkscape:current-layer="svg112" />
  <g
     transform="translate(23.25,15.05)"
     id="g6">
    <use
       height="16"
       transform="translate(-23.25,-15.05)"
       width="48.450001"
       xlink:href="#shape0"
       id="use2"
       x="0"
       y="0" />
    <use
       height="25.15"
       transform="matrix(0.5557,0,0,0.5557,-22.2558,-14.0475)"
       width="83.599998"
       xlink:href="#sprite0"
       id="use4"
       x="0"
       y="0" />
  </g>
  <defs
     id="defs110">
    <g
       id="shape0"
       transform="translate(23.25,15.05)">
      <path
         d="m 10.85,-13.95 0.35,0.35 1.5,2.1 H 13 l 4.3,0.1 0.5,0.15 q 1.5,0.9 2.5,2.25 l 1.95,2.7 1.65,2 q 1.35,1.1 1.3,2.45 l -0.2,0.6 -0.75,0.65 -0.3,0.1 q -0.7,0.2 -1.55,-0.3 l -0.15,-0.15 -3.35,-3.1 -0.15,-0.15 -3,-3.35 -0.25,-0.2 -0.8,0.05 0.75,1.2 v -0.05 l 1.45,2.85 0.8,1.85 0.1,0.65 -0.4,0.6 q -0.35,0.2 -0.7,0.2 -2.05,-0.2 -3.25,-2.15 l -1.95,-3 -0.35,0.2 -1.1,0.45 -0.3,0.05 0.55,3.25 -0.1,0.65 L 9.75,-0.5 9.1,-0.45 Q 8.75,-0.5 8.55,-0.75 L 7.4,-2.15 6.3,-1.3 Q 5.15,0.4 2.65,0.9 H 2.45 L 2,0.95 1.3,0.7 1.2,0.65 -0.25,0.8 -0.8,0.7 -1.15,0.5 -4.6,0 -5,-0.15 -5.35,-0.5 -5.6,-0.95 v -0.1 Q -6.6,-1.65 -7,-2.9 L -7.05,-3.25 -7,-3.9 -6.95,-4.2 h -0.1 v 0.05 q -0.55,1.9 -2.1,3.1 -0.35,0.3 -0.8,0.5 h -0.6 l -0.5,-0.35 -0.2,-0.55 -0.05,-0.6 h -0.2 l -0.35,-0.05 -2.45,0.65 -3.95,1.25 h -0.7 l -0.5,-0.5 -0.05,-0.7 0.15,-0.55 -1,-0.3 h -0.05 q -0.65,-0.2 -1.2,-0.55 -0.3,-0.15 -0.4,-0.45 l -0.05,-0.65 0.25,-0.45 -0.2,0.05 -0.65,-0.05 -0.45,-0.45 -0.15,-0.65 0.1,-0.45 V -6 q 0.3,-1.15 1.1,-1.9 1.05,-1.1 2.6,-1.5 l 4.15,-1.25 h 0.2 l 1.7,-0.1 h 0.15 l 2.25,0.2 0.95,-0.85 0.35,-0.35 0.15,-0.1 1.45,-0.95 0.45,-0.15 h 0.15 l 0.3,-0.4 0.45,-0.35 0.55,-0.05 1.1,0.2 0.4,0.15 0.7,0.6 0.95,-1.15 q 1.2,-1.1 2.9,-1.1 l 0.5,0.15 0.4,0.4 1.35,2.5 1.3,0.15 0.75,-1.2 0.35,-0.35 0.4,-0.25 0.7,-0.1 0.6,0.4 1.55,2.05 0.55,-1.2 Q 8.35,-13.05 8.75,-13.45 9.15,-14 9.7,-14 h 0.05 l 0.6,-0.05 0.5,0.1 m -5.5,2.65 -0.45,0.45 0.75,0.15 -0.3,-0.6 m -22.85,5.7 -1.5,0.35 h 0.05 l -0.9,0.3 -0.4,0.1 h 0.05 l -0.25,0.1 2.95,-0.85 h -0.05 0.05 M -5,-10.9 -5.75,-10.65 -5,-10.8 v -0.1"
         id="path8"
         inkscape:connector-curvature="0"
         style="fill:#002b55;fill-rule:evenodd;stroke:none" />
    </g>
    <g
       id="sprite0"
       transform="translate(47.25,24.65)">
      <use
         height="25.15"
         transform="translate(-47.25,-24.65)"
         width="83.599998"
         xlink:href="#shape1"
         id="use11"
         x="0"
         y="0" />
    </g>
    <g
       id="shape1"
       transform="translate(47.25,24.65)">
      <path
         d="m 7.25,-17.05 q 1.4,-2.15 2.3,-4.5 0,-0.5 0.3,-0.85 0.25,-0.35 0.6,-0.35 l 1,-0.05 q 0,2.4 -1.2,4.1 -1.25,1.65 -3,1.65 m 8.1,-1 0.8,-0.2 7.75,0.2 -8.25,0.55 H 15.5 l 0.1,-0.1 -0.25,-0.45 m 21,15.35 -0.85,0.7 q -0.65,0.15 -1.45,-0.35 L 28,-7.95 q -2.55,-3.5 -5.65,-6.35 l 0.75,-1.95 13.25,13.55 m -13.3,0.8 Q 20.2,-2.2 18.5,-4.95 l -4,-6.15 -0.9,-1.5 -2.25,-4.45 0.15,-0.05 -0.1,-0.25 0.15,-1.95 11.5,17.4 M 9.1,-2.5 5.95,-6.3 l -1.3,-4.5 -2.9,0.25 2.85,2.25 q -5.35,-2 -11,-1.15 -2.8,0.65 -5.5,1.65 l -0.7,1 -1.25,0.55 15.05,-1.3 q -1.1,1.6 -3.1,2 l -11.8,1.15 -0.9,-0.45 -0.9,0.1 -0.75,-0.4 -1.85,0.05 0.05,-1.2 17.1,-5.25 0.95,0.5 3.2,-1.35 -0.4,-4.25 -15.8,1.3 -0.2,1.25 -5.6,-0.3 4.25,-1.55 2.95,-0.95 5.35,-1.2 2.9,-0.15 H 2.5 l -0.1,-1.05 -1.35,1 -1.25,-0.45 2,-3.15 0.7,-0.45 6.6,19.85 m -49.65,1.1 0.7,-2.65 1.4,-0.7 -2.1,3.35 m 3.35,-6.7 0.8,-0.4 q 0.5,-0.2 0.6,-0.8 v -0.05 l 8.15,-0.8 -9.55,2.05 m -7,-1.65 -3.05,0.85 0.15,-0.85 q 0.4,-1.5 1.45,-2.55 1.65,-1.6 3.95,-2.25 l 7.4,-2.2 3.05,-0.15 4.85,0.45 2.3,-2.1 0.65,-0.65 2.6,-1.65 0.65,0.6 -3.45,3.4 -2,1.95 -4.2,0.5 -5.25,1.05 q -3.45,0.9 -6.65,2.3 l -2.45,1.3 m 24.85,-11.65 0.65,-1 2,0.45 -2.6,2.3 -0.05,-1.75 m 6.1,1.85 q 0,-2.1 1.7,-3.6 1.7,-1.5 4.1,-1.5 -2.25,2.35 -3.9,5.1 -1.2,1.95 -1.9,0 m -7.85,1.8 0.75,-0.6 q 1.1,0.75 0.2,2.65 l -0.1,0.15 q -0.8,1.55 -2.15,2.5 l 0.45,-1.55 -0.95,0.55 -0.1,-0.25 1.9,-3.45 m 15.2,4.6 -0.7,1.35 -4.35,-1.5 0.5,-1.3 4.55,1.45"
         id="path14"
         inkscape:connector-curvature="0"
         style="fill:#ffffff;fill-rule:evenodd;stroke:none" />
      <path
         d="m 7.25,-17.05 q 1.75,0 3,-1.65 1.2,-1.7 1.2,-4.1 l 3.4,4.85 0.5,-0.1 0.25,0.45 -0.1,0.1 h 0.15 l 1.2,2.6 -0.7,0.05 2.9,4.7 2.45,4.75 1.55,3.5 -11.5,-17.4 -0.15,1.95 -0.6,-1.55 -0.75,2.05 -2.5,2.15 -0.7,-2.45 0.4,0.1"
         id="path16"
         inkscape:connector-curvature="0"
         style="fill:url(#gradient0);fill-rule:evenodd;stroke:none" />
      <path
         d="m 23.9,-18.05 q 2.4,1.45 4,3.55 l 3.4,4.8 q 1.45,2.25 3.35,3.9 1.7,1.45 1.7,3.1 l -13.25,-13.55 -0.75,1.95 -1,-0.9 -4.5,0.3 -1.2,-2.6 8.25,-0.55"
         id="path18"
         inkscape:connector-curvature="0"
         style="fill:url(#gradient1);fill-rule:evenodd;stroke:none" />
      <path
         d="m -18.05,-6.3 1.3,-1.35 -4.2,-1.8 -0.45,1.2 -1.5,-5.8 0.95,-0.55 -0.45,1.55 q 1.35,-0.95 2.15,-2.5 l 0.1,-0.15 2.85,-1.7 0.3,0.6 1.85,-0.65 -0.25,-0.25 8.4,-1.5 0.85,-0.15 1.4,-0.25 0.2,0.35 4.35,0.5 1.25,0.45 1.35,-1 -0.5,0.95 0.6,0.1 h -5.85 l -2.9,0.15 -5.35,1.2 -2.95,0.95 -4.25,1.55 5.6,0.3 0.2,-1.25 15.8,-1.3 0.4,4.25 -3.2,1.35 -0.95,-0.5 -17.1,5.25 m 12.15,-6.85 -4.55,-1.45 -0.5,1.3 4.35,1.5 0.7,-1.35"
         id="path20"
         inkscape:connector-curvature="0"
         style="fill:url(#gradient2);fill-rule:evenodd;stroke:none" />
      <path
         d="m 13.6,-12.6 q -0.45,1.65 -2,2.1 L 9,-9.55 7.55,-14.7 l 2.5,-2.15 -0.3,0.75 1.6,-0.95 2.25,4.45"
         id="path22"
         inkscape:connector-curvature="0"
         style="fill:url(#gradient3);fill-rule:evenodd;stroke:none" />
      <path
         d="m 9,-9.55 -0.7,0.2 1.3,7.45 -0.5,-0.6 -6.6,-19.85 3.8,5.1 0.55,0.1 0.7,2.45 1.45,5.15"
         id="path24"
         inkscape:connector-curvature="0"
         style="fill:url(#gradient4);fill-rule:evenodd;stroke:none" />
      <path
         d="m 5.95,-6.3 q -1.3,2.75 -4.6,4.05 -2.8,1.15 -5.5,1.55 -2.95,0.35 -6.05,0 -2.95,-0.45 -5.75,-1.85 -1.55,-0.75 -2.15,-2.55 l 1.85,-0.05 0.75,0.4 0.9,-0.1 0.9,0.45 11.8,-1.15 q 2,-0.4 3.1,-2 l -15.05,1.3 1.25,-0.55 0.7,-1 q 2.7,-1 5.5,-1.65 5.65,-0.85 11,1.15 l -2.85,-2.25 2.9,-0.25 1.3,4.5"
         id="path26"
         inkscape:connector-curvature="0"
         style="fill:url(#gradient5);fill-rule:evenodd;stroke:none" />
      <path
         d="m -21.4,-8.25 -0.3,1 q -0.75,2.8 -3.05,4.55 -0.4,0.4 -0.95,0.6 l -0.2,-4.35 -2.05,1.6 -0.65,-0.45 -11.95,3.9 2.1,-3.35 -1.4,0.7 -3.55,-1.1 q -0.95,-0.3 -1.75,-0.75 l 0.35,-0.05 q 3.95,-0.6 7.6,-2.15 l 9.55,-2.05 -8.15,0.8 q 0.3,-2 -2,-2.1 l -4.1,0.9 -1.65,0.55 -0.65,0.25 2.45,-1.3 q 3.2,-1.4 6.65,-2.3 l 5.25,-1.05 4.2,-0.5 2,-1.95 0.15,0.6 -1.7,1.55 1.75,1.2 0.45,-0.8 0.1,0.25 1.5,5.8"
         id="path28"
         inkscape:connector-curvature="0"
         style="fill:url(#gradient6);fill-rule:evenodd;stroke:none" />
      <path
         d="m -20.85,-20.85 0.95,0.55 0.55,-1.1 0.05,1.75 2.6,-2.3 q 1.8,1.25 3.1,3.1 l 0.35,-0.7 q 0.7,1.95 1.9,0 1.65,-2.75 3.9,-5.1 l 2.7,5.05 -1.4,0.25 -1.9,-3.2 -2.6,3.85 3.65,-0.5 -8.4,1.5 -1.85,-1.85 -0.5,1.4 0.45,0.75 -2.85,1.7 q 0.9,-1.9 -0.2,-2.65 l -0.75,0.6 0.2,-1.05 -2.6,2.55 -0.15,-0.6 3.45,-3.4 -0.65,-0.6"
         id="path30"
         inkscape:connector-curvature="0"
         style="fill:url(#gradient7);fill-rule:evenodd;stroke:none" />
      <path
         d="m 9.2,-15 q 1.2,0.45 1.75,1.4 0.95,1.65 -0.2,3.05 -2.35,-1.1 -2.4,-3.8 L 8.75,-14.9 9.2,-15"
         id="path32"
         inkscape:connector-curvature="0"
         style="fill:url(#gradient8);fill-rule:evenodd;stroke:none" />
      <path
         d="m 2.1,-6.85 1.25,1 q -1.85,4.2 -6,3.15 -1.55,-0.35 -2.05,-1.4 l 6.8,-2.75"
         id="path34"
         inkscape:connector-curvature="0"
         style="fill:url(#gradient9);fill-rule:evenodd;stroke:none" />
      <path
         d="m 0.05,-15.6 q 2.9,0 1.75,2.8 -4,1.85 -8.15,0.2 l -0.2,-1.35 -1,-1.25 7.6,-0.4"
         id="path36"
         inkscape:connector-curvature="0"
         style="fill:url(#gradient10);fill-rule:evenodd;stroke:none" />
      <path
         d="m -33.4,-11.95 -0.5,-1.35 q 4.25,-1.3 8.8,-0.55 l 0.3,0.35 -0.55,0.7 q -3.65,3.55 -8.05,0.85"
         id="path38"
         inkscape:connector-curvature="0"
         style="fill:url(#gradient11);fill-rule:evenodd;stroke:none" />
      <path
         d="m -34.8,-5.85 -0.6,-0.75 0.05,-0.6 0.8,-0.55 0.2,-0.6 q 4.15,-2 8.55,-0.95 l -0.2,1.55 q -4.1,3 -8.8,1.9"
         id="path40"
         inkscape:connector-curvature="0"
         style="fill:url(#gradient12);fill-rule:evenodd;stroke:none" />
      <path
         d="m -13.15,-12.55 q -1.2,-0.85 -0.1,-1.85 l 0.5,-0.25 q 2.35,-0.4 3.2,1.6 0.2,0.45 -0.3,0.75 -1.7,0.95 -3.3,-0.25 m -19.1,3.65 -1.55,1 -0.4,-0.05 -4.75,0.55 q 1.3,-0.5 2.55,-1.1 l 0.4,-0.25 1.95,-0.45 0.5,-0.6 9.4,-2.3 q 1.05,-2.85 3.9,-3.2 l 0.8,0.25 -0.15,-1.4 -0.25,-0.05 q 0,-3.05 2.3,-4.85 l -1.85,6.25 2.4,0.35 q -0.55,2.25 -2.85,1.55 l -0.35,-0.5 -0.05,3.7 16,-0.65 q -9,4.95 -17,1.25 l 0.95,-4.6 -2.8,1.95 1.25,0.3 -0.35,1.25 0.2,0.35 q 0.25,1.2 -1.2,1.7 -7.85,6.65 -17.25,3.95 8.6,-0.5 15,-5.55 l -6.8,1.15 m 55.35,-7.55 6.4,5.7 -6.9,-4.55 -6,-0.05 6.5,-1.1 m -19.25,-3.4 q 4.65,4.95 4.5,11.45 l -4.5,-11.45 m 14.25,9.5 -0.05,0.05 q -4.9,-3 -6.4,-9.2 l 6.45,9.15 M 0,-9 4.1,-6.8 q -0.6,6.05 -6.9,7.25 l -1,0.05 -0.05,-0.7 -4.05,0.5 -0.35,-0.5 -7,-0.95 -0.45,-0.8 15.4,-0.65 0.95,-1.6 -1.4,-0.6 -4.6,0.6 -0.7,0.55 -5.25,-0.15 -0.05,0.15 -6.1,-1.55 q 9.3,0.55 18.55,-1.6 L -1.4,-8.4 0,-9 m 0.6,-7.55 -0.1,2.1 1.2,0.2 -0.55,1 0.85,1.05 -1.45,-0.55 -0.05,-0.65 -0.9,-1 0.15,-0.65 -0.7,-0.65 -1.3,-0.2 0.35,-0.6 -9.15,0.5 -0.55,-0.4 -2.4,0.65 -0.5,-0.5 h -3.1 q 9.15,-3.6 18.2,-0.3 m 9.85,0.8 1.3,0.3 h 0.8 q 2.1,4.25 -2.2,5.55 l -0.35,-0.75 1,-0.65 -0.55,-4.45"
         id="path42"
         inkscape:connector-curvature="0"
         style="fill:#002b55;fill-rule:evenodd;stroke:none" />
    </g>
    <radialGradient
       cx="0"
       cy="0"
       gradientTransform="matrix(0.0161,0,0,0.0161,14.95,-12.35)"
       gradientUnits="userSpaceOnUse"
       id="gradient0"
       r="819.20001"
       spreadMethod="pad">
      <stop
         offset="0.22745098039215686"
         stop-color="#ffffff"
         id="stop45" />
      <stop
         offset="0.8627450980392157"
         stop-color="#4969ab"
         id="stop47" />
    </radialGradient>
    <radialGradient
       cx="0"
       cy="0"
       gradientTransform="matrix(0.0075,0,0,0.0075,25.45,-15.25)"
       gradientUnits="userSpaceOnUse"
       id="gradient1"
       r="819.20001"
       spreadMethod="pad">
      <stop
         offset="0.22745098039215686"
         stop-color="#ffffff"
         id="stop50" />
      <stop
         offset="0.8627450980392157"
         stop-color="#4969ab"
         id="stop52" />
    </radialGradient>
    <radialGradient
       cx="0"
       cy="0"
       gradientTransform="matrix(0.0066,8e-4,-8e-4,0.0066,-16.3,-11.55)"
       gradientUnits="userSpaceOnUse"
       id="gradient2"
       r="819.20001"
       spreadMethod="pad">
      <stop
         offset="0.22745098039215686"
         stop-color="#ffffff"
         id="stop55" />
      <stop
         offset="0.8627450980392157"
         stop-color="#4969ab"
         id="stop57" />
    </radialGradient>
    <radialGradient
       cx="0"
       cy="0"
       gradientTransform="matrix(0.0049,0,0,0.0049,10.55,-13.3)"
       gradientUnits="userSpaceOnUse"
       id="gradient3"
       r="819.20001"
       spreadMethod="pad">
      <stop
         offset="0.22745098039215686"
         stop-color="#ffffff"
         id="stop60" />
      <stop
         offset="0.8627450980392157"
         stop-color="#4969ab"
         id="stop62" />
    </radialGradient>
    <radialGradient
       cx="0"
       cy="0"
       gradientTransform="matrix(0.0132,0,0,0.0132,6.05,-12.1)"
       gradientUnits="userSpaceOnUse"
       id="gradient4"
       r="819.20001"
       spreadMethod="pad">
      <stop
         offset="0.22745098039215686"
         stop-color="#ffffff"
         id="stop65" />
      <stop
         offset="0.8627450980392157"
         stop-color="#4969ab"
         id="stop67" />
    </radialGradient>
    <radialGradient
       cx="0"
       cy="0"
       gradientTransform="matrix(0.0068,0,0,0.0068,-8.25,-6.1)"
       gradientUnits="userSpaceOnUse"
       id="gradient5"
       r="819.20001"
       spreadMethod="pad">
      <stop
         offset="0.22745098039215686"
         stop-color="#ffffff"
         id="stop70" />
      <stop
         offset="0.8627450980392157"
         stop-color="#4969ab"
         id="stop72" />
    </radialGradient>
    <radialGradient
       cx="0"
       cy="0"
       gradientTransform="matrix(0.0083,0,0,0.0083,-38.05,-11.6)"
       gradientUnits="userSpaceOnUse"
       id="gradient6"
       r="819.20001"
       spreadMethod="pad">
      <stop
         offset="0.22745098039215686"
         stop-color="#ffffff"
         id="stop75" />
      <stop
         offset="0.8627450980392157"
         stop-color="#4969ab"
         id="stop77" />
    </radialGradient>
    <radialGradient
       cx="0"
       cy="0"
       gradientTransform="matrix(0.0123,0,0,0.0123,-14.2,-20.15)"
       gradientUnits="userSpaceOnUse"
       id="gradient7"
       r="819.20001"
       spreadMethod="pad">
      <stop
         offset="0.22745098039215686"
         stop-color="#ffffff"
         id="stop80" />
      <stop
         offset="0.8627450980392157"
         stop-color="#4969ab"
         id="stop82" />
    </radialGradient>
    <linearGradient
       gradientTransform="matrix(0.0019,0,0,0.0027,9.85,-12.8)"
       gradientUnits="userSpaceOnUse"
       id="gradient8"
       spreadMethod="pad"
       x1="-819.20001"
       x2="819.20001">
      <stop
         offset="0.40784313725490196"
         stop-color="#ffffff"
         id="stop85" />
      <stop
         offset="0.7725490196078432"
         stop-color="#6ba9f3"
         id="stop87" />
    </linearGradient>
    <linearGradient
       gradientTransform="matrix(0.0049,0,0,0.0027,-0.7,-4.7)"
       gradientUnits="userSpaceOnUse"
       id="gradient9"
       spreadMethod="pad"
       x1="-819.20001"
       x2="819.20001">
      <stop
         offset="0.40784313725490196"
         stop-color="#ffffff"
         id="stop90" />
      <stop
         offset="0.7725490196078432"
         stop-color="#6ba9f3"
         id="stop92" />
    </linearGradient>
    <linearGradient
       gradientTransform="matrix(0.0059,0,0,0.0023,-2.7,-13.7)"
       gradientUnits="userSpaceOnUse"
       id="gradient10"
       spreadMethod="pad"
       x1="-819.20001"
       x2="819.20001">
      <stop
         offset="0.40784313725490196"
         stop-color="#ffffff"
         id="stop95" />
      <stop
         offset="0.7725490196078432"
         stop-color="#6ba9f3"
         id="stop97" />
    </linearGradient>
    <linearGradient
       gradientTransform="matrix(0.0056,0,0,0.002,-29.35,-12.45)"
       gradientUnits="userSpaceOnUse"
       id="gradient11"
       spreadMethod="pad"
       x1="-819.20001"
       x2="819.20001">
      <stop
         offset="0.40784313725490196"
         stop-color="#ffffff"
         id="stop100" />
      <stop
         offset="0.7725490196078432"
         stop-color="#6ba9f3"
         id="stop102" />
    </linearGradient>
    <linearGradient
       gradientTransform="matrix(0.0059,0,0,0.0025,-30.6,-7.6)"
       gradientUnits="userSpaceOnUse"
       id="gradient12"
       spreadMethod="pad"
       x1="-819.20001"
       x2="819.20001">
      <stop
         offset="0.40784313725490196"
         stop-color="#ffffff"
         id="stop105" />
      <stop
         offset="0.7725490196078432"
         stop-color="#6ba9f3"
         id="stop107" />
    </linearGradient>
  </defs>
</svg>
