<?xml version="1.0" encoding="UTF-8" standalone="no"?>
<svg
   xmlns:dc="http://purl.org/dc/elements/1.1/"
   xmlns:cc="http://creativecommons.org/ns#"
   xmlns:rdf="http://www.w3.org/1999/02/22-rdf-syntax-ns#"
   xmlns:svg="http://www.w3.org/2000/svg"
   xmlns="http://www.w3.org/2000/svg"
   xmlns:xlink="http://www.w3.org/1999/xlink"
   xmlns:sodipodi="http://sodipodi.sourceforge.net/DTD/sodipodi-0.dtd"
   xmlns:inkscape="http://www.inkscape.org/namespaces/inkscape"
   height="24.91361"
   width="44.734547"
   version="1.1"
   id="svg98"
   sodipodi:docname="50.svg"
   inkscape:version="0.92.1 r15371">
  <metadata
     id="metadata102">
    <rdf:RDF>
      <cc:Work
         rdf:about="">
        <dc:format>image/svg+xml</dc:format>
        <dc:type
           rdf:resource="http://purl.org/dc/dcmitype/StillImage" />
        <dc:title></dc:title>
      </cc:Work>
    </rdf:RDF>
  </metadata>
  <sodipodi:namedview
     pagecolor="#ffffff"
     bordercolor="#666666"
     borderopacity="1"
     objecttolerance="10"
     gridtolerance="10"
     guidetolerance="10"
     inkscape:pageopacity="0"
     inkscape:pageshadow="2"
     inkscape:window-width="818"
     inkscape:window-height="480"
     id="namedview100"
     showgrid="false"
     fit-margin-top="0"
     fit-margin-left="0"
     fit-margin-right="0"
     fit-margin-bottom="0"
     inkscape:zoom="3.4528165"
     inkscape:cx="23.100455"
     inkscape:cy="20.601563"
     inkscape:window-x="0"
     inkscape:window-y="27"
     inkscape:window-maximized="0"
     inkscape:current-layer="svg98" />
  <g
     transform="translate(22.350455,23.887048)"
     id="g6">
    <use
       height="24.950001"
       transform="translate(-22.35,-23.9)"
       width="44.75"
       xlink:href="#shape0"
       id="use2"
       x="0"
       y="0" />
    <use
       height="22.9"
       transform="translate(-21.35,-22.9)"
       width="42.75"
       xlink:href="#sprite0"
       id="use4"
       x="0"
       y="0" />
  </g>
  <defs
     id="defs96">
    <g
       id="shape0"
       transform="translate(22.35,23.9)">
      <path
         d="m 18.35,-22.1 1.8,0.3 0.45,0.3 0.55,0.1 q 0.55,0.1 0.85,0.75 0.65,1.45 0.2,3 l -0.05,0.05 0.05,-0.05 v 0.05 q 0.05,2.65 -0.75,5.2 l -0.35,0.85 q -0.9,2.85 -3.25,4.85 v 0.05 l -1,0.9 V -5.8 l -0.1,0.15 v 1.25 l -0.05,0.4 -1.25,2.8 -0.1,0.2 -0.3,0.35 V -0.6 L 15,-0.55 14.95,-0.5 14.9,-0.4 14.35,0.15 14.3,0.2 Q 12.5,1.35 11.2,0.9 10.1,0.65 9.35,-0.6 L 9,-0.45 H 9.05 L 5.9,0.4 5.15,0.45 H 5.1 3.45 3.35 Q -2.5,-0.05 -6.45,-4.3 L -6.5,-4.35 -7.75,-5.8 -10.1,-8.5 q -2.25,-0.2 -4.2,0.95 l -2.25,1.4 -0.1,0.05 -0.05,0.1 -0.1,0.1 -0.65,0.65 -0.75,2.2 -0.1,0.25 -0.7,1.3 -0.5,0.45 -0.65,0.05 -0.85,-0.2 -0.4,-0.25 -0.25,-0.45 q -0.65,-2.05 -0.7,-4.3 v -0.05 q -0.05,-6.25 5.4,-9.55 l 0.35,-1.4 q 1.8,-7.45 9.6,-6.6 0.35,0 0.65,0.35 l 0.25,0.65 -0.3,0.7 -0.45,0.45 -0.1,0.1 q -2.35,1.75 -2.9,4.7 l -0.15,1.15 0.05,0.75 0.1,0.35 0.8,0.55 q 2.1,0.3 4.25,0 l -0.35,-0.35 -0.05,-0.1 -0.25,-0.2 -0.4,-0.5 -0.05,-0.6 0.35,-0.55 q 3.75,-3 8.6,-3 H 3.1 L 6,-19.65 6.65,-19.9 H 6.7 q 5.55,-2.5 11.65,-2.2"
         id="path8"
         inkscape:connector-curvature="0"
         style="fill:#002b55;fill-rule:evenodd;stroke:none" />
    </g>
    <g
       id="sprite0"
       transform="translate(22.55,22.8)">
      <use
         height="22.9"
         transform="translate(-22.55,-22.8)"
         width="42.75"
         xlink:href="#shape1"
         id="use11"
         x="0"
         y="0" />
    </g>
    <g
       id="shape1"
       transform="translate(22.55,22.8)">
      <path
         d="m 18.65,-20.75 q -4.95,1.1 -9.15,3.8 l -1.6,1 q -9.8,-1.15 -9.45,1.9 0.3,3.05 -0.15,3.55 l -0.5,-0.3 -0.2,-0.15 q -1.65,0.8 -3.65,0.8 -2.15,0.05 -3.85,-1.35 l -2.15,-1.5 -0.05,-1.65 0.2,0.8 1.35,0.85 q 2.6,0.4 5.2,-0.05 l 1.1,-0.35 -1.35,-1.55 -0.55,-0.5 q 3.5,-2.8 8,-2.8 l 3.3,-0.35 0.7,-0.25 Q 11.2,-21.25 17.1,-21 l 1.55,0.25 m -9,7.3 0.25,0.3 0.05,0.15 -1,1.05 -1.2,0.85 -1.2,0.65 L 5.4,-10.8 Q 2.55,-10.15 0.6,-8 l -0.1,0.7 q 1.1,1.75 3.05,2.35 l 1.25,0.3 0.15,0.2 0.15,0.3 0.15,0.25 -1.3,0.8 q -5.5,-0.15 -4.35,-5.3 0.5,-2.25 2.65,-3.2 2.45,-1 4.85,-1.15 l -0.85,0.55 3.4,-1.25 m 3.2,4.5 4.6,-6.8 0.8,-1.3 q 1.1,4.6 -3.05,8.65 l -1.2,1.15 -0.6,0.35 -0.7,0.15 -0.95,-0.8 1.1,-1.4 m 1.7,4.65 -1.2,2.8 -0.3,0.35 -0.15,0.2 v 0.05 l -0.35,0.35 Q 9.85,1.15 8.75,-1.6 L 9.2,-2.2 h 0.2 l 0.15,0.05 0.45,0.3 1.9,-0.1 2.65,-2.35 M 4.6,-0.5 3.9,-0.45 H 2.2 Q -3.25,-0.9 -6.95,-4.9 l -1.25,-1.45 -2.6,-2.95 2,0.3 q 3.95,3.95 8.75,6.4 1.9,1 3.95,1.65 l 0.3,0.05 0.35,0.2 0.05,0.2 m -25,-2.65 -0.7,1.3 -0.8,-0.25 q -0.6,-1.9 -0.65,-4.05 -0.05,-5.9 5.35,-8.95 l 0.35,-1.75 q 1.65,-6.6 8.55,-5.85 l -0.45,0.45 -1.8,0.8 q -2.45,1 -4.25,2.9 l -0.05,3.6 1.35,1.75 -0.85,0.9 -0.6,-0.15 -3.85,1.9 -0.85,2.2 q -0.8,2.6 -0.75,5.2 m 33.95,-14.8 -0.7,0.3 -0.45,0.3 0.95,1 -0.1,0.1 -0.9,-0.05 q -0.55,-0.05 -0.9,-0.45 v -1.05 l 1,-0.6 1.05,0.3 0.05,0.15"
         id="path14"
         inkscape:connector-curvature="0"
         style="fill:#ffffff;fill-rule:evenodd;stroke:none" />
      <path
         d="m 18.65,-20.75 -0.05,0.2 -0.45,0.7 q 0.5,-0.15 1.2,-0.45 0.35,-0.2 0.55,0.15 0.5,1.15 0.1,2.35 v 0.3 q 0.05,2.5 -0.7,4.9 l -0.3,0.7 q -0.8,2.7 -3,4.55 L 14.95,-6.4 14.75,-6.2 14,-7.25 15.2,-8.4 q 4.15,-4.05 3.05,-8.65 l -0.8,1.3 -4.6,6.8 -2.9,-4.05 -0.05,-0.15 -0.25,-0.3 -1.75,-2.5 1.6,-1 q 4.2,-2.7 9.15,-3.8 m -5.1,2.8 -0.05,-0.15 -1.05,-0.3 -1,0.6 v 1.05 q 0.35,0.4 0.9,0.45 l 0.9,0.05 0.1,-0.1 -0.95,-1 0.45,-0.3 0.7,-0.3"
         id="path16"
         inkscape:connector-curvature="0"
         style="fill:url(#gradient0);fill-rule:evenodd;stroke:none" />
      <path
         d="m 7.9,-15.95 1.75,2.5 -3.4,1.25 0.85,-0.55 q -2.4,0.15 -4.85,1.15 -2.15,0.95 -2.65,3.2 -1.15,5.15 4.35,5.3 L 3.9,-0.95 Q 1.85,-1.6 -0.05,-2.6 -4.85,-5.05 -8.8,-9 l -1.1,-2.5 q 1.7,1.4 3.85,1.35 2,0 3.65,-0.8 l 0.2,0.15 0.5,0.3 q 0.45,-0.5 0.15,-3.55 -0.35,-3.05 9.45,-1.9"
         id="path18"
         inkscape:connector-curvature="0"
         style="fill:url(#gradient1);fill-rule:evenodd;stroke:none" />
      <path
         d="M 4.8,-4.65 3.55,-4.95 Q 1.6,-5.55 0.5,-7.3 L 0.6,-8 q 1.95,-2.15 4.8,-2.8 l 1.15,0.35 1.2,-0.65 1.2,-0.85 -4.15,7.3"
         id="path20"
         inkscape:connector-curvature="0"
         style="fill:url(#gradient2);fill-rule:evenodd;stroke:none" />
      <path
         d="m 9.95,-13 2.9,4.05 -1.1,1.4 0.95,0.8 0.7,-0.15 0.6,-0.35 0.75,1.05 -0.2,0.2 v 0.15 l -5,3.7 L 9.4,-2.2 H 9.2 l -0.45,0.6 v -0.25 l -1.3,0.6 Q 6.05,-0.7 4.6,-0.5 L 4.55,-0.7 4.2,-0.9 3.9,-0.95 3.95,-3.1 5.25,-3.9 5.1,-4.15 4.95,-4.45 4.8,-4.65 l 4.15,-7.3 1,-1.05"
         id="path22"
         inkscape:connector-curvature="0"
         style="fill:url(#gradient3);fill-rule:evenodd;stroke:none" />
      <path
         d="m 14.55,-5.85 v 1.55 l -2.65,2.35 -1.9,0.1 -0.45,-0.3 5,-3.7"
         id="path24"
         inkscape:connector-curvature="0"
         style="fill:url(#gradient4);fill-rule:evenodd;stroke:none" />
      <path
         d="m -10.8,-9.3 -0.4,-0.1 q -2.55,-0.25 -4.8,1.05 l -2.4,1.5 -0.2,0.25 -0.2,0.2 q -0.25,0.35 -0.65,0.5 -0.65,1.3 -0.95,2.75 -0.05,-2.6 0.75,-5.2 l 0.85,-2.2 3.85,-1.9 0.6,0.15 0.85,-0.9 -1.35,-1.75 0.05,-3.6 q 1.8,-1.9 4.25,-2.9 l 1.8,-0.8 q -2.65,2 -3.3,5.3 l -0.15,1.35 0.1,0.95 0.05,1.65 2.15,1.5 1.1,2.5 -2,-0.3 m 0.2,-1.15 -0.05,-0.15 -0.05,0.1 0.1,0.05"
         id="path26"
         inkscape:connector-curvature="0"
         style="fill:url(#gradient5);fill-rule:evenodd;stroke:none" />
      <path
         d="M 15.15,-14.05 9.6,-9 9.4,-9.3 q 1.2,-2.5 2.8,-4.65 2.05,-2.8 2.95,-0.1"
         id="path28"
         inkscape:connector-curvature="0"
         style="fill:url(#gradient6);fill-rule:evenodd;stroke:none" />
      <path
         d="m 3.8,-12.75 -0.75,0.15 q -1.45,0.35 -2.55,-0.3 -0.8,-0.05 -0.85,-0.8 -0.1,-0.6 0.5,-0.8 l 0.95,-0.4 q 1.85,-0.4 3.35,0.6 l 0.15,0.2 q 0.6,1.15 -0.8,1.35"
         id="path30"
         inkscape:connector-curvature="0"
         style="fill:url(#gradient7);fill-rule:evenodd;stroke:none" />
      <path
         d="m 11.4,-6.1 q -1.25,4 -5.25,3.85 0.55,-4.9 5.2,-4.1 l 0.05,0.25"
         id="path32"
         inkscape:connector-curvature="0"
         style="fill:url(#gradient8);fill-rule:evenodd;stroke:none" />
      <path
         d="m -18.35,-8.15 0.9,-2.55 4.75,-0.75 -5.65,3.3"
         id="path34"
         inkscape:connector-curvature="0"
         style="fill:url(#gradient9);fill-rule:evenodd;stroke:none" />
      <path
         d="m -4.8,-9.65 q 2.5,0.4 2.9,2.8 v 0.45 q -0.3,1.45 -1.6,0.75 l -1.15,-0.9 q -0.8,-0.95 -1.05,-2.05 -0.25,-1 0.9,-1.05"
         id="path36"
         inkscape:connector-curvature="0"
         style="fill:url(#gradient10);fill-rule:evenodd;stroke:none" />
      <path
         d="m 11.65,-17.05 -0.3,1.65 1.45,-0.3 -0.15,4.1 -1.05,0.95 q -0.6,2.6 -3.05,3.85 -3,1.4 -6.1,0.45 l -1,-1.6 5.4,-1.85 -3.7,2.95 4.1,-0.15 4.35,-5.85 -2.55,-2.85 6.05,-3.7 -3.45,2.35 m -4.05,1.7 -9.35,1.05 7.55,-1.85 1.8,0.8 m 6.85,8.5 -9.3,4 11.45,-8.35 -2.15,4.35 m -32.4,-3.9 q 3.4,-1.15 7.05,-0.85 3.7,0.45 5.5,2.05 l -4.5,-0.6 q -6.15,-1.35 -10.05,3.3 l 2,-3.9"
         id="path38"
         inkscape:connector-curvature="0"
         style="fill:#002b55;fill-rule:evenodd;stroke:none" />
    </g>
    <radialGradient
       cx="0"
       cy="0"
       gradientTransform="matrix(0.0112,-8e-4,8e-4,0.0112,14.3,-13.3)"
       gradientUnits="userSpaceOnUse"
       id="gradient0"
       r="819.20001"
       spreadMethod="pad">
      <stop
         offset="0.19215686274509805"
         stop-color="#ffffff"
         id="stop41" />
      <stop
         offset="0.6509803921568628"
         stop-color="#4969ab"
         id="stop43" />
    </radialGradient>
    <radialGradient
       cx="0"
       cy="0"
       gradientTransform="matrix(0.0134,-0.001,0.001,0.0134,0.15,-8.45)"
       gradientUnits="userSpaceOnUse"
       id="gradient1"
       r="819.20001"
       spreadMethod="pad">
      <stop
         offset="0.19215686274509805"
         stop-color="#ffffff"
         id="stop46" />
      <stop
         offset="0.6509803921568628"
         stop-color="#4969ab"
         id="stop48" />
    </radialGradient>
    <radialGradient
       cx="0"
       cy="0"
       gradientTransform="matrix(0.0068,-5e-4,5e-4,0.0068,4.85,-8.2)"
       gradientUnits="userSpaceOnUse"
       id="gradient2"
       r="819.20001"
       spreadMethod="pad">
      <stop
         offset="0.19215686274509805"
         stop-color="#ffffff"
         id="stop51" />
      <stop
         offset="0.6509803921568628"
         stop-color="#4969ab"
         id="stop53" />
    </radialGradient>
    <radialGradient
       cx="0"
       cy="0"
       gradientTransform="matrix(0.0096,-7e-4,7e-4,0.0096,9.1,-6.9)"
       gradientUnits="userSpaceOnUse"
       id="gradient3"
       r="819.20001"
       spreadMethod="pad">
      <stop
         offset="0.19215686274509805"
         stop-color="#ffffff"
         id="stop56" />
      <stop
         offset="0.6509803921568628"
         stop-color="#4969ab"
         id="stop58" />
    </radialGradient>
    <radialGradient
       cx="0"
       cy="0"
       gradientTransform="matrix(0.0039,-3e-4,3e-4,0.0039,12.05,-3.85)"
       gradientUnits="userSpaceOnUse"
       id="gradient4"
       r="819.20001"
       spreadMethod="pad">
      <stop
         offset="0.19215686274509805"
         stop-color="#ffffff"
         id="stop61" />
      <stop
         offset="0.6509803921568628"
         stop-color="#4969ab"
         id="stop63" />
    </radialGradient>
    <radialGradient
       cx="0"
       cy="0"
       gradientTransform="matrix(0.0143,-0.0011,0.0011,0.0143,-14.6,-12.7)"
       gradientUnits="userSpaceOnUse"
       id="gradient5"
       r="819.20001"
       spreadMethod="pad">
      <stop
         offset="0.19215686274509805"
         stop-color="#ffffff"
         id="stop66" />
      <stop
         offset="0.6509803921568628"
         stop-color="#4969ab"
         id="stop68" />
    </radialGradient>
    <linearGradient
       gradientTransform="matrix(0.0039,-3e-4,3e-4,0.0039,12.1,-12.15)"
       gradientUnits="userSpaceOnUse"
       id="gradient6"
       spreadMethod="pad"
       x1="-819.20001"
       x2="819.20001">
      <stop
         offset="0.40784313725490196"
         stop-color="#ffffff"
         id="stop71" />
      <stop
         offset="0.7725490196078432"
         stop-color="#6ba9f3"
         id="stop73" />
    </linearGradient>
    <linearGradient
       gradientTransform="matrix(0.0031,-2e-4,1e-4,0.0015,2.15,-13.75)"
       gradientUnits="userSpaceOnUse"
       id="gradient7"
       spreadMethod="pad"
       x1="-819.20001"
       x2="819.20001">
      <stop
         offset="0.40784313725490196"
         stop-color="#ffffff"
         id="stop76" />
      <stop
         offset="0.7725490196078432"
         stop-color="#6ba9f3"
         id="stop78" />
    </linearGradient>
    <linearGradient
       gradientTransform="matrix(0.0035,-3e-4,2e-4,0.0028,8.6,-4.5)"
       gradientUnits="userSpaceOnUse"
       id="gradient8"
       spreadMethod="pad"
       x1="-819.20001"
       x2="819.20001">
      <stop
         offset="0.40784313725490196"
         stop-color="#ffffff"
         id="stop81" />
      <stop
         offset="0.7725490196078432"
         stop-color="#6ba9f3"
         id="stop83" />
    </linearGradient>
    <linearGradient
       gradientTransform="matrix(0.0038,-3e-4,2e-4,0.0022,-15.75,-10.05)"
       gradientUnits="userSpaceOnUse"
       id="gradient9"
       spreadMethod="pad"
       x1="-819.20001"
       x2="819.20001">
      <stop
         offset="0.40784313725490196"
         stop-color="#ffffff"
         id="stop86" />
      <stop
         offset="0.7725490196078432"
         stop-color="#6ba9f3"
         id="stop88" />
    </linearGradient>
    <linearGradient
       gradientTransform="matrix(0.0022,-2e-4,2e-4,0.0027,-3.8,-7.55)"
       gradientUnits="userSpaceOnUse"
       id="gradient10"
       spreadMethod="pad"
       x1="-819.20001"
       x2="819.20001">
      <stop
         offset="0.40784313725490196"
         stop-color="#ffffff"
         id="stop91" />
      <stop
         offset="0.7725490196078432"
         stop-color="#6ba9f3"
         id="stop93" />
    </linearGradient>
  </defs>
</svg>
