<?xml version="1.0" encoding="UTF-8" standalone="no"?>
<svg
   xmlns:dc="http://purl.org/dc/elements/1.1/"
   xmlns:cc="http://creativecommons.org/ns#"
   xmlns:rdf="http://www.w3.org/1999/02/22-rdf-syntax-ns#"
   xmlns:svg="http://www.w3.org/2000/svg"
   xmlns="http://www.w3.org/2000/svg"
   xmlns:xlink="http://www.w3.org/1999/xlink"
   xmlns:sodipodi="http://sodipodi.sourceforge.net/DTD/sodipodi-0.dtd"
   xmlns:inkscape="http://www.inkscape.org/namespaces/inkscape"
   height="35.013332"
   width="32.10873"
   version="1.1"
   id="svg35"
   sodipodi:docname="58.svg"
   inkscape:version="0.92.1 r15371">
  <metadata
     id="metadata39">
    <rdf:RDF>
      <cc:Work
         rdf:about="">
        <dc:format>image/svg+xml</dc:format>
        <dc:type
           rdf:resource="http://purl.org/dc/dcmitype/StillImage" />
        <dc:title></dc:title>
      </cc:Work>
    </rdf:RDF>
  </metadata>
  <sodipodi:namedview
     pagecolor="#ffffff"
     bordercolor="#666666"
     borderopacity="1"
     objecttolerance="10"
     gridtolerance="10"
     guidetolerance="10"
     inkscape:pageopacity="0"
     inkscape:pageshadow="2"
     inkscape:window-width="818"
     inkscape:window-height="480"
     id="namedview37"
     showgrid="false"
     fit-margin-top="0"
     fit-margin-left="0"
     fit-margin-right="0"
     fit-margin-bottom="0"
     inkscape:zoom="3.4528165"
     inkscape:cx="16.864286"
     inkscape:cy="19.575001"
     inkscape:window-x="0"
     inkscape:window-y="27"
     inkscape:window-maximized="0"
     inkscape:current-layer="svg35" />
  <g
     transform="translate(16.114286,35.013333)"
     id="g6">
    <use
       height="35.049999"
       transform="translate(-16.1,-35)"
       width="32.099998"
       xlink:href="#sprite0"
       id="use2"
       x="0"
       y="0" />
    <use
       height="14"
       transform="translate(-7.65,-16.3)"
       width="19.9"
       xlink:href="#shape1"
       id="use4"
       x="0"
       y="0" />
  </g>
  <defs
     id="defs33">
    <g
       id="sprite0"
       transform="translate(16.1,18)">
      <use
         height="35.049999"
         transform="translate(-16.1,-18)"
         width="32.099998"
         xlink:href="#shape0"
         id="use8"
         x="0"
         y="0" />
    </g>
    <g
       id="shape0"
       transform="translate(16.1,18)">
      <path
         d="m 6.5,-17 q 0.25,0.5 0.15,2.85 l -0.05,2.7 -0.55,0.65 q 1.45,0.7 2.15,2.05 L 8.4,-8.4 8.35,-8.15 8,-7.45 Q 6.4,-6.7 4.95,-5.3 L 5,-4.85 8.3,-2 11.85,0.7 q 2.2,1.45 3.45,3.8 1.25,2.4 0.25,4.9 -1.2,3.05 -3.8,4.85 -1.7,1.15 -3.7,1.8 L 5.75,16.5 1.9,17 h -4.2 l -5.65,-1.1 q -1.85,-0.65 -3.5,-1.7 -2.4,-1.6 -3.95,-3.95 -1,-1.55 -0.6,-3.35 0.65,-2.9 2.85,-4.9 2.1,-1.85 4.5,-3.25 1.6,-1.05 3.25,-2.25 l 0.9,-1.05 0.35,-0.65 q -2.75,-0.8 -3.2,-3.45 -0.15,-1 0.65,-1.65 l 1.5,-0.8 q -0.45,-3.15 0,-4.75 0.45,-1.6 2.8,-1.95 2.35,-0.4 5.5,-0.05 3.1,0.3 3.4,0.85"
         id="path11"
         inkscape:connector-curvature="0"
         style="fill:#000000;fill-rule:evenodd;stroke:none" />
      <path
         d="M 2.65,-15.4 2.55,-15 3,-14.2 3.55,-14.15 4.4,-15.1 3.65,-16 3.1,-15.8 2.65,-15.4 m -2.9,3.7 0.2,-0.45 0.2,-0.35 0.95,-1.2 0.1,-0.2 q 0.4,-0.5 0.45,-1.1 0.2,-1.1 -0.8,-1.35 l -0.05,-0.1 -1.7,-0.2 -0.05,-0.05 -0.1,-0.1 1.9,-0.1 4.8,0.4 q -0.8,2.95 -1.3,6.2 -0.25,1.65 -1.45,2.65 l -5.6,-0.3 q -0.9,-2.85 -1.4,-5.95 l -0.25,-2.35 0.2,-0.3 1.25,-0.1 -0.2,0.05 -0.4,0.4 q -0.6,0.9 -0.5,2.1 0.1,0.85 0.7,1.45 l 0.1,0.15 0.65,0.9 q 0.45,0.6 1.2,0.5 l 0.3,-0.05 0.2,0.1 0.55,-0.5 0.05,-0.15 m 2.5,-1.7 q -0.9,0.55 -1.35,1.65 l 2.35,-0.15 0.1,-0.8 -0.6,-0.5 -0.5,-0.2"
         id="path13"
         inkscape:connector-curvature="0"
         style="fill:#b59364;fill-rule:evenodd;stroke:none" />
      <path
         d="m 0.4,-16.05 -1,0.65 0.05,1.2 0.9,-0.3 0.5,-0.15 0.1,-0.95 -0.55,-0.45 m -1.45,-0.75 0.1,0.1 0.05,0.05 1.7,0.2 0.05,0.1 q 1,0.25 0.8,1.35 -0.05,0.6 -0.45,1.1 l -0.1,0.2 -0.95,1.2 -0.2,0.35 -0.2,0.45 0.05,-1 -0.6,-0.45 -0.55,0.25 -0.45,1.05 0.1,0.25 0.65,0.45 -0.3,0.05 q -0.75,0.1 -1.2,-0.5 l -0.65,-0.9 -0.1,-0.15 q -0.6,-0.6 -0.7,-1.45 -0.1,-1.2 0.5,-2.1 l 0.4,-0.4 0.2,-0.05 1.85,-0.15 m -0.75,1.3 h -1.15 l -0.1,0.75 q -0.15,0.85 0.4,1.45 l 0.3,0.35 Q -1.4,-13.8 -1.7,-15 l -0.1,-0.5"
         id="path15"
         inkscape:connector-curvature="0"
         style="fill:#d1bc9e;fill-rule:evenodd;stroke:none" />
      <path
         d="M 2.65,-15.4 3.1,-15.8 3.65,-16 4.4,-15.1 3.55,-14.15 3,-14.2 2.55,-15 l 0.1,-0.4 m -2.25,-0.65 0.55,0.45 -0.1,0.95 -0.5,0.15 -0.9,0.3 -0.05,-1.2 1,-0.65 m -0.65,4.35 -0.05,0.15 -0.55,0.5 -0.2,-0.1 -0.65,-0.45 -0.1,-0.25 0.45,-1.05 0.55,-0.25 0.6,0.45 -0.05,1 m 2.5,-1.7 0.5,0.2 0.6,0.5 -0.1,0.8 -2.35,0.15 q 0.45,-1.1 1.35,-1.65 m -4.05,-2.1 0.1,0.5 q 0.3,1.2 -0.65,2.05 l -0.3,-0.35 q -0.55,-0.6 -0.4,-1.45 l 0.1,-0.75 h 1.15"
         id="path17"
         inkscape:connector-curvature="0"
         style="fill:#996600;fill-rule:evenodd;stroke:none" />
      <path
         d="m 0.4,-9.45 0.1,0.05 -0.25,0.5 -1.95,0.2 q -1.25,-0.25 -1.8,-0.9 l 0.35,-0.25 h 1.4 l 1.9,0.3 0.25,0.1 m -3,5.4 0.9,-0.7 0.7,1.65 -0.85,1.7 -0.2,0.65 Q -3.1,1.2 -5.2,2.9 l -0.85,0.7 2.45,-5.75 -2.4,0.9 1.15,-0.95 h 0.05 0.05 l 0.25,-0.25 0.1,-0.05 0.05,-0.1 1.75,-1.45 M -7.65,9.3 Q -11.3,6.35 -5.45,4.4 -0.4,8 -6.5,9.65 L -7.65,9.3 M 6.95,1.05 6.3,0.95 3.4,-1.8 6.95,1.05 m 0.45,9.7 2.75,-2.8 Q 11.8,9.8 9.15,11 l -0.75,0.3 -1,-0.55"
         id="path19"
         inkscape:connector-curvature="0"
         style="fill:#ffffff;fill-rule:evenodd;stroke:none" />
      <path
         d="M -5.05,-10.3 H 1.6 l 0.5,1.15 q -4.3,2 -6.7,-0.45 l -0.45,-0.7 m 5.45,0.85 -0.25,-0.1 -1.9,-0.3 h -1.4 L -3.5,-9.6 q 0.55,0.65 1.8,0.9 L 0.25,-8.9 0.5,-9.4 0.4,-9.45 m 1.2,3.55 q 2.85,4.55 8.3,8.6 5.45,4.05 1.95,8.15 -3.5,4.15 -8.6,3.25 1.4,-1.95 3.45,-3.85 3.5,-3.3 1,-6.9 L 5.95,1.8 Q 3,-0.7 2.1,-3.7 L 1.6,-5.9 m -4.2,1.85 0.9,-2.8 q 0.1,-0.4 0.05,-0.75 1.45,1.45 1,2.8 L -1,-3.1 -1.7,-4.75 -2.6,-4.05 M -1,-3.1 -1.7,4.45 q 2.8,2.05 1.75,4.65 -0.8,2 -3.85,2.65 -5.65,1.25 -6.8,-2.1 -0.95,-2.9 0.8,-5.5 l 4.45,-5 -2.45,2.05 -1.55,1.25 q -2.3,2.05 -3.3,4.45 h -0.6 l -0.3,-0.15 0.55,-1.3 q 1.3,-2.95 4.4,-5.35 1.5,-1.05 3.1,-1.9 L -4.85,-2.2 -6,-1.25 -3.6,-2.15 -6.05,3.6 -5.2,2.9 q 2.1,-1.7 3.15,-3.65 L -1.85,-1.4 -1,-3.1 M -7.65,9.3 -6.5,9.65 Q -0.4,8 -5.45,4.4 -11.3,6.35 -7.65,9.3 M 6.95,1.05 3.4,-1.8 6.3,0.95 6.95,1.05 m 0.45,9.7 1,0.55 0.75,-0.3 q 2.65,-1.2 1,-3.05 l -2.75,2.8"
         id="path21"
         inkscape:connector-curvature="0"
         style="fill:#ff0000;fill-rule:evenodd;stroke:none" />
      <path
         d="M 1.6,-10.3 H 6.15 Q 7.3,-9.85 7.3,-9.05 7.25,-8.2 6.1,-7.6 l -1.7,0.9 -0.85,0.9 q -0.2,0.5 0.05,1 0.25,0.6 0.9,1.15 l 3.15,2.3 3.4,2.1 1.5,1.15 0.05,0.1 1.25,1.35 0.25,0.5 h 0.05 q 0.9,1.2 0.9,3 v 0.3 l -0.55,2.6 -0.6,1 -0.3,0.4 -0.8,0.8 -0.3,0.25 -1.65,1.25 -0.15,0.05 -0.2,0.15 -1.95,0.9 -0.7,0.3 H 7.8 L 7,15.05 4.75,15.6 4.2,15.65 2.3,15.8 -1.35,15.9 -5.75,15.2 -6.5,15 -6.6,14.95 h -0.1 q -2.1,-0.6 -3.75,-1.55 l -0.7,-0.45 q -2.05,-1.3 -2.8,-3.1 l -0.4,-1 -0.05,-0.05 q -1.4,-3.4 2.3,-6.9 l 1.6,-1.15 1.05,-0.65 1.4,-0.85 1.05,-0.6 1.1,-0.75 0.3,-0.2 1.05,-0.8 0.3,-0.25 0.05,-0.05 0.1,-0.1 h 0.05 l 0.6,-0.6 0.2,-0.15 q 0.4,-0.4 0.5,-0.75 0.2,-0.65 -0.5,-1.2 -0.6,-0.55 -1.35,-0.95 L -6,-8 -6.6,-8.75 -6.65,-9.4 q 0.2,-0.6 1,-0.9 h 0.6 l 0.45,0.7 q 2.4,2.45 6.7,0.45 L 1.6,-10.3 m 0,4.4 0.5,2.2 q 0.9,3 3.85,5.5 L 7.7,3.35 q 2.5,3.6 -1,6.9 -2.05,1.9 -3.45,3.85 5.1,0.9 8.6,-3.25 Q 15.35,6.75 9.9,2.7 4.45,-1.35 1.6,-5.9 m -2.6,2.8 0.35,-1.7 q 0.45,-1.35 -1,-2.8 0.05,0.35 -0.05,0.75 l -0.9,2.8 -1.75,1.45 -0.05,0.1 -0.1,0.05 -0.25,0.25 H -4.8 -4.85 l -0.65,0.4 q -1.6,0.85 -3.1,1.9 -3.1,2.4 -4.4,5.35 l -0.55,1.3 0.3,0.15 h 0.6 q 1,-2.4 3.3,-4.45 l 1.55,-1.25 2.45,-2.05 -4.45,5 q -1.75,2.6 -0.8,5.5 1.15,3.35 6.8,2.1 Q -0.75,11.1 0.05,9.1 1.1,6.5 -1.7,4.45 L -1,-3.1 M 0.65,1.6 0.55,1.8 Q 0.4,3.75 1.5,5.65 L 2.7,7 Q 3.45,7.6 4.6,7.25 4.95,7.1 5.25,6.9 L 5.45,6.6 Q 5.7,5 4.85,3.45 L 4.05,2.05 Q 3.5,0.9 1.45,0.55 q -0.5,0 -0.8,0.3 -0.4,0.4 0,0.75"
         id="path23"
         inkscape:connector-curvature="0"
         style="fill:#b70000;fill-rule:evenodd;stroke:none" />
      <path
         d="m 0.65,1.6 q -0.4,-0.35 0,-0.75 0.3,-0.3 0.8,-0.3 2.05,0.35 2.6,1.5 l 0.8,1.4 Q 5.7,5 5.45,6.6 L 5.25,6.9 Q 4.95,7.1 4.6,7.25 3.45,7.6 2.7,7 L 1.5,5.65 Q 0.4,3.75 0.55,1.8 l 0.1,-0.2"
         id="path25"
         inkscape:connector-curvature="0"
         style="fill:#d50000;fill-rule:evenodd;stroke:none" />
    </g>
    <g
       id="shape1"
       transform="translate(7.65,16.3)">
      <path
         d="m 5.45,-16.05 q 1.1,0.35 1.75,1.4 0.8,1.35 0.95,3 l 0.45,5.2 0.25,-1 0.25,-1.3 0.35,-0.4 1.05,-0.35 q 0.4,-0.15 0.6,0.25 l 0.95,1.95 q 0.45,1.25 -0.05,2.5 -0.35,0.75 -0.9,1.2 -1.25,1 -2.9,1.3 L 7.75,-2.4 7.3,-2.8 Q 4.65,-7.7 3.7,-13.35 L 1.75,-12.6 1.7,-5.4 1.55,-5.05 1.45,-5 -0.6,-4.95 -1,-5.1 q -0.35,-0.2 -0.3,-0.5 l 0.35,-1.5 q 0.3,-1.3 0.05,-2.65 l -0.25,-0.85 -0.15,-0.45 q -0.6,-1.2 -1.85,-1.85 l -0.25,-0.1 -1.15,0.45 -0.1,7.3 -0.2,0.2 L -5,-4.95 -6.9,-5 q -0.65,0 -0.75,-0.65 v -9.85 q 0.1,-0.7 0.75,-0.75 l 1.9,0.2 0.4,0.25 1.45,-0.45 1.3,0.05 q 1.5,0.1 2.65,1.1 l 1.6,-0.65 1.35,-0.45 h 1.2 l 0.5,0.15"
         id="path28"
         inkscape:connector-curvature="0"
         style="fill:#000000;fill-rule:evenodd;stroke:none" />
      <path
         d="m 3.75,-14.25 q -1.5,0.15 -2.75,1.1 l 0.1,7.35 h -1.75 q 1.7,-5.8 -2.15,-7.95 -0.6,-0.35 -1.3,0 l -1.2,0.6 v 7.35 h -1.65 v -9.85 h 1.65 v 1.1 q 3.15,-2.65 5.95,0.25 6.45,-3.9 6.8,3.55 0.1,2.9 0.65,5.8 L 8.75,-5 Q 9.6,-6.75 9.7,-8.65 L 10.45,-9 Q 13.3,-4.35 8,-3.2 L 7.5,-3.5 q -2.25,-5 -3.2,-10.35 -0.05,-0.4 -0.55,-0.4"
         id="path30"
         inkscape:connector-curvature="0"
         style="fill:#ffffff;fill-rule:evenodd;stroke:none" />
    </g>
  </defs>
</svg>
