<?xml version="1.0" encoding="UTF-8" standalone="no"?>
<svg xmlns:xlink="http://www.w3.org/1999/xlink" height="21.6px" width="21.6px" xmlns="http://www.w3.org/2000/svg">
  <g transform="matrix(1.0, 0.0, 0.0, 1.0, 10.8, 10.8)">
    <path d="M7.6 -7.65 Q10.8 -4.45 10.8 0.0 10.8 4.45 7.6 7.6 4.45 10.8 0.0 10.8 -4.45 10.8 -7.65 7.6 -10.8 4.45 -10.8 0.0 -10.8 -4.45 -7.65 -7.65 -4.45 -10.8 0.0 -10.8 4.45 -10.8 7.6 -7.65" fill="#000000" fill-rule="evenodd" stroke="none"/>
    <path d="M0.3 10.3 L0.2 10.3 0.1 10.3 0.0 10.3 Q-2.5 10.3 -4.6 9.25 L-5.15 8.95 -5.7 8.6 -5.9 8.45 -7.3 7.25 Q-8.8 5.8 -9.5 4.05 L-9.55 4.0 -9.95 2.9 -10.3 0.0 Q-10.35 -4.25 -7.3 -7.3 -4.8 -9.8 -1.45 -10.2 -2.7 -9.85 -3.65 -8.9 L-3.7 -8.8 -3.75 -8.75 -4.55 -7.7 Q-5.1 -6.65 -5.15 -5.35 L-5.15 -5.2 Q-5.15 -4.0 -4.65 -2.95 L-4.3 -2.35 -3.65 -1.55 Q-2.95 -0.85 -2.1 -0.45 L0.1 -0.05 Q2.2 0.0 3.65 1.45 4.45 2.25 4.85 3.3 L5.05 4.1 5.15 5.15 5.0 6.6 4.7 7.4 3.65 8.8 Q2.25 10.2 0.3 10.3 M1.3 -6.35 Q1.85 -5.8 1.85 -5.1 L1.6 -4.25 1.3 -3.9 1.0 -3.6 0.1 -3.35 -0.55 -3.5 -1.15 -3.9 -1.35 -4.1 -1.65 -5.1 Q-1.65 -5.8 -1.15 -6.35 -0.6 -6.85 0.1 -6.85 0.8 -6.85 1.3 -6.35 M-1.1 3.8 Q-1.6 4.35 -1.6 5.05 L-1.55 5.5 -1.1 6.25 Q-0.55 6.8 0.15 6.8 0.85 6.8 1.35 6.25 1.9 5.75 1.9 5.05 L1.85 4.6 1.35 3.8 Q0.85 3.3 0.15 3.3 -0.55 3.3 -1.1 3.8" fill="#ffffff" fill-rule="evenodd" stroke="none"/>
    <path d="M-1.45 -10.2 L0.0 -10.3 2.8 -9.9 3.4 -9.75 3.6 -9.65 5.5 -8.7 7.25 -7.3 8.4 -5.95 9.75 -3.35 Q10.3 -1.8 10.3 0.0 L10.2 1.25 Q10.05 2.75 9.45 4.1 8.7 5.8 7.25 7.25 4.35 10.2 0.3 10.3 2.25 10.2 3.65 8.8 L4.7 7.4 5.0 6.6 5.15 5.15 5.05 4.1 4.85 3.3 Q4.45 2.25 3.65 1.45 2.2 0.0 0.1 -0.05 L-2.1 -0.45 Q-2.95 -0.85 -3.65 -1.55 L-4.3 -2.35 -4.65 -2.95 Q-5.15 -4.0 -5.15 -5.2 L-5.15 -5.35 Q-5.1 -6.65 -4.55 -7.7 L-3.75 -8.75 -3.7 -8.8 -3.65 -8.9 Q-2.7 -9.85 -1.45 -10.2 M1.3 -6.35 Q0.8 -6.85 0.1 -6.85 -0.6 -6.85 -1.15 -6.35 -1.65 -5.8 -1.65 -5.1 L-1.35 -4.1 -1.15 -3.9 -0.55 -3.5 0.1 -3.35 1.0 -3.6 1.3 -3.9 1.6 -4.25 1.85 -5.1 Q1.85 -5.8 1.3 -6.35 M-1.1 3.8 Q-0.55 3.3 0.15 3.3 0.85 3.3 1.35 3.8 L1.85 4.6 1.9 5.05 Q1.9 5.75 1.35 6.25 0.85 6.8 0.15 6.8 -0.55 6.8 -1.1 6.25 L-1.55 5.5 -1.6 5.05 Q-1.6 4.35 -1.1 3.8" fill="#000000" fill-rule="evenodd" stroke="none"/>
    <path d="M7.25 -7.3 L8.4 -5.95 9.75 -3.35 Q10.3 -1.8 10.3 0.0 L10.2 1.25 Q10.05 2.75 9.45 4.1 8.7 5.8 7.25 7.25 4.35 10.2 0.3 10.3 L0.2 10.3 0.1 10.3 0.0 10.3 Q-2.5 10.3 -4.6 9.25 L-5.15 8.95 -5.7 8.6 -5.9 8.45 -7.3 7.25 Q-8.8 5.8 -9.5 4.05 L-9.55 4.0 -9.95 2.9 -10.3 0.0 Q-10.35 -4.25 -7.3 -7.3 -4.8 -9.8 -1.45 -10.2 L0.0 -10.3 2.8 -9.9 3.4 -9.75 3.6 -9.65 5.5 -8.7 7.25 -7.3" fill="url(#gradient0)" fill-rule="evenodd" stroke="none"/>
  </g>
  <defs>
    <radialGradient cx="0" cy="0" gradientTransform="matrix(0.0134, 0.0, 0.0, 0.0134, 0.0, 0.0)" gradientUnits="userSpaceOnUse" id="gradient0" r="819.2" spreadMethod="pad">
      <stop offset="0.611764705882353" stop-color="#b5b5b5" stop-opacity="0.0"/>
      <stop offset="1.0" stop-color="#bababa"/>
    </radialGradient>
  </defs>
</svg>
