<?xml version="1.0" encoding="UTF-8" standalone="no"?>
<svg
   xmlns:dc="http://purl.org/dc/elements/1.1/"
   xmlns:cc="http://creativecommons.org/ns#"
   xmlns:rdf="http://www.w3.org/1999/02/22-rdf-syntax-ns#"
   xmlns:svg="http://www.w3.org/2000/svg"
   xmlns="http://www.w3.org/2000/svg"
   xmlns:sodipodi="http://sodipodi.sourceforge.net/DTD/sodipodi-0.dtd"
   xmlns:inkscape="http://www.inkscape.org/namespaces/inkscape"
   height="25.3px"
   width="42.4px"
   version="1.1"
   id="svg6"
   sodipodi:docname="2492.svg"
   inkscape:version="0.92.1 r15371">
  <metadata
     id="metadata12">
    <rdf:RDF>
      <cc:Work
         rdf:about="">
        <dc:format>image/svg+xml</dc:format>
        <dc:type
           rdf:resource="http://purl.org/dc/dcmitype/StillImage" />
        <dc:title></dc:title>
      </cc:Work>
    </rdf:RDF>
  </metadata>
  <defs
     id="defs10" />
  <sodipodi:namedview
     pagecolor="#ffffff"
     bordercolor="#666666"
     borderopacity="1"
     objecttolerance="10"
     gridtolerance="10"
     guidetolerance="10"
     inkscape:pageopacity="0"
     inkscape:pageshadow="2"
     inkscape:window-width="1920"
     inkscape:window-height="1016"
     id="namedview8"
     showgrid="false"
     inkscape:object-nodes="false"
     inkscape:zoom="20.812954"
     inkscape:cx="34.686655"
     inkscape:cy="16.635129"
     inkscape:window-x="0"
     inkscape:window-y="27"
     inkscape:window-maximized="1"
     inkscape:current-layer="svg6" />
  <g
     transform="matrix(1.0, 0.0, 0.0, 1.0, 21.1, 25.25)"
     id="g4">
    <path
       d="M16.35 -16.95 Q20.1 -12.3 21.05 -6.25 21.55 -3.1 21.1 0.05 L10.85 0.0 Q11.5 -8.1 4.05 -11.7 -1.0 -14.2 -5.15 -10.45 -7.4 -8.45 -8.75 -5.8 L-9.3 -4.45 Q-10.0 -2.3 -10.35 0.0 L-21.1 -0.15 Q-21.0 -5.95 -18.95 -11.4 -16.85 -17.1 -12.15 -21.0 -10.1 -22.65 -7.8 -23.6 L-6.6 -24.05 Q-2.75 -25.4 1.35 -25.2 4.85 -24.95 8.05 -23.5 12.95 -21.2 16.35 -16.95"
       fill="#000000"
       fill-rule="evenodd"
       stroke="none"
       id="path2" />
  </g>
  <g
     transform="matrix(0.20308005,0,0,0.22008468,21.221016,12.859269)"
     id="g28">
    <path
       d="M 93.5,56.4 Q 97.25,23.55 79.5,-4.35 62.1,-31.6 31.7,-42.7 1.4,-53.7 -29,-43.3 -59.4,-32.9 -76.95,-5.85 -95.5,22.6 -92.8,56.4 h -6.45 q -0.95,-9.35 -0.1,-18.65 3.05,-33.1 24.8,-58.25 21.1,-24.4 52.35,-31.85 31.7,-7.7 61.6,5.25 30.35,13.2 46.9,41.9 16.5,28.65 12.9,61.6 h -5.7"
       id="path14"
       inkscape:connector-curvature="0"
       style="fill:#ff0000;fill-rule:evenodd;stroke:none" />
    <path
       d="M 87.8,56.4 Q 90.95,23.05 71.05,-4 51.5,-30.65 19.15,-37.9 q -31.95,-7.2 -60.3,9.05 -28.2,16.05 -39.35,46.75 -6.8,18.7 -5.15,38.5 H -92.8 Q -95.5,22.6 -76.95,-5.85 -59.4,-32.9 -29,-43.3 q 30.4,-10.4 60.7,0.6 30.4,11.1 47.8,38.35 17.75,27.9 14,60.75 h -5.7"
       id="path16"
       inkscape:connector-curvature="0"
       style="fill:#ff8156;fill-rule:evenodd;stroke:none" />
    <path
       d="m -85.65,56.4 q -1.65,-19.8 5.15,-38.5 11.15,-30.7 39.35,-46.75 28.35,-16.25 60.3,-9.05 32.35,7.25 51.9,33.9 19.9,27.05 16.75,60.4 h -7 Q 81.45,50.35 81.1,44.2 79.2,10.75 54.2,-11.65 29.05,-34.25 -4.7,-31.3 q -33.2,2.45 -54.55,27.95 -21.7,25.8 -19.25,59.75 h -7.15"
       id="path18"
       inkscape:connector-curvature="0"
       style="fill:#ffff39;fill-rule:evenodd;stroke:none" />
    <path
       d="m -78.5,56.4 q -2.45,-33.95 19.25,-59.75 21.35,-25.5 54.55,-27.95 33.75,-2.95 58.9,19.65 25,22.4 26.9,55.85 0.35,6.15 -0.3,12.2 H 74.4 Q 77.55,25.75 58,1.95 q -21.2,-25.8 -54.35,-27 -33.3,-0.9 -55.55,23.6 -22.45,24.6 -20.1,57.85 h -6.5"
       id="path20"
       inkscape:connector-curvature="0"
       style="fill:#00e400;fill-rule:evenodd;stroke:none" />
    <path
       d="M -67.55,56.4 H -72 q -2.35,-33.25 20.1,-57.85 22.25,-24.5 55.55,-23.6 33.15,1.2 54.35,27 19.55,23.8 16.4,54.45 H 68.85 Q 70.65,22.1 43.95,0.55 18.1,-20.3 -14.35,-12.35 -46.8,-4.6 -61.1,25.5 q -7,14.65 -6.45,30.9"
       id="path22"
       inkscape:connector-curvature="0"
       style="fill:#1d1dff;fill-rule:evenodd;stroke:none" />
    <path
       d="m 68.85,56.4 h -6.7 q 0.5,-6.25 -0.4,-12.55 -4.8,-34 -36.8,-48.3 -31.1,-13.9 -59.15,6.4 -27.6,20 -26.35,54.45 h -7 q -0.55,-16.25 6.45,-30.9 14.3,-30.1 46.75,-37.85 32.45,-7.95 58.3,12.9 26.7,21.55 24.9,55.85"
       id="path24"
       inkscape:connector-curvature="0"
       style="fill:#00008f;fill-rule:evenodd;stroke:none" />
    <path
       d="M 62.15,56.4 H 56.6 Q 58.85,21.85 28.9,4.05 -0.9,-13.6 -29.55,6.4 q -25.95,18.2 -24.8,50 h -6.2 Q -61.8,21.95 -34.2,1.95 q 28.05,-20.3 59.15,-6.4 32,14.3 36.8,48.3 0.9,6.3 0.4,12.55"
       id="path26"
       inkscape:connector-curvature="0"
       style="fill:#ab00ab;fill-rule:evenodd;stroke:none" />
  </g>
</svg>
