<?xml version="1.0" encoding="UTF-8" standalone="no"?>
<svg xmlns:xlink="http://www.w3.org/1999/xlink" height="20.15px" width="36.15px" xmlns="http://www.w3.org/2000/svg">
  <g transform="matrix(1.0, 0.0, 0.0, 1.0, 17.95, 19.05)">
    <path d="M0.35 -18.9 L0.75 -18.95 0.85 -19.0 1.7 -19.05 2.25 -18.9 2.55 -18.75 2.8 -18.5 3.3 -17.9 3.4 -17.75 3.5 -17.55 3.6 -17.15 3.7 -15.35 3.5 -14.65 2.85 -14.3 0.55 -14.0 1.2 -13.05 1.6 -12.9 1.7 -12.85 2.7 -12.65 3.55 -12.45 4.0 -12.2 4.45 -12.1 4.8 -11.95 5.4 -11.55 5.5 -11.45 5.95 -11.05 6.05 -11.05 Q7.05 -10.95 7.2 -10.3 L7.2 -10.25 7.25 -10.25 7.45 -10.25 7.6 -10.2 8.5 -9.85 8.95 -9.8 9.25 -9.8 11.6 -9.8 11.75 -9.8 Q14.05 -9.45 16.0 -8.25 L16.15 -8.1 16.95 -7.35 17.0 -7.25 17.4 -6.75 17.6 -6.4 18.2 -4.35 18.15 -3.8 17.85 -3.3 17.05 -2.65 16.9 -2.0 16.6 -1.55 Q16.35 -1.2 16.0 -1.1 L15.5 -1.0 15.2 -0.55 14.8 -0.2 Q14.6 0.0 14.35 0.05 L13.9 0.1 Q11.4 1.0 8.7 0.8 L7.05 0.95 6.7 0.95 5.75 0.9 4.65 1.05 4.55 1.05 0.6 1.05 0.05 0.85 -0.05 0.8 -1.3 0.85 Q-1.7 0.9 -2.0 0.6 L-2.4 0.3 -3.05 0.15 -3.4 0.0 -3.7 -0.3 -4.05 -0.75 -4.55 -1.05 -5.55 0.25 -6.2 0.6 -9.65 1.1 -9.85 1.1 -15.9 0.6 -16.55 0.3 -16.85 -0.4 Q-16.85 -2.45 -17.2 -4.65 L-17.1 -5.35 -16.85 -5.8 -16.85 -6.05 -16.85 -6.15 -16.6 -8.2 -17.1 -9.75 Q-17.75 -11.85 -17.95 -13.9 L-17.8 -14.45 -17.4 -14.85 -15.8 -15.7 -15.3 -15.85 -14.85 -15.7 -14.55 -15.55 -14.35 -15.5 -14.05 -15.4 -12.35 -14.4 -12.0 -14.05 -11.85 -13.65 Q-11.75 -12.45 -10.6 -12.4 L-10.55 -12.4 -9.5 -12.55 -9.25 -12.6 Q-7.35 -12.75 -6.15 -14.3 L-6.15 -14.25 -5.65 -15.0 -5.6 -15.1 -3.95 -16.55 -3.95 -16.6 Q-2.0 -18.15 0.2 -18.85 L0.35 -18.9" fill="#000000" fill-rule="evenodd" stroke="none"/>
    <path d="M1.75 -18.05 L2.05 -17.85 1.9 -16.7 1.75 -18.05 M-2.05 -14.65 L-2.1 -14.45 -5.3 -10.85 Q-6.4 -9.7 -7.95 -9.05 -10.25 -8.0 -12.3 -9.5 L-13.75 -10.55 -13.75 -10.6 -13.8 -10.6 -14.85 -11.6 -14.95 -12.25 -14.9 -12.25 -14.55 -12.05 -14.3 -11.85 -13.85 -11.15 Q-12.65 -9.15 -10.15 -9.05 L-9.25 -9.35 -5.75 -11.0 -5.55 -11.15 -2.95 -14.15 -3.5 -14.25 -5.35 -13.7 -4.85 -14.4 -4.35 -14.55 -2.95 -14.75 -2.15 -14.7 -2.05 -14.65 M0.45 -12.3 L0.6 -12.55 0.85 -12.65 1.05 -12.55 1.15 -12.3 1.1 -12.05 1.35 -11.9 0.9 -11.5 1.05 -11.95 1.1 -12.05 1.0 -12.0 -1.7 -11.15 -1.65 -10.6 -0.3 -10.85 -2.2 -10.15 -2.75 -10.75 -1.85 -11.4 0.45 -12.3 M2.5 -11.65 L3.3 -11.5 3.35 -11.35 Q2.0 -9.95 0.25 -9.55 L0.1 -9.15 -0.55 -9.2 -0.75 -9.75 -0.8 -10.2 -0.8 -10.3 -0.7 -10.3 -0.45 -10.35 -0.35 -10.2 0.35 -10.6 2.5 -11.65 M4.25 -11.15 L4.8 -10.75 4.15 -10.15 4.3 -10.3 4.35 -10.5 2.9 -10.1 2.4 -9.8 2.05 -9.35 Q3.2 -9.3 4.15 -10.15 3.2 -9.1 1.8 -8.2 L1.0 -8.7 1.5 -9.55 2.3 -9.95 4.25 -11.15 M5.6 -10.0 L5.95 -10.05 Q6.45 -10.0 6.2 -9.55 L3.6 -7.7 Q3.3 -7.5 3.2 -7.9 L3.2 -8.1 Q3.8 -9.4 5.6 -10.0 M6.75 -9.2 L7.25 -9.25 7.45 -9.25 7.8 -8.9 Q6.8 -8.0 5.4 -7.5 L5.0 -8.05 5.05 -8.2 5.2 -8.1 5.75 -8.4 6.75 -9.2 M8.85 -8.8 L9.25 -8.8 7.55 -7.75 9.3 -7.65 7.55 -7.4 7.25 -7.05 6.75 -7.25 7.4 -7.5 6.9 -7.55 8.85 -8.8 M15.45 -7.4 L16.25 -6.65 16.0 -6.7 15.7 -6.9 14.3 -7.45 15.45 -7.4 M-15.95 -5.3 L-15.85 -5.35 -13.7 -4.65 Q-11.55 -3.9 -9.25 -3.95 L-4.75 -4.3 -2.4 -4.0 1.9 -3.35 6.5 -3.25 8.25 -3.25 11.5 -3.35 Q13.9 -3.65 15.95 -4.85 L13.6 -2.5 9.7 -1.6 5.3 -1.3 2.3 -1.45 1.3 -1.35 Q-0.75 -1.7 -2.6 -2.8 L-4.4 -3.8 -5.35 -3.3 -5.9 -2.85 -6.2 -2.55 -7.3 -1.85 -6.95 -2.45 -7.5 -2.7 -7.95 -2.2 -8.05 -1.6 Q-10.4 -0.5 -12.9 -1.1 -14.15 -1.35 -14.95 -2.0 L-12.95 -1.55 -11.05 -1.5 -9.0 -2.05 -8.8 -2.25 -8.8 -2.4 -9.75 -2.75 -10.5 -2.8 -15.0 -3.1 -15.35 -2.8 -15.45 -3.75 -15.95 -5.3 M0.5 -17.9 L0.9 -18.0 1.3 -17.45 0.85 -17.8 0.5 -17.9 M1.9 -16.65 L1.45 -16.05 0.8 -16.3 1.9 -16.65 M-2.65 -15.6 L-3.8 -15.05 -3.0 -15.55 -2.65 -15.6 M9.1 -7.15 L8.5 -7.15 8.5 -7.35 9.1 -7.35 9.1 -7.15 M4.0 -8.5 L5.0 -9.0 5.9 -9.6 4.0 -8.5 M1.65 -10.85 L0.3 -10.1 3.1 -11.35 1.65 -10.85 M2.3 -3.75 L3.35 -3.8 2.7 -3.75 2.3 -3.75 M16.05 -5.6 L15.55 -5.95 15.65 -6.2 16.2 -5.95 16.6 -6.0 16.1 -5.1 16.05 -5.6 M-14.65 -6.0 L-14.8 -5.75 -15.35 -5.8 -15.4 -5.9 -15.1 -6.1 -14.65 -6.0 M-6.7 -4.75 L-6.35 -4.95 -6.3 -4.9 -6.7 -4.75 M-5.15 -4.85 L-5.1 -4.85 -4.55 -4.75 -5.15 -4.85 M-0.3 -2.25 Q1.6 -1.6 3.7 -1.7 L8.2 -1.85 10.35 -2.3 13.05 -2.95 2.05 -2.45 -2.05 -2.7 -0.3 -2.25 M14.55 -6.9 L14.65 -6.7 14.5 -6.55 14.5 -6.85 14.55 -6.9 M-14.5 -10.0 L-14.55 -10.1 Q-13.75 -9.35 -14.5 -10.0" fill="#666666" fill-rule="evenodd" stroke="none"/>
    <path d="M1.75 -18.05 L1.9 -16.7 2.05 -17.85 2.5 -17.3 1.9 -16.65 0.8 -16.3 -2.65 -15.6 -3.0 -15.55 -3.8 -15.05 -4.35 -14.55 -4.85 -14.4 -3.35 -15.8 Q-1.55 -17.25 0.5 -17.9 L0.85 -17.8 1.3 -17.45 0.9 -18.0 1.75 -18.05 M-1.9 -14.7 L-2.05 -14.65 -2.15 -14.7 -1.9 -14.7 M-2.1 -14.45 L-0.75 -14.15 0.45 -12.3 -1.85 -11.4 -2.75 -10.75 -2.2 -10.15 -0.3 -10.85 -1.65 -10.6 -1.7 -11.15 1.0 -12.0 1.05 -11.95 0.9 -11.5 1.35 -11.9 2.5 -11.65 0.35 -10.6 -0.35 -10.2 -0.45 -10.35 -0.7 -10.3 -0.8 -10.3 -0.8 -10.2 -0.75 -9.75 -0.55 -9.2 0.1 -9.15 0.25 -9.55 Q2.0 -9.95 3.35 -11.35 L4.25 -11.15 2.3 -9.95 1.5 -9.55 1.0 -8.7 1.8 -8.2 Q3.2 -9.1 4.15 -10.15 3.2 -9.3 2.05 -9.35 L2.4 -9.8 2.9 -10.1 4.35 -10.5 4.3 -10.3 4.15 -10.15 4.8 -10.75 5.6 -10.0 Q3.8 -9.4 3.2 -8.1 L3.2 -7.9 Q3.3 -7.5 3.6 -7.7 L6.2 -9.55 6.75 -9.2 5.75 -8.4 5.2 -8.1 5.05 -8.2 5.0 -8.05 5.4 -7.5 Q6.8 -8.0 7.8 -8.9 L8.85 -8.8 6.9 -7.55 7.4 -7.5 6.75 -7.25 7.25 -7.05 7.55 -7.4 9.3 -7.65 7.55 -7.75 9.25 -8.8 11.6 -8.8 Q13.7 -8.5 15.45 -7.4 L14.3 -7.45 14.55 -6.9 14.5 -6.85 14.5 -6.55 Q12.3 -5.3 9.9 -5.35 L5.3 -5.65 4.35 -6.0 4.3 -6.7 Q1.9 -5.85 -0.7 -5.9 L-0.4 -6.15 Q-0.25 -6.15 -0.15 -6.25 0.2 -6.9 0.05 -7.75 L-0.75 -8.65 -2.6 -8.95 -2.95 -8.9 Q-5.0 -8.35 -6.9 -7.05 L-7.9 -6.4 Q-10.3 -5.75 -12.7 -6.4 -14.45 -6.9 -15.55 -8.25 L-16.15 -10.05 Q-16.75 -12.05 -16.95 -14.0 L-15.35 -14.85 -14.95 -14.6 -15.1 -13.95 -15.4 -14.3 -15.9 -14.4 -16.7 -13.3 Q-16.7 -10.65 -15.2 -8.9 L-15.2 -9.15 -15.15 -9.45 -14.85 -11.6 -13.8 -10.6 -13.75 -10.55 -12.3 -9.5 Q-10.25 -8.0 -7.95 -9.05 -6.4 -9.7 -5.3 -10.85 L-2.1 -14.45 M-14.55 -14.55 L-12.85 -13.55 Q-12.65 -11.5 -10.65 -11.4 L-9.2 -11.6 Q-6.85 -11.8 -5.35 -13.7 L-3.5 -14.25 Q-4.85 -12.25 -7.0 -11.2 -9.0 -10.15 -11.25 -10.3 L-11.4 -10.35 -14.6 -13.55 -14.55 -14.55 M9.1 -7.15 L9.1 -7.35 8.5 -7.35 8.5 -7.15 9.1 -7.15 M1.65 -10.85 L3.1 -11.35 0.3 -10.1 1.65 -10.85 M4.0 -8.5 L5.9 -9.6 5.0 -9.0 4.0 -8.5 M2.3 -1.05 L0.75 -1.2 1.3 -1.35 2.3 -1.45 1.8 -1.25 2.3 -1.05 M-5.9 -2.85 Q-5.5 -2.6 -5.65 -2.4 L-6.35 -1.75 -6.2 -2.55 -5.9 -2.85 M-7.3 -1.85 L-8.05 -1.6 -7.95 -2.2 -7.5 -2.7 -6.95 -2.45 -7.3 -1.85 M-15.35 -2.5 L-15.35 -2.8 -15.0 -3.1 -10.5 -2.8 -15.35 -2.5 M-4.65 -6.4 L-7.35 -6.45 Q-5.65 -7.95 -3.65 -7.75 L-2.5 -7.9 -2.05 -6.75 -2.5 -6.8 -2.7 -7.35 -2.95 -7.75 -3.6 -7.65 -4.25 -7.6 -4.7 -7.0 -4.65 -6.4 M2.05 -2.45 L-0.3 -2.25 -2.05 -2.7 2.05 -2.45 M-14.5 -10.0 Q-13.75 -9.35 -14.55 -10.1 L-14.5 -10.0" fill="#ffffff" fill-rule="evenodd" stroke="none"/>
    <path d="M2.5 -17.3 L2.6 -17.1 2.4 -16.7 2.35 -16.25 1.75 -15.7 Q-0.65 -15.6 -2.95 -14.75 L-4.35 -14.55 -3.8 -15.05 -2.65 -15.6 0.8 -16.3 1.45 -16.05 1.9 -16.65 2.5 -17.3 M16.35 -6.5 L16.65 -6.15 16.6 -6.0 16.2 -5.95 16.35 -6.5 M-15.85 -5.35 L-15.85 -5.85 -15.35 -5.8 -14.8 -5.75 -10.3 -4.65 -8.7 -4.4 -6.7 -4.75 -6.3 -4.9 -6.35 -4.95 -5.15 -4.85 -4.55 -4.75 -5.1 -4.85 -1.25 -4.2 2.3 -3.75 2.7 -3.75 6.5 -3.25 1.9 -3.35 -2.4 -4.0 -4.75 -4.3 -9.25 -3.95 Q-11.55 -3.9 -13.7 -4.65 L-15.85 -5.35 M-15.85 -6.05 L-15.55 -8.25 Q-14.45 -6.9 -12.7 -6.4 -10.3 -5.75 -7.9 -6.4 L-7.9 -6.1 -7.6 -6.35 Q-7.45 -6.35 -7.35 -6.45 L-4.65 -6.4 -3.65 -5.4 -2.0 -5.3 Q-1.2 -5.25 -0.7 -5.9 1.9 -5.85 4.3 -6.7 L4.35 -6.0 5.3 -5.65 9.9 -5.35 Q12.3 -5.3 14.5 -6.55 L14.65 -6.7 14.55 -6.9 14.3 -7.45 15.7 -6.9 15.65 -6.2 15.55 -5.95 Q14.15 -5.1 12.6 -4.55 L8.0 -3.9 3.2 -4.1 -1.55 -4.95 -6.35 -5.2 -10.5 -5.1 -14.65 -6.0 -15.1 -6.1 -15.85 -6.05 M2.3 -1.05 L1.8 -1.25 2.3 -1.45 5.3 -1.3 9.7 -1.6 13.6 -2.5 14.4 -2.5 11.3 -1.45 6.5 -0.8 2.3 -1.05 M-14.95 -2.0 L-15.35 -2.5 -10.5 -2.8 -9.75 -2.75 -9.75 -2.05 -12.95 -1.55 -14.95 -2.0 M8.25 -3.25 L15.25 -4.7 16.05 -5.6 16.1 -5.1 15.95 -4.85 Q13.9 -3.65 11.5 -3.35 L8.25 -3.25 M2.05 -2.45 L13.05 -2.95 10.35 -2.3 8.2 -1.85 3.7 -1.7 Q1.6 -1.6 -0.3 -2.25 L2.05 -2.45 M-3.5 -14.25 L-2.95 -14.15 -5.55 -11.15 -5.75 -11.0 Q-7.6 -10.15 -9.75 -9.85 L-11.25 -10.3 Q-9.0 -10.15 -7.0 -11.2 -4.85 -12.25 -3.5 -14.25 M-14.3 -11.85 L-14.55 -12.05 -14.5 -12.1 -14.3 -11.85 M-14.9 -12.25 L-14.95 -12.25 -14.95 -12.3 -15.65 -13.85 Q-16.2 -11.6 -15.35 -9.45 L-15.2 -9.15 -15.2 -8.9 Q-16.7 -10.65 -16.7 -13.3 L-15.9 -14.4 -15.4 -14.3 -15.1 -13.95 -14.95 -12.3 -14.9 -12.25 M-13.8 -10.6 L-13.75 -10.6 -13.75 -10.55 -13.8 -10.6 M-14.6 -13.55 L-11.4 -10.35 Q-13.3 -11.15 -14.35 -13.05 L-14.6 -13.55" fill="#cccccc" fill-rule="evenodd" stroke="none"/>
    <path d="M2.6 -17.1 L2.7 -15.3 -1.9 -14.7 -2.15 -14.7 -2.95 -14.75 Q-0.65 -15.6 1.75 -15.7 L2.35 -16.25 2.4 -16.7 2.6 -17.1 M16.25 -6.65 L16.35 -6.5 16.2 -5.95 15.65 -6.2 15.7 -6.9 16.0 -6.7 16.25 -6.65 M-15.85 -5.85 L-15.85 -6.05 -15.1 -6.1 -15.4 -5.9 -15.35 -5.8 -15.85 -5.85 M-14.95 -14.6 L-14.55 -14.55 -14.6 -13.55 -14.35 -13.05 Q-13.3 -11.15 -11.4 -10.35 L-11.25 -10.3 -9.75 -9.85 Q-7.6 -10.15 -5.75 -11.0 L-9.25 -9.35 -10.15 -9.05 Q-12.65 -9.15 -13.85 -11.15 L-14.3 -11.85 -14.5 -12.1 -14.55 -12.05 -14.9 -12.25 -14.95 -12.3 -15.1 -13.95 -14.95 -14.6 M2.7 -3.75 L3.35 -3.8 2.3 -3.75 -1.25 -4.2 -5.1 -4.85 -5.15 -4.85 -6.35 -4.95 -6.7 -4.75 -8.7 -4.4 -10.3 -4.65 -14.8 -5.75 -14.65 -6.0 -10.5 -5.1 -6.35 -5.2 -1.55 -4.95 3.2 -4.1 8.0 -3.9 12.6 -4.55 Q14.15 -5.1 15.55 -5.95 L16.05 -5.6 15.25 -4.7 8.25 -3.25 6.5 -3.25 2.7 -3.75 M-9.75 -2.75 L-8.8 -2.4 -8.8 -2.25 -9.0 -2.05 -11.05 -1.5 -12.95 -1.55 -9.75 -2.05 -9.75 -2.75" fill="#999999" fill-rule="evenodd" stroke="none"/>
    <path d="M16.65 -6.15 L17.2 -4.1 15.95 -3.05 16.05 -2.55 15.75 -2.1 14.65 -1.85 14.55 -1.3 14.15 -0.95 13.55 -0.85 Q11.25 0.0 8.75 -0.2 L6.85 -0.05 5.65 -0.1 4.45 0.05 0.65 0.05 0.25 -0.25 -1.35 -0.15 -1.9 -0.65 -2.85 -0.85 -3.5 -1.6 Q-4.15 -1.85 -4.55 -2.65 L-6.35 -0.4 -9.8 0.1 -15.85 -0.4 Q-15.85 -2.55 -16.25 -4.85 L-15.95 -5.3 -15.45 -3.75 -15.35 -2.8 -15.35 -2.5 -14.95 -2.0 Q-14.15 -1.35 -12.9 -1.1 -10.4 -0.5 -8.05 -1.6 L-7.3 -1.85 -6.2 -2.55 -6.35 -1.75 -5.65 -2.4 Q-5.5 -2.6 -5.9 -2.85 L-5.35 -3.3 -4.4 -3.8 -2.6 -2.8 Q-0.75 -1.7 1.3 -1.35 L0.75 -1.2 2.3 -1.05 6.5 -0.8 11.3 -1.45 14.4 -2.5 13.6 -2.5 15.95 -4.85 16.1 -5.1 16.6 -6.0 16.65 -6.15" fill="#000000" fill-rule="evenodd" stroke="none"/>
    <path d="M-2.95 -8.9 L-2.6 -8.95 -0.8 -8.05 -0.65 -7.9 -0.65 -7.8 -1.25 -7.0 -1.3 -7.8 -1.6 -8.25 -3.0 -8.65 -2.95 -8.9 M-3.15 -7.0 Q-2.25 -6.9 -3.15 -6.8 L-3.15 -7.0" fill="#ff6666" fill-rule="evenodd" stroke="none"/>
    <path d="M-7.9 -6.1 L-7.9 -6.4 -6.9 -7.05 Q-5.0 -8.35 -2.95 -8.9 L-3.0 -8.65 Q-5.1 -8.25 -7.1 -6.8 L-7.9 -6.1 M-1.6 -8.25 L-1.3 -7.8 -1.25 -7.0 -0.65 -7.8 -0.6 -7.3 -2.15 -6.15 -4.0 -6.9 -3.6 -7.65 -2.95 -7.75 -2.7 -7.35 -2.5 -6.8 -2.05 -6.75 -1.45 -7.55 -1.6 -8.25 M-0.65 -7.9 L-0.8 -8.05 -2.6 -8.95 -0.75 -8.65 -0.65 -7.9 M-3.15 -7.0 L-3.15 -6.8 Q-2.25 -6.9 -3.15 -7.0" fill="#cc0000" fill-rule="evenodd" stroke="none"/>
    <path d="M-0.7 -5.9 Q-1.2 -5.25 -2.0 -5.3 L-3.65 -5.4 -4.65 -6.4 -4.7 -7.0 -4.25 -7.6 -3.6 -7.65 -4.0 -6.9 -2.15 -6.15 -0.6 -7.3 -0.65 -7.8 -0.65 -7.9 -0.75 -8.65 0.05 -7.75 Q0.2 -6.9 -0.15 -6.25 -0.25 -6.15 -0.4 -6.15 L-0.7 -5.9 M-7.35 -6.45 Q-7.45 -6.35 -7.6 -6.35 L-7.9 -6.1 -7.1 -6.8 Q-5.1 -8.25 -3.0 -8.65 L-1.6 -8.25 -1.45 -7.55 -2.05 -6.75 -2.5 -7.9 -3.65 -7.75 Q-5.65 -7.95 -7.35 -6.45" fill="#990000" fill-rule="evenodd" stroke="none"/>
  </g>
</svg>
