<?xml version="1.0" encoding="UTF-8" standalone="no"?>
<svg xmlns:xlink="http://www.w3.org/1999/xlink" height="23.9px" width="47.7px" xmlns="http://www.w3.org/2000/svg">
  <g transform="matrix(1.0, 0.0, 0.0, 1.0, 24.3, 23.8)">
    <path d="M-14.95 -0.35 L-24.15 -1.4 -24.3 -2.0 -23.85 -2.75 -15.05 -5.55 -15.8 -8.9 Q-16.35 -11.7 -15.45 -14.3 -14.8 -16.1 -13.5 -17.75 L-11.65 -19.75 Q-7.15 -23.95 -1.0 -23.8 1.55 -23.55 4.0 -22.2 6.8 -20.55 8.45 -17.95 L9.05 -16.8 9.5 -15.65 9.85 -14.5 Q10.7 -10.45 8.5 -7.2 L14.6 -8.2 15.35 -10.4 14.45 -12.5 15.45 -13.9 18.9 -13.8 Q19.9 -13.05 19.75 -11.85 L17.95 -9.9 17.65 -7.9 18.65 -9.35 18.8 -10.25 19.5 -10.9 21.05 -11.15 22.5 -11.0 Q23.45 -10.45 23.4 -9.45 L21.35 -7.3 22.65 -5.5 21.5 -2.65 18.95 -2.05 18.05 -1.2 15.6 -0.15 Q17.95 -2.1 17.85 -3.55 L20.6 -3.65 20.9 -3.6 21.25 -4.35 Q21.6 -5.75 20.6 -6.45 L19.9 -5.7 19.35 -5.4 18.25 -4.6 18.0 -5.5 18.65 -6.5 19.8 -8.6 Q21.2 -7.65 22.2 -9.45 L22.2 -9.8 21.85 -10.45 20.95 -10.75 Q19.8 -10.7 19.5 -9.9 L19.45 -9.0 18.15 -7.15 17.65 -6.4 15.35 -7.3 16.1 -7.55 16.45 -8.2 16.7 -9.35 16.7 -10.35 18.45 -11.9 18.55 -12.65 Q17.65 -13.85 16.3 -13.3 L15.85 -13.1 15.25 -12.35 16.2 -11.0 16.15 -10.35 15.9 -9.35 15.6 -8.45 15.1 -7.25 6.8 -5.95 5.95 -5.8 7.05 -7.15 Q10.9 -12.85 6.65 -18.35 3.75 -22.15 -1.2 -22.95 -8.05 -23.2 -12.5 -17.95 -17.25 -12.35 -14.35 -5.95 L-13.35 -4.7 -16.95 -4.1 -23.5 -1.95 -14.95 -0.35 M17.1 -12.55 L17.15 -12.65 17.25 -12.55 17.65 -12.15 17.15 -11.8 16.7 -11.9 17.1 -12.55 M-13.9 -11.8 Q-13.05 -15.25 -10.15 -17.25 -8.3 -18.6 -6.05 -18.05 -2.75 -17.4 -1.85 -14.05 -1.0 -10.8 -2.05 -7.6 L-3.45 -6.8 -4.45 -6.5 -2.05 -9.1 -2.35 -11.65 -2.65 -14.2 -2.85 -15.6 Q-5.8 -19.2 -9.95 -16.7 -12.2 -15.4 -13.2 -12.9 -15.05 -8.35 -10.5 -6.95 -9.05 -6.65 -7.85 -7.55 L-6.3 -9.7 -7.2 -12.35 -10.75 -12.25 Q-12.3 -10.9 -11.2 -9.05 L-10.45 -9.1 -9.95 -9.6 -11.15 -10.45 -9.4 -9.85 -9.65 -9.1 -10.45 -8.65 -11.65 -9.0 Q-12.55 -10.95 -11.25 -12.55 -9.9 -14.15 -8.2 -13.4 -4.95 -12.1 -6.15 -9.05 -7.7 -5.3 -11.5 -6.5 -13.95 -7.35 -13.95 -9.85 L-13.9 -11.8 M21.0 -4.45 L20.65 -4.15 19.95 -4.35 20.15 -5.4 20.4 -5.4 Q21.35 -5.35 21.0 -4.45 M15.85 -4.4 Q15.75 -3.8 15.65 -4.4 16.1 -5.35 15.85 -4.4 M20.7 -9.8 L21.75 -9.65 21.65 -9.2 20.95 -9.1 20.7 -9.8" fill="#000000" fill-rule="evenodd" stroke="none"/>
    <path d="M-14.95 -0.35 L-23.5 -1.95 -16.95 -4.1 -18.3 -3.05 Q-8.4 -0.7 1.75 -1.55 L5.65 -1.4 Q11.5 -1.3 17.0 -3.05 L17.75 -5.6 6.8 -5.95 15.1 -7.25 15.35 -7.3 17.65 -6.4 18.0 -5.5 18.25 -4.6 17.85 -3.55 Q17.95 -2.1 15.6 -0.15 14.4 0.3 7.75 -0.1 L-5.25 -0.1 Q-10.95 -0.1 -14.95 -0.35 M15.6 -8.45 L15.9 -9.35 16.7 -9.35 16.45 -8.2 15.6 -8.45 M15.25 -12.35 L15.85 -13.1 17.1 -12.55 16.7 -11.9 Q16.0 -12.0 15.25 -12.35 M18.55 -12.65 L18.45 -11.9 17.15 -11.8 17.65 -12.15 17.25 -12.55 18.55 -12.65 M18.15 -7.15 L19.45 -9.0 19.8 -8.6 18.65 -6.5 18.15 -7.15 M19.5 -9.9 Q19.8 -10.7 20.95 -10.75 L20.7 -9.8 20.95 -9.1 19.5 -9.9 M22.2 -9.8 L22.2 -9.45 21.65 -9.2 21.75 -9.65 22.2 -9.8 M19.35 -5.4 L19.9 -5.7 20.0 -5.3 20.15 -5.4 19.95 -4.35 20.65 -4.15 21.0 -4.45 21.25 -4.35 20.9 -3.6 20.6 -3.65 Q20.15 -3.75 19.8 -4.1 19.3 -4.7 19.35 -5.4 M-1.7 -7.25 L3.8 -6.35 5.4 -5.95 -7.55 -6.05 -4.45 -6.5 -3.45 -6.8 -1.7 -7.25 M14.8 -4.4 Q14.7 -4.85 15.15 -5.05 15.45 -5.45 16.0 -5.35 16.45 -5.45 16.85 -5.05 L17.2 -4.4 16.85 -3.65 16.0 -3.4 15.15 -3.65 Q14.7 -4.05 14.8 -4.4 M15.95 -5.1 Q15.6 -5.2 15.5 -4.95 15.15 -4.35 15.8 -3.95 L16.2 -3.95 Q16.95 -4.4 16.4 -5.05 L15.95 -5.1" fill="#bea82e" fill-rule="evenodd" stroke="none"/>
    <path d="M-16.95 -4.1 L-13.35 -4.7 -10.8 -5.25 -7.55 -6.05 5.4 -5.95 5.85 -5.8 5.95 -5.8 6.8 -5.95 17.75 -5.6 17.0 -3.05 Q11.5 -1.3 5.65 -1.4 L1.75 -1.55 Q-8.4 -0.7 -18.3 -3.05 L-16.95 -4.1 M15.9 -9.35 L16.15 -10.35 16.7 -10.35 16.7 -9.35 15.9 -9.35 M15.85 -13.1 L16.3 -13.3 Q17.65 -13.85 18.55 -12.65 L17.25 -12.55 17.15 -12.65 17.1 -12.55 15.85 -13.1 M20.95 -10.75 L21.85 -10.45 22.2 -9.8 21.75 -9.65 20.7 -9.8 20.95 -10.75 M19.9 -5.7 L20.6 -6.45 Q21.6 -5.75 21.25 -4.35 L21.0 -4.45 Q21.35 -5.35 20.4 -5.4 L20.15 -5.4 20.0 -5.3 19.9 -5.7 M4.4 -3.2 L5.55 -3.0 6.8 -3.2 7.25 -3.65 6.8 -4.1 5.55 -4.25 4.4 -4.1 Q3.9 -4.0 3.95 -3.65 3.9 -3.4 4.4 -3.2 M2.3 -3.9 L2.05 -3.95 Q1.2 -3.8 1.1 -3.05 2.0 -2.25 2.55 -3.5 L2.5 -3.65 2.3 -3.9 M14.8 -4.4 Q14.7 -4.05 15.15 -3.65 L16.0 -3.4 16.85 -3.65 17.2 -4.4 16.85 -5.05 Q16.45 -5.45 16.0 -5.35 15.45 -5.45 15.15 -5.05 14.7 -4.85 14.8 -4.4 M15.95 -5.1 L16.4 -5.05 Q16.95 -4.4 16.2 -3.95 L15.8 -3.95 Q15.15 -4.35 15.5 -4.95 15.6 -5.2 15.95 -5.1 M15.85 -4.4 Q16.1 -5.35 15.65 -4.4 15.75 -3.8 15.85 -4.4 M-11.05 -4.95 Q-12.4 -5.05 -13.15 -3.9 L-13.6 -3.4 Q-12.0 -2.35 -11.05 -3.9 -10.75 -4.45 -11.05 -4.95 M-6.05 -4.35 L-7.05 -4.1 Q-7.45 -3.85 -7.45 -3.4 -7.45 -3.0 -7.05 -2.7 L-6.05 -2.45 -5.1 -2.7 Q-4.75 -3.0 -4.65 -3.4 -4.75 -3.85 -5.1 -4.1 L-6.05 -4.35 M-9.15 -4.45 L-10.3 -3.5 -9.3 -2.8 -8.2 -3.85 -8.55 -4.35 -9.15 -4.45 M-2.6 -3.8 L-3.15 -3.6 -3.4 -3.25 -3.15 -2.9 Q-3.0 -2.7 -2.6 -2.7 -2.35 -2.7 -2.15 -2.9 -1.9 -3.0 -1.9 -3.25 L-2.15 -3.6 Q-2.35 -3.8 -2.6 -3.8" fill="#d9c65b" fill-rule="evenodd" stroke="none"/>
    <path d="M4.95 -16.9 Q6.0 -16.7 5.1 -17.0 L4.95 -16.9 M6.7 -15.5 Q7.0 -16.3 6.85 -15.55 L6.7 -15.5 M2.1 -21.05 L1.4 -20.25 3.45 -20.35 2.5 -19.8 4.1 -19.85 3.45 -19.25 5.15 -19.2 4.4 -18.55 5.65 -18.55 4.5 -17.65 6.3 -17.2 6.3 -16.35 5.45 -15.65 6.4 -15.4 5.95 -14.65 4.7 -14.75 6.05 -15.3 4.1 -15.35 5.85 -16.05 3.25 -15.7 4.4 -16.1 3.35 -16.2 4.7 -16.8 2.7 -16.5 4.4 -17.3 2.4 -16.8 2.9 -17.25 2.25 -17.2 3.8 -18.1 1.2 -17.55 2.0 -18.1 2.3 -18.95 0.4 -19.2 0.95 -19.8 -0.75 -19.75 0.05 -20.45 -0.8 -20.9 0.85 -21.25 0.05 -20.9 2.1 -21.05 M-1.95 -22.2 L-4.35 -21.6 -3.35 -22.25 -1.95 -22.2" fill="#e3b588" fill-rule="evenodd" stroke="none"/>
    <path d="M2.1 -21.05 L0.05 -20.9 0.85 -21.25 -0.8 -20.9 0.05 -20.45 -0.75 -19.75 0.95 -19.8 0.4 -19.2 2.3 -18.95 2.0 -18.1 1.2 -17.55 3.8 -18.1 2.25 -17.2 2.9 -17.25 2.4 -16.8 4.4 -17.3 2.7 -16.5 4.7 -16.8 3.35 -16.2 4.4 -16.1 3.25 -15.7 5.85 -16.05 4.1 -15.35 6.05 -15.3 4.7 -14.75 5.95 -14.65 6.4 -15.4 5.45 -15.65 6.3 -16.35 6.3 -17.2 4.5 -17.65 5.65 -18.55 4.4 -18.55 5.15 -19.2 3.45 -19.25 4.1 -19.85 2.5 -19.8 3.45 -20.35 1.4 -20.25 2.1 -21.05 M6.7 -15.5 L6.85 -15.55 Q7.0 -16.3 6.7 -15.5 M4.95 -16.9 L5.1 -17.0 Q6.0 -16.7 4.95 -16.9 M7.65 -11.55 L2.0 -12.15 1.65 -13.8 Q-0.05 -20.0 -6.5 -21.25 -5.85 -22.6 -4.35 -22.55 -0.6 -22.6 3.25 -20.7 9.2 -17.85 7.65 -11.55 M-1.95 -22.2 L-3.35 -22.25 -4.35 -21.6 -1.95 -22.2 M-2.35 -11.65 L-2.6 -10.2 -3.5 -9.55 Q-3.9 -16.0 -10.25 -15.6 L-10.05 -16.4 Q-8.4 -17.65 -6.55 -17.1 -3.55 -16.35 -2.65 -14.2 L-2.35 -11.65 M-7.15 -9.4 L-7.7 -8.5 -7.5 -9.8 -8.25 -11.05 -10.05 -11.7 -8.65 -12.8 Q-6.45 -11.6 -7.15 -9.4" fill="#b16c27" fill-rule="evenodd" stroke="none"/>
    <path d="M15.1 -7.25 L15.6 -8.45 16.45 -8.2 16.1 -7.55 15.35 -7.3 15.1 -7.25 M16.15 -10.35 L16.2 -11.0 15.25 -12.35 Q16.0 -12.0 16.7 -11.9 L17.15 -11.8 18.45 -11.9 16.7 -10.35 16.15 -10.35 M17.65 -6.4 L18.15 -7.15 18.65 -6.5 18.0 -5.5 17.65 -6.4 M19.45 -9.0 L19.5 -9.9 20.95 -9.1 21.65 -9.2 22.2 -9.45 Q21.2 -7.65 19.8 -8.6 L19.45 -9.0 M18.25 -4.6 L19.35 -5.4 Q19.3 -4.7 19.8 -4.1 20.15 -3.75 20.6 -3.65 L17.85 -3.55 18.25 -4.6 M1.8 -7.85 L3.8 -6.35 -1.7 -7.25 1.8 -7.85" fill="#928123" fill-rule="evenodd" stroke="none"/>
    <path d="M3.8 -6.35 L1.8 -7.85 6.1 -7.2 5.85 -5.8 5.4 -5.95 3.8 -6.35" fill="#41290e" fill-rule="evenodd" stroke="none"/>
    <path d="M2.3 -3.9 L2.5 -3.65 2.55 -3.5 Q2.0 -2.25 1.1 -3.05 1.2 -3.8 2.05 -3.95 L2.3 -3.9 M4.4 -3.2 Q3.9 -3.4 3.95 -3.65 3.9 -4.0 4.4 -4.1 L5.55 -4.25 6.8 -4.1 7.25 -3.65 6.8 -3.2 5.55 -3.0 4.4 -3.2 M-11.05 -4.95 Q-10.75 -4.45 -11.05 -3.9 -12.0 -2.35 -13.6 -3.4 L-13.15 -3.9 Q-12.4 -5.05 -11.05 -4.95 M-2.6 -3.8 Q-2.35 -3.8 -2.15 -3.6 L-1.9 -3.25 Q-1.9 -3.0 -2.15 -2.9 -2.35 -2.7 -2.6 -2.7 -3.0 -2.7 -3.15 -2.9 L-3.4 -3.25 -3.15 -3.6 -2.6 -3.8 M-9.15 -4.45 L-8.55 -4.35 -8.2 -3.85 -9.3 -2.8 -10.3 -3.5 -9.15 -4.45 M-6.05 -4.35 L-5.1 -4.1 Q-4.75 -3.85 -4.65 -3.4 -4.75 -3.0 -5.1 -2.7 L-6.05 -2.45 -7.05 -2.7 Q-7.45 -3.0 -7.45 -3.4 -7.45 -3.85 -7.05 -4.1 L-6.05 -4.35" fill="#efe2ba" fill-rule="evenodd" stroke="none"/>
    <path d="M7.05 -7.15 L5.95 -5.8 5.85 -5.8 6.1 -7.2 1.8 -7.85 -1.7 -7.25 -3.45 -6.8 -2.05 -7.6 Q-1.0 -10.8 -1.85 -14.05 -2.75 -17.4 -6.05 -18.05 -8.3 -18.6 -10.15 -17.25 -13.05 -15.25 -13.9 -11.8 L-14.05 -12.7 Q-12.25 -17.35 -7.4 -18.4 -3.7 -19.15 -1.75 -15.85 0.0 -12.85 0.15 -9.05 L7.05 -7.15 M-13.2 -12.9 Q-14.05 -9.7 -11.2 -8.35 -9.6 -7.7 -7.85 -7.55 -9.05 -6.65 -10.5 -6.95 -15.05 -8.35 -13.2 -12.9 M-11.25 -12.55 Q-11.3 -13.85 -9.85 -14.25 -6.15 -15.5 -5.2 -11.85 -4.75 -10.05 -6.15 -9.05 -4.95 -12.1 -8.2 -13.4 -9.9 -14.15 -11.25 -12.55" fill="#6c4517" fill-rule="evenodd" stroke="none"/>
    <path d="M-14.35 -5.95 Q-17.25 -12.35 -12.5 -17.95 -8.05 -23.2 -1.2 -22.95 3.75 -22.15 6.65 -18.35 10.9 -12.85 7.05 -7.15 L0.15 -9.05 Q0.0 -12.85 -1.75 -15.85 -3.7 -19.15 -7.4 -18.4 -12.25 -17.35 -14.05 -12.7 L-13.9 -11.8 -13.95 -9.85 Q-13.95 -7.35 -11.5 -6.5 -7.7 -5.3 -6.15 -9.05 -4.75 -10.05 -5.2 -11.85 -6.15 -15.5 -9.85 -14.25 -11.3 -13.85 -11.25 -12.55 -12.55 -10.95 -11.65 -9.0 L-10.45 -8.65 -9.65 -9.1 -9.4 -9.85 -11.15 -10.45 -9.95 -9.6 -10.45 -9.1 -11.2 -9.05 Q-12.3 -10.9 -10.75 -12.25 L-7.2 -12.35 -6.3 -9.7 -7.85 -7.55 Q-9.6 -7.7 -11.2 -8.35 -14.05 -9.7 -13.2 -12.9 -12.2 -15.4 -9.95 -16.7 -5.8 -19.2 -2.85 -15.6 L-2.65 -14.2 Q-3.55 -16.35 -6.55 -17.1 -8.4 -17.65 -10.05 -16.4 L-10.25 -15.6 Q-3.9 -16.0 -3.5 -9.55 L-2.6 -10.2 -2.35 -11.65 -2.05 -9.1 -4.45 -6.5 -7.55 -6.05 -10.8 -5.25 -14.35 -5.95 M7.65 -11.55 Q9.2 -17.85 3.25 -20.7 -0.6 -22.6 -4.35 -22.55 -5.85 -22.6 -6.5 -21.25 -0.05 -20.0 1.65 -13.8 L2.0 -12.15 7.65 -11.55 M-7.15 -9.4 Q-6.45 -11.6 -8.65 -12.8 L-10.05 -11.7 -8.25 -11.05 -7.5 -9.8 -7.7 -8.5 -7.15 -9.4" fill="#7c571b" fill-rule="evenodd" stroke="none"/>
    <path d="M-13.35 -4.7 L-14.35 -5.95 -10.8 -5.25 -13.35 -4.7" fill="#492f10" fill-rule="evenodd" stroke="none"/>
  </g>
</svg>
