<?xml version="1.0" encoding="UTF-8" standalone="no"?>
<svg xmlns:xlink="http://www.w3.org/1999/xlink" height="25.75px" width="25.75px" xmlns="http://www.w3.org/2000/svg">
  <g transform="matrix(1.0, 0.0, 0.0, 1.0, 13.4, 25.65)">
    <path d="M-12.55 -4.2 Q-14.45 -5.8 -12.1 -10.35 -10.15 -14.2 -6.05 -18.3 -1.95 -22.4 1.9 -24.35 6.4 -26.65 8.05 -24.9 10.3 -23.25 11.6 -21.35 L12.2 -20.45 12.25 -20.1 12.35 -19.0 12.35 -18.8 11.7 -16.45 11.1 -15.15 10.9 -14.75 10.45 -13.9 Q8.5 -10.65 5.05 -7.2 2.5 -4.65 0.05 -2.9 L-1.05 -2.2 -2.05 -1.6 -2.45 -1.4 -2.4 -1.35 -2.9 -1.15 -4.05 -0.6 Q-7.5 0.85 -8.95 -0.6 -10.75 -1.9 -12.5 -4.15 L-12.55 -4.2 M4.9 -18.45 Q1.95 -16.6 -1.2 -13.45 -4.25 -10.4 -6.1 -7.55 -3.05 -9.2 0.15 -12.4 3.25 -15.5 4.9 -18.45" fill="#000000" fill-rule="evenodd" stroke="none"/>
    <path d="M6.15 -16.2 L5.6 -16.85 6.0 -17.55 6.6 -16.95 7.75 -15.2 Q7.45 -14.9 7.25 -15.1 L6.15 -16.2 M7.15 -22.8 Q5.75 -23.3 3.05 -21.9 -0.3 -20.15 -3.9 -16.55 -7.55 -12.9 -9.35 -9.5 -10.75 -6.8 -10.2 -5.45 L-10.75 -5.8 Q-12.0 -7.05 -10.25 -10.4 -8.5 -13.85 -4.85 -17.5 -1.25 -21.1 2.15 -22.8 5.55 -24.6 6.8 -23.35 L7.15 -22.8 M7.55 -24.1 Q9.65 -22.6 10.95 -20.7 L11.3 -20.15 11.35 -20.1 11.45 -19.0 11.1 -17.55 8.6 -21.25 8.05 -22.0 8.0 -22.05 7.95 -22.1 Q8.15 -23.4 7.55 -24.1 M10.85 -16.9 L10.25 -15.7 10.25 -15.6 7.75 -19.2 7.5 -19.55 7.25 -19.9 7.6 -20.65 7.75 -20.5 8.05 -20.2 10.85 -16.9 M10.05 -15.3 L9.6 -14.45 7.35 -17.9 Q7.65 -18.2 8.25 -17.6 L10.05 -15.3 M-0.5 -3.75 L-1.5 -3.15 -3.5 -5.05 -4.25 -6.0 -4.2 -6.45 -3.7 -6.35 -1.55 -4.7 -0.5 -3.75 M-2.4 -2.55 L-2.9 -2.35 -3.25 -2.1 -5.75 -4.6 -6.15 -5.0 -6.55 -5.6 -5.4 -6.25 -4.75 -5.7 -4.7 -5.65 -2.4 -2.55 M-4.35 -1.6 L-8.3 -1.45 Q-10.05 -2.7 -11.7 -4.85 -10.95 -4.1 -9.2 -4.45 L-8.55 -4.7 Q-7.9 -4.95 -7.1 -5.35 L-7.0 -5.25 -6.7 -4.85 -5.1 -2.35 -4.35 -1.6" fill="#ddb000" fill-rule="evenodd" stroke="none"/>
    <path d="M6.15 -16.2 L7.25 -15.1 Q7.45 -14.9 7.75 -15.2 L6.6 -16.95 6.0 -17.55 5.6 -16.85 6.15 -16.2 M7.15 -22.8 L6.8 -23.35 Q5.55 -24.6 2.15 -22.8 -1.25 -21.1 -4.85 -17.5 -8.5 -13.85 -10.25 -10.4 -12.0 -7.05 -10.75 -5.8 L-10.2 -5.45 -8.25 -5.5 Q-7.55 -5.7 -6.55 -6.2 L-6.2 -6.35 Q-2.75 -8.1 0.9 -11.75 4.5 -15.35 6.2 -18.75 L6.35 -19.0 7.05 -20.7 Q7.4 -22.05 7.15 -22.8 M-11.7 -4.85 L-11.75 -4.9 Q-13.05 -6.2 -11.2 -9.95 -9.25 -13.7 -5.25 -17.7 -1.3 -21.65 2.4 -23.55 6.15 -25.4 7.5 -24.15 L7.55 -24.1 Q8.15 -23.4 7.95 -22.1 L8.0 -22.05 8.05 -22.0 8.6 -21.25 11.1 -17.55 11.45 -19.0 Q11.35 -18.1 10.85 -16.9 L8.05 -20.2 7.75 -20.5 7.6 -20.65 7.25 -19.9 7.5 -19.55 7.75 -19.2 10.25 -15.6 10.05 -15.3 8.25 -17.6 Q7.65 -18.2 7.35 -17.9 L9.6 -14.45 Q7.75 -11.3 4.45 -8.0 1.9 -5.45 -0.5 -3.75 L-1.55 -4.7 -3.7 -6.35 -4.2 -6.45 -4.25 -6.0 -3.5 -5.05 -1.5 -3.15 -2.4 -2.55 -4.7 -5.65 -4.75 -5.7 -5.4 -6.25 -6.55 -5.6 -6.15 -5.0 -5.75 -4.6 -3.25 -2.1 -2.9 -2.35 Q-3.05 -2.2 -3.35 -2.1 L-4.35 -1.6 -5.1 -2.35 -6.7 -4.85 -7.0 -5.25 -7.1 -5.35 Q-7.9 -4.95 -8.55 -4.7 L-9.2 -4.45 Q-10.95 -4.1 -11.7 -4.85" fill="#ffcc00" fill-rule="evenodd" stroke="none"/>
    <path d="M-10.2 -5.45 Q-10.75 -6.8 -9.35 -9.5 -7.55 -12.9 -3.9 -16.55 -0.3 -20.15 3.05 -21.9 5.75 -23.3 7.15 -22.8 7.4 -22.05 7.05 -20.7 L5.8 -20.15 Q2.1 -18.25 -1.85 -14.3 -5.85 -10.3 -7.8 -6.55 L-8.25 -5.5 -10.2 -5.45" fill="#a08001" fill-rule="evenodd" stroke="none"/>
    <path d="M3.55 -11.7 Q3.85 -12.0 4.15 -11.7 4.45 -11.4 4.1 -11.05 L3.35 -11.0 Q3.1 -11.25 3.55 -11.7 M1.85 -10.4 L2.2 -9.95 Q2.7 -9.45 3.0 -9.55 L3.1 -9.95 3.45 -9.9 Q3.7 -9.65 3.35 -9.3 3.1 -9.05 1.9 -9.55 L2.55 -8.2 Q2.85 -7.7 2.5 -7.35 1.6 -6.45 1.0 -7.35 0.65 -7.7 0.25 -8.4 L0.1 -8.45 0.1 -6.95 Q0.0 -5.65 -0.5 -5.15 -1.15 -4.5 -2.1 -5.35 L-2.8 -6.65 -3.05 -6.8 -2.35 -4.6 Q-2.65 -4.3 -2.9 -4.85 -2.9 -4.25 -3.05 -4.1 -3.15 -4.0 -3.3 -3.95 L-4.15 -4.0 -4.4 -4.25 -5.2 -3.65 -5.2 -3.45 -5.8 -3.45 -5.6 -3.15 -5.6 -3.05 Q-5.9 -2.75 -6.6 -3.45 L-5.7 -2.45 -5.75 -2.2 -6.55 -2.7 -6.6 -2.65 Q-5.9 -1.95 -5.9 -1.55 L-7.0 -2.25 -7.05 -2.2 Q-6.8 -1.95 -7.0 -1.75 -7.25 -1.5 -7.85 -2.2 -8.45 -2.8 -8.05 -3.2 L-9.0 -4.35 -8.9 -4.55 -8.5 -4.45 -7.95 -3.7 -7.0 -2.75 Q-8.5 -4.45 -8.35 -5.1 L-8.0 -4.75 -7.55 -4.2 -7.15 -3.9 -7.15 -4.2 Q-6.95 -4.4 -6.4 -3.85 L-6.4 -4.15 Q-6.15 -4.2 -5.8 -3.85 L-5.7 -3.85 -5.65 -4.2 Q-5.35 -3.9 -4.95 -4.3 -4.6 -4.65 -4.95 -5.0 L-4.85 -5.2 -4.7 -5.25 -4.3 -4.85 -4.25 -4.6 -3.85 -4.2 -3.5 -4.55 Q-3.45 -4.7 -3.75 -5.1 L-3.4 -5.85 -3.65 -6.4 -3.4 -7.15 -2.45 -7.1 -1.75 -5.7 Q-1.25 -5.2 -0.9 -5.55 -0.65 -5.8 -0.55 -7.2 -0.55 -8.6 -0.05 -9.1 0.2 -9.35 0.45 -9.1 L1.3 -7.75 2.05 -7.7 Q1.05 -10.3 1.25 -10.5 L1.85 -10.4 M5.2 -13.75 L5.0 -13.85 4.95 -13.8 5.5 -11.95 Q6.0 -10.55 5.25 -9.8 4.8 -9.35 4.35 -9.8 L4.05 -10.3 4.2 -10.45 Q4.6 -9.75 4.95 -10.1 5.7 -10.85 4.95 -12.3 4.2 -13.75 4.6 -14.15 L5.5 -14.15 6.0 -13.45 6.45 -13.1 6.5 -13.15 Q5.85 -14.1 6.65 -14.9 6.75 -14.9 6.85 -15.0 6.6 -15.95 6.85 -16.2 L7.4 -16.25 Q7.45 -15.6 7.8 -15.25 L8.5 -14.85 Q8.5 -15.55 7.45 -16.8 6.45 -18.0 6.7 -18.25 6.9 -18.45 7.1 -18.25 L8.1 -16.95 Q8.45 -16.6 9.65 -16.3 L9.75 -16.4 Q7.8 -19.15 8.0 -19.35 L8.35 -19.3 Q8.6 -18.55 9.2 -17.95 L9.85 -17.5 9.15 -19.0 8.25 -20.4 8.75 -20.2 9.75 -18.6 9.95 -18.8 8.3 -21.05 7.55 -21.6 Q7.35 -21.8 7.55 -22.0 7.8 -22.25 8.7 -21.35 L9.55 -20.5 10.0 -20.05 Q8.65 -21.6 8.9 -21.85 L9.55 -21.8 Q10.05 -21.3 11.15 -18.6 L10.85 -18.5 Q11.2 -18.15 10.7 -17.65 10.4 -17.35 10.05 -17.5 L10.05 -17.3 9.7 -17.25 Q10.5 -16.45 10.05 -16.0 9.4 -15.35 8.55 -16.2 9.6 -15.15 8.9 -14.45 8.4 -13.95 7.4 -14.95 L7.35 -15.0 7.0 -14.45 Q6.5 -13.95 6.9 -13.35 7.25 -12.8 6.95 -12.5 6.6 -12.15 5.7 -13.05 L5.2 -13.75 M10.1 -18.85 L10.8 -18.65 10.55 -19.0 9.75 -19.6 9.7 -19.55 9.75 -19.5 10.1 -18.85 M-9.05 -3.7 L-8.1 -2.45 Q-9.1 -2.65 -9.55 -3.1 -10.05 -3.6 -9.75 -4.1 L-9.05 -3.7" fill="#7e5801" fill-rule="evenodd" stroke="none"/>
  </g>
</svg>
