<?xml version="1.0" encoding="UTF-8" standalone="no"?>
<svg xmlns:xlink="http://www.w3.org/1999/xlink" height="60.4px" width="50.05px" xmlns="http://www.w3.org/2000/svg">
  <g transform="matrix(1.0, 0.0, 0.0, 1.0, 22.5, 21.2)">
    <use height="22.2" transform="matrix(1.0, 0.0, 0.0, 1.0, -13.15, -12.25)" width="25.9" xlink:href="#shape0"/>
  </g>
  <defs>
    <g id="shape0" transform="matrix(1.0, 0.0, 0.0, 1.0, 13.15, 12.25)">
      <path d="M8.25 -4.85 L12.75 -3.75 12.5 -3.15 12.25 -2.5 11.9 -2.4 Q2.05 -1.6 -0.75 7.65 L-1.1 8.25 -1.2 3.2 -0.15 1.15 -1.8 0.0 -2.4 -0.8 -3.25 -0.95 -5.1 -2.4 -6.55 -3.75 -6.45 -4.2 -4.85 -3.3 -4.05 -3.45 -5.6 -4.65 -6.35 -4.65 Q-6.05 -5.55 -5.35 -6.25 L-4.4 -7.0 -3.7 -7.4 -2.85 -7.3 -1.9 -7.35 Q-1.2 -7.2 -0.75 -7.35 L7.05 -5.15 7.1 -4.8 9.05 -4.5 8.25 -4.85 M-12.05 -9.95 Q-9.35 -10.05 -7.0 -9.3 L-4.35 -8.45 -5.0 -8.65 -5.6 -8.4 -6.9 -7.35 -9.05 -8.0 -8.1 -7.55 -6.95 -7.25 -7.7 -6.2 -8.7 -5.8 -10.65 -8.0 -9.3 -8.0 -8.6 -8.95 -9.1 -8.9 -9.55 -8.4 -10.75 -8.2 -12.05 -9.95 M5.25 -5.05 Q3.0 -4.15 0.9 -2.7 -0.2 -2.05 -1.1 -1.05 L4.7 -3.95 5.25 -5.05 M-1.3 -5.7 L-1.65 -6.2 -3.05 -6.5 -1.75 -5.2 -0.6 -5.15 -1.3 -5.7 M0.1 -5.35 L-3.85 -3.35 -3.9 -2.9 -5.1 -2.4 -3.9 -2.7 -3.6 -3.15 Q-1.7 -3.9 0.15 -4.9 0.45 -4.9 0.65 -5.15 L0.1 -5.35 M-8.2 -5.25 L-7.65 -5.35 -8.1 -5.25 -8.1 -5.2 -8.2 -5.25" fill="#cc9900" fill-rule="evenodd" stroke="none"/>
      <path d="M-6.15 1.55 L-8.0 -2.0 -7.95 -2.05 -7.95 -2.2 -7.6 -2.1 Q-7.9 -2.15 -8.05 -2.35 L-8.35 -3.2 -8.45 -4.6 -8.45 -5.25 -8.6 -5.25 Q-9.2 -5.45 -8.7 -5.8 L-7.7 -6.2 -6.95 -7.25 -8.1 -7.55 -9.05 -8.0 -6.9 -7.35 -5.6 -8.4 -5.0 -8.65 -4.35 -8.45 -1.55 -7.6 -0.75 -7.35 Q-1.2 -7.2 -1.9 -7.35 L-2.85 -7.3 -3.7 -7.4 -4.4 -7.0 -5.35 -6.25 Q-6.05 -5.55 -6.35 -4.65 L-5.6 -4.65 -4.05 -3.45 -4.85 -3.3 -6.45 -4.2 -6.55 -3.75 -6.85 -4.05 -6.9 -4.05 -6.9 -3.85 -6.9 -3.35 -6.9 -3.25 -6.9 -3.15 -6.9 -2.8 -6.9 -2.65 -6.45 -0.25 -6.45 0.0 Q-5.95 0.85 -6.15 1.55 M7.05 -5.15 L7.05 -5.45 8.25 -4.85 9.05 -4.5 7.1 -4.8 7.05 -5.15 M-10.75 -8.2 L-9.55 -8.4 -9.1 -8.9 -8.6 -8.95 -9.3 -8.0 -10.65 -8.0 -10.75 -8.2 M5.25 -5.05 L4.7 -3.95 -1.1 -1.05 Q-0.2 -2.05 0.9 -2.7 3.0 -4.15 5.25 -5.05 M-3.25 -0.95 L-2.4 -0.8 -1.8 0.0 -2.65 -0.15 -3.25 -0.95 M0.1 -5.35 L0.65 -5.15 Q0.45 -4.9 0.15 -4.9 -1.7 -3.9 -3.6 -3.15 L-3.9 -2.7 -5.1 -2.4 -3.9 -2.9 -3.85 -3.35 0.1 -5.35 M-1.3 -5.7 L-0.6 -5.15 -1.75 -5.2 -3.05 -6.5 -1.65 -6.2 -1.3 -5.7 M-3.45 0.35 L-2.6 0.75 -2.55 1.45 -3.45 0.35 M-8.2 -5.25 L-8.1 -5.2 -8.1 -5.25 -7.65 -5.35 -8.2 -5.25" fill="#ffff99" fill-rule="evenodd" stroke="none"/>
      <path d="M-1.05 9.25 L-1.05 9.3 -3.05 9.95 -4.45 5.7 -6.15 1.55 Q-5.95 0.85 -6.45 0.0 L-6.45 -0.25 -6.9 -2.65 -6.9 -2.8 -6.9 -3.15 -6.9 -3.25 -6.9 -3.35 -6.9 -3.85 -6.9 -4.05 -6.85 -4.05 -6.55 -3.75 -5.1 -2.4 -3.25 -0.95 -2.65 -0.15 -1.8 0.0 -0.15 1.15 -1.2 3.2 -1.1 8.25 -0.75 7.65 -1.05 9.25 M-8.0 -2.0 Q-10.05 -5.75 -12.75 -9.1 L-12.05 -9.95 -10.75 -8.2 -10.65 -8.0 -8.7 -5.8 Q-9.2 -5.45 -8.6 -5.25 L-8.45 -5.25 -8.45 -4.6 -8.35 -3.2 -8.05 -2.35 Q-7.9 -2.15 -7.6 -2.1 L-7.95 -2.2 -7.95 -2.05 -8.0 -2.0 M-3.45 0.35 L-2.55 1.45 -2.6 0.75 -3.45 0.35" fill="#996600" fill-rule="evenodd" stroke="none"/>
      <path d="M12.5 -3.15 Q12.85 -2.55 12.4 -1.3 10.9 2.65 7.55 5.35 4.85 7.5 1.7 8.85 0.2 9.45 -1.05 9.25 L-0.75 7.65 Q2.05 -1.6 11.9 -2.4 L12.25 -2.5 12.5 -3.15" fill="#694201" fill-rule="evenodd" stroke="none"/>
      <path d="M-5.9 -12.15 Q-5.0 -12.0 -4.85 -10.65 L-4.8 -9.7 Q-4.75 -8.35 -5.15 -6.95 L-3.95 -7.45 Q-2.95 -7.7 -2.1 -6.6 L-1.75 -5.85 -1.55 -4.75 -1.55 -4.0 -1.85 -3.0 Q-2.1 -2.4 -2.6 -2.05 -3.1 -1.75 -3.55 -1.4 L-4.15 -1.1 Q-3.55 0.05 -3.25 1.55 L-3.25 2.9 -3.5 3.95 -3.85 4.6 -4.8 4.95 -6.1 4.6 Q-7.25 3.9 -7.8 2.35 L-8.75 3.8 Q-9.3 4.45 -9.9 4.6 L-10.8 4.7 Q-11.35 4.7 -11.75 4.2 -12.2 3.8 -12.3 3.05 L-12.3 1.95 Q-12.05 -0.3 -11.15 -2.05 L-11.65 -2.65 -12.6 -4.2 -13.05 -5.7 -13.15 -6.9 Q-13.1 -7.75 -12.7 -8.3 -12.2 -8.8 -11.55 -8.85 -10.1 -9.05 -9.0 -7.6 L-8.8 -8.65 -8.4 -10.45 Q-8.1 -11.45 -7.4 -11.9 -6.7 -12.45 -5.9 -12.15" fill="#9c3861" fill-rule="evenodd" stroke="none"/>
      <path d="M-5.3 -10.6 L-5.3 -9.65 Q-5.3 -8.25 -5.8 -6.4 L-6.05 -5.45 -6.0 -5.55 Q-4.4 -6.75 -3.7 -6.75 -2.65 -6.75 -2.25 -5.6 L-2.0 -4.4 Q-2.0 -3.3 -3.2 -2.45 -4.05 -1.8 -5.1 -1.65 L-4.55 -0.7 Q-3.7 1.1 -3.7 2.25 -3.7 4.2 -4.8 4.2 -6.95 4.2 -7.75 0.65 L-7.9 1.1 Q-8.85 4.0 -10.8 4.0 -12.0 4.0 -11.95 1.9 -11.35 -1.0 -10.3 -2.25 -11.15 -2.75 -11.85 -3.85 -12.75 -5.35 -12.75 -6.35 -12.75 -8.2 -11.05 -8.2 -10.2 -8.2 -9.0 -6.7 L-8.45 -5.95 -8.5 -7.5 Q-8.2 -11.55 -6.55 -11.55 -5.55 -11.55 -5.3 -10.6 M-6.85 -4.75 Q-5.85 -6.2 -5.65 -8.25 L-5.6 -8.9 -5.75 -9.2 -6.8 -6.05 -6.55 -8.05 Q-6.8 -8.15 -7.1 -8.35 L-6.85 -9.65 -7.1 -9.95 Q-8.05 -8.05 -8.05 -5.7 L-8.2 -5.65 -8.4 -5.6 -8.75 -5.45 Q-9.15 -7.35 -10.4 -7.65 L-10.85 -7.7 -9.7 -5.45 -10.5 -6.35 -10.9 -5.65 -10.85 -5.1 -11.95 -6.85 -12.1 -6.25 Q-11.25 -3.8 -9.55 -3.0 L-9.55 -2.95 -9.5 -2.25 -10.9 0.55 -10.45 0.85 -10.7 1.1 -10.8 1.4 -10.55 1.75 -9.65 1.0 -10.25 2.75 Q-8.95 1.95 -8.2 0.3 L-7.8 -0.7 -7.75 -0.7 -7.2 -1.2 Q-7.4 0.85 -6.3 2.15 L-6.0 2.5 -5.65 2.4 -6.8 -0.5 -5.45 1.9 -5.25 1.4 -6.0 -0.05 -4.55 2.25 -4.4 1.9 Q-4.7 -0.85 -6.3 -2.25 -5.05 -1.85 -4.1 -3.05 L-4.1 -3.4 -4.45 -3.4 -3.75 -3.85 -3.85 -4.45 -4.25 -4.6 -3.25 -5.4 -3.3 -5.9 Q-5.2 -5.95 -6.6 -4.45 L-6.75 -4.25 -6.85 -4.75" fill="#ffccff" fill-rule="evenodd" stroke="none"/>
      <path d="M-8.05 -5.7 Q-8.05 -8.05 -7.1 -9.95 L-6.85 -9.65 -7.1 -8.35 Q-6.8 -8.15 -6.55 -8.05 L-6.8 -6.05 -5.75 -9.2 -5.6 -8.9 -5.65 -8.25 Q-5.85 -6.2 -6.85 -4.75 -6.85 -5.15 -7.2 -5.4 -7.55 -5.7 -8.05 -5.7 M-6.6 -4.45 Q-5.2 -5.95 -3.3 -5.9 L-3.25 -5.4 -4.25 -4.6 -3.85 -4.45 -3.75 -3.85 -4.45 -3.4 -4.1 -3.4 -4.1 -3.05 Q-5.05 -1.85 -6.3 -2.25 -4.7 -0.85 -4.4 1.9 L-4.55 2.25 -6.0 -0.05 -5.25 1.4 -5.45 1.9 -6.8 -0.5 -5.65 2.4 -6.0 2.5 -6.3 2.15 Q-7.4 0.85 -7.2 -1.2 -6.35 -2.45 -6.6 -4.45 M-7.8 -0.7 L-8.2 0.3 Q-8.95 1.95 -10.25 2.75 L-9.65 1.0 -10.55 1.75 -10.8 1.4 -10.7 1.1 -10.45 0.85 -10.9 0.55 -9.5 -2.25 Q-9.5 -1.6 -9.0 -1.15 -8.5 -0.7 -7.8 -0.7 M-9.55 -3.0 Q-11.25 -3.8 -12.1 -6.25 L-11.95 -6.85 -10.85 -5.1 -10.9 -5.65 -10.5 -6.35 -9.7 -5.45 -10.85 -7.7 -10.4 -7.65 Q-9.15 -7.35 -8.75 -5.45 -9.3 -4.7 -9.45 -3.55 L-9.55 -3.0" fill="#ffffff" fill-rule="evenodd" stroke="none"/>
      <path d="M-8.05 -5.7 Q-7.55 -5.7 -7.2 -5.4 -6.85 -5.15 -6.85 -4.75 L-6.75 -4.25 -6.6 -4.45 Q-6.35 -2.45 -7.2 -1.2 L-7.75 -0.7 -7.8 -0.7 Q-8.5 -0.7 -9.0 -1.15 -9.5 -1.6 -9.5 -2.25 L-9.55 -2.95 -9.55 -3.0 -9.45 -3.55 Q-9.3 -4.7 -8.75 -5.45 L-8.4 -5.6 -8.2 -5.65 -8.05 -5.7 M-8.45 -4.15 L-8.6 -4.2 Q-9.0 -4.2 -9.0 -3.55 -9.0 -2.9 -8.6 -2.9 L-8.4 -2.95 -8.1 -2.5 -7.85 -3.0 -8.1 -3.45 -8.15 -3.45 -8.15 -3.6 -8.2 -3.8 -8.05 -3.8 -8.1 -3.65 -7.85 -3.4 -7.65 -3.8 -7.7 -3.9 -7.65 -4.35 -7.7 -4.7 Q-7.8 -4.95 -8.05 -4.95 -8.45 -4.95 -8.45 -4.4 L-8.45 -4.15" fill="#ffcc00" fill-rule="evenodd" stroke="none"/>
      <path d="M-8.45 -4.15 L-8.45 -4.4 Q-8.45 -4.95 -8.05 -4.95 -7.8 -4.95 -7.7 -4.7 L-7.65 -4.35 -7.7 -3.9 -7.65 -3.8 -7.85 -3.4 -8.1 -3.65 -8.05 -3.8 -8.2 -3.8 -8.15 -3.6 -8.15 -3.45 -8.1 -3.45 -7.85 -3.0 -8.1 -2.5 -8.4 -2.95 -8.6 -2.9 Q-9.0 -2.9 -9.0 -3.55 -9.0 -4.2 -8.6 -4.2 L-8.45 -4.15" fill="#ffff00" fill-rule="evenodd" stroke="none"/>
    </g>
  </defs>
</svg>
